// EVENT 4722
Name "Junk Doll Girl 2"

If(0,25,1)
 221()
 PictureClear(5)
 PictureClear(6)
 ShowMessageFace("",0,0,2,0)
 ShowMessage("......")
 242(2)
 Wait(120)
 241(bytes(0x04,0x08,0x6f,0x3a,0x0d,0x52,0x50,0x47,0x3a,0x3a,0x42,0x47,0x4d,0x08,0x3a,0x0a,0x40,0x6e,0x61,0x6d,0x65,0x49,0x22,0x0c,0x63,0x61,0x73,0x74,0x6c,0x65,0x36,0x06,0x3a,0x06,0x45,0x54,0x3a,0x0c,0x40,0x76,0x6f,0x6c,0x75,0x6d,0x65,0x69,0x69,0x3a,0x0b,0x40,0x70,0x69,0x74,0x63,0x68,0x69,0x69))
 EndEventProcessing()
 0()
EndIf()
PictureDisplay(5,"80_junkdoll_st01",0,0,0,0,100,100,255,0)
ShowMessageFace("junkdoll_fc1",0,0,2,1)
ShowMessage("\\n<Francesca>You want to try my vagina...?\nWhat an incredibly selfish request...")
ShowMessageFace("junkdoll_fc1",6,0,2,2)
ShowMessage("\\n<Francesca>Ahaha, you wouldn't even last a minute.\nIf you stuck your dick into big sister's vagina, you'd be done in 10 seconds!")
ShowMessageFace("junkdoll_fc1",5,0,2,3)
ShowMessage("\\n<Francesca>......")
ShowMessageFace("",0,0,2,4)
ShowMessage("\\n<Luka>P-please...")
ShowMessageFace("junkdoll_fc1",0,0,2,5)
ShowMessage("\\n<Francesca>Very well... I'll let you use my genitals.\nShow me the miserable face you'll make...")
PictureDisplay(5,"ev_junkdoll_hb1",0,0,0,0,100,100,0,0)
PictureMove(5,null,0,0,0,0,100,100,255,0,30,true)
241(bytes(0x04,0x08,0x6f,0x3a,0x0d,0x52,0x50,0x47,0x3a,0x3a,0x42,0x47,0x4d,0x08,0x3a,0x0a,0x40,0x6e,0x61,0x6d,0x65,0x49,0x22,0x09,0x65,0x72,0x6f,0x31,0x06,0x3a,0x06,0x45,0x54,0x3a,0x0c,0x40,0x76,0x6f,0x6c,0x75,0x6d,0x65,0x69,0x69,0x3a,0x0b,0x40,0x70,0x69,0x74,0x63,0x68,0x69,0x69))
ShowMessageFace("",0,0,2,6)
ShowMessage("Lowering my pants, I expose myself to them.")
ShowMessage("Spreading herself open, Francesca invites me inside.")
ShowMessageFace("",0,0,2,7)
ShowMessage("\\n<Luka>W-Well then...")
PictureDisplay(5,"ev_junkdoll_hb2",0,0,0,0,100,100,255,0)
ShowMessageFace("",0,0,2,8)
ShowMessage("Filled with anticipation, I try to push myself in...")
ShowMessage("But suddenly, a doll grabs me from the side.")
ShowMessageFace("junkdoll_fc1",5,0,2,9)
ShowMessage("\\n<Francesca>I refuse...\nI can't let a dirty thing like this go inside my big sister...")
ShowMessageFace("",0,0,2,10)
ShowMessage("\\n<Luka>N...no way...")
ShowMessageFace("junkdoll_fc1",5,0,2,11)
ShowMessage("\\n<Francesca>I'll make you come with my hand...\nI won't allow you inside my sister.")
245(bytes(0x04,0x08,0x6f,0x3a,0x0d,0x52,0x50,0x47,0x3a,0x3a,0x42,0x47,0x53,0x08,0x3a,0x0a,0x40,0x6e,0x61,0x6d,0x65,0x49,0x22,0x17,0x6d,0x6f,0x6e,0x5f,0x68,0x73,0x65,0x61,0x6e,0x31,0x37,0x5f,0x73,0x69,0x67,0x6f,0x6b,0x69,0x06,0x3a,0x06,0x45,0x54,0x3a,0x0c,0x40,0x76,0x6f,0x6c,0x75,0x6d,0x65,0x69,0x55,0x3a,0x0b,0x40,0x70,0x69,0x74,0x63,0x68,0x69,0x69))
ShowMessageFace("",0,0,2,12)
ShowMessage("Saying that, the blonde doll starts to stroke me.")
ShowMessage("My waist trembles as she rubs me somewhat aggressively.")
ShowMessageFace("",0,0,2,13)
ShowMessage("\\n<Luka>Ah... Aaah...")
ShowMessageFace("junkdoll_fc1",0,0,2,14)
ShowMessage("\\n<Francesca>Fufu, it's getting interesting.\nIf you can endure my sister's handjob, you may use my vagina...")
ShowMessageFace("junkdoll_fc1",6,0,2,15)
ShowMessage("\\n<Francesca>Ahaha, if you want to stick it in, be patient and endure it...♪")
ShowMessageFace("junkdoll_fc1",5,0,2,16)
ShowMessage("\\n<Francesca>If you want to come, just go ahead ok...?\nI'll make you come fast with my hand...")
ShowMessageFace("",0,0,2,17)
ShowMessage("It's a businesslike handjob...")
ShowMessage("Stroking me up and down, she's trying her hardest to make me come.")
ShowMessageFace("",0,0,2,18)
ShowMessage("Her slightly stiff hand squeezes my penis.")
ShowMessage("The unique stimulus makes me raise my voice.")
ShowMessageFace("",0,0,2,19)
ShowMessage("\\n<Luka>Ah, Ooooh...!")
ShowMessageFace("junkdoll_fc1",5,0,2,20)
ShowMessage("\\n<Francesca>He's feeling it...")
ShowMessageFace("",0,0,2,21)
ShowMessage("Frowning at me, the blonde doll continues stroking.")
ShowMessage("Her fingers catch around the neck of my penis.")
ShowMessageFace("",0,0,2,22)
ShowMessage("At the same time, her stiff palm presses against my shaft.")
ShowMessage("My hips buck in pleasure as her handjob continues.")
ShowMessageFace("",0,0,2,23)
ShowMessage("\\n<Luka>N-noooo... I'm going to come...")
ShowMessageFace("junkdoll_fc1",0,0,2,24)
ShowMessage("\\n<Francesca>How pathetic, I thought you wanted to stick it inside me?\nI guess you didn't deserve it after all. It's better for you to finish in my sister's hand.")
ShowMessageFace("junkdoll_fc1",6,0,2,25)
ShowMessage("\\n<Francesca>Ahahaha, instead of getting to go inside, he'll just come in her hand~♪\nToo bad~♪")
ShowMessageFace("junkdoll_fc1",5,0,2,26)
ShowMessage("\\n<Francesca>Hora, hurry and come...")
ShowMessageFace("",0,0,2,27)
ShowMessage("Oozing scorn and disgust, the blond doll forces me to the edge with her handjob.")
ShowMessage("My penis is relentlessly stroked with her artificial hand.")
ShowMessageFace("junkdoll_fc1",5,0,2,28)
ShowMessage("\\n<Francesca>Hurry up and come, this feels disgusting.")
ShowMessageFace("",0,0,2,29)
ShowMessage("\\n<Luka>Ah, coming...!")
246(2)
RunCommonEvent(104)
PictureDisplay(5,"ev_junkdoll_hb3",0,0,0,0,100,100,255,0)
RunCommonEvent(105)
ShowMessageFace("",0,0,2,30)
ShowMessage("At last, I come in the blond doll's hands.")
ShowMessage("My semen shoots out, scattering all over the red-haired doll's body.")
ShowMessageFace("",0,0,2,31)
ShowMessage("\\n<Luka>Nnngh...")
ShowMessageFace("junkdoll_fc1",5,0,2,32)
ShowMessage("\\n<Francesca>Sister, I'm so sorry...\nThe dirty stuff is all over you...")
ShowMessageFace("junkdoll_fc1",0,0,2,33)
ShowMessage("\\n<Francesca>Ahaha, truly miserable.\nThat sperm who wanted to be inside so badly...")
ShowMessageFace("junkdoll_fc1",6,0,2,34)
ShowMessage("\\n<Francesca>Unable to endure, he just came everywhere~♪\nTooo baaaad~♪")
ShowMessageFace("",0,0,2,35)
ShowMessage("The dolls all ridicule me as they look at me in disgust.")
ShowMessage("Tasting humiliation, I feel weak...")
221()
PictureClear(5)
PictureClear(6)
ShowMessageFace("",0,0,2,36)
ShowMessage("......")
242(2)
Wait(120)
241(bytes(0x04,0x08,0x6f,0x3a,0x0d,0x52,0x50,0x47,0x3a,0x3a,0x42,0x47,0x4d,0x08,0x3a,0x0a,0x40,0x6e,0x61,0x6d,0x65,0x49,0x22,0x0c,0x63,0x61,0x73,0x74,0x6c,0x65,0x36,0x06,0x3a,0x06,0x45,0x54,0x3a,0x0c,0x40,0x76,0x6f,0x6c,0x75,0x6d,0x65,0x69,0x69,0x3a,0x0b,0x40,0x70,0x69,0x74,0x63,0x68,0x69,0x69))
0()
