﻿// EVENT 0810
Name "職業武器"

ChangeVariable(11,11,0,2,1,96)
If(1,11,0,1,0)
 ChangeInventoryWeapon(2751,0,0,1,false)
 EndEventProcessing()
 0()
EndIf()
If(1,11,0,2,0)
 ChangeInventoryWeapon(2752,0,0,1,false)
 EndEventProcessing()
 0()
EndIf()
If(1,11,0,3,0)
 ChangeInventoryWeapon(2753,0,0,1,false)
 EndEventProcessing()
 0()
EndIf()
If(1,11,0,4,0)
 ChangeInventoryWeapon(2754,0,0,1,false)
 EndEventProcessing()
 0()
EndIf()
If(1,11,0,5,0)
 ChangeInventoryWeapon(2755,0,0,1,false)
 EndEventProcessing()
 0()
EndIf()
If(1,11,0,6,0)
 ChangeInventoryWeapon(2756,0,0,1,false)
 EndEventProcessing()
 0()
EndIf()
If(1,11,0,7,0)
 ChangeInventoryWeapon(2761,0,0,1,false)
 EndEventProcessing()
 0()
EndIf()
If(1,11,0,8,0)
 ChangeInventoryWeapon(2762,0,0,1,false)
 EndEventProcessing()
 0()
EndIf()
If(1,11,0,9,0)
 ChangeInventoryWeapon(2763,0,0,1,false)
 EndEventProcessing()
 0()
EndIf()
If(1,11,0,10,0)
 ChangeInventoryWeapon(2764,0,0,1,false)
 EndEventProcessing()
 0()
EndIf()
If(1,11,0,11,0)
 ChangeInventoryWeapon(2765,0,0,1,false)
 EndEventProcessing()
 0()
EndIf()
If(1,11,0,12,0)
 ChangeInventoryWeapon(2766,0,0,1,false)
 EndEventProcessing()
 0()
EndIf()
If(1,11,0,13,0)
 ChangeInventoryWeapon(3051,0,0,1,false)
 EndEventProcessing()
 0()
EndIf()
If(1,11,0,14,0)
 ChangeInventoryWeapon(3052,0,0,1,false)
 EndEventProcessing()
 0()
EndIf()
If(1,11,0,15,0)
 ChangeInventoryWeapon(3053,0,0,1,false)
 EndEventProcessing()
 0()
EndIf()
If(1,11,0,16,0)
 ChangeInventoryWeapon(3054,0,0,1,false)
 EndEventProcessing()
 0()
EndIf()
If(1,11,0,17,0)
 ChangeInventoryWeapon(3055,0,0,1,false)
 EndEventProcessing()
 0()
EndIf()
If(1,11,0,18,0)
 ChangeInventoryWeapon(3056,0,0,1,false)
 EndEventProcessing()
 0()
EndIf()
If(1,11,0,19,0)
 ChangeInventoryWeapon(3061,0,0,1,false)
 EndEventProcessing()
 0()
EndIf()
If(1,11,0,20,0)
 ChangeInventoryWeapon(3062,0,0,1,false)
 EndEventProcessing()
 0()
EndIf()
If(1,11,0,21,0)
 ChangeInventoryWeapon(3063,0,0,1,false)
 EndEventProcessing()
 0()
EndIf()
If(1,11,0,22,0)
 ChangeInventoryWeapon(3064,0,0,1,false)
 EndEventProcessing()
 0()
EndIf()
If(1,11,0,23,0)
 ChangeInventoryWeapon(3065,0,0,1,false)
 EndEventProcessing()
 0()
EndIf()
If(1,11,0,24,0)
 ChangeInventoryWeapon(3066,0,0,1,false)
 EndEventProcessing()
 0()
EndIf()
If(1,11,0,25,0)
 ChangeInventoryWeapon(3151,0,0,1,false)
 EndEventProcessing()
 0()
EndIf()
If(1,11,0,26,0)
 ChangeInventoryWeapon(3152,0,0,1,false)
 EndEventProcessing()
 0()
EndIf()
If(1,11,0,27,0)
 ChangeInventoryWeapon(3153,0,0,1,false)
 EndEventProcessing()
 0()
EndIf()
If(1,11,0,28,0)
 ChangeInventoryWeapon(3154,0,0,1,false)
 EndEventProcessing()
 0()
EndIf()
If(1,11,0,29,0)
 ChangeInventoryWeapon(3155,0,0,1,false)
 EndEventProcessing()
 0()
EndIf()
If(1,11,0,30,0)
 ChangeInventoryWeapon(3156,0,0,1,false)
 EndEventProcessing()
 0()
EndIf()
If(1,11,0,31,0)
 ChangeInventoryWeapon(3161,0,0,1,false)
 EndEventProcessing()
 0()
EndIf()
If(1,11,0,32,0)
 ChangeInventoryWeapon(3162,0,0,1,false)
 EndEventProcessing()
 0()
EndIf()
If(1,11,0,33,0)
 ChangeInventoryWeapon(3163,0,0,1,false)
 EndEventProcessing()
 0()
EndIf()
If(1,11,0,34,0)
 ChangeInventoryWeapon(3164,0,0,1,false)
 EndEventProcessing()
 0()
EndIf()
If(1,11,0,35,0)
 ChangeInventoryWeapon(3165,0,0,1,false)
 EndEventProcessing()
 0()
EndIf()
If(1,11,0,36,0)
 ChangeInventoryWeapon(3166,0,0,1,false)
 EndEventProcessing()
 0()
EndIf()
If(1,11,0,37,0)
 ChangeInventoryWeapon(3251,0,0,1,false)
 EndEventProcessing()
 0()
EndIf()
If(1,11,0,38,0)
 ChangeInventoryWeapon(3252,0,0,1,false)
 EndEventProcessing()
 0()
EndIf()
If(1,11,0,39,0)
 ChangeInventoryWeapon(3253,0,0,1,false)
 EndEventProcessing()
 0()
EndIf()
If(1,11,0,40,0)
 ChangeInventoryWeapon(3254,0,0,1,false)
 EndEventProcessing()
 0()
EndIf()
If(1,11,0,41,0)
 ChangeInventoryWeapon(3255,0,0,1,false)
 EndEventProcessing()
 0()
EndIf()
If(1,11,0,42,0)
 ChangeInventoryWeapon(3256,0,0,1,false)
 EndEventProcessing()
 0()
EndIf()
If(1,11,0,43,0)
 ChangeInventoryWeapon(3261,0,0,1,false)
 EndEventProcessing()
 0()
EndIf()
If(1,11,0,44,0)
 ChangeInventoryWeapon(3262,0,0,1,false)
 EndEventProcessing()
 0()
EndIf()
If(1,11,0,45,0)
 ChangeInventoryWeapon(3263,0,0,1,false)
 EndEventProcessing()
 0()
EndIf()
If(1,11,0,46,0)
 ChangeInventoryWeapon(3264,0,0,1,false)
 EndEventProcessing()
 0()
EndIf()
If(1,11,0,47,0)
 ChangeInventoryWeapon(3265,0,0,1,false)
 EndEventProcessing()
 0()
EndIf()
If(1,11,0,48,0)
 ChangeInventoryWeapon(3266,0,0,1,false)
 EndEventProcessing()
 0()
EndIf()
If(1,11,0,49,0)
 ChangeInventoryWeapon(3351,0,0,1,false)
 EndEventProcessing()
 0()
EndIf()
If(1,11,0,50,0)
 ChangeInventoryWeapon(3352,0,0,1,false)
 EndEventProcessing()
 0()
EndIf()
If(1,11,0,51,0)
 ChangeInventoryWeapon(3353,0,0,1,false)
 EndEventProcessing()
 0()
EndIf()
If(1,11,0,52,0)
 ChangeInventoryWeapon(3354,0,0,1,false)
 EndEventProcessing()
 0()
EndIf()
If(1,11,0,53,0)
 ChangeInventoryWeapon(3355,0,0,1,false)
 EndEventProcessing()
 0()
EndIf()
If(1,11,0,54,0)
 ChangeInventoryWeapon(3356,0,0,1,false)
 EndEventProcessing()
 0()
EndIf()
If(1,11,0,55,0)
 ChangeInventoryWeapon(3361,0,0,1,false)
 EndEventProcessing()
 0()
EndIf()
If(1,11,0,56,0)
 ChangeInventoryWeapon(3362,0,0,1,false)
 EndEventProcessing()
 0()
EndIf()
If(1,11,0,57,0)
 ChangeInventoryWeapon(3363,0,0,1,false)
 EndEventProcessing()
 0()
EndIf()
If(1,11,0,58,0)
 ChangeInventoryWeapon(3364,0,0,1,false)
 EndEventProcessing()
 0()
EndIf()
If(1,11,0,59,0)
 ChangeInventoryWeapon(3365,0,0,1,false)
 EndEventProcessing()
 0()
EndIf()
If(1,11,0,60,0)
 ChangeInventoryWeapon(3366,0,0,1,false)
 EndEventProcessing()
 0()
EndIf()
If(1,11,0,61,0)
 ChangeInventoryWeapon(3451,0,0,1,false)
 EndEventProcessing()
 0()
EndIf()
If(1,11,0,62,0)
 ChangeInventoryWeapon(3452,0,0,1,false)
 EndEventProcessing()
 0()
EndIf()
If(1,11,0,63,0)
 ChangeInventoryWeapon(3453,0,0,1,false)
 EndEventProcessing()
 0()
EndIf()
If(1,11,0,64,0)
 ChangeInventoryWeapon(3454,0,0,1,false)
 EndEventProcessing()
 0()
EndIf()
If(1,11,0,65,0)
 ChangeInventoryWeapon(3455,0,0,1,false)
 EndEventProcessing()
 0()
EndIf()
If(1,11,0,66,0)
 ChangeInventoryWeapon(3456,0,0,1,false)
 EndEventProcessing()
 0()
EndIf()
If(1,11,0,67,0)
 ChangeInventoryWeapon(3461,0,0,1,false)
 EndEventProcessing()
 0()
EndIf()
If(1,11,0,68,0)
 ChangeInventoryWeapon(3462,0,0,1,false)
 EndEventProcessing()
 0()
EndIf()
If(1,11,0,69,0)
 ChangeInventoryWeapon(3463,0,0,1,false)
 EndEventProcessing()
 0()
EndIf()
If(1,11,0,70,0)
 ChangeInventoryWeapon(3464,0,0,1,false)
 EndEventProcessing()
 0()
EndIf()
If(1,11,0,71,0)
 ChangeInventoryWeapon(3465,0,0,1,false)
 EndEventProcessing()
 0()
EndIf()
If(1,11,0,72,0)
 ChangeInventoryWeapon(3466,0,0,1,false)
 EndEventProcessing()
 0()
EndIf()
If(1,11,0,73,0)
 ChangeInventoryWeapon(3551,0,0,1,false)
 EndEventProcessing()
 0()
EndIf()
If(1,11,0,74,0)
 ChangeInventoryWeapon(3552,0,0,1,false)
 EndEventProcessing()
 0()
EndIf()
If(1,11,0,75,0)
 ChangeInventoryWeapon(3553,0,0,1,false)
 EndEventProcessing()
 0()
EndIf()
If(1,11,0,76,0)
 ChangeInventoryWeapon(3554,0,0,1,false)
 EndEventProcessing()
 0()
EndIf()
If(1,11,0,77,0)
 ChangeInventoryWeapon(3555,0,0,1,false)
 EndEventProcessing()
 0()
EndIf()
If(1,11,0,78,0)
 ChangeInventoryWeapon(3556,0,0,1,false)
 EndEventProcessing()
 0()
EndIf()
If(1,11,0,79,0)
 ChangeInventoryWeapon(3561,0,0,1,false)
 EndEventProcessing()
 0()
EndIf()
If(1,11,0,80,0)
 ChangeInventoryWeapon(3562,0,0,1,false)
 EndEventProcessing()
 0()
EndIf()
If(1,11,0,81,0)
 ChangeInventoryWeapon(3563,0,0,1,false)
 EndEventProcessing()
 0()
EndIf()
If(1,11,0,82,0)
 ChangeInventoryWeapon(3564,0,0,1,false)
 EndEventProcessing()
 0()
EndIf()
If(1,11,0,83,0)
 ChangeInventoryWeapon(3565,0,0,1,false)
 EndEventProcessing()
 0()
EndIf()
If(1,11,0,84,0)
 ChangeInventoryWeapon(3566,0,0,1,false)
 EndEventProcessing()
 0()
EndIf()
If(1,11,0,85,0)
 ChangeInventoryWeapon(3851,0,0,1,false)
 EndEventProcessing()
 0()
EndIf()
If(1,11,0,86,0)
 ChangeInventoryWeapon(3852,0,0,1,false)
 EndEventProcessing()
 0()
EndIf()
If(1,11,0,87,0)
 ChangeInventoryWeapon(3853,0,0,1,false)
 EndEventProcessing()
 0()
EndIf()
If(1,11,0,88,0)
 ChangeInventoryWeapon(3854,0,0,1,false)
 EndEventProcessing()
 0()
EndIf()
If(1,11,0,89,0)
 ChangeInventoryWeapon(3855,0,0,1,false)
 EndEventProcessing()
 0()
EndIf()
If(1,11,0,90,0)
 ChangeInventoryWeapon(3856,0,0,1,false)
 EndEventProcessing()
 0()
EndIf()
If(1,11,0,91,0)
 ChangeInventoryWeapon(3861,0,0,1,false)
 EndEventProcessing()
 0()
EndIf()
If(1,11,0,92,0)
 ChangeInventoryWeapon(3862,0,0,1,false)
 EndEventProcessing()
 0()
EndIf()
If(1,11,0,93,0)
 ChangeInventoryWeapon(3863,0,0,1,false)
 EndEventProcessing()
 0()
EndIf()
If(1,11,0,94,0)
 ChangeInventoryWeapon(3864,0,0,1,false)
 EndEventProcessing()
 0()
EndIf()
If(1,11,0,95,0)
 ChangeInventoryWeapon(3865,0,0,1,false)
 EndEventProcessing()
 0()
EndIf()
If(1,11,0,96,0)
 ChangeInventoryWeapon(3866,0,0,1,false)
 EndEventProcessing()
 0()
EndIf()
0()
