// EVENT 4403
Name "Sister Lamia 3"

If(0,25,1)
 221()
 PictureClear(5)
 PictureClear(6)
 ShowMessageFace("",0,0,2,0)
 ShowMessage("......")
 242(2)
 Wait(120)
 241(bytes(0x04,0x08,0x6f,0x3a,0x0d,0x52,0x50,0x47,0x3a,0x3a,0x42,0x47,0x4d,0x08,0x3a,0x0a,0x40,0x6e,0x61,0x6d,0x65,0x49,0x22,0x0c,0x63,0x61,0x73,0x74,0x6c,0x65,0x36,0x06,0x3a,0x06,0x45,0x54,0x3a,0x0c,0x40,0x76,0x6f,0x6c,0x75,0x6d,0x65,0x69,0x69,0x3a,0x0b,0x40,0x70,0x69,0x74,0x63,0x68,0x69,0x69))
 EndEventProcessing()
 0()
EndIf()
PictureDisplay(5,"80_sisterlamia_st01",0,0,0,0,100,100,255,0)
ShowMessageFace("sisterlamia_fc1",0,0,2,1)
ShowMessage("\\n<Sofia>You want to be embraced by me...?\nWhat a sinful desire you have...")
ShowMessageFace("",0,0,2,2)
ShowMessage("\\n<Luka>P-please...")
ShowMessageFace("sisterlamia_fc1",1,0,2,3)
ShowMessage("\\n<Sofia>...Very well.\nPlease come to my room...")
ShowMessageFace("",0,0,2,4)
ShowMessage("I follow Sofia to her room...")
221()
PictureDisplay(1,"bg195",0,0,0,0,100,100,255,0)
PictureDisplay(5,"80_sisterlamia_st02",0,0,0,0,100,100,255,0)
222()
241(bytes(0x04,0x08,0x6f,0x3a,0x0d,0x52,0x50,0x47,0x3a,0x3a,0x42,0x47,0x4d,0x08,0x3a,0x0a,0x40,0x6e,0x61,0x6d,0x65,0x49,0x22,0x09,0x65,0x72,0x6f,0x31,0x06,0x3a,0x06,0x45,0x54,0x3a,0x0c,0x40,0x76,0x6f,0x6c,0x75,0x6d,0x65,0x69,0x69,0x3a,0x0b,0x40,0x70,0x69,0x74,0x63,0x68,0x69,0x69))
ShowMessageFace("sisterlamia_fc1",1,0,2,5)
ShowMessage("\\n<Sofia>Now I shall coil around you.")
ShowMessageFace("",0,0,2,6)
ShowMessage("Sofia slowly winds around me with her snake body...")
ShowMessage("It's just like I was some small prey about to be devoured by a snake.")
250(bytes(0x04,0x08,0x6f,0x3a,0x0c,0x52,0x50,0x47,0x3a,0x3a,0x53,0x45,0x08,0x3a,0x0a,0x40,0x6e,0x61,0x6d,0x65,0x49,0x22,0x16,0x6d,0x6f,0x6e,0x5f,0x65,0x72,0x6f,0x5f,0x6d,0x61,0x6b,0x69,0x74,0x75,0x6b,0x69,0x33,0x06,0x3a,0x06,0x45,0x54,0x3a,0x0b,0x40,0x70,0x69,0x74,0x63,0x68,0x69,0x69,0x3a,0x0c,0x40,0x76,0x6f,0x6c,0x75,0x6d,0x65,0x69,0x69))
PictureDisplay(5,"ev_sisterlamia_h1",0,0,0,0,100,100,255,0)
ShowMessageFace("",0,0,2,7)
ShowMessage("She presses my face between her large breasts.")
ShowMessage("Like that, I'm left completely bound in her embrace.")
ShowMessageFace("",0,0,2,8)
ShowMessage("\\n<Luka>Ahhg... Uhh...")
ShowMessageFace("sisterlamia_fc1",1,0,2,9)
ShowMessage("\\n<Sofia>Hehe... I've completely coiled around you.\nAnd it looks like your body is already looking forward to the pleasure.")
ShowMessageFace("",0,0,2,10)
ShowMessage("Sofia softly mumbles that to herself, as my penis pokes against her stomach in this helpless state.")
ShowMessageFace("",0,0,2,11)
ShowMessage("A feeling of pressure fills every inch of my body...")
ShowMessage("Stuck in her tight embrace, it almost feels reassuring.")
ShowMessageFace("",0,0,2,12)
ShowMessage("Trapped inside a Lamia's coiling, I'm no more than helpless prey...")
ShowMessageFace("",0,0,2,13)
ShowMessage("\\n<Luka>Nnngh...")
ShowMessageFace("sisterlamia_fc1",1,0,2,14)
ShowMessage("\\n<Sofia>Breaking the taboo against desiring monsters is reason enough to be put to death.\nHowever, not all agree with those beliefs.")
ShowMessageFace("sisterlamia_fc1",1,0,2,15)
ShowMessage("\\n<Sofia>By all rights, a monster's vagina is for squeezing a man to death.\nBut I'll use it just to give pleasure.")
ShowMessageFace("",0,0,2,16)
ShowMessage("\\n<Luka>Ah, aaah...")
ShowMessageFace("",0,0,2,17)
ShowMessage("My body relaxes in Sofia's embrace.")
ShowMessage("But in response, she just squeezes me even tighter.")
ShowMessageFace("",0,0,2,18)
ShowMessage("At the same time, she presses my face even harder into her breasts.")
ShowMessage("Pushed hard into her soft chest, I'm almost choking on her breasts.")
ShowMessageFace("",0,0,2,19)
ShowMessage("\\n<Luka>Nnn... Mmmgg!")
ShowMessageFace("sisterlamia_fc1",1,0,2,20)
ShowMessage("\\n<Sofia>Aren't you happy?\nWithout any consequences, you can accept my embrace.")
ShowMessageFace("",0,0,2,21)
ShowMessage("\\n<Luka>Ah...")
ShowMessageFace("",0,0,2,22)
ShowMessage("With my face pressed into her breasts, I can't see anything that's going on.")
ShowMessage("As I feebly struggle, I suddenly feel something wrap around my penis.")
245(bytes(0x04,0x08,0x6f,0x3a,0x0d,0x52,0x50,0x47,0x3a,0x3a,0x42,0x47,0x53,0x08,0x3a,0x0a,0x40,0x6e,0x61,0x6d,0x65,0x49,0x22,0x1e,0x6d,0x6f,0x6e,0x5f,0x68,0x73,0x65,0x61,0x6e,0x30,0x35,0x5f,0x69,0x6e,0x6e,0x65,0x72,0x77,0x6f,0x72,0x6b,0x73,0x5f,0x61,0x35,0x06,0x3a,0x06,0x45,0x54,0x3a,0x0c,0x40,0x76,0x6f,0x6c,0x75,0x6d,0x65,0x69,0x55,0x3a,0x0b,0x40,0x70,0x69,0x74,0x63,0x68,0x69,0x69))
PictureDisplay(6,"ev_sisterlamia_ct01",0,0,0,0,100,100,255,0)
ShowMessageFace("",0,0,2,23)
ShowMessage("Something wet and tight suddenly surrounds my penis.")
ShowMessageFace("",0,0,2,24)
ShowMessage("\\n<Luka>Ahh...! W...What is this!?")
ShowMessageFace("sisterlamia_fc1",1,0,2,25)
ShowMessage("\\n<Sofia>I took in your penis...\nI'll have you taste its pleasure...")
ShowMessageFace("",0,0,2,26)
ShowMessage("\\n<Luka>Hyaaa!")
ShowMessageFace("",0,0,2,27)
ShowMessage("With some wet noises sounding out, my penis slowly sinks into her vagina.")
ShowMessageFace("",0,0,2,28)
ShowMessage("Despite being unable to see it, it's like another snake is coiling around my penis, like she is around my body...")
ShowMessageFace("",0,0,2,29)
ShowMessage("I slowly sink into her, as her wet flesh slowly squeezes down harder on my penis.")
ShowMessageFace("",0,0,2,30)
ShowMessage("It's like a large mouth opened up and is swallowing my penis...")
ShowMessageFace("",0,0,2,31)
ShowMessage("Unable to see it, I just writhe in her embrace as the sensations wash over me.")
ShowMessageFace("",0,0,2,32)
ShowMessage("\\n<Luka>Ahh...!")
ShowMessageFace("",0,0,2,33)
ShowMessage("It feels like I'm all the way inside her... Her warm flesh is around my penis from the tip to root.")
ShowMessageFace("sisterlamia_fc1",1,0,2,34)
ShowMessage("\\n<Sofia>Fufu, you're being violated.\nFor the sole purpose of pleasing a man, not for raping and killing...")
ShowMessageFace("",0,0,2,35)
ShowMessage("\\n<Luka>Ah, aaaah...!!")
ShowMessageFace("",0,0,2,36)
ShowMessage("Suddenly, her vaginal walls start to squirm and wriggle against my penis.")
ShowMessage("The stimulation rubs against my penis as she squeezes down at the same time.")
ShowMessageFace("",0,0,2,37)
ShowMessage("Using her powerful muscles, she makes waves of pressure roll up my penis from the base to the tip.")
ShowMessageFace("",0,0,2,38)
ShowMessage("At the same time, she squeezes just the tip of my penis deep inside her.")
ShowMessageFace("",0,0,2,39)
ShowMessage("It felt just like a snake playing with its prey before it devoured it...")
ShowMessageFace("",0,0,2,40)
ShowMessage("\\n<Luka>Ah... Hyaa!")
ShowMessageFace("",0,0,2,41)
ShowMessage("The intense pleasure makes my body go slack as I stop struggling, relaxing in her sweet embrace.")
ShowMessageFace("sisterlamia_fc1",1,0,2,42)
ShowMessage("\\n<Sofia>Yes, just leave yourself to my embrace.\nI'll give the greatest pleasure imaginable...")
ShowMessageFace("",0,0,2,43)
ShowMessage("\\n<Luka>Hyaa... That feels so good...")
ShowMessageFace("",0,0,2,44)
ShowMessage("I hear a strange wet sound coming from where my penis is stuck in her vagina.")
ShowMessageFace("",0,0,2,45)
ShowMessage("Feeling and hearing what's going on, but unable to see it, increases the sense of pleasure, bringing me close to my limit.")
ShowMessageFace("",0,0,2,46)
ShowMessage("\\n<Luka>Stop... Let me go...\nAhh... I'm going to come...")
ShowMessageFace("sisterlamia_fc1",1,0,2,47)
ShowMessage("\\n<Sofia>Good, just let it out...\nI won't let you resist it, so just give in...")
ShowMessageFace("",0,0,2,48)
ShowMessage("\\n<Luka>Ahhh!!")
ShowMessageFace("",0,0,2,49)
ShowMessage("The waves of squeezing inside her vagina suddenly get even faster.")
ShowMessageFace("",0,0,2,50)
ShowMessage("As if encouraging me to an orgasm, she also squeezes down on the tip of my penis at the same time.")
ShowMessageFace("sisterlamia_fc1",1,0,2,51)
ShowMessage("\\n<Sofia>Now, please...")
ShowMessageFace("",0,0,2,52)
ShowMessage("\\n<Luka>Ah... Ahhh!!")
RunCommonEvent(104)
PictureDisplay(5,"ev_sisterlamia_h2",0,0,0,0,100,100,255,0)
PictureDisplay(6,"ev_sisterlamia_ct02",0,0,0,0,100,100,255,0)
RunCommonEvent(105)
ShowMessageFace("",0,0,2,53)
ShowMessage("Overwhelmed by the waves of pressure in Sofia's vagina, I reach a climax.")
ShowMessageFace("",0,0,2,54)
ShowMessage("Still held in her tight embrace, my semen explodes into her.")
ShowMessageFace("",0,0,2,55)
ShowMessage("\\n<Luka>Ah...")
ShowMessageFace("",0,0,2,56)
ShowMessage("At the same time as my ejaculation, I feel a lightness spread to my limbs.")
ShowMessage("Instead of pain, it feels more like a sweet ache...")
ShowMessageFace("",0,0,2,57)
ShowMessage("It's clear to me that my own life energy was sucked up along with my ejaculation.")
ShowMessageFace("",0,0,2,58)
ShowMessage("\\n<Luka>Ah... Let go...")
ShowMessageFace("sisterlamia_fc1",1,0,2,59)
ShowMessage("\\n<Sofia>Ara? Did you weaken a bit?\nThat's no good, I only milked a little bit.")
ShowMessageFace("sisterlamia_fc1",1,0,2,60)
ShowMessage("\\n<Sofia>I'll have to be careful on the next one... Fufufu.")
ShowMessageFace("",0,0,2,61)
ShowMessage("\\n<Luka>Ahhh...!")
245(bytes(0x04,0x08,0x6f,0x3a,0x0d,0x52,0x50,0x47,0x3a,0x3a,0x42,0x47,0x53,0x08,0x3a,0x0a,0x40,0x6e,0x61,0x6d,0x65,0x49,0x22,0x1e,0x6d,0x6f,0x6e,0x5f,0x68,0x73,0x65,0x61,0x6e,0x30,0x38,0x5f,0x69,0x6e,0x6e,0x65,0x72,0x77,0x6f,0x72,0x6b,0x73,0x5f,0x61,0x38,0x06,0x3a,0x06,0x45,0x54,0x3a,0x0c,0x40,0x76,0x6f,0x6c,0x75,0x6d,0x65,0x69,0x55,0x3a,0x0b,0x40,0x70,0x69,0x74,0x63,0x68,0x69,0x69))
ShowMessageFace("",0,0,2,62)
ShowMessage("As if emphasizing her words, her vagina suddenly tightens much more around me.")
ShowMessageFace("",0,0,2,63)
ShowMessage("Starting from my root and slowly moving like a wave to my tip,")
ShowMessage("the tightness squeezes out every drop of semen that was still in me into her.")
ShowMessageFace("",0,0,2,64)
ShowMessage("Continuing that movement again, she's already working towards my next orgasm...")
ShowMessageFace("",0,0,2,65)
ShowMessage("\\n<Luka>Ah...! Ahh!")
ShowMessageFace("sisterlamia_fc1",1,0,2,66)
ShowMessage("\\n<Sofia>Is it heartbreaking? But it should also feel good.")
ShowMessageFace("sisterlamia_fc1",1,0,2,67)
ShowMessage("\\n<Sofia>I'll hold you in my embrace until I'm satisfied.\nJust relax and allow yourself to climax in comfort.")
ShowMessageFace("",0,0,2,68)
ShowMessage("From her words and caring embrace, I can feel her love leaking through...")
ShowMessage("But at the same time, the sensation of being prey doesn't vanish.")
ShowMessageFace("",0,0,2,69)
ShowMessage("She's using her tight vagina to squeeze out my life itself.")
ShowMessageFace("",0,0,2,70)
ShowMessage("\\n<Luka>Hyaa! Ah...!")
ShowMessageFace("",0,0,2,71)
ShowMessage("My body goes rigid with spasms as the pleasure takes over my lower body.")
ShowMessage("Through it all, Sofia keeps me in her loving embrace.")
ShowMessageFace("",0,0,2,72)
ShowMessage("All the while, her waves of pressure up and down my penis continue on, forcing the full amounts of pleasure she can into my body.")
ShowMessageFace("sisterlamia_fc1",1,0,2,73)
ShowMessage("\\n<Sofia>You seem to be leaking again...\nAllow me to bring you to the next climax.")
ShowMessageFace("",0,0,2,74)
ShowMessage("In the next moment, the tightness around my glans suddenly increases.")
ShowMessage("Doing everything she can to finish me off, I feel my body rejoicing in the coming climax.")
ShowMessageFace("",0,0,2,75)
ShowMessage("\\n<Luka>Ha...! Ahh!")
RunCommonEvent(104)
RunCommonEvent(105)
ShowMessageFace("",0,0,2,76)
ShowMessage("Reacting to her squeeze, I come again.")
ShowMessage("It feels like she was able to make me come at will.")
ShowMessageFace("",0,0,2,77)
ShowMessage("The weakness in my body spreads even more.")
ShowMessage("My life itself really is fleeing with each ejaculation...")
ShowMessageFace("",0,0,2,78)
ShowMessage("\\n<Luka>Aiie!")
ShowMessageFace("",0,0,2,79)
ShowMessage("But despite all that, her waves of squeezing don't stop at all.")
ShowMessageFace("",0,0,2,80)
ShowMessage("My body rejoices in the pleasure,")
ShowMessage("while my mind fears for what's next.")
ShowMessageFace("sisterlamia_fc1",1,0,2,81)
ShowMessage("\\n<Sofia>Ufufu, your energy is draining again.\nWell, you won't be squeezed to death.")
ShowMessageFace("sisterlamia_fc1",1,0,2,82)
ShowMessage("\\n<Sofia>Or would you prefer that to happen?\nIf you want to be squeezed to death, I'll keep going...")
ShowMessageFace("",0,0,2,83)
ShowMessage("\\n<Luka>Ah... Aiiee!")
ShowMessageFace("",0,0,2,84)
ShowMessage("Sofia's vagina suddenly gets wetter, increasing the lubrication.")
ShowMessageFace("",0,0,2,85)
ShowMessage("As the wet noises from our connection get louder,")
ShowMessage("the stimulation gets far more intense.")
ShowMessageFace("",0,0,2,86)
ShowMessage("Unable to withstand the now lubricated feeling of her warm vagina, I'm brought to another fast climax.")
RunCommonEvent(104)
PictureDisplay(5,"ev_sisterlamia_h3",0,0,0,0,100,100,255,0)
PictureDisplay(6,"ev_sisterlamia_ct03",0,0,0,0,100,100,255,0)
RunCommonEvent(105)
ShowMessageFace("",0,0,2,87)
ShowMessage("I come in only moments...")
ShowMessage("Sofia's vagina won't allow any man to endure it if she doesn't want him to.")
ShowMessageFace("",0,0,2,88)
ShowMessage("\\n<Luka>Ah... Stop...\nI'm going to die...")
ShowMessageFace("sisterlamia_fc1",1,0,2,89)
ShowMessage("\\n<Sofia>You understand that your life is being squeezed out?\nBut there's no need to fear.")
ShowMessageFace("sisterlamia_fc1",1,0,2,90)
ShowMessage("\\n<Sofia>I won't squeeze you to death.\nJust entrust yourself to my embrace.")
ShowMessageFace("",0,0,2,91)
ShowMessage("\\n<Luka>B-But my energy is being sucked...")
ShowMessageFace("",0,0,2,92)
ShowMessage("Her snake body tightens more around me, cutting off even the last of my feeble attempts at struggling.")
ShowMessageFace("",0,0,2,93)
ShowMessage("At the same time, her vagina continues squeezing around me, helplessly leading me to another ejaculation.")
ShowMessageFace("",0,0,2,95)
ShowMessage("\\n<Luka>Haa... It's going to leak again...")
ShowMessageFace("sisterlamia_fc1",1,0,2,96)
ShowMessage("\\n<Sofia>I don't mind... Go ahead.\nLet out everything.")
ShowMessageFace("",0,0,2,97)
ShowMessage("\\n<Luka>Hnnaaa...")
RunCommonEvent(104)
RunCommonEvent(105)
ShowMessageFace("",0,0,2,98)
ShowMessage("I explode inside Sofia again, letting the sweet weakness fill more of my body.")
ShowMessageFace("",0,0,2,99)
ShowMessage("I can't even move my body any longer, and my mind is being eroded by pleasure.")
ShowMessageFace("",0,0,2,100)
ShowMessage("\\n<Luka>Ah... Haaa...")
ShowMessageFace("sisterlamia_fc1",1,0,2,101)
ShowMessage("\\n<Sofia>Arara, you're so very weak now.\nMy embrace makes men get so weak, doesn't it?")
ShowMessageFace("",0,0,2,102)
ShowMessage("With an affectionate smile, Sofia hugs me even tighter.")
ShowMessageFace("",0,0,2,103)
ShowMessage("And in her vagina, she continues squeezing out my life itself, trading pleasure for death.")
ShowMessageFace("",0,0,2,104)
ShowMessage("\\n<Luka>Ha... Ah...")
RunCommonEvent(104)
RunCommonEvent(105)
ShowMessageFace("",0,0,2,105)
ShowMessage("Another drop of my life is taken by her vagina.")
ShowMessage("As I am now, I'm too weak to even move a finger.")
ShowMessageFace("",0,0,2,106)
ShowMessage("A sweet fog fills my mind, and I can't even see straight any longer.")
ShowMessage("Then...")
221()
PictureClear(5)
PictureClear(6)
246(2)
ShowMessageFace("sisterlamia_fc1",1,0,2,107)
ShowMessage("\\n<Sofia>Arara, did you faint?\nDid you taste a piece of heaven in my embrace?")
ShowMessageFace("",0,0,2,108)
ShowMessage("\\n<Luka>......")
ShowMessageFace("",0,0,2,109)
ShowMessage("As Sofia violates me, I faint in her embrace.")
ShowMessage("Forcing me to multiple climaxes, I'm left totally exhausted.")
ShowMessageFace("sisterlamia_fc1",1,0,2,110)
ShowMessage("\\n<Sofia>I'll embrace you as much as you like.\nIf you desire, until even your life ends...")
ShowMessageFace("",0,0,2,111)
ShowMessage("\\n<Luka>......")
ShowMessageFace("",0,0,2,112)
ShowMessage("Embraced by Sofia until the very end of my life...")
ShowMessage("With that thought in my mind, I faint.")
ShowMessageFace("",0,0,2,113)
ShowMessage("..............")
242(2)
Wait(120)
241(bytes(0x04,0x08,0x6f,0x3a,0x0d,0x52,0x50,0x47,0x3a,0x3a,0x42,0x47,0x4d,0x08,0x3a,0x0a,0x40,0x6e,0x61,0x6d,0x65,0x49,0x22,0x0c,0x63,0x61,0x73,0x74,0x6c,0x65,0x36,0x06,0x3a,0x06,0x45,0x54,0x3a,0x0c,0x40,0x76,0x6f,0x6c,0x75,0x6d,0x65,0x69,0x69,0x3a,0x0b,0x40,0x70,0x69,0x74,0x63,0x68,0x69,0x69))
0()
