// EVENT 4656
Name "Lizard Boss"

If(0,25,1)
 221()
 PictureClear(5)
 PictureClear(6)
 ShowMessageFace("",0,0,2,0)
 ShowMessage("......")
 242(2)
 Wait(120)
 241(bytes(0x04,0x08,0x6f,0x3a,0x0d,0x52,0x50,0x47,0x3a,0x3a,0x42,0x47,0x4d,0x08,0x3a,0x0a,0x40,0x6e,0x61,0x6d,0x65,0x49,0x22,0x0c,0x63,0x61,0x73,0x74,0x6c,0x65,0x36,0x06,0x3a,0x06,0x45,0x54,0x3a,0x0c,0x40,0x76,0x6f,0x6c,0x75,0x6d,0x65,0x69,0x69,0x3a,0x0b,0x40,0x70,0x69,0x74,0x63,0x68,0x69,0x69))
 EndEventProcessing()
 0()
EndIf()
PictureDisplay(5,"80_lizardboss_st01",0,0,0,0,100,100,255,0)
ShowMessageFace("lizardboss_fc1",1,0,2,1)
ShowMessage("\\n<Miranda>Have me violate you... Something like that?")
ShowMessageFace("",0,0,2,2)
ShowMessage("\\n<Luka>P-please...")
PictureDisplay(5,"80_lizardboss_st02",0,0,0,0,100,100,255,0)
ShowMessageFace("lizardboss_fc1",1,0,2,3)
ShowMessage("\\n<Miranda>Can't help it then, eh... Fine, come to my room.")
ShowMessageFace("",0,0,2,4)
ShowMessage("Like that, I follow Miranda to her room...")
221()
PictureDisplay(1,"bg195",0,0,0,0,100,100,255,0)
PictureDisplay(5,"ev_lizardboss_ha1",0,0,0,0,100,100,255,0)
222()
241(bytes(0x04,0x08,0x6f,0x3a,0x0d,0x52,0x50,0x47,0x3a,0x3a,0x42,0x47,0x4d,0x08,0x3a,0x0a,0x40,0x6e,0x61,0x6d,0x65,0x49,0x22,0x09,0x65,0x72,0x6f,0x31,0x06,0x3a,0x06,0x45,0x54,0x3a,0x0c,0x40,0x76,0x6f,0x6c,0x75,0x6d,0x65,0x69,0x69,0x3a,0x0b,0x40,0x70,0x69,0x74,0x63,0x68,0x69,0x69))
245(bytes(0x04,0x08,0x6f,0x3a,0x0d,0x52,0x50,0x47,0x3a,0x3a,0x42,0x47,0x53,0x08,0x3a,0x0a,0x40,0x6e,0x61,0x6d,0x65,0x49,0x22,0x1e,0x6d,0x6f,0x6e,0x5f,0x68,0x73,0x65,0x61,0x6e,0x30,0x39,0x5f,0x69,0x6e,0x6e,0x65,0x72,0x77,0x6f,0x72,0x6b,0x73,0x5f,0x62,0x31,0x06,0x3a,0x06,0x45,0x54,0x3a,0x0c,0x40,0x76,0x6f,0x6c,0x75,0x6d,0x65,0x69,0x55,0x3a,0x0b,0x40,0x70,0x69,0x74,0x63,0x68,0x69,0x69))
ShowMessageFace("lizardboss_fc1",1,0,2,5)
ShowMessage("\\n<Miranda>Hoora... How is it inside me?\nI'm amazing, aren't I?")
ShowMessageFace("",0,0,2,6)
ShowMessage("\\n<Luka>Ngh... Ah, aaaah...!!")
ShowMessageFace("",0,0,2,7)
ShowMessage("Riding on top of me, Miranda is violating me.")
ShowMessage("Under her, I'm trembling at the incredible feel of her vagina.")
ShowMessageFace("",0,0,2,8)
ShowMessage("Her vagina is soft, and hot.")
ShowMessage("As she violates me, she looks down at me with a big smile.")
ShowMessageFace("lizardboss_fc1",1,0,2,9)
ShowMessage("\\n<Miranda>Here, I'll make it tighter.\nStarting from deep inside... Fufufu.")
ShowMessageFace("",0,0,2,10)
ShowMessage("\\n<Luka>Ah, aaaah...!")
ShowMessageFace("",0,0,2,11)
ShowMessage("I feel her starting to tighten deep inside.")
ShowMessage("From my tip, I'm exposed to an intense pressure.")
ShowMessageFace("",0,0,2,12)
ShowMessage("Slowly moving down my shaft...")
ShowMessage("The incredible tightness slowly spreads to the rest of my penis.")
ShowMessageFace("",0,0,2,13)
ShowMessage("\\n<Luka>I-it's so tight... Aaaah...!")
ShowMessageFace("",0,0,2,14)
ShowMessage("The sense of oppression brings with it a mad pleasure.")
ShowMessage("It's like my whole penis is being tightly squeezed...")
ShowMessageFace("lizardboss_fc1",1,0,2,15)
ShowMessage("\\n<Miranda>It's too early to be finished with just this.\nGet a better taste of my tightness technique...!")
ShowMessageFace("",0,0,2,16)
ShowMessage("\\n<Luka>Aaaah...!")
ShowMessageFace("",0,0,2,17)
ShowMessage("From root to tip, she suddenly gets far tighter.")
ShowMessage("My penis almost seems to sink into her soft flesh.")
ShowMessageFace("",0,0,2,18)
ShowMessage("The sense of oppression fills every inch of my penis.")
ShowMessage("Suddenly, the excitement overcomes my resistance.")
ShowMessageFace("",0,0,2,19)
ShowMessage("\\n<Luka>Ah... I'm coming...!\nAaaah...!")
ShowMessageFace("lizardboss_fc1",1,0,2,20)
ShowMessage("\\n<Miranda>Whaaa? No matter how you slice it, that's way too quick.\nI'm still in the middle of---")
RunCommonEvent(104)
RunCommonEvent(105)
ShowMessageFace("",0,0,2,21)
ShowMessage("Interrupting her criticism, I come inside her.")
ShowMessage("Her incredible tightness forced me to an almost accidental orgasm...")
ShowMessageFace("",0,0,2,22)
ShowMessage("\\n<Luka>Nnngh...")
ShowMessageFace("",0,0,2,23)
ShowMessage("A sweet ecstasy fills me, despite the humiliation.")
ShowMessage("My body goes slack in ecstasy underneath her...")
ShowMessageFace("lizardboss_fc1",1,0,2,24)
ShowMessage("\\n<Miranda>Awww... What the hell are you doing? Geez.\nI was just tightening it a bit, and you went and leaked...")
ShowMessageFace("lizardboss_fc1",1,0,2,25)
ShowMessage("\\n<Miranda>But... Even if you suck at sex, your semen is amazing.\nMy womb is quivering at this high quality stuff...")
ShowMessageFace("",0,0,2,26)
ShowMessage("\\n<Luka>Ah, aaah...")
ShowMessageFace("",0,0,2,27)
ShowMessage("Suddenly, a strange peristalsis starts pulling at my penis.")
ShowMessage("It feels like her whole vagina is sucking on me, like an organ pulling me in...")
PictureDisplay(5,"ev_lizardboss_ha2",0,0,0,0,100,100,255,0)
ShowMessageFace("lizardboss_fc1",1,0,2,28)
ShowMessage("\\n<Miranda>My body reacted, and my eggs came down...\nI was only planning on playing a bit, but it looks like things are getting serious.")
ShowMessageFace("lizardboss_fc1",1,0,2,29)
ShowMessage("\\n<Miranda>So, now we're going to mate for real...\nIf you come in me now, you'll fertilize my eggs.")
ShowMessageFace("",0,0,2,30)
ShowMessage("\\n<Luka>N-no...!")
ShowMessageFace("",0,0,2,31)
ShowMessage("She has eggs in her womb now...")
ShowMessage("I'm already connected to her, so close to those eggs...")
ShowMessageFace("",0,0,2,32)
ShowMessage("This is totally different from what she was doing before.")
ShowMessage("Instead of violating me for fun, it's mating for reproduction...")
ShowMessageFace("",0,0,2,33)
ShowMessage("\\n<Luka>W-We can't, not that...!")
ShowMessageFace("lizardboss_fc1",1,0,2,34)
ShowMessage("\\n<Miranda>Why not?\nI'm telling ya that I'll give birth to your child...")
ShowMessageFace("lizardboss_fc1",1,0,2,35)
ShowMessage("\\n<Miranda>Hora, come inside me now!\nCome all over my eggs!")
PictureDisplay(5,"ev_lizardboss_ha3",0,0,0,0,100,100,255,0)
ShowMessageFace("",0,0,2,36)
ShowMessage("Miranda starts moving her hips as fast as she can.")
ShowMessage("Up and down, left and right... She starts going wild.")
ShowMessageFace("",0,0,2,37)
ShowMessage("My penis is tossed all over inside her tight vagina.")
ShowMessage("Her wet flesh rubs and massages me as she rides me.")
ShowMessageFace("",0,0,2,38)
ShowMessage("\\n<Luka>Ngh... Ah, aaaah...!")
ShowMessageFace("lizardboss_fc1",1,0,2,39)
ShowMessage("\\n<Miranda>Quit screwing around, hurry up and come in me!\nI won't let you hold back!")
ShowMessageFace("",0,0,2,40)
ShowMessage("\\n<Luka>Ah, aaaaaah!")
ShowMessageFace("",0,0,2,41)
ShowMessage("She starts to move even more intensely.")
ShowMessage("As her violent ride increases in intensity, my penis pierces in and out of her.")
ShowMessageFace("",0,0,2,42)
ShowMessage("If I come now, I'll fertilize her eggs...")
ShowMessage("Even though I know that, I can't hold back.")
ShowMessageFace("",0,0,2,43)
ShowMessage("\\n<Luka>Nnngh...Ah, Nooo...")
ShowMessageFace("lizardboss_fc1",1,0,2,44)
ShowMessage("\\n<Miranda>Haha, it's almost the finish!\nNow for the finishing blow!")
ShowMessageFace("",0,0,2,45)
ShowMessage("Sinking down, she takes me all the way inside her, and tightens.")
ShowMessage("Deep inside her, I moan as I break down.")
ShowMessageFace("",0,0,2,46)
ShowMessage("\\n<Luka>Ah, aaaaaah!!")
246(2)
RunCommonEvent(104)
PictureDisplay(5,"ev_lizardboss_ha4",0,0,0,0,100,100,255,0)
RunCommonEvent(105)
ShowMessageFace("",0,0,2,47)
ShowMessage("I come inside her, my semen shooting deep into her.")
ShowMessage("I was totally helpless before her intense riding...")
ShowMessageFace("",0,0,2,48)
ShowMessage("My semen must be all over her eggs by now.")
ShowMessage("I got this monster girl pregnant...")
ShowMessageFace("",0,0,2,49)
ShowMessage("\\n<Luka>Hauu... Ugh......")
ShowMessageFace("lizardboss_fc1",1,0,2,50)
ShowMessage("\\n<Miranda>Ahaha, so much of your seed is everywhere.\nI got a little bit more heated than I expected.")
ShowMessageFace("lizardboss_fc1",1,0,2,51)
ShowMessage("\\n<Miranda>Aren't you happy? Your seed is filling my womb.\nMy eggs are covered in your semen...")
ShowMessageFace("",0,0,2,52)
ShowMessage("\\n<Luka>N...no way...")
ShowMessageFace("",0,0,2,53)
ShowMessage("As a member of the Dragon race, Miranda apparently can keep semen alive in her womb for about a year...")
ShowMessageFace("",0,0,2,54)
ShowMessage("It's like an execution hanging over me.")
ShowMessage("Though she won't lay her eggs now, my semen is alive inside her...")
ShowMessageFace("lizardboss_fc1",1,0,2,55)
ShowMessage("\\n<Miranda>Well, they won't be born right away.\nI'll wait for a good time after our adventure... Fufufu.")
ShowMessageFace("",0,0,2,56)
ShowMessage("Miranda smiles as she strokes her belly.")
ShowMessage("Still underneath her, I tremble in despair...")
221()
PictureClear(5)
ShowMessageFace("",0,0,2,57)
ShowMessage("......")
242(2)
Wait(120)
241(bytes(0x04,0x08,0x6f,0x3a,0x0d,0x52,0x50,0x47,0x3a,0x3a,0x42,0x47,0x4d,0x08,0x3a,0x0a,0x40,0x6e,0x61,0x6d,0x65,0x49,0x22,0x0c,0x63,0x61,0x73,0x74,0x6c,0x65,0x36,0x06,0x3a,0x06,0x45,0x54,0x3a,0x0c,0x40,0x76,0x6f,0x6c,0x75,0x6d,0x65,0x69,0x69,0x3a,0x0b,0x40,0x70,0x69,0x74,0x63,0x68,0x69,0x69))
0()
