﻿// EVENT 1223
Name "Talk: Gnosis"

If(1,20,0,1,0)
 JumpToLabel("情報")
 0()
EndIf()
If(1,20,0,2,0)
 JumpToLabel("質問")
 0()
EndIf()
If(1,20,0,3,0)
 JumpToLabel("要求")
 0()
EndIf()
If(1,20,0,4,0)
 JumpToLabel("贈与")
 0()
EndIf()
DefineLabel("情報")
ChangeVariable(13,13,0,2,1,100)
If(1,13,0,10,2)
 ShowMessageFace("gnosis_fc1",0,0,2,1)
 ShowMessage("\\n<Gnosis>Return to Heaven...")
 EndEventProcessing()
 0()
EndIf()
If(1,13,0,20,2)
 ShowMessageFace("gnosis_fc1",0,0,2,2)
 ShowMessage("\\n<Gnosis>Disappear into dust...")
 EndEventProcessing()
 0()
EndIf()
If(1,13,0,30,2)
 ShowMessageFace("gnosis_fc1",0,0,2,3)
 ShowMessage("\\n<Gnosis>All for the sake of Ilias...")
 EndEventProcessing()
 0()
EndIf()
If(1,13,0,40,2)
 ShowMessageFace("gnosis_fc1",0,0,2,4)
 ShowMessage("\\n<Gnosis>The one and only god is Ilias...")
 EndEventProcessing()
 0()
EndIf()
If(1,13,0,50,2)
 ShowMessageFace("gnosis_fc1",0,0,2,5)
 ShowMessage("\\n<Gnosis>Only the pure shall be saved...")
 EndEventProcessing()
 0()
EndIf()
If(1,13,0,60,2)
 ShowMessageFace("gnosis_fc1",0,0,2,6)
 ShowMessage("\\n<Gnosis>I cannot ignore you any longer...")
 EndEventProcessing()
 0()
EndIf()
If(1,13,0,70,2)
 ShowMessageFace("gnosis_fc1",0,0,2,7)
 ShowMessage("\\n<Gnosis>Words are futile...")
 EndEventProcessing()
 0()
EndIf()
If(1,13,0,80,2)
 ShowMessageFace("gnosis_fc1",0,0,2,8)
 ShowMessage("\\n<Gnosis>Those who deviate from nature disappear into chaos...")
 EndEventProcessing()
 0()
EndIf()
If(1,13,0,90,2)
 ShowMessageFace("gnosis_fc1",0,0,2,9)
 ShowMessage("\\n<Gnosis>Zion is far too violent...")
 EndEventProcessing()
 0()
EndIf()
If(1,13,0,100,2)
 ShowMessageFace("gnosis_fc1",0,0,2,10)
 ShowMessage("\\n<Gnosis>I must thwart the schemes of the Dark Goddess...")
 EndEventProcessing()
 0()
EndIf()
DefineLabel("質問")
ChangeVariable(13,13,0,2,1,50)
If(1,13,0,10,2)
 ShowMessageFace("gnosis_fc1",0,0,2,11)
 ShowMessage("\\n<Gnosis>There is only one God in this world.\nThat is...")
 ShowChoices(strings("Goddess Ilias","Dark Goddess Alipheese","Me!"),0)
 IfPlayerPicksChoice(0,"女神イリアス")
  ShowMessageFace("gnosis_fc1",0,0,2,12)
  ShowMessage("\\n<Gnosis>Yes... Only those who believe will be saved.")
  355("change_friend(10)")
  0()
 IfPlayerPicksChoice(1,"邪神アリスフィーズ")
  ShowMessageFace("gnosis_fc1",5,0,2,13)
  ShowMessage("\\n<Gnosis>For someone to revere a demon... Be destroyed.")
  355("change_friend(-5)")
  0()
 IfPlayerPicksChoice(2,"僕だ！")
  ShowMessageFace("gnosis_fc1",6,0,2,14)
  ShowMessage("\\n<Gnosis>Do you pretend to be God...? Such blasphemy is unparalleled...")
  355("change_friend(-5)")
  0()
 404()
 EndEventProcessing()
 0()
EndIf()
If(1,13,0,20,2)
 ShowMessageFace("gnosis_fc1",0,0,2,15)
 ShowMessage("\\n<Gnosis>Now, let us pray to Ilias...")
 ShowChoices(strings("I refuse!","Pray to the Goddess","Pray to the Dark Goddess"),0)
 IfPlayerPicksChoice(0,"嫌だ！")
  ShowMessageFace("gnosis_fc1",4,0,2,16)
  ShowMessage("\\n<Gnosis>Such arrogance...\nYou should perish here.")
  355("change_friend(-5)")
  0()
 IfPlayerPicksChoice(1,"女神に祈る")
  ShowMessageFace("gnosis_fc1",0,0,2,17)
  ShowMessage("\\n<Gnosis>That is a good attitude...\nDo not let it waver, and you shall not suffer.")
  355("change_friend(10)")
  0()
 IfPlayerPicksChoice(2,"邪神に祈る")
  ShowMessageFace("gnosis_fc1",5,0,2,18)
  ShowMessage("\\n<Gnosis>To worship the Dark Goddess before me...\nDescend into Hell.")
  355("change_friend(-5)")
  0()
 404()
 EndEventProcessing()
 0()
EndIf()
If(1,13,0,30,2)
 ShowMessageFace("gnosis_fc1",0,0,2,19)
 ShowMessage("\\n<Gnosis>Why do people foolishly kill one another...?")
 ShowChoices(strings("To protect what's dear to us","It is in our nature to fight","I don't know why"),0)
 IfPlayerPicksChoice(0,"大切なものを守るため")
  ShowMessageFace("gnosis_fc1",0,0,2,20)
  ShowMessage("\\n<Gnosis>Is that the reason why you kill each other?\nHow utterly foolish...")
  355("change_friend(-5)")
  0()
 IfPlayerPicksChoice(1,"戦うのは本能")
  ShowMessageFace("gnosis_fc1",0,0,2,21)
  ShowMessage("\\n<Gnosis>Do not lay blame on your instincts...\nFor what reason is it inherent?")
  355("change_friend(-5)")
  0()
 IfPlayerPicksChoice(2,"なぜだか分からない")
  ShowMessageFace("gnosis_fc1",0,0,2,22)
  ShowMessage("\\n<Gnosis>Is it because of the purity of their heart, or their sheer stupidity? I hope the former is the case.")
  0()
 404()
 EndEventProcessing()
 0()
EndIf()
If(1,13,0,40,2)
 ShowMessageFace("gnosis_fc1",0,0,2,23)
 ShowMessage("\\n<Gnosis>Hero Luka...\nDo you not know whom to point that sword towards?")
 ShowChoices(strings("The Monster Lord","The Goddess","Myself"),0)
 IfPlayerPicksChoice(0,"魔王")
  ShowMessageFace("gnosis_fc1",0,0,2,24)
  ShowMessage("\\n<Gnosis>Exactly...\nIf you resolve yourself, you shall not perish.")
  355("change_friend(10)")
  0()
 IfPlayerPicksChoice(1,"女神")
  ShowMessageFace("gnosis_fc1",5,0,2,25)
  ShowMessage("\\n<Gnosis>How sinful...\nYou must perish here and now...")
  355("change_friend(-5)")
  0()
 IfPlayerPicksChoice(2,"自分")
  ShowMessageFace("gnosis_fc1",0,0,2,26)
  ShowMessage("\\n<Gnosis>You point your sword at yourself...?\nYou must understand suicide is a sin...")
  355("change_friend(-5)")
  0()
 404()
 EndEventProcessing()
 0()
EndIf()
If(1,13,0,50,2)
 ShowMessageFace("gnosis_fc1",0,0,2,27)
 ShowMessage("\\n<Gnosis>A world protected by the Goddess, or a world where only the strong survive... Which one do you desire?")
 ShowChoices(strings("A world protected by the Goddess","A world where only the strong survive","I don't like either"),0)
 IfPlayerPicksChoice(0,"女神に保護された世")
  ShowMessageFace("gnosis_fc1",0,0,2,28)
  ShowMessage("\\n<Gnosis>Indeed, you have a pure heart...\nIt is regrettable you must be buried here...")
  355("change_friend(10)")
  0()
 IfPlayerPicksChoice(1,"弱肉強食の世")
  ShowMessageFace("gnosis_fc1",5,0,2,29)
  ShowMessage("\\n<Gnosis>What a hopeless fool... Disappear.")
  355("change_friend(-5)")
  0()
 IfPlayerPicksChoice(2,"どちらも嫌だ")
  ShowMessageFace("gnosis_fc1",0,0,2,30)
  ShowMessage("\\n<Gnosis>There is no third option...\nA savage Hell, or a serene Heaven.")
  355("change_friend(-5)")
  0()
 404()
 EndEventProcessing()
 0()
EndIf()
DefineLabel("要求")
ChangeVariable(13,13,0,2,1,30)
If(1,13,0,10,2)
 If(8,75)
  ShowMessageFace("gnosis_fc1",0,0,2,31)
  ShowMessage("\\n<Gnosis>Dedicate a holy stone, as proof of your faith...")
  ChangeVariable(24,24,0,3,0,75,0)
  ShowMessageFace("",0,0,2,32)
  ShowMessage("Do you want to give a \\ii[75]? (Have:\\V[24])")
  ShowChoices(strings("Yes","No"),2)
  IfPlayerPicksChoice(0,"Yes")
   ShowMessageFace("gnosis_fc1",1,0,2,33)
   ShowMessage("\\n<Gnosis>Good intentions...")
   ChangeInventory_Item(75,1,0,1)
   355("change_friend(20)")
   EndEventProcessing()
   0()
  IfPlayerPicksChoice(1,"No")
   ShowMessageFace("gnosis_fc1",4,0,2,34)
   ShowMessage("\\n<Gnosis>Impiety will be punished...")
   EndEventProcessing()
   0()
  404()
  0()
 Else()
  ChangeVariable(13,13,0,0,20)
  0()
 EndIf()
 0()
EndIf()
If(1,13,0,20,2)
 If(8,379)
  ShowMessageFace("gnosis_fc1",0,0,2,35)
  ShowMessage("\\n<Gnosis>Dedicate a croquette, as proof of your faith...")
  ChangeVariable(24,24,0,3,0,379,0)
  ShowMessageFace("",0,0,2,36)
  ShowMessage("Do you want to give a \\ii[379]? (Have:\\V[24])")
  ShowChoices(strings("Yes","No"),2)
  IfPlayerPicksChoice(0,"Yes")
   ShowMessageFace("gnosis_fc1",1,0,2,37)
   ShowMessage("\\n<Gnosis>Good intentions...")
   ChangeInventory_Item(379,1,0,1)
   355("change_friend(30)")
   EndEventProcessing()
   0()
  IfPlayerPicksChoice(1,"No")
   ShowMessageFace("gnosis_fc1",4,0,2,38)
   ShowMessage("\\n<Gnosis>Impiety will be punished...")
   EndEventProcessing()
   0()
  404()
  0()
 Else()
  ChangeVariable(13,13,0,0,30)
  0()
 EndIf()
 0()
EndIf()
If(1,13,0,30,2)
 ShowMessageFace("gnosis_fc1",0,0,2,39)
 ShowMessage("\\n<Gnosis>Present your riches, as proof of your faith...")
 If(7,2250,0)
  ChangeVariable(24,24,0,3,7,2,0)
  ShowMessageFace("",0,0,2,40)
  ShowMessage("Do you want to give 2250G? (Remaining:\\V[24])")
  ShowChoices(strings("Yes","No"),2)
  IfPlayerPicksChoice(0,"Yes")
   ShowMessageFace("gnosis_fc1",1,0,2,41)
   ShowMessage("\\n<Gnosis>Good intentions...")
   125(1,0,2250)
   355("change_friend(25)")
   EndEventProcessing()
   0()
  IfPlayerPicksChoice(1,"No")
   ShowMessageFace("gnosis_fc1",4,0,2,42)
   ShowMessage("\\n<Gnosis>Impiety will be punished...")
   EndEventProcessing()
   0()
  404()
  0()
 Else()
  ShowMessageFace("gnosis_fc1",0,0,2,43)
  ShowMessage("\\n<Gnosis>...No, you've already lost it.")
  EndEventProcessing()
  0()
 EndIf()
 0()
EndIf()
DefineLabel("贈与")
ChangeVariable(13,13,0,2,1,30)
If(1,25,0,1,0)
 ChangeVariable(13,13,0,0,30)
 ChangeVariable(25,25,0,0,0)
 0()
EndIf()
If(1,25,0,2,0)
 ChangeVariable(13,13,0,2,1,20)
 ChangeVariable(25,25,0,0,0)
 0()
EndIf()
If(1,13,0,10,2)
 ShowMessageFace("gnosis_fc1",0,0,2,44)
 ShowMessage("\\n<Gnosis>My feathers will grant protection...")
 250(bytes(0x04,0x08,0x6f,0x3a,0x0c,0x52,0x50,0x47,0x3a,0x3a,0x53,0x45,0x08,0x3a,0x0a,0x40,0x6e,0x61,0x6d,0x65,0x49,0x22,0x0a,0x49,0x74,0x65,0x6d,0x31,0x06,0x3a,0x06,0x45,0x54,0x3a,0x0b,0x40,0x70,0x69,0x74,0x63,0x68,0x69,0x69,0x3a,0x0c,0x40,0x76,0x6f,0x6c,0x75,0x6d,0x65,0x69,0x55))
 ChangeInventory_Item(241,0,0,1)
 ShowMessageFace("",0,0,2,45)
 ShowMessage("Gnosis gave you an \\ii[241]!")
 EndEventProcessing()
 0()
EndIf()
If(1,13,0,20,2)
 ShowMessageFace("gnosis_fc1",0,0,2,46)
 ShowMessage("\\n<Gnosis>Use this medicine...")
 250(bytes(0x04,0x08,0x6f,0x3a,0x0c,0x52,0x50,0x47,0x3a,0x3a,0x53,0x45,0x08,0x3a,0x0a,0x40,0x6e,0x61,0x6d,0x65,0x49,0x22,0x0a,0x49,0x74,0x65,0x6d,0x31,0x06,0x3a,0x06,0x45,0x54,0x3a,0x0b,0x40,0x70,0x69,0x74,0x63,0x68,0x69,0x69,0x3a,0x0c,0x40,0x76,0x6f,0x6c,0x75,0x6d,0x65,0x69,0x55))
 ChangeInventory_Item(22,0,0,1)
 ShowMessageFace("",0,0,2,47)
 ShowMessage("Gnosis gave you a \\ii[22]!")
 EndEventProcessing()
 0()
EndIf()
If(1,13,0,30,2)
 ShowMessageFace("gnosis_fc1",0,0,2,48)
 ShowMessage("\\n<Gnosis>Let me bestow this wealth...")
 250(bytes(0x04,0x08,0x6f,0x3a,0x0c,0x52,0x50,0x47,0x3a,0x3a,0x53,0x45,0x08,0x3a,0x0a,0x40,0x6e,0x61,0x6d,0x65,0x49,0x22,0x0a,0x49,0x74,0x65,0x6d,0x31,0x06,0x3a,0x06,0x45,0x54,0x3a,0x0b,0x40,0x70,0x69,0x74,0x63,0x68,0x69,0x69,0x3a,0x0c,0x40,0x76,0x6f,0x6c,0x75,0x6d,0x65,0x69,0x55))
 125(0,0,3750)
 ShowMessageFace("",0,0,2,49)
 ShowMessage("Gnosis gave you 3750G!")
 EndEventProcessing()
 0()
EndIf()
0()
