﻿// EVENT 0649
Name "Event: Succubus"

ChangeSwitch(73,73,0)
If(0,428,0)
 ShowMessageFace("succubus_fc1",4,0,2,1)
 ShowMessage("\\n<Succubus>If you're hungry, have a potato.\n...Do you want one?")
 ChangeSwitch(73,73,1)
 EndEventProcessing()
 0()
EndIf()
ShowMessageFace("succubus_fc1",4,0,2,2)
ShowMessage("\\n<Succubus>I'll share my succubus aura...")
ChangeSwitch(428,428,0)
250(bytes(0x04,0x08,0x6f,0x3a,0x0c,0x52,0x50,0x47,0x3a,0x3a,0x53,0x45,0x08,0x3a,0x0a,0x40,0x6e,0x61,0x6d,0x65,0x49,0x22,0x0a,0x48,0x65,0x61,0x6c,0x37,0x06,0x3a,0x06,0x45,0x54,0x3a,0x0b,0x40,0x70,0x69,0x74,0x63,0x68,0x69,0x69,0x3a,0x0c,0x40,0x76,0x6f,0x6c,0x75,0x6d,0x65,0x69,0x55))
ShowMessageFace("",0,0,2,3)
ShowMessage("Succubus emanates a strange aura!\nUntil the next boss floor, the power of sexcraft techniques will be doubled!")
ChangeSwitch(73,73,1)
EndEventProcessing()
0()
