// EVENT 4076
Name "Slime Girl 1"

If(0,25,1)
 221()
 PictureClear(5)
 PictureClear(6)
 ShowMessageFace("",0,0,2,0)
 ShowMessage("......")
 242(2)
 Wait(120)
 241(bytes(0x04,0x08,0x6f,0x3a,0x0d,0x52,0x50,0x47,0x3a,0x3a,0x42,0x47,0x4d,0x08,0x3a,0x0a,0x40,0x6e,0x61,0x6d,0x65,0x49,0x22,0x0c,0x63,0x61,0x73,0x74,0x6c,0x65,0x36,0x06,0x3a,0x06,0x45,0x54,0x3a,0x0c,0x40,0x76,0x6f,0x6c,0x75,0x6d,0x65,0x69,0x69,0x3a,0x0b,0x40,0x70,0x69,0x74,0x63,0x68,0x69,0x69))
 EndEventProcessing()
 0()
EndIf()
PictureDisplay(5,"80_slime_st02",0,0,0,0,100,100,255,0)
ShowMessageFace("slime_fc1",1,0,2,1)
ShowMessage("\\n<Lime>Mm? You *want* me to wrap you up? If I do, I'm gonna squeeze out a lot of semen.")
ShowMessageFace("",0,0,2,2)
ShowMessage("\\n<Luka>Th-that's fine... Please...")
ShowMessageFace("slime_fc1",1,0,2,3)
ShowMessage("\\n<Lime>Ah! In that case, let's go find a room. You and me, we'll have lots of fun. ♪")
ShowMessageFace("",0,0,2,4)
ShowMessage("Lime invites me back into a private room...")
221()
PictureDisplay(1,"bg195",0,0,0,0,100,100,255,0)
PictureDisplay(5,"ev_slime_h1",0,0,0,0,100,100,255,0)
222()
241(bytes(0x04,0x08,0x6f,0x3a,0x0d,0x52,0x50,0x47,0x3a,0x3a,0x42,0x47,0x4d,0x08,0x3a,0x0a,0x40,0x6e,0x61,0x6d,0x65,0x49,0x22,0x09,0x65,0x72,0x6f,0x31,0x06,0x3a,0x06,0x45,0x54,0x3a,0x0c,0x40,0x76,0x6f,0x6c,0x75,0x6d,0x65,0x69,0x69,0x3a,0x0b,0x40,0x70,0x69,0x74,0x63,0x68,0x69,0x69))
245(bytes(0x04,0x08,0x6f,0x3a,0x0d,0x52,0x50,0x47,0x3a,0x3a,0x42,0x47,0x53,0x08,0x3a,0x0a,0x40,0x6e,0x61,0x6d,0x65,0x49,0x22,0x17,0x6d,0x6f,0x6e,0x5f,0x68,0x73,0x65,0x61,0x6e,0x31,0x38,0x5f,0x73,0x6c,0x69,0x6d,0x65,0x31,0x06,0x3a,0x06,0x45,0x54,0x3a,0x0c,0x40,0x76,0x6f,0x6c,0x75,0x6d,0x65,0x69,0x55,0x3a,0x0b,0x40,0x70,0x69,0x74,0x63,0x68,0x69,0x69))
ShowMessageFace("slime_fc1",1,0,2,5)
ShowMessage("\\n<Lime>It's rape tiiiime! ♪\nPretend rape time, I mean.")
ShowMessageFace("",0,0,2,6)
ShowMessage("\\n<Luka>Ooh, uwaaaa!")
ShowMessageFace("",0,0,2,7)
ShowMessage("Lime jumps on me as soon as we're in the room, her slime dissolving my clothes away.")
ShowMessageFace("",0,0,2,7)
ShowMessage("\\n<Luka>Ah, aaaah...")
ShowMessageFace("",0,0,2,8)
ShowMessage("She giggles gently, the weight of her body forcing me down against the bed. It seems she has enough control to not melt the sheets away.")
ShowMessageFace("",0,0,2,9)
ShowMessage("Of course, what I'm focused on most of all is the sensation of her body.")
ShowMessageFace("",0,0,2,10)
ShowMessage("Cool and soothing, the slime of her body feels like a bath after a long summer day's work... And what's more, the way it moves in ripples gives a little pulse of pleasure to my groin with every sway and shake of her body.")
ShowMessageFace("slime_fc1",1,0,2,11)
ShowMessage("\\n<Lime>So, so? What do you think? It feels good, yeah? Yeah! So let's continue. Get started? Let's get started!")
ShowMessageFace("",0,0,2,12)
ShowMessage("\\n<Luka>W-Wait!")
ShowMessageFace("",0,0,2,13)
ShowMessage("But even as I cry out--")
ShowMessage("Lime gives a pleased giggle, her body compacting, tightening around my penis. It's pleasantly relaxing to just bask in it, but the texture and consistency of her slime is just liquid enough to feel tremendously pleasurable against my skin.")
ShowMessageFace("",0,0,2,14)
ShowMessage("My appreciation of it turns more heated as it begins to ripple around me, pulsing gently as she sways her hips... or what's left of them.")
ShowMessageFace("",0,0,2,15)
ShowMessage("Her body clenches around me, and I can't help but shiver. I've never felt a tension like this before.")
ShowMessageFace("slime_fc1",1,0,2,16)
ShowMessage("\\n<Lime>Hee! If you're enjoying it, feel free to come whenever you want. It's what you asked for, after all!")
ShowMessageFace("slime_fc1",1,0,2,17)
ShowMessage("\\n<Lime>...And if you want to continue past that, that's fine, too. ♥")
ShowMessageFace("",0,0,2,18)
ShowMessage("As she speaks, Lime's body keeps pulsing around me, like a heartbeat, thumping away. It only grows tighter around me, bit by bit with every throb.")
ShowMessageFace("",0,0,2,19)
ShowMessage("\\n<Luka>Faaah... I-it's so good...")
ShowMessageFace("",0,0,2,20)
ShowMessage("A glance up shows my penis twitching inside her, tinted blue by her body. Still, even as the sight is distorted by her jiggling, I can see droplets of precum oozing out.")
ShowMessageFace("",0,0,2,21)
ShowMessage("What's more, it bobs and sways with every clench of her slime. The sight is mesmerizing...")
ShowMessageFace("",0,0,2,22)
ShowMessage("...Or it would be, if the whole situation didn't leave a bad taste in my mouth. I'm suddenly reminded of just how little self-control I have, asking a monster ally to violate me...")
ShowMessageFace("slime_fc1",1,0,2,23)
ShowMessage("\\n<Lime>Ahaha... You enjoying this? You're so quiet...\nHere, say 'ahh'!")
ShowMessageFace("",0,0,2,24)
ShowMessage("With a mischievous grin, Lime quickens her pace, the steady, casual rhythm she'd been moving with suddenly turning faster and faster.")
ShowMessageFace("",0,0,2,25)
ShowMessage("And it's not just my penis. My entire body is being toyed with and caressed! The sensation of mouths kissing and licking my skin quickly blooms across my body, all thanks to her slime.")
ShowMessageFace("",0,0,2,26)
ShowMessage("\\n<Luka>Faaa... A-Ahh!")
ShowMessageFace("",0,0,2,27)
ShowMessage("I gasp, and soon I feel my balls clenching down, preparing to unload into her. I see my penis twitch and jerk inside her, the tip a deep red.")
ShowMessageFace("slime_fc1",1,0,2,28)
ShowMessage("\\n<Lime>There we gooo!\nNow... Come! ♪")
ShowMessageFace("",0,0,2,29)
ShowMessage("Faster and faster, her slime begins to whirl around the tip of my penis like water going down the drain, all swirling right around my shaft.")
ShowMessageFace("",0,0,2,30)
ShowMessage("\\n<Luka>Ah, ah, aaaaah...")
RunCommonEvent(104)
PictureDisplay(5,"ev_slime_h2",0,0,0,0,100,100,255,0)
RunCommonEvent(105)
ShowMessageFace("",0,0,2,31)
ShowMessage("Swept away by the flood of pleasure, I come into her.")
ShowMessageFace("",0,0,2,32)
ShowMessage("My semen shoots up into her in spurts, the blue of her body turned cloudy by fat, thick globs of semen floating in it.")
ShowMessageFace("slime_fc1",1,0,2,33)
ShowMessage("\\n<Lime>You enjoyed it! I'm so glad! Here, let's do some more!")
ShowMessageFace("",0,0,2,34)
ShowMessage("\\n<Luka>Ah... Ah, ah...!")
ShowMessageFace("",0,0,2,35)
ShowMessage("With each throb and twitch of my penis, I feel my muscles relax, too. From my feet to my calves to my thighs...")
ShowMessageFace("",0,0,2,36)
ShowMessage("Soon I'm merely laying there, content to let her milk my penis dry. It's not like I was particularly active before, but... now I'm relaxed, too.")
ShowMessageFace("",0,0,2,37)
ShowMessage("\\n<Luka>Faaaa...")
ShowMessageFace("slime_fc1",1,0,2,38)
ShowMessage("\\n<Lime>Ehehehe... Did I do well?")
ShowMessageFace("",0,0,2,39)
ShowMessage("Another lazy glance at Lime's body...")
ShowMessage("...Shows that her lower half is extremely cloudy thanks to my semen.")
ShowMessageFace("",0,0,2,40)
ShowMessage("Did I really get that carried away...? Maybe I ought to stop.")
ShowMessageFace("",0,0,2,42)
ShowMessage("Even though this is what I wanted, I feel pathetic, like I barely lasted a moment before I just became her plaything. I didn't think this would be so one-sided...")
ShowMessageFace("slime_fc1",1,0,2,43)
ShowMessage("\\n<Lime>Huh...? What's the matter? You were enjoying it a second ago...")
ShowMessageFace("",0,0,2,44)
ShowMessage("Lime tightens the slime around my waist, and soon I'm squirming and whimpering in response.")
ShowMessageFace("",0,0,2,45)
ShowMessage("\\n<Luka>Auuu...!")
ShowMessageFace("slime_fc1",1,0,2,46)
ShowMessage("\\n<Lime>Hey...\nYou had fun earlier. So... we can continue, right? Right!")
ShowMessageFace("slime_fc1",1,0,2,47)
ShowMessage("\\n<Lime>Here, turn that frown upside down! Don't worry, just enjoy it!")
ShowMessageFace("",0,0,2,48)
ShowMessage("The focus she lavished on my penis spreads, and after a few moments, nearly my entire body is surrounded by the tender attentions of her slimy embrace.")
ShowMessageFace("",0,0,2,49)
ShowMessage("No matter her intention, the fact is that my body is nearly enveloped in a torturously pleasurable cocoon of slime, pulsing and clenching around me.")
ShowMessageFace("",0,0,2,50)
ShowMessage("If anything, I feel absolutely powerless now, trapped and forced to feel pleasure.")
ShowMessageFace("slime_fc1",1,0,2,51)
ShowMessage("\\n<Lime>Let's see if you feel any better after another shot or two.")
ShowMessageFace("",0,0,2,52)
ShowMessage("\\n<Luka>Ahiiii! Ah, aaaah!")
ShowMessageFace("",0,0,2,53)
ShowMessage("I'm rocked back and forth inside her, tossed to and fro in her azure hold. It's dizzying, the way she's squeezing tighter and tighter.")
ShowMessageFace("",0,0,2,54)
ShowMessage("And then she clenches around the tip of my penis again, that tightness gradually creeping down my shaft, and I can't help but moan.")
ShowMessageFace("",0,0,2,55)
ShowMessage("\\n<Luka>Ah...! Aaaaah!!")
ShowMessageFace("slime_fc1",1,0,2,56)
ShowMessage("\\n<Lime>Here, just gimme some more semen. It feels good, right? So gimme!")
ShowMessageFace("",0,0,2,57)
ShowMessage("The whirlpool of her grip around my penis only swirls faster and grips me harder, driving me insane with how quickly I'm being pushed to the edge.")
ShowMessageFace("",0,0,2,58)
ShowMessage("I barely have control over my body at this point. Completely encased by her slime and relaxed to the point of complacency, I'm putty in her hands.")
ShowMessageFace("",0,0,2,59)
ShowMessage("\\n<Luka>C-coming again... Ah, aaaah!!")
RunCommonEvent(104)
PictureDisplay(5,"ev_slime_h3",0,0,0,0,100,100,255,0)
RunCommonEvent(105)
ShowMessageFace("",0,0,2,60)
ShowMessage("Once again, I ejaculate inside of Lime.")
ShowMessageFace("slime_fc1",1,0,2,61)
ShowMessage("\\n<Lime>What, just once? Laaame!")
ShowMessageFace("",0,0,2,62)
ShowMessage("\\n<Luka>Ah, aaaaah!!")
ShowMessageFace("",0,0,2,63)
ShowMessage("She doesn't give me a moment's rest, not even as I'm coming inside her.")
ShowMessageFace("",0,0,2,64)
ShowMessage("Truly merciless, she just keeps milking and clenching around me, the pleasure quickly overwhelming me.")
ShowMessageFace("",0,0,2,65)
ShowMessage("Squeezing, milking, gripping, flexing, tensing, clenching...")
ShowMessageFace("",0,0,2,66)
ShowMessage("It never ends, not for a second. Even as I come, she furiously violates me, only working towards my semen.")
ShowMessageFace("",0,0,2,67)
ShowMessage("My willpower crumbled long ago, and at this point, all I can do is moan and squirm in her hold.")
ShowMessageFace("",0,0,2,68)
ShowMessage("\\n<Luka>Ah, ahiii! Aaaaaaah!!")
RunCommonEvent(104)
PictureDisplay(5,"ev_slime_h4",0,0,0,0,100,100,255,0)
RunCommonEvent(105)
ShowMessageFace("",0,0,2,69)
ShowMessage("Shot after shot as I writhe inside her body... This is truly a hellish pleasure.")
ShowMessageFace("",0,0,2,70)
ShowMessage("I shudder to think about if she weren't my ally. I'd be broken for sure.")
ShowMessageFace("slime_fc1",1,0,2,71)
ShowMessage("\\n<Lime>Moremoremoremoremore! ♪")
ShowMessageFace("",0,0,2,72)
ShowMessage("\\n<Luka>Uwaaaaa, aaaah!!")
ShowMessageFace("",0,0,2,73)
ShowMessage("She never stops stimulating my penis, forcing me to enjoy this, and forcing me to ejaculate.")
ShowMessageFace("",0,0,2,74)
ShowMessage("After a countless number of climaxes, my consciousness begins to fade...")
221()
PictureClear(5)
246(2)
ShowMessageFace("slime_fc1",2,0,2,75)
ShowMessage("\\n<Lime>Wait, you're seriously fainting...?\nWow! You need to work on your stamina.")
ShowMessageFace("",0,0,2,76)
ShowMessage("That's the last thing I hear as my hazy vision turns black. Perhaps casually asking for sex from a monster is more dangerous than I thought...")
ShowMessageFace("",0,0,2,77)
ShowMessage("......")
242(2)
Wait(120)
241(bytes(0x04,0x08,0x6f,0x3a,0x0d,0x52,0x50,0x47,0x3a,0x3a,0x42,0x47,0x4d,0x08,0x3a,0x0a,0x40,0x6e,0x61,0x6d,0x65,0x49,0x22,0x0c,0x63,0x61,0x73,0x74,0x6c,0x65,0x36,0x06,0x3a,0x06,0x45,0x54,0x3a,0x0c,0x40,0x76,0x6f,0x6c,0x75,0x6d,0x65,0x69,0x69,0x3a,0x0b,0x40,0x70,0x69,0x74,0x63,0x68,0x69,0x69))
0()
