﻿// EVENT 0801
Name "攻撃武器"

ChangeVariable(11,11,0,2,1,108)
If(1,11,0,1,0)
 ChangeInventoryWeapon(1101,0,0,1,false)
 EndEventProcessing()
 0()
EndIf()
If(1,11,0,2,0)
 ChangeInventoryWeapon(1102,0,0,1,false)
 EndEventProcessing()
 0()
EndIf()
If(1,11,0,3,0)
 ChangeInventoryWeapon(1103,0,0,1,false)
 EndEventProcessing()
 0()
EndIf()
If(1,11,0,4,0)
 ChangeInventoryWeapon(1104,0,0,1,false)
 EndEventProcessing()
 0()
EndIf()
If(1,11,0,5,0)
 ChangeInventoryWeapon(1105,0,0,1,false)
 EndEventProcessing()
 0()
EndIf()
If(1,11,0,6,0)
 ChangeInventoryWeapon(1106,0,0,1,false)
 EndEventProcessing()
 0()
EndIf()
If(1,11,0,7,0)
 ChangeInventoryWeapon(1111,0,0,1,false)
 EndEventProcessing()
 0()
EndIf()
If(1,11,0,8,0)
 ChangeInventoryWeapon(1112,0,0,1,false)
 EndEventProcessing()
 0()
EndIf()
If(1,11,0,9,0)
 ChangeInventoryWeapon(1113,0,0,1,false)
 EndEventProcessing()
 0()
EndIf()
If(1,11,0,10,0)
 ChangeInventoryWeapon(1114,0,0,1,false)
 EndEventProcessing()
 0()
EndIf()
If(1,11,0,11,0)
 ChangeInventoryWeapon(1115,0,0,1,false)
 EndEventProcessing()
 0()
EndIf()
If(1,11,0,12,0)
 ChangeInventoryWeapon(1116,0,0,1,false)
 EndEventProcessing()
 0()
EndIf()
If(1,11,0,13,0)
 ChangeInventoryWeapon(1201,0,0,1,false)
 EndEventProcessing()
 0()
EndIf()
If(1,11,0,14,0)
 ChangeInventoryWeapon(1202,0,0,1,false)
 EndEventProcessing()
 0()
EndIf()
If(1,11,0,15,0)
 ChangeInventoryWeapon(1203,0,0,1,false)
 EndEventProcessing()
 0()
EndIf()
If(1,11,0,16,0)
 ChangeInventoryWeapon(1204,0,0,1,false)
 EndEventProcessing()
 0()
EndIf()
If(1,11,0,17,0)
 ChangeInventoryWeapon(1205,0,0,1,false)
 EndEventProcessing()
 0()
EndIf()
If(1,11,0,18,0)
 ChangeInventoryWeapon(1206,0,0,1,false)
 EndEventProcessing()
 0()
EndIf()
If(1,11,0,19,0)
 ChangeInventoryWeapon(1211,0,0,1,false)
 EndEventProcessing()
 0()
EndIf()
If(1,11,0,20,0)
 ChangeInventoryWeapon(1212,0,0,1,false)
 EndEventProcessing()
 0()
EndIf()
If(1,11,0,21,0)
 ChangeInventoryWeapon(1213,0,0,1,false)
 EndEventProcessing()
 0()
EndIf()
If(1,11,0,22,0)
 ChangeInventoryWeapon(1214,0,0,1,false)
 EndEventProcessing()
 0()
EndIf()
If(1,11,0,23,0)
 ChangeInventoryWeapon(1215,0,0,1,false)
 EndEventProcessing()
 0()
EndIf()
If(1,11,0,24,0)
 ChangeInventoryWeapon(1216,0,0,1,false)
 EndEventProcessing()
 0()
EndIf()
If(1,11,0,25,0)
 ChangeInventoryWeapon(1301,0,0,1,false)
 EndEventProcessing()
 0()
EndIf()
If(1,11,0,26,0)
 ChangeInventoryWeapon(1302,0,0,1,false)
 EndEventProcessing()
 0()
EndIf()
If(1,11,0,27,0)
 ChangeInventoryWeapon(1303,0,0,1,false)
 EndEventProcessing()
 0()
EndIf()
If(1,11,0,28,0)
 ChangeInventoryWeapon(1306,0,0,1,false)
 EndEventProcessing()
 0()
EndIf()
If(1,11,0,29,0)
 ChangeInventoryWeapon(1307,0,0,1,false)
 EndEventProcessing()
 0()
EndIf()
If(1,11,0,30,0)
 ChangeInventoryWeapon(1308,0,0,1,false)
 EndEventProcessing()
 0()
EndIf()
If(1,11,0,31,0)
 ChangeInventoryWeapon(1501,0,0,1,false)
 EndEventProcessing()
 0()
EndIf()
If(1,11,0,32,0)
 ChangeInventoryWeapon(1502,0,0,1,false)
 EndEventProcessing()
 0()
EndIf()
If(1,11,0,33,0)
 ChangeInventoryWeapon(1503,0,0,1,false)
 EndEventProcessing()
 0()
EndIf()
If(1,11,0,34,0)
 ChangeInventoryWeapon(1506,0,0,1,false)
 EndEventProcessing()
 0()
EndIf()
If(1,11,0,35,0)
 ChangeInventoryWeapon(1507,0,0,1,false)
 EndEventProcessing()
 0()
EndIf()
If(1,11,0,36,0)
 ChangeInventoryWeapon(1508,0,0,1,false)
 EndEventProcessing()
 0()
EndIf()
If(1,11,0,37,0)
 ChangeInventoryWeapon(1551,0,0,1,false)
 EndEventProcessing()
 0()
EndIf()
If(1,11,0,38,0)
 ChangeInventoryWeapon(1552,0,0,1,false)
 EndEventProcessing()
 0()
EndIf()
If(1,11,0,39,0)
 ChangeInventoryWeapon(1553,0,0,1,false)
 EndEventProcessing()
 0()
EndIf()
If(1,11,0,40,0)
 ChangeInventoryWeapon(1554,0,0,1,false)
 EndEventProcessing()
 0()
EndIf()
If(1,11,0,41,0)
 ChangeInventoryWeapon(1555,0,0,1,false)
 EndEventProcessing()
 0()
EndIf()
If(1,11,0,42,0)
 ChangeInventoryWeapon(1556,0,0,1,false)
 EndEventProcessing()
 0()
EndIf()
If(1,11,0,43,0)
 ChangeInventoryWeapon(1561,0,0,1,false)
 EndEventProcessing()
 0()
EndIf()
If(1,11,0,44,0)
 ChangeInventoryWeapon(1562,0,0,1,false)
 EndEventProcessing()
 0()
EndIf()
If(1,11,0,45,0)
 ChangeInventoryWeapon(1563,0,0,1,false)
 EndEventProcessing()
 0()
EndIf()
If(1,11,0,46,0)
 ChangeInventoryWeapon(1564,0,0,1,false)
 EndEventProcessing()
 0()
EndIf()
If(1,11,0,47,0)
 ChangeInventoryWeapon(1565,0,0,1,false)
 EndEventProcessing()
 0()
EndIf()
If(1,11,0,48,0)
 ChangeInventoryWeapon(1566,0,0,1,false)
 EndEventProcessing()
 0()
EndIf()
If(1,11,0,49,0)
 ChangeInventoryWeapon(1851,0,0,1,false)
 EndEventProcessing()
 0()
EndIf()
If(1,11,0,50,0)
 ChangeInventoryWeapon(1852,0,0,1,false)
 EndEventProcessing()
 0()
EndIf()
If(1,11,0,51,0)
 ChangeInventoryWeapon(1853,0,0,1,false)
 EndEventProcessing()
 0()
EndIf()
If(1,11,0,52,0)
 ChangeInventoryWeapon(1854,0,0,1,false)
 EndEventProcessing()
 0()
EndIf()
If(1,11,0,53,0)
 ChangeInventoryWeapon(1855,0,0,1,false)
 EndEventProcessing()
 0()
EndIf()
If(1,11,0,54,0)
 ChangeInventoryWeapon(1856,0,0,1,false)
 EndEventProcessing()
 0()
EndIf()
If(1,11,0,55,0)
 ChangeInventoryWeapon(1861,0,0,1,false)
 EndEventProcessing()
 0()
EndIf()
If(1,11,0,56,0)
 ChangeInventoryWeapon(1862,0,0,1,false)
 EndEventProcessing()
 0()
EndIf()
If(1,11,0,57,0)
 ChangeInventoryWeapon(1863,0,0,1,false)
 EndEventProcessing()
 0()
EndIf()
If(1,11,0,58,0)
 ChangeInventoryWeapon(1864,0,0,1,false)
 EndEventProcessing()
 0()
EndIf()
If(1,11,0,59,0)
 ChangeInventoryWeapon(1865,0,0,1,false)
 EndEventProcessing()
 0()
EndIf()
If(1,11,0,60,0)
 ChangeInventoryWeapon(1866,0,0,1,false)
 EndEventProcessing()
 0()
EndIf()
If(1,11,0,61,0)
 ChangeInventoryWeapon(1951,0,0,1,false)
 EndEventProcessing()
 0()
EndIf()
If(1,11,0,62,0)
 ChangeInventoryWeapon(1952,0,0,1,false)
 EndEventProcessing()
 0()
EndIf()
If(1,11,0,63,0)
 ChangeInventoryWeapon(1953,0,0,1,false)
 EndEventProcessing()
 0()
EndIf()
If(1,11,0,64,0)
 ChangeInventoryWeapon(1954,0,0,1,false)
 EndEventProcessing()
 0()
EndIf()
If(1,11,0,65,0)
 ChangeInventoryWeapon(1955,0,0,1,false)
 EndEventProcessing()
 0()
EndIf()
If(1,11,0,66,0)
 ChangeInventoryWeapon(1956,0,0,1,false)
 EndEventProcessing()
 0()
EndIf()
If(1,11,0,67,0)
 ChangeInventoryWeapon(1961,0,0,1,false)
 EndEventProcessing()
 0()
EndIf()
If(1,11,0,68,0)
 ChangeInventoryWeapon(1962,0,0,1,false)
 EndEventProcessing()
 0()
EndIf()
If(1,11,0,69,0)
 ChangeInventoryWeapon(1963,0,0,1,false)
 EndEventProcessing()
 0()
EndIf()
If(1,11,0,70,0)
 ChangeInventoryWeapon(1964,0,0,1,false)
 EndEventProcessing()
 0()
EndIf()
If(1,11,0,71,0)
 ChangeInventoryWeapon(1965,0,0,1,false)
 EndEventProcessing()
 0()
EndIf()
If(1,11,0,72,0)
 ChangeInventoryWeapon(1966,0,0,1,false)
 EndEventProcessing()
 0()
EndIf()
If(1,11,0,73,0)
 ChangeInventoryWeapon(2051,0,0,1,false)
 EndEventProcessing()
 0()
EndIf()
If(1,11,0,74,0)
 ChangeInventoryWeapon(2052,0,0,1,false)
 EndEventProcessing()
 0()
EndIf()
If(1,11,0,75,0)
 ChangeInventoryWeapon(2053,0,0,1,false)
 EndEventProcessing()
 0()
EndIf()
If(1,11,0,76,0)
 ChangeInventoryWeapon(2054,0,0,1,false)
 EndEventProcessing()
 0()
EndIf()
If(1,11,0,77,0)
 ChangeInventoryWeapon(2055,0,0,1,false)
 EndEventProcessing()
 0()
EndIf()
If(1,11,0,78,0)
 ChangeInventoryWeapon(2056,0,0,1,false)
 EndEventProcessing()
 0()
EndIf()
If(1,11,0,79,0)
 ChangeInventoryWeapon(2061,0,0,1,false)
 EndEventProcessing()
 0()
EndIf()
If(1,11,0,80,0)
 ChangeInventoryWeapon(2062,0,0,1,false)
 EndEventProcessing()
 0()
EndIf()
If(1,11,0,81,0)
 ChangeInventoryWeapon(2063,0,0,1,false)
 EndEventProcessing()
 0()
EndIf()
If(1,11,0,82,0)
 ChangeInventoryWeapon(2064,0,0,1,false)
 EndEventProcessing()
 0()
EndIf()
If(1,11,0,83,0)
 ChangeInventoryWeapon(2065,0,0,1,false)
 EndEventProcessing()
 0()
EndIf()
If(1,11,0,84,0)
 ChangeInventoryWeapon(2066,0,0,1,false)
 EndEventProcessing()
 0()
EndIf()
If(1,11,0,85,0)
 ChangeInventoryWeapon(2151,0,0,1,false)
 EndEventProcessing()
 0()
EndIf()
If(1,11,0,86,0)
 ChangeInventoryWeapon(2152,0,0,1,false)
 EndEventProcessing()
 0()
EndIf()
If(1,11,0,87,0)
 ChangeInventoryWeapon(2153,0,0,1,false)
 EndEventProcessing()
 0()
EndIf()
If(1,11,0,88,0)
 ChangeInventoryWeapon(2154,0,0,1,false)
 EndEventProcessing()
 0()
EndIf()
If(1,11,0,89,0)
 ChangeInventoryWeapon(2155,0,0,1,false)
 EndEventProcessing()
 0()
EndIf()
If(1,11,0,90,0)
 ChangeInventoryWeapon(2156,0,0,1,false)
 EndEventProcessing()
 0()
EndIf()
If(1,11,0,91,0)
 ChangeInventoryWeapon(2161,0,0,1,false)
 EndEventProcessing()
 0()
EndIf()
If(1,11,0,92,0)
 ChangeInventoryWeapon(2162,0,0,1,false)
 EndEventProcessing()
 0()
EndIf()
If(1,11,0,93,0)
 ChangeInventoryWeapon(2163,0,0,1,false)
 EndEventProcessing()
 0()
EndIf()
If(1,11,0,94,0)
 ChangeInventoryWeapon(2164,0,0,1,false)
 EndEventProcessing()
 0()
EndIf()
If(1,11,0,95,0)
 ChangeInventoryWeapon(2165,0,0,1,false)
 EndEventProcessing()
 0()
EndIf()
If(1,11,0,96,0)
 ChangeInventoryWeapon(2166,0,0,1,false)
 EndEventProcessing()
 0()
EndIf()
If(1,11,0,97,0)
 ChangeInventoryWeapon(2951,0,0,1,false)
 EndEventProcessing()
 0()
EndIf()
If(1,11,0,98,0)
 ChangeInventoryWeapon(2952,0,0,1,false)
 EndEventProcessing()
 0()
EndIf()
If(1,11,0,99,0)
 ChangeInventoryWeapon(2953,0,0,1,false)
 EndEventProcessing()
 0()
EndIf()
If(1,11,0,100,0)
 ChangeInventoryWeapon(2954,0,0,1,false)
 EndEventProcessing()
 0()
EndIf()
If(1,11,0,101,0)
 ChangeInventoryWeapon(2955,0,0,1,false)
 EndEventProcessing()
 0()
EndIf()
If(1,11,0,102,0)
 ChangeInventoryWeapon(2956,0,0,1,false)
 EndEventProcessing()
 0()
EndIf()
If(1,11,0,103,0)
 ChangeInventoryWeapon(2961,0,0,1,false)
 EndEventProcessing()
 0()
EndIf()
If(1,11,0,104,0)
 ChangeInventoryWeapon(2962,0,0,1,false)
 EndEventProcessing()
 0()
EndIf()
If(1,11,0,105,0)
 ChangeInventoryWeapon(2963,0,0,1,false)
 EndEventProcessing()
 0()
EndIf()
If(1,11,0,106,0)
 ChangeInventoryWeapon(2964,0,0,1,false)
 EndEventProcessing()
 0()
EndIf()
If(1,11,0,107,0)
 ChangeInventoryWeapon(2965,0,0,1,false)
 EndEventProcessing()
 0()
EndIf()
If(1,11,0,108,0)
 ChangeInventoryWeapon(2966,0,0,1,false)
 EndEventProcessing()
 0()
EndIf()
0()
