// EVENT 4217
Name "High Slug Girl 2"

If(0,25,1)
 221()
 PictureClear(5)
 PictureClear(6)
 ShowMessageFace("",0,0,2,0)
 ShowMessage("......")
 242(2)
 Wait(120)
 241(bytes(0x04,0x08,0x6f,0x3a,0x0d,0x52,0x50,0x47,0x3a,0x3a,0x42,0x47,0x4d,0x08,0x3a,0x0a,0x40,0x6e,0x61,0x6d,0x65,0x49,0x22,0x0c,0x63,0x61,0x73,0x74,0x6c,0x65,0x36,0x06,0x3a,0x06,0x45,0x54,0x3a,0x0c,0x40,0x76,0x6f,0x6c,0x75,0x6d,0x65,0x69,0x69,0x3a,0x0b,0x40,0x70,0x69,0x74,0x63,0x68,0x69,0x69))
 EndEventProcessing()
 0()
EndIf()
PictureDisplay(5,"80_highslag_st01",0,0,0,0,100,100,255,0)
ShowMessageFace("highslag_fc1",0,0,2,1)
ShowMessage("\\n<Elizabeth>Hey, are you free?\nLet's take a little walk outside...")
ShowMessageFace("",0,0,2,2)
ShowMessage("\\n<Luka>Oh, okay.")
ShowMessageFace("",0,0,2,3)
ShowMessage("Elizabeth and I go for a walk.")
241(bytes(0x04,0x08,0x6f,0x3a,0x0d,0x52,0x50,0x47,0x3a,0x3a,0x42,0x47,0x4d,0x08,0x3a,0x0a,0x40,0x6e,0x61,0x6d,0x65,0x49,0x22,0x09,0x65,0x72,0x6f,0x31,0x06,0x3a,0x06,0x45,0x54,0x3a,0x0c,0x40,0x76,0x6f,0x6c,0x75,0x6d,0x65,0x69,0x69,0x3a,0x0b,0x40,0x70,0x69,0x74,0x63,0x68,0x69,0x69))
PictureDisplay(5,"ev_highslag_hc01",0,0,0,0,100,100,0,0)
PictureMove(5,null,0,0,0,0,100,100,255,0,30,true)
ShowMessageFace("highslag_fc1",0,0,2,4)
ShowMessage("\\n<Elizabeth>Fufu... My body is nice and slimy, isn't it?")
ShowMessageFace("",0,0,2,5)
ShowMessage("\\n<Luka>S-Stop this...! Let me go!!")
ShowMessageFace("",0,0,2,6)
ShowMessage("I was suddenly bound by Elizabeth, my clothes melted away.")
ShowMessage("Her mucus is covering every inch of my body.")
ShowMessageFace("",0,0,2,7)
ShowMessage("\\n<Luka>Ah, unnngh...")
PictureDisplay(5,"ev_highslag_hc02",0,0,0,0,100,100,255,0)
ShowMessageFace("highslag_fc1",0,0,2,8)
ShowMessage("\\n<Elizabeth>Hey, do you want to mate with me?\nPour all of your semen into this reproductive hole of mine...?")
ShowMessageFace("",0,0,2,9)
ShowMessage("A pink hole appears in her lower body.")
ShowMessage("Wet with mucus, it looks strangely inviting...")
ShowMessageFace("highslag_fc1",0,0,2,10)
ShowMessage("\\n<Elizabeth>It would feel incredible if you were inside here.\nMy slug mucus is inside, too... All the way to the depths.")
ShowMessageFace("highslag_fc1",0,0,2,11)
ShowMessage("\\n<Elizabeth>Just from putting it in, any man would come in less than ten seconds.\nIf you put it in, you could come in seconds too...")
ShowMessageFace("",0,0,2,12)
ShowMessage("\\n<Luka>Ah, aaah...")
ShowMessageFace("",0,0,2,13)
ShowMessage("My eyes are drawn to her hole.")
ShowMessage("What would it feel like inside...")
ShowMessageFace("highslag_fc1",0,0,2,14)
ShowMessage("\\n<Elizabeth>Let's have some foreplay before mating.\nI'll show you some love with my body...")
ShowMessageFace("",0,0,2,15)
ShowMessage("Elizabeth's lower slug body starts to move...")
245(bytes(0x04,0x08,0x6f,0x3a,0x0d,0x52,0x50,0x47,0x3a,0x3a,0x42,0x47,0x53,0x08,0x3a,0x0a,0x40,0x6e,0x61,0x6d,0x65,0x49,0x22,0x1e,0x6d,0x6f,0x6e,0x5f,0x68,0x73,0x65,0x61,0x6e,0x31,0x31,0x5f,0x69,0x6e,0x6e,0x65,0x72,0x77,0x6f,0x72,0x6b,0x73,0x5f,0x63,0x31,0x06,0x3a,0x06,0x45,0x54,0x3a,0x0c,0x40,0x76,0x6f,0x6c,0x75,0x6d,0x65,0x69,0x69,0x3a,0x0b,0x40,0x70,0x69,0x74,0x63,0x68,0x69,0x69))
PictureDisplay(5,"ev_highslag_hc05",0,0,0,0,100,100,255,0)
ShowMessageFace("",0,0,2,16)
ShowMessage("Her mucus covered body starts to rub against me.")
ShowMessage("My body trembles as her smooth body rubs against the tip of my penis.")
ShowMessageFace("",0,0,2,17)
ShowMessage("\\n<Luka>Haau...!")
ShowMessageFace("highslag_fc1",0,0,2,18)
ShowMessage("\\n<Elizabeth>Ara...? Are you feeling it this much already? We haven't even started mating yet.\nYou wouldn't possibly come just from some foreplay, would you?")
PictureDisplay(5,"ev_highslag_hc06",0,0,0,0,100,100,255,0)
ShowMessageFace("",0,0,2,19)
ShowMessage("Elizabeth rubs her slug body against me while laughing.")
ShowMessage("Rubbing against me, her mucus covered body feels good...")
ShowMessageFace("",0,0,2,20)
ShowMessage("\\n<Luka>Aaah...")
ShowMessageFace("highslag_fc1",0,0,2,21)
ShowMessage("\\n<Elizabeth>Don't you want to stick it into me...?\nThen endure this first...")
ShowMessageFace("",0,0,2,22)
ShowMessage("Her slimy mucus clings to my penis as she rubs me.")
ShowMessage("As I squirm, she easily manipulates me.")
PictureDisplay(5,"ev_highslag_hc07",0,0,0,0,100,100,255,0)
ShowMessageFace("highslag_fc1",0,0,2,23)
ShowMessage("\\n<Elizabeth>Hora...If you come, we can't mate you know?\nYou must hold back. Fufufu...")
ShowMessageFace("",0,0,2,24)
ShowMessage("My penis slides around on her slug body.")
ShowMessage("Every time her mucus covered body rubs against my tip, I writhe in pleasure.")
ShowMessageFace("",0,0,2,25)
ShowMessage("\\n<Luka>N-noooo... I'm going to come...")
ShowMessageFace("",0,0,2,26)
ShowMessage("Just being touched by her body, I already feel myself nearing a climax.")
ShowMessage("Even though I'm not inside her, it feels too good already...")
ShowMessageFace("highslag_fc1",0,0,2,27)
ShowMessage("\\n<Elizabeth>Arara... Are you already going to come?\nEven though you wanted to come inside me so badly... That's a shame. Fufufu...")
ShowMessageFace("",0,0,2,28)
ShowMessage("\\n<Luka>N-no...This is too...")
PictureDisplay(5,"ev_highslag_hc06",0,0,0,0,100,100,255,0)
ShowMessageFace("",0,0,2,29)
ShowMessage("The soft feel of her slime...")
ShowMessage("My body trembles in the sensations.")
ShowMessageFace("",0,0,2,30)
ShowMessage("I can't hold it back any longer.")
ShowMessage("My patience at its limit, my penis starts to tremble as I let go.")
ShowMessageFace("",0,0,2,31)
ShowMessage("\\n<Luka>Ah, aaaaaah!!")
RunCommonEvent(104)
PictureDisplay(5,"ev_highslag_hc08",0,0,0,0,100,100,255,0)
RunCommonEvent(105)
ShowMessageFace("",0,0,2,32)
ShowMessage("My overflowing semen scatters all over Elizabeth's lower body.")
ShowMessage("Her mucus covered body is covered in my white semen.")
ShowMessageFace("",0,0,2,33)
ShowMessage("Before we could mate, I already came...")
ShowMessage("My body trembles in humiliation at coming too soon.")
246(2)
ShowMessageFace("highslag_fc1",0,0,2,34)
ShowMessage("\\n<Elizabeth>Fufu. Too bad...\nYou came before you could even put it in.")
ShowMessageFace("highslag_fc1",0,0,2,35)
ShowMessage("\\n<Elizabeth>We'll have to try mating some other time.\nI'd prefer not to mate with a sad penis like that.")
ShowMessageFace("",0,0,2,36)
ShowMessage("\\n<Luka>Unnngh...")
ShowMessageFace("",0,0,2,37)
ShowMessage("Elizabeth laughs at me.")
ShowMessage("I taste a miserable feeling...")
221()
PictureClear(5)
PictureClear(6)
ShowMessageFace("",0,0,2,38)
ShowMessage("......")
242(2)
Wait(120)
241(bytes(0x04,0x08,0x6f,0x3a,0x0d,0x52,0x50,0x47,0x3a,0x3a,0x42,0x47,0x4d,0x08,0x3a,0x0a,0x40,0x6e,0x61,0x6d,0x65,0x49,0x22,0x0c,0x63,0x61,0x73,0x74,0x6c,0x65,0x36,0x06,0x3a,0x06,0x45,0x54,0x3a,0x0c,0x40,0x76,0x6f,0x6c,0x75,0x6d,0x65,0x69,0x69,0x3a,0x0b,0x40,0x70,0x69,0x74,0x63,0x68,0x69,0x69))
0()
