// EVENT 5656
Name "Fernandez 1"

PictureDisplay(5,"80_cirqueb_st01",0,0,0,0,100,100,255,0)
ShowMessageFace("cirqueb_fc1",0,0,2,1)
ShowMessage("\\n<Fernandez>")
ShowMessage("You want to use my female genitalia...?")
ShowMessageFace("",0,0,2,2)
ShowMessage("\\n<Luka>Y-Yes... Please...")
ShowMessageFace("cirqueb_fc1",0,0,2,3)
ShowMessage("\\n<Fernandez>")
ShowMessage("...There's no helping it.")
ShowMessage("Come to my room.")
ShowMessageFace("",0,0,2,4)
ShowMessage("I follow her to their room...")
221()
PictureDisplay(1,"bg195",0,0,0,0,100,100,255,0)
PictureDisplay(5,"ev_cirque_ha03",0,0,0,0,100,100,255,0)
222()
241(bytes(0x04,0x08,0x6f,0x3a,0x0d,0x52,0x50,0x47,0x3a,0x3a,0x42,0x47,0x4d,0x08,0x3a,0x0a,0x40,0x6e,0x61,0x6d,0x65,0x49,0x22,0x09,0x65,0x72,0x6f,0x31,0x06,0x3a,0x06,0x45,0x54,0x3a,0x0c,0x40,0x76,0x6f,0x6c,0x75,0x6d,0x65,0x69,0x69,0x3a,0x0b,0x40,0x70,0x69,0x74,0x63,0x68,0x69,0x69))
ShowMessageFace("cirqueb_fc1",0,0,2,5)
ShowMessage("\\n<Fernandez>")
ShowMessage("You said you wanted to stick it in, yes?")
ShowMessage("But are you truly qualified to do that?")
ShowMessageFace("",0,0,2,6)
ShowMessage("Fernandez presses her ass against me.")
ShowMessage("Her soft, cold body comes in close contact with me.")
ShowMessageFace("",0,0,2,7)
ShowMessage("\\n<Luka>Hauuu.. What are you...?")
ShowMessageFace("cirqueb_fc1",0,0,2,8)
ShowMessage("\\n<Fernandez>")
ShowMessage("It's too soon to have sex.")
ShowMessage("Be satisfied with this...")
PictureDisplay(5,"ev_cirque_ha05",0,0,0,0,100,100,255,0)
ShowMessageFace("",0,0,2,9)
ShowMessage("Fernandez presses her ass against my erect penis.")
ShowMessage("Her soft butt crushes me against her.")
ShowMessageFace("",0,0,2,10)
ShowMessage("\\n<Luka>Hauuu!")
ShowMessageFace("cirqueb_fc1",0,0,2,11)
ShowMessage("\\n<Fernandez>")
ShowMessage("If you want to use my genitalia, endure this.")
ShowMessage("If you soil my ass with semen, you aren't qualified to go any further.")
245(bytes(0x04,0x08,0x6f,0x3a,0x0d,0x52,0x50,0x47,0x3a,0x3a,0x42,0x47,0x53,0x08,0x3a,0x0a,0x40,0x6e,0x61,0x6d,0x65,0x49,0x22,0x17,0x6d,0x6f,0x6e,0x5f,0x68,0x73,0x65,0x61,0x6e,0x31,0x37,0x5f,0x73,0x69,0x67,0x6f,0x6b,0x69,0x06,0x3a,0x06,0x45,0x54,0x3a,0x0c,0x40,0x76,0x6f,0x6c,0x75,0x6d,0x65,0x69,0x55,0x3a,0x0b,0x40,0x70,0x69,0x74,0x63,0x68,0x69,0x69))
ShowMessageFace("",0,0,2,12)
ShowMessage("Fernandez slowly starts to move.")
ShowMessage("Stuck under her ass, the pressure causes her soft ass to rub against me.")
ShowMessageFace("",0,0,2,13)
ShowMessage("\\n<Luka>A-Ahhh...")
ShowMessageFace("",0,0,2,14)
ShowMessage("Her soft ass crushes my penis.")
ShowMessage("Sliding against her, my penis grinds against her.")
ShowMessageFace("",0,0,2,15)
ShowMessage("Despite the pressure, her soft skin feels good.")
ShowMessage("I start quivering as I submit to Fernandez's grinding.")
ShowMessageFace("",0,0,2,16)
ShowMessage("\\n<Luka>Hauuu...")
ShowMessageFace("cirqueb_fc1",0,0,2,17)
ShowMessage("\\n<Fernandez>")
ShowMessage("You're already defenseless...")
ShowMessage("You'll finish in no time at this rate.")
ShowMessageFace("",0,0,2,18)
ShowMessage("\\n<Luka>Ah...! Ahhh!")
ShowMessageFace("",0,0,2,19)
ShowMessage("Fernandez moves up and down, left and right, grinding hard against me.")
ShowMessage("With her full weight on me, my penis is pressed hard into her ass.")
ShowMessageFace("",0,0,2,20)
ShowMessage("Her skilled movements leave me on the brink in no time at all.")
ShowMessageFace("",0,0,2,21)
ShowMessage("\\n<Luka>Auhh... I-I'm going to come...!")
ShowMessageFace("",0,0,2,22)
ShowMessage("Suddenly, I feel a desire to climax rise in me.")
ShowMessage("My penis, crushed by her ass, twitches in ecstasy.")
ShowMessageFace("cirqueb_fc1",0,0,2,23)
ShowMessage("\\n<Fernandez>")
ShowMessage("This is the finish... Come.")
ShowMessageFace("",0,0,2,24)
ShowMessage("Fernandez puts even more weight on my penis.")
ShowMessage("Sinking into her soft ass, I'm pushed over the edge.")
ShowMessageFace("",0,0,2,25)
ShowMessage("\\n<Luka>A-Ahhhh!!")
RunCommonEvent(104)
PictureDisplay(5,"ev_cirque_ha06",0,0,0,0,100,100,255,0)
RunCommonEvent(105)
246(2)
ShowMessageFace("",0,0,2,26)
ShowMessage("I come all too quickly.")
ShowMessage("My semen shoots out, covering Fernandez's ass.")
ShowMessageFace("",0,0,2,27)
ShowMessage("\\n<Luka>Hauu...")
ShowMessageFace("cirqueb_fc1",0,0,2,28)
ShowMessage("\\n<Fernandez>")
ShowMessage("You soiled my ass so easily...")
ShowMessage("Indeed, it's far too soon for you to dream of using my genitalia itself.")
ShowMessageFace("",0,0,2,29)
ShowMessage("\\n<Luka>.........")
ShowMessageFace("",0,0,2,30)
ShowMessage("She used her ass to make me come so easily.")
ShowMessage("I wallow in the misery of my shortcomings...")
221()
PictureClear(5)
PictureClear(6)
ShowMessageFace("",0,0,2,31)
ShowMessage("......")
RunCommonEvent(3998)
0()
