// EVENT 4471
Name "Frederica 1"

If(0,25,1)
 221()
 PictureClear(5)
 PictureClear(6)
 ShowMessageFace("",0,0,2,0)
 ShowMessage("......")
 242(2)
 Wait(120)
 241(bytes(0x04,0x08,0x6f,0x3a,0x0d,0x52,0x50,0x47,0x3a,0x3a,0x42,0x47,0x4d,0x08,0x3a,0x0a,0x40,0x6e,0x61,0x6d,0x65,0x49,0x22,0x0c,0x63,0x61,0x73,0x74,0x6c,0x65,0x36,0x06,0x3a,0x06,0x45,0x54,0x3a,0x0c,0x40,0x76,0x6f,0x6c,0x75,0x6d,0x65,0x69,0x69,0x3a,0x0b,0x40,0x70,0x69,0x74,0x63,0x68,0x69,0x69))
 EndEventProcessing()
 0()
EndIf()
PictureDisplay(5,"80_frederika_st02",0,0,0,0,100,100,255,0)
ShowMessageFace("chrom_fc2",0,0,2,1)
ShowMessage("\\n<Chrome>Hey Luka, I want to teach Frederica something...\nCould you help me out for a moment?")
ShowMessageFace("",0,0,2,2)
ShowMessage("\\n<Luka>Ok, I'll help.")
ShowMessageFace("chrom_fc2",2,0,2,3)
ShowMessage("\\n<Chrome>All right, then please come here.\n...Kukuku.")
ShowMessageFace("",0,0,2,4)
ShowMessage("I follow Chrome to a private room...")
221()
PictureDisplay(1,"bg195",0,0,0,0,100,100,255,0)
PictureDisplay(5,"ev_frederika_hb1",0,0,0,0,100,100,255,0)
222()
241(bytes(0x04,0x08,0x6f,0x3a,0x0d,0x52,0x50,0x47,0x3a,0x3a,0x42,0x47,0x4d,0x08,0x3a,0x0a,0x40,0x6e,0x61,0x6d,0x65,0x49,0x22,0x09,0x65,0x72,0x6f,0x31,0x06,0x3a,0x06,0x45,0x54,0x3a,0x0c,0x40,0x76,0x6f,0x6c,0x75,0x6d,0x65,0x69,0x69,0x3a,0x0b,0x40,0x70,0x69,0x74,0x63,0x68,0x69,0x69))
245(bytes(0x04,0x08,0x6f,0x3a,0x0d,0x52,0x50,0x47,0x3a,0x3a,0x42,0x47,0x53,0x08,0x3a,0x0a,0x40,0x6e,0x61,0x6d,0x65,0x49,0x22,0x17,0x6d,0x6f,0x6e,0x5f,0x68,0x73,0x65,0x61,0x6e,0x31,0x37,0x5f,0x73,0x69,0x67,0x6f,0x6b,0x69,0x06,0x3a,0x06,0x45,0x54,0x3a,0x0c,0x40,0x76,0x6f,0x6c,0x75,0x6d,0x65,0x69,0x55,0x3a,0x0b,0x40,0x70,0x69,0x74,0x63,0x68,0x69,0x69))
ShowMessageFace("",0,0,2,5)
ShowMessage("\\n<Luka>...Uwa! What are you doing!?")
ShowMessageFace("",0,0,2,6)
ShowMessage("As soon as I enter the room, my clothes are ripped off.")
ShowMessage("And Frederica's huge body bends over my lower body!")
ShowMessageFace("frederika_fc1",1,0,2,7)
ShowMessage("\\n<Frederica>Learn...")
ShowMessageFace("chrom_fc2",2,0,2,8)
ShowMessage("\\n<Chrome>Kuku, I need to teach her sex techniques.\nNow, Frederica! Milk Luka!")
ShowMessageFace("",0,0,2,9)
ShowMessage("\\n<Luka>Ooooh...!")
ShowMessageFace("",0,0,2,10)
ShowMessage("Her huge breasts catch my penis between them.")
ShowMessage("Caught between them, I feel the sweet sensation of her soft breasts.")
ShowMessageFace("",0,0,2,11)
ShowMessage("Her breasts are so heavy, I can't escape.")
ShowMessage("Caught between her huge breasts, I can only feebly struggle.")
ShowMessageFace("chrom_fc2",2,0,2,12)
ShowMessage("\\n<Chrome>Kuku... Even though they're gigantic, aren't they soft?\nOk Frederica, use them with everything you've got!")
ShowMessageFace("frederika_fc1",1,0,2,13)
ShowMessage("\\n<Frederica>Understood...")
ShowMessageFace("",0,0,2,14)
ShowMessage("Frederica grabs her breasts with both hands, and starts to knead my penis between them.")
ShowMessage("The soft touch of her rubbing me fills my body.")
ShowMessageFace("",0,0,2,15)
ShowMessage("My penis trembles as it's buried in her chest.")
ShowMessage("The unexpected softness of her breasts rubbing against me causes my waist to jerk forward in ecstasy.")
ShowMessageFace("",0,0,2,16)
ShowMessage("\\n<Luka>N-noooo... I'm coming...!")
ShowMessageFace("chrom_fc2",2,0,2,17)
ShowMessage("\\n<Chrome>Sheesh, you're already going to come?\nOk Frederica, finish him!")
ShowMessageFace("frederika_fc1",1,0,2,18)
ShowMessage("\\n<Frederica>Understood... Making him come...")
ShowMessageFace("",0,0,2,19)
ShowMessage("Frederica moves her breasts more intensely, tossing my penis side to side.")
ShowMessage("Tasting the crushing pressure of her giant breasts, I reach my limit.")
ShowMessageFace("",0,0,2,20)
ShowMessage("\\n<Luka>Ah, aaaah...!")
RunCommonEvent(104)
PictureDisplay(5,"ev_frederika_hb2",0,0,0,0,100,100,255,0)
RunCommonEvent(105)
ShowMessageFace("",0,0,2,21)
ShowMessage("My semen shoots out, covering Frederica's breasts.")
ShowMessage("All during my orgasm, her kneading movements never stop.")
ShowMessageFace("",0,0,2,22)
ShowMessage("\\n<Luka>Unnngh...")
ShowMessageFace("chrom_fc2",2,0,2,23)
ShowMessage("\\n<Chrome>Kuku, he came already.\nThis isn't enough to teach Frederica...")
ShowMessageFace("chrom_fc2",2,0,2,24)
ShowMessage("\\n<Chrome>All right Frederica, keep going.\nMake him come again with your tit fuck!")
ShowMessageFace("frederika_fc1",1,0,2,25)
ShowMessage("\\n<Frederica>Understood... Continue...")
ShowMessageFace("",0,0,2,26)
ShowMessage("\\n<Luka>Nnngh...Ah, stop!")
ShowMessageFace("",0,0,2,27)
ShowMessage("My penis, sensitive after my orgasm, is crushed between her breasts.")
ShowMessage("My body trembles at the soft, crazy stimulus.")
ShowMessageFace("",0,0,2,28)
ShowMessage("But now even weaker after my orgasm, I can't escape from her giant breasts.")
ShowMessage("I can only endure the intense pleasure.")
ShowMessageFace("",0,0,2,29)
ShowMessage("\\n<Luka>Ah, aaah... Aieee!!")
ShowMessageFace("chrom_fc2",2,0,2,30)
ShowMessage("\\n<Chrome>Kuku, look at him squirming.\nIs Frederica's tit fuck that good?")
ShowMessageFace("chrom_fc2",2,0,2,31)
ShowMessage("\\n<Chrome>All right, don't slow down!\nFrederica, make him come right away!")
ShowMessageFace("frederika_fc1",1,0,2,32)
ShowMessage("\\n<Frederica>Understood...")
ShowMessageFace("",0,0,2,33)
ShowMessage("Frederica puts more strength into her hands, and presses her breasts together even harder.")
ShowMessage("The incredible feeling makes my head go pure white.")
ShowMessageFace("",0,0,2,34)
ShowMessage("It's a pleasure like heaven itself.")
ShowMessage("My penis is smashed between her gigantic, soft breasts...")
RunCommonEvent(104)
PictureDisplay(5,"ev_frederika_hb3",0,0,0,0,100,100,255,0)
RunCommonEvent(105)
ShowMessageFace("",0,0,2,35)
ShowMessage("\\n<Luka>Hyaaa...!")
ShowMessageFace("",0,0,2,36)
ShowMessage("Ecstasy floods me as I explode on her chest.")
ShowMessage("Weak after my second climax, I sigh in bliss and relax.")
246(2)
ShowMessageFace("chrom_fc2",2,0,2,37)
ShowMessage("\\n<Chrome>Kuku, he came so much.\nFrederica's tit fuck seems quite good.")
ShowMessageFace("chrom_fc2",2,0,2,38)
ShowMessage("\\n<Chrome>Let me know if you want to taste it again.\nI'll let you drown in the finest breasts ever made, whenever.")
ShowMessageFace("",0,0,2,39)
ShowMessage("\\n<Luka>......")
ShowMessageFace("",0,0,2,40)
ShowMessage("I can't even reply any longer.")
ShowMessage("I'm too immersed in ecstasy underneath Frederica's breasts...")
221()
PictureClear(5)
PictureClear(6)
ShowMessageFace("",0,0,2,41)
ShowMessage("......")
242(2)
Wait(120)
241(bytes(0x04,0x08,0x6f,0x3a,0x0d,0x52,0x50,0x47,0x3a,0x3a,0x42,0x47,0x4d,0x08,0x3a,0x0a,0x40,0x6e,0x61,0x6d,0x65,0x49,0x22,0x0c,0x63,0x61,0x73,0x74,0x6c,0x65,0x36,0x06,0x3a,0x06,0x45,0x54,0x3a,0x0c,0x40,0x76,0x6f,0x6c,0x75,0x6d,0x65,0x69,0x69,0x3a,0x0b,0x40,0x70,0x69,0x74,0x63,0x68,0x69,0x69))
0()
