// EVENT 0003
Name "Pocket Castle"

If(0,100,0)
 ShowMessageFace("",0,0,2,1)
 ShowMessage("You can't use that here!")
 EndEventProcessing()
 0()
EndIf()
If(12,"!$game_player.normal_walk?")
 ShowMessageFace("",0,0,2,2)
 ShowMessage("You can only use this on land!")
 EndEventProcessing()
 0()
EndIf()
If(12,"$game_map.field?")
 ChangeVariable(21,21,0,3,7,0,0)
 ChangeVariable(22,22,0,3,5,-1,0)
 ChangeVariable(23,23,0,3,5,-1,1)
 250(bytes(0x04,0x08,0x6f,0x3a,0x0c,0x52,0x50,0x47,0x3a,0x3a,0x53,0x45,0x08,0x3a,0x0a,0x40,0x6e,0x61,0x6d,0x65,0x49,0x22,0x0b,0x4d,0x61,0x67,0x69,0x63,0x32,0x06,0x3a,0x06,0x45,0x54,0x3a,0x0b,0x40,0x70,0x69,0x74,0x63,0x68,0x69,0x69,0x3a,0x0c,0x40,0x76,0x6f,0x6c,0x75,0x6d,0x65,0x69,0x55))
 TeleportPlayer(0,126,15,14,2,1)
 0()
Else()
 ShowMessageFace("",0,0,2,3)
 ShowMessage("You can't use that here!")
 EndEventProcessing()
 0()
EndIf()
0()
