// EVENT 0304
Name "Camp 3"

ChangeSwitch(2087,2087,0)
ChangeSwitch(100,100,0)
ChangeVariable(53,53,0,3,5,-1,0)
ChangeVariable(54,54,0,3,5,-1,1)
223(bytes(0x04,0x08,0x75,0x3a,0x09,0x54,0x6f,0x6e,0x65,0x25,0x00,0x00,0x00,0x00,0x00,0x00,0x51,0x40,0x00,0x00,0x00,0x00,0x00,0x00,0x41,0xc0,0x00,0x00,0x00,0x00,0x00,0x00,0x41,0xc0,0x00,0x00,0x00,0x00,0x00,0x00,0x00,0x00),60,true)
ShowMessageFace("ruka_fc1",0,0,2,1)
ShowMessage("\\n<Luka>It's getting dark...\nLet's make camp at this oasis.")
If(0,6,0)
 ShowMessageFace("sonia_fc4",0,0,2,2)
 ShowMessage("\\n<Sonya>So hooooot! I'm beat!")
 0()
EndIf()
If(0,4,0)
 ShowMessageFace("alice_fc5",1,0,2,3)
 ShowMessage("\\n<Alice>What's for dinner tonight!?")
 0()
EndIf()
If(0,5,0)
 ShowMessageFace("iriasu_fc4",0,0,2,4)
 ShowMessage("\\n<Ilias>What's on the menu for tonight?")
 0()
EndIf()
ShowMessageFace("ruka_fc1",0,0,2,5)
ShowMessage("\\n<Luka>......")
221()
216(1)
TeleportPlayer(0,604,8,7,8,2)
223(bytes(0x04,0x08,0x75,0x3a,0x09,0x54,0x6f,0x6e,0x65,0x25,0x00,0x00,0x00,0x00,0x00,0x00,0x51,0xc0,0x00,0x00,0x00,0x00,0x00,0x00,0x51,0xc0,0x00,0x00,0x00,0x00,0x00,0x00,0x00,0x00,0x00,0x00,0x00,0x00,0x00,0x00,0x51,0x40),1,true)
Wait(120)
222()
ShowMessageFace("ruka_fc1",0,0,2,6)
ShowMessage("\\n<Luka>Ah, that hit the spot!")
If(0,4,0)
 ShowMessageFace("alice_fc5",1,0,2,7)
 ShowMessage("\\n<Alice>Your cooking is truly marvelous. I'm going to fire Tamamo and hire you in her place.")
 0()
EndIf()
If(0,5,0)
 ShowMessageFace("iriasu_fc4",1,0,2,8)
 ShowMessage("\\n<Ilias>Your skill at cooking is second to none. I'm almost considering replacing Eden with you...")
 0()
EndIf()
ShowMessageFace("ruka_fc1",0,0,2,9)
ShowMessage("\\n<Luka>Oh come on...\nEheh, hehehe...")
If(0,6,0)
 ShowMessageFace("sonia_fc3",2,0,2,10)
 ShowMessage("\\n<Sonya>Gross!")
 0()
EndIf()
ShowMessageFace("",0,0,2,11)
ShowMessage("It's too early to go to sleep. Maybe I should kill some time before returning to my tent.")
EndEventProcessing()
0()
