// EVENT 5041
Name "Jelly Girl"

PictureDisplay(5,"80_jelly_st02",0,0,0,0,100,100,0,0)
PictureMove(5,null,0,0,0,0,100,100,255,0,30,true)
ShowMessageFace("jelly_fc1",0,0,2,1)
ShowMessage("\\n<Jellil>")
ShowMessage("Do you want to feel good...?")
ShowMessageFace("",0,0,2,2)
ShowMessage("\\n<Luka>")
ShowMessage("Y-Yes please...")
ShowMessageFace("jelly_fc1",1,0,2,3)
ShowMessage("\\n<Jellil>")
ShowMessage("Well then, I'll wrap around you...")
241(bytes(0x04,0x08,0x6f,0x3a,0x0d,0x52,0x50,0x47,0x3a,0x3a,0x42,0x47,0x4d,0x08,0x3a,0x0a,0x40,0x6e,0x61,0x6d,0x65,0x49,0x22,0x09,0x65,0x72,0x6f,0x31,0x06,0x3a,0x06,0x45,0x54,0x3a,0x0c,0x40,0x76,0x6f,0x6c,0x75,0x6d,0x65,0x69,0x69,0x3a,0x0b,0x40,0x70,0x69,0x74,0x63,0x68,0x69,0x69))
245(bytes(0x04,0x08,0x6f,0x3a,0x0d,0x52,0x50,0x47,0x3a,0x3a,0x42,0x47,0x53,0x08,0x3a,0x0a,0x40,0x6e,0x61,0x6d,0x65,0x49,0x22,0x17,0x6d,0x6f,0x6e,0x5f,0x68,0x73,0x65,0x61,0x6e,0x31,0x38,0x5f,0x73,0x6c,0x69,0x6d,0x65,0x31,0x06,0x3a,0x06,0x45,0x54,0x3a,0x0c,0x40,0x76,0x6f,0x6c,0x75,0x6d,0x65,0x69,0x55,0x3a,0x0b,0x40,0x70,0x69,0x74,0x63,0x68,0x69,0x69))
PictureDisplay(5,"ev_jelly_h3",0,0,0,0,100,100,255,0)
ShowMessageFace("",0,0,2,4)
ShowMessage("Standing there defenseless, Jellil leans over me and restrains me.")
ShowMessageFace("",0,0,2,5)
ShowMessage("\\n<Luka>")
ShowMessage("Uaa!")
ShowMessageFace("",0,0,2,6)
ShowMessage("Jellil's soft slimy body slowly tightens around me, holding me in place inside her.")
ShowMessageFace("jelly_fc1",1,0,2,7)
ShowMessage("\\n<Jellil>")
ShowMessage("Your penis... It's still big...")
ShowMessageFace("",0,0,2,8)
ShowMessage("The soft slime around my penis starts to compress.")
ShowMessageFace("",0,0,2,9)
ShowMessage("It slowly thickens until my penis is surrounded by and pushed on all sides by her elastic slime.")
ShowMessageFace("jelly_fc1",1,0,2,10)
ShowMessage("\\n<Jellil>")
ShowMessage("Does my slime... Feel good...?")
ShowMessage("I'll make it... Even better...")
ShowMessageFace("",0,0,2,11)
ShowMessage("\\n<Luka>")
ShowMessage("Ah, aaaah...!!")
ShowMessageFace("",0,0,2,12)
ShowMessage("The slime around my penis starts to wriggle, making wet sounds as the soft jelly pulses around me.")
ShowMessageFace("",0,0,2,13)
ShowMessage("The soft slime gently tightens around me, as it freely flows all directions around my penis.")
ShowMessageFace("",0,0,2,14)
ShowMessage("\\n<Luka>")
ShowMessage("Ahh...! That feels good...!")
ShowMessageFace("",0,0,2,15)
ShowMessage("This stimulation is enough to make any man surrender...")
ShowMessage("I too can't bring myself to resist the slime squirming around my lower body.")
ShowMessageFace("jelly_fc1",1,0,2,16)
ShowMessage("\\n<Jellil>")
ShowMessage("When you can't take it any longer, just come...")
ShowMessageFace("",0,0,2,17)
ShowMessage("\\n<Luka>")
ShowMessage("Huaaa...")
ShowMessageFace("",0,0,2,18)
ShowMessage("At times tightening, and at times swirling around and massaging me, Jellil freely controls her own body to play with me.")
ShowMessageFace("",0,0,2,19)
ShowMessage("The liquid nature of the slime even lets it poke inside the tip of my penis, gently rubbing against the most sensitive spot on my body.")
ShowMessageFace("",0,0,2,20)
ShowMessage("\\n<Luka>")
ShowMessage("Haaa! Ahhh!")
ShowMessageFace("jelly_fc1",1,0,2,21)
ShowMessage("\\n<Jellil>")
ShowMessage("I'll make your penis feel good...")
ShowMessageFace("",0,0,2,22)
ShowMessage("The slime around my body continues to freely change its shape as it attacks me however Jellil wants.")
ShowMessageFace("",0,0,2,23)
ShowMessage("With nothing but her warm slime body around me, I can only shake my head helplessly as I'm forced to a quick orgasm.")
ShowMessageFace("",0,0,2,24)
ShowMessage("\\n<Luka>")
ShowMessage("Ahhh... I'm coming...")
ShowMessageFace("jelly_fc1",1,0,2,25)
ShowMessage("\\n<Jellil>")
ShowMessage("Fill my blue body with your white semen...")
ShowMessageFace("",0,0,2,26)
ShowMessage("Her body movements get even faster, trying to force me to come right away.")
ShowMessageFace("",0,0,2,27)
ShowMessage("Enveloped in her warm body, I don't have any choice but to give in to the stimulation.")
RunCommonEvent(104)
PictureDisplay(5,"ev_jelly_h4",0,0,0,0,100,100,255,0)
RunCommonEvent(105)
ShowMessageFace("",0,0,2,28)
ShowMessage("Semen explodes from the tip of my penis, only able to come out an inch into her body before it stops.")
ShowMessageFace("",0,0,2,29)
ShowMessage("All during my ejaculation, her soft slime continues to wriggle and squeeze me, forcing every drop of semen out into her waiting body.")
ShowMessageFace("",0,0,2,30)
ShowMessage("\\n<Luka>")
ShowMessage("Hnnaaa...")
ShowMessageFace("jelly_fc1",1,0,2,31)
ShowMessage("\\n<Jellil>")
ShowMessage("You can come more, right...? Come more...")
245(bytes(0x04,0x08,0x6f,0x3a,0x0d,0x52,0x50,0x47,0x3a,0x3a,0x42,0x47,0x53,0x08,0x3a,0x0a,0x40,0x6e,0x61,0x6d,0x65,0x49,0x22,0x17,0x6d,0x6f,0x6e,0x5f,0x68,0x73,0x65,0x61,0x6e,0x31,0x39,0x5f,0x73,0x6c,0x69,0x6d,0x65,0x32,0x06,0x3a,0x06,0x45,0x54,0x3a,0x0c,0x40,0x76,0x6f,0x6c,0x75,0x6d,0x65,0x69,0x55,0x3a,0x0b,0x40,0x70,0x69,0x74,0x63,0x68,0x69,0x69))
ShowMessageFace("",0,0,2,32)
ShowMessage("As I helplessly float in her body, her slime starts massaging my body even more violently than before.")
ShowMessageFace("",0,0,2,33)
ShowMessage("Overpowered by the warm, comfortable slime, just trying to struggle a little bit only makes it feel like I'm thrusting inside her.")
ShowMessageFace("",0,0,2,34)
ShowMessage("With my entire body encased in her springy slime, there's no escape.")
ShowMessage("I can't break free of her body any longer...")
ShowMessageFace("",0,0,2,35)
ShowMessage("\\n<Luka>")
ShowMessage("Ahhh!")
ShowMessageFace("",0,0,2,36)
ShowMessage("The soft slime around my penis gets a little bit tighter as it swirls around my penis, forcing me to another quick orgasm.")
ShowMessageFace("",0,0,2,37)
ShowMessage("\\n<Luka>")
ShowMessage("Haaaa... Again... Coming again...")
RunCommonEvent(104)
PictureDisplay(5,"ev_jelly_h5",0,0,0,0,100,100,255,0)
RunCommonEvent(105)
ShowMessageFace("",0,0,2,38)
ShowMessage("I let out a soft moan as I come inside her again.")
ShowMessage("Looking down in shame, I watch the semen slowly bubble up in her transparent body.")
ShowMessageFace("",0,0,2,39)
ShowMessage("Her blue body moves around inside, milking out the last drop of semen from my orgasm, all while I look on, watching it mix with her body.")
ShowMessageFace("",0,0,2,40)
ShowMessage("\\n<Luka>")
ShowMessage("Nnngh...")
ShowMessageFace("jelly_fc1",1,0,2,41)
ShowMessage("\\n<Jellil>")
ShowMessage("You can come more, right...?")
ShowMessage("I'll squeeze it all out, don't worry...")
ShowMessageFace("",0,0,2,42)
ShowMessage("\\n<Luka>")
ShowMessage("Stop it already...")
ShowMessageFace("",0,0,2,43)
ShowMessage("But her merciless squeezing continues.")
ShowMessageFace("",0,0,2,44)
ShowMessage("With my body encased in hers, I float here helplessly as she skillfully manipulates her free flowing body to squeeze and milk out my semen.")
ShowMessageFace("",0,0,2,45)
ShowMessage("\\n<Luka>")
ShowMessage("Auuuu...")
ShowMessageFace("",0,0,2,46)
ShowMessage("And before I was even aware of it, I had given up.")
RunCommonEvent(104)
PictureDisplay(5,"ev_jelly_h6",0,0,0,0,100,100,255,0)
RunCommonEvent(105)
ShowMessageFace("",0,0,2,47)
ShowMessage("With no way to escape, I relax inside her warm body as her slime fills me with pleasure.")
ShowMessageFace("",0,0,2,48)
ShowMessage("\\n<Luka>")
ShowMessage("Ah, aaah...")
ShowMessageFace("",0,0,2,49)
ShowMessage("Relaxing inside her body, I quickly come again.")
ShowMessageFace("jelly_fc1",1,0,2,50)
ShowMessage("\\n<Jellil>")
ShowMessage("Come on... Come more...")
ShowMessage("Fill me with everything...")
ShowMessageFace("",0,0,2,51)
ShowMessage("\\n<Luka>")
ShowMessage("Ah, aaah...")
RunCommonEvent(104)
RunCommonEvent(105)
ShowMessageFace("",0,0,2,52)
ShowMessage("Coming a final time, I lose consciousness.")
ShowMessage("The only sensation I can feel as I drift off into sleep is her warm slime wriggling around my body.")
221()
PictureClear(5)
PictureClear(6)
246(2)
ShowMessageFace("",0,0,2,53)
ShowMessage("......")
RunCommonEvent(3998)
0()
