// EVENT 5631
Name "Chimera Beast 1"

PictureDisplay(5,"80_c_beast_st02",0,0,0,0,100,100,0,0)
PictureMove(5,null,0,0,0,0,100,100,255,0,30,true)
ShowMessageFace("",0,0,2,1)
ShowMessage("\\n<Luka>")
ShowMessage("P-please...")
ShowMessageFace("c_beast_fc1",0,0,2,2)
ShowMessage("\\n<Gabby>")
ShowMessage("Beginning rape program... Phase 1 initiated... Bind with tail.")
250(bytes(0x04,0x08,0x6f,0x3a,0x0c,0x52,0x50,0x47,0x3a,0x3a,0x53,0x45,0x08,0x3a,0x0a,0x40,0x6e,0x61,0x6d,0x65,0x49,0x22,0x16,0x6d,0x6f,0x6e,0x5f,0x65,0x72,0x6f,0x5f,0x6d,0x61,0x6b,0x69,0x74,0x75,0x6b,0x69,0x32,0x06,0x3a,0x06,0x45,0x54,0x3a,0x0b,0x40,0x70,0x69,0x74,0x63,0x68,0x69,0x69,0x3a,0x0c,0x40,0x76,0x6f,0x6c,0x75,0x6d,0x65,0x69,0x69))
ShowMessageFace("",0,0,2,3)
ShowMessage("Gabby's tail wraps around my body, forcing my legs open.")
241(bytes(0x04,0x08,0x6f,0x3a,0x0d,0x52,0x50,0x47,0x3a,0x3a,0x42,0x47,0x4d,0x08,0x3a,0x0a,0x40,0x6e,0x61,0x6d,0x65,0x49,0x22,0x09,0x65,0x72,0x6f,0x31,0x06,0x3a,0x06,0x45,0x54,0x3a,0x0c,0x40,0x76,0x6f,0x6c,0x75,0x6d,0x65,0x69,0x69,0x3a,0x0b,0x40,0x70,0x69,0x74,0x63,0x68,0x69,0x69))
PictureDisplay(5,"ev_c_beast_h1",0,0,0,0,100,100,255,0)
ShowMessageFace("c_beast_fc1",0,0,2,4)
ShowMessage("\\n<Gabby>")
ShowMessage("Erection confirmed...")
ShowMessageFace("",0,0,2,5)
ShowMessage("Gabby's lifeless eyes move toward my penis.")
ShowMessageFace("",0,0,2,6)
ShowMessage("It's like she isn't alive at all, just soullessly following imaginary orders...")
ShowMessageFace("c_beast_fc1",0,0,2,7)
ShowMessage("\\n<Gabby>")
ShowMessage("Humiliation function called... Phase 2 starting, begin tongue use...")
245(bytes(0x04,0x08,0x6f,0x3a,0x0d,0x52,0x50,0x47,0x3a,0x3a,0x42,0x47,0x53,0x08,0x3a,0x0a,0x40,0x6e,0x61,0x6d,0x65,0x49,0x22,0x10,0x6d,0x6f,0x6e,0x5f,0x68,0x76,0x6f,0x69,0x63,0x65,0x31,0x06,0x3a,0x06,0x45,0x54,0x3a,0x0c,0x40,0x76,0x6f,0x6c,0x75,0x6d,0x65,0x69,0x55,0x3a,0x0b,0x40,0x70,0x69,0x74,0x63,0x68,0x69,0x69))
PictureDisplay(5,"ev_c_beast_h2",0,0,0,0,100,100,255,0)
ShowMessageFace("",0,0,2,8)
ShowMessage("Tongues grow from Gabby's mouth, winding around my penis...")
ShowMessageFace("",0,0,2,9)
ShowMessage("\\n<Luka>")
ShowMessage("Auuuu...!")
ShowMessageFace("",0,0,2,10)
ShowMessage("Her tongues crawl around me, wrapping around me from the balls to the tip of my penis...")
ShowMessageFace("",0,0,2,11)
ShowMessage("I struggle in her grip as her tongues squirm and squeeze me as they wrap me up tighter and tighter.")
ShowMessageFace("c_beast_fc1",0,0,2,12)
ShowMessage("\\n<Gabby>")
ShowMessage("Secrete saliva to increase stimulation...")
ShowMessageFace("",0,0,2,13)
ShowMessage("\\n<Luka>")
ShowMessage("Hyaaaaa...!")
ShowMessageFace("",0,0,2,14)
ShowMessage("Warm saliva starts to leak from her tongues, covering my penis in her sticky juices.")
ShowMessageFace("",0,0,2,15)
ShowMessage("Now lubricated, her tongues slip easier over my penis, moving even faster than before...")
ShowMessageFace("c_beast_fc1",0,0,2,16)
ShowMessage("\\n<Gabby>")
ShowMessage("Imminent ejaculation signs noticed... Starting final tongue phase...")
ShowMessageFace("",0,0,2,17)
ShowMessage("\\n<Luka>")
ShowMessage("Aaaaaaaah!")
ShowMessageFace("",0,0,2,18)
ShowMessage("Her tongues start to lick me in unison, making it feel like my penis is caught in a whirlpool of tongues.")
ShowMessageFace("",0,0,2,19)
ShowMessage("Then, all at once, her tongues wrap around me and start squeezing every inch of my penis...")
ShowMessageFace("",0,0,2,20)
ShowMessage("Unable to take the sudden burst of pleasure, I thrust upwards as my body starts to ache for release...")
ShowMessageFace("",0,0,2,21)
ShowMessage("\\n<Luka>")
ShowMessage("Aaaah...! I'm going to come...!")
ShowMessageFace("",0,0,2,22)
ShowMessage("My hips shoot up as I give myself over to the feeling of release...")
RunCommonEvent(104)
PictureDisplay(5,"ev_c_beast_h3",0,0,0,0,100,100,255,0)
RunCommonEvent(105)
ShowMessageFace("",0,0,2,23)
ShowMessage("Semen erupts from my penis, still covered in her wriggling tongues.")
ShowMessageFace("",0,0,2,24)
ShowMessage("Her tongues mechanically squeeze out the semen from my penis as her other tongues lap up the semen that spills out...")
ShowMessageFace("",0,0,2,25)
ShowMessage("\\n<Luka>")
ShowMessage("Auuuuuu...")
ShowMessageFace("",0,0,2,26)
ShowMessage("I feebly squirm around as her tongues all continue licking and squeezing me, forcing out every drop of semen...")
246(1)
ShowMessageFace("c_beast_fc1",0,0,2,27)
ShowMessage("\\n<Gabby>")
ShowMessage("Rape continuation... Start tail sucking phase.")
245(bytes(0x04,0x08,0x6f,0x3a,0x0d,0x52,0x50,0x47,0x3a,0x3a,0x42,0x47,0x53,0x08,0x3a,0x0a,0x40,0x6e,0x61,0x6d,0x65,0x49,0x22,0x17,0x6d,0x6f,0x6e,0x5f,0x68,0x73,0x65,0x61,0x6e,0x31,0x35,0x5f,0x6b,0x79,0x75,0x69,0x6e,0x32,0x06,0x3a,0x06,0x45,0x54,0x3a,0x0c,0x40,0x76,0x6f,0x6c,0x75,0x6d,0x65,0x69,0x55,0x3a,0x0b,0x40,0x70,0x69,0x74,0x63,0x68,0x69,0x69))
PictureDisplay(5,"ev_c_beast_h4",0,0,0,0,100,100,255,0)
ShowMessageFace("",0,0,2,28)
ShowMessage("Before I can even process what she said, the end of her tail swings around over my groin and sucks my penis inside!")
ShowMessageFace("",0,0,2,29)
ShowMessage("\\n<Luka>")
ShowMessage("Ah, aaaaaaah!!")
PictureDisplay(6,"ev_c_beast_ct01",0,0,0,0,100,100,255,0)
ShowMessageFace("",0,0,2,30)
ShowMessage("Thousands of tiny little tentacles squirm around inside her tail as a strong suction begins pulling on my penis.")
ShowMessageFace("",0,0,2,31)
ShowMessage("As soon as I'm all the way inside her tail, the slimy tentacles coil around me, latching onto my penis...")
ShowMessageFace("c_beast_fc1",0,0,2,32)
ShowMessage("\\n<Gabby>")
ShowMessage("Begin sucking...")
ShowMessageFace("",0,0,2,33)
ShowMessage("\\n<Luka>")
ShowMessage("Fua... Aaaaah...")
ShowMessageFace("",0,0,2,34)
ShowMessage("The thousands of tentacles start to rub and stroke me as her tail itself sucks on me like a vacuum.")
ShowMessageFace("",0,0,2,35)
ShowMessage("Some of her tentacles wrap around the tip of my penis, as others tickle my urethra.")
ShowMessageFace("c_beast_fc1",0,0,2,36)
ShowMessage("\\n<Gabby>")
ShowMessage("Increasing movements to assist in sucking...")
ShowMessageFace("",0,0,2,37)
ShowMessage("\\n<Luka>")
ShowMessage("Auuu... Amazing...")
ShowMessageFace("",0,0,2,38)
ShowMessage("I feel my penis slightly stretching inside her tail as the powerful suction pulls me deeper inside. At the same time, more tentacles begin to latch around my shaft and squirm around.")
ShowMessageFace("",0,0,2,39)
ShowMessage("This strange, almost as if un-living, monster's tail effortlessly brings me to another ejaculation.")
ShowMessageFace("",0,0,2,40)
ShowMessage("\\n<Luka>")
ShowMessage("Ah, aaaaaaah!!")
RunCommonEvent(104)
PictureDisplay(5,"ev_c_beast_h5",0,0,0,0,100,100,255,0)
PictureDisplay(6,"ev_c_beast_ct02",0,0,0,0,100,100,255,0)
RunCommonEvent(105)
ShowMessageFace("",0,0,2,41)
ShowMessage("I explode inside the horrifying monster's tail, pouring my semen into her.")
ShowMessageFace("",0,0,2,42)
ShowMessage("As the afterglow of the orgasm washes over me, I sigh in exhaustion. But it doesn't look like she has any intention of stopping...")
ShowMessageFace("c_beast_fc1",0,0,2,43)
ShowMessage("\\n<Gabby>")
ShowMessage("Ejaculation confirmed, semen quality at 5cc... Resume sucking...")
ShowMessageFace("",0,0,2,44)
ShowMessage("\\n<Luka>")
ShowMessage("Ayeeeeee...!")
245(bytes(0x04,0x08,0x6f,0x3a,0x0d,0x52,0x50,0x47,0x3a,0x3a,0x42,0x47,0x53,0x08,0x3a,0x0a,0x40,0x6e,0x61,0x6d,0x65,0x49,0x22,0x17,0x6d,0x6f,0x6e,0x5f,0x68,0x73,0x65,0x61,0x6e,0x31,0x36,0x5f,0x6b,0x79,0x75,0x69,0x6e,0x33,0x06,0x3a,0x06,0x45,0x54,0x3a,0x0c,0x40,0x76,0x6f,0x6c,0x75,0x6d,0x65,0x69,0x55,0x3a,0x0b,0x40,0x70,0x69,0x74,0x63,0x68,0x69,0x69))
ShowMessageFace("",0,0,2,45)
ShowMessage("The tentacles start to squirm even faster than before.")
ShowMessageFace("",0,0,2,46)
ShowMessage("More and more of them start to cover my penis, as some focus almost exclusively on stroking my back muscle and tickling my urethral opening.")
ShowMessageFace("",0,0,2,47)
ShowMessage("I feel another thin tentacle slowly coil right under the tip of my penis and start to quickly vibrate right under my umbrella.")
ShowMessageFace("",0,0,2,48)
ShowMessage("I writhe under her as the tentacles inside her tail easily bring me to the edge of another orgasm...")
ShowMessageFace("",0,0,2,49)
ShowMessage("\\n<Luka>")
ShowMessage("No...! I'm coming...! Ah, aaaaaaaah!!")
RunCommonEvent(104)
PictureDisplay(5,"ev_c_beast_h6",0,0,0,0,100,100,255,0)
PictureDisplay(6,"ev_c_beast_ct03",0,0,0,0,100,100,255,0)
RunCommonEvent(105)
ShowMessageFace("",0,0,2,50)
ShowMessage("In the blink of an eye, I come from the intense stimulation.")
ShowMessageFace("",0,0,2,51)
ShowMessage("The unfeeling monster quickly forces me to another ejaculation, sucking out even more semen into her tail.")
ShowMessageFace("",0,0,2,52)
ShowMessage("This horrifying tail that forced me to ejaculate twice in a row...")
ShowMessageFace("",0,0,2,53)
ShowMessage("I'm too weak to fight against it any longer...")
ShowMessageFace("c_beast_fc1",0,0,2,54)
ShowMessage("\\n<Gabby>")
ShowMessage("Ejaculation confirmed. Semen quality at 4cc. Resume sucking.")
ShowMessageFace("",0,0,2,55)
ShowMessage("\\n<Luka>")
ShowMessage("Hyaaaaa...! S-stop...!")
ShowMessageFace("",0,0,2,56)
ShowMessage("Without even acknowledging my screams, Gabby continues sucking on me.")
ShowMessageFace("",0,0,2,57)
ShowMessage("The tentacles inside her tail continue rubbing and squeezing me, clearly created to do nothing but force men to ejaculate...")
ShowMessageFace("",0,0,2,58)
ShowMessage("\\n<Luka>")
ShowMessage("No... Stop already...")
ShowMessageFace("c_beast_fc1",0,0,2,59)
ShowMessage("\\n<Gabby>")
ShowMessage("Continue sucking... Increasing stimulation to speed up ejaculations...")
ShowMessageFace("",0,0,2,60)
ShowMessage("\\n<Luka>")
ShowMessage("Aaaaaaah!!")
RunCommonEvent(104)
PictureDisplay(6,"ev_c_beast_ct04",0,0,0,0,100,100,255,0)
RunCommonEvent(105)
ShowMessageFace("",0,0,2,61)
ShowMessage("Her tail starts to suck even harder on me, forcing out another ejaculation...")
ShowMessageFace("",0,0,2,62)
ShowMessage("My fate was sealed as soon as this unfeeling monster caught me...")
ShowMessageFace("c_beast_fc1",0,0,2,63)
ShowMessage("\\n<Gabby>")
ShowMessage("Continue sucking...")
ShowMessageFace("",0,0,2,64)
ShowMessage("\\n<Luka>")
ShowMessage("Aaaah...!")
ShowMessageFace("",0,0,2,65)
ShowMessage("Unable to fight back, she continues sucking on me with her tail.")
ShowMessageFace("",0,0,2,66)
ShowMessage("Forced to come over and over, my life slowly fades as I'm lost in a trance of ecstasy.")
221()
PictureClear(5)
PictureClear(6)
246(2)
ShowMessageFace("c_beast_fc1",0,0,2,67)
ShowMessage("\\n<Gabby>")
ShowMessage("Target's signs of life have ceased...")
ShowMessageFace("",0,0,2,68)
ShowMessage("Gabby announces that to herself, then releases the boy's corpse. Thus, the young boy's life was ended by the strange monster who sucked him dry...")
ShowMessageFace("",0,0,2,69)
ShowMessage("......")
RunCommonEvent(3999)
0()
