﻿// EVENT 4961
Name "kezyorou1"

PictureDisplay(5,"80_kezyorou_st02",0,0,0,0,100,100,0,0)
PictureMove(5,null,0,0,0,0,100,100,255,0,30,true)
ShowMessageFace("kezyorou_fc1",1,0,2,1)
ShowMessage("\\n<Tsubaki>")
ShowMessage("Fufu, you wish to play with me?")
ShowMessageFace("",0,0,2,2)
ShowMessage("\\n<Luka>")
ShowMessage("P-please...")
ShowMessageFace("kezyorou_fc1",1,0,2,3)
ShowMessage("\\n<Tsubaki>")
ShowMessage("Well then, follow me to my room.")
ShowMessage("I shall toy with you a lot...")
ShowMessageFace("",0,0,2,4)
ShowMessage("Thus, I was invited to Tsubaki's room...")
221()
PictureDisplay(1,"bg195",0,0,0,0,100,100,255,0)
PictureDisplay(5,"ev_kezyorou_ha1",0,0,0,0,100,100,255,0)
222()
241(bytes(0x04,0x08,0x6f,0x3a,0x0d,0x52,0x50,0x47,0x3a,0x3a,0x42,0x47,0x4d,0x08,0x3a,0x0a,0x40,0x6e,0x61,0x6d,0x65,0x49,0x22,0x09,0x65,0x72,0x6f,0x31,0x06,0x3a,0x06,0x45,0x54,0x3a,0x0c,0x40,0x76,0x6f,0x6c,0x75,0x6d,0x65,0x69,0x69,0x3a,0x0b,0x40,0x70,0x69,0x74,0x63,0x68,0x69,0x69))
250(bytes(0x04,0x08,0x6f,0x3a,0x0c,0x52,0x50,0x47,0x3a,0x3a,0x53,0x45,0x08,0x3a,0x0a,0x40,0x6e,0x61,0x6d,0x65,0x49,0x22,0x16,0x6d,0x6f,0x6e,0x5f,0x65,0x72,0x6f,0x5f,0x6d,0x61,0x6b,0x69,0x74,0x75,0x6b,0x69,0x31,0x06,0x3a,0x06,0x45,0x54,0x3a,0x0b,0x40,0x70,0x69,0x74,0x63,0x68,0x69,0x69,0x3a,0x0c,0x40,0x76,0x6f,0x6c,0x75,0x6d,0x65,0x69,0x69))
ShowMessageFace("",0,0,2,5)
ShowMessage("\\n<Luka>")
ShowMessage("Ugh...!")
ShowMessageFace("",0,0,2,6)
ShowMessage("Tsubaki's hair crawls up and coils around my body.")
ShowMessage("It winds around my limbs and torso, forcibly lifting me up.")
ShowMessageFace("",0,0,2,7)
ShowMessage("\\n<Luka>")
ShowMessage("H-how forceful...!")
ShowMessageFace("",0,0,2,8)
ShowMessage("No matter how much I struggle, her hair's grip is too strong.")
ShowMessage("Without being able to move my arms and legs, my body is only capable of awkward wriggles...")
ShowMessageFace("kezyorou_fc1",1,0,2,9)
ShowMessage("\\n<Tsubaki>")
ShowMessage("Well then, let's see the proof of your manhood...")
ShowMessage("Hoora, be a good boy and come out...")
ShowMessageFace("",0,0,2,10)
ShowMessage("Tsubaki's hair forces its way into my pants...")
ShowMessage("And then, my penis is forcibly exposed.")
245(bytes(0x04,0x08,0x6f,0x3a,0x0d,0x52,0x50,0x47,0x3a,0x3a,0x42,0x47,0x53,0x08,0x3a,0x0a,0x40,0x6e,0x61,0x6d,0x65,0x49,0x22,0x17,0x6d,0x6f,0x6e,0x5f,0x68,0x73,0x65,0x61,0x6e,0x31,0x37,0x5f,0x73,0x69,0x67,0x6f,0x6b,0x69,0x06,0x3a,0x06,0x45,0x54,0x3a,0x0c,0x40,0x76,0x6f,0x6c,0x75,0x6d,0x65,0x69,0x55,0x3a,0x0b,0x40,0x70,0x69,0x74,0x63,0x68,0x69,0x69))
PictureDisplay(5,"ev_kezyorou_ha2",0,0,0,0,100,100,255,0)
ShowMessageFace("",0,0,2,11)
ShowMessage("At the same time, a bundle of hair comes slithering towards my penis!")
ShowMessageFace("",0,0,2,12)
ShowMessage("\\n<Luka>")
ShowMessage("W-what are you doing...!")
ShowMessageFace("kezyorou_fc1",1,0,2,13)
ShowMessage("\\n<Tsubaki>")
ShowMessage("I'm making you come, of course.")
ShowMessage("My hair will toy with your manhood until you're satisfied...")
ShowMessageFace("",0,0,2,14)
ShowMessage("Tsubaki's hair coils from the shaft to the tip and lifts my penis up.")
ShowMessage("My hips tremble with how surprisingly smooth its touch is.")
ShowMessageFace("",0,0,2,15)
ShowMessage("\\n<Luka>")
ShowMessage("A-aaaaah...")
ShowMessageFace("kezyorou_fc1",1,0,2,16)
ShowMessage("\\n<Tsubaki>")
ShowMessage("Now then, I wonder where your weak spot is...")
ShowMessage("To begin with, how about here?")
ShowMessageFace("",0,0,2,17)
ShowMessage("Her hair starts tracing around the neck of my penis, which brings a ticklish stimulation.")
ShowMessageFace("",0,0,2,18)
ShowMessage("The hair adds a rubbery grip from top to bottom while leaving bumps between the grooves...")
ShowMessage("With such a skillful attack, I couldn't help but violently twist my body.")
ShowMessageFace("",0,0,2,19)
ShowMessage("\\n<Luka>")
ShowMessage("Auuuu...!")
ShowMessageFace("kezyorou_fc1",1,0,2,20)
ShowMessage("\\n<Tsubaki>")
ShowMessage("My, that was such a nice reaction...")
ShowMessage("Hoora, I'll handle your shaft as well...")
ShowMessageFace("",0,0,2,21)
ShowMessage("On top of that, the hair gripped to my shaft begins moving up and down.")
ShowMessage("I writhe in pleasure more and more with this hair masturbation.")
ShowMessageFace("",0,0,2,22)
ShowMessage("All the while, the torment continues.")
ShowMessage("The careful and delicate movements bring a ticklish sensation...")
PictureDisplay(5,"ev_kezyorou_ha3",0,0,0,0,100,100,255,0)
ShowMessageFace("",0,0,2,23)
ShowMessage("In reaction to the stimulation, my penis starts leaking pre-come.")
ShowMessageFace("kezyorou_fc1",1,0,2,24)
ShowMessage("\\n<Tsubaki>")
ShowMessage("Ahahaha, is it too much for you already...?")
ShowMessage("At this rate, you'll come really soon if I just rub your tip.")
ShowMessageFace("",0,0,2,25)
ShowMessage("\\n<Luka>")
ShowMessage("S-stooop...")
ShowMessageFace("",0,0,2,26)
ShowMessage("A bundle of hair stretches out towards my tip.")
ShowMessage("It then starts to tickle it like a rotating brush.")
ShowMessageFace("",0,0,2,27)
ShowMessage("It thoroughly traces my urethra and crawls around the head like it was sweeping it clean...")
ShowMessage("With this tickling assault, I'm suddenly nearing my limit.")
ShowMessageFace("",0,0,2,28)
ShowMessage("\\n<Luka>")
ShowMessage("I...I'm coming...!")
ShowMessage("Aaaaaah...!")
ShowMessageFace("kezyorou_fc1",1,0,2,29)
ShowMessage("\\n<Tsubaki>")
ShowMessage("Ha, admitting defeat with just this much?")
ShowMessage("In that case, let it out for me...")
ShowMessageFace("",0,0,2,30)
ShowMessage("Her brush-like hair skillfully rubs the head while I'm on the verge of coming.")
ShowMessage("This stimulation forces me to an early climax...")
ShowMessageFace("",0,0,2,31)
ShowMessage("\\n<Luka>")
ShowMessage("Aaaaah...!")
RunCommonEvent(104)
PictureDisplay(5,"ev_kezyorou_ha4",0,0,0,0,100,100,255,0)
RunCommonEvent(105)
ShowMessageFace("",0,0,2,32)
ShowMessage("My penis pulsates, and semen starts leaking out.")
ShowMessage("Her hair tickles my shaft during my climax, teasing me at a man's weakest moment...")
ShowMessageFace("kezyorou_fc1",1,0,2,33)
ShowMessage("\\n<Tsubaki>")
ShowMessage("Ahaha... you just came.")
ShowMessage("Your sperm is getting everywhere, aren't you embarrassed?")
246(1)
PictureDisplay(5,"ev_kezyorou_ha5",0,0,0,0,100,100,255,0)
ShowMessageFace("",0,0,2,34)
ShowMessage("Tsubaki brings her semen-filled hair towards her lips...")
ShowMessage("And then licks up the semen.")
ShowMessageFace("kezyorou_fc1",1,0,2,35)
ShowMessage("\\n<Tsubaki>")
ShowMessage("Fufu... this sweetness is the finest.")
ShowMessage("Your seed crawling along my hair feels amazing.")
ShowMessageFace("kezyorou_fc1",1,0,2,36)
ShowMessage("\\n<Tsubaki>")
ShowMessage("I am eating your seeds...")
ShowMessage("How does it feel to know that your precious sperm is my lunch?")
ShowMessageFace("",0,0,2,37)
ShowMessage("Tsubaki licks her dirty hair clean while gazing at my face.")
ShowMessageFace("kezyorou_fc1",1,0,2,38)
ShowMessage("\\n<Tsubaki>")
ShowMessage("Fufu, I get it...")
ShowMessage("Since your dick feels good you don't really care, right?")
ShowMessageFace("kezyorou_fc1",1,0,2,39)
ShowMessage("\\n<Tsubaki>")
ShowMessage("Hoora, I'll make you feel good again.")
ShowMessage("Shoot out lots and lots of semen... Hahaha.")
245(bytes(0x04,0x08,0x6f,0x3a,0x0d,0x52,0x50,0x47,0x3a,0x3a,0x42,0x47,0x53,0x08,0x3a,0x0a,0x40,0x6e,0x61,0x6d,0x65,0x49,0x22,0x17,0x6d,0x6f,0x6e,0x5f,0x68,0x73,0x65,0x61,0x6e,0x31,0x37,0x5f,0x73,0x69,0x67,0x6f,0x6b,0x69,0x06,0x3a,0x06,0x45,0x54,0x3a,0x0c,0x40,0x76,0x6f,0x6c,0x75,0x6d,0x65,0x69,0x55,0x3a,0x0b,0x40,0x70,0x69,0x74,0x63,0x68,0x69,0x69))
ShowMessageFace("",0,0,2,40)
ShowMessage("The hair starts moving again and toys with my penis.")
ShowMessage("It tightens around the head like it is giving me a rubbery massage.")
ShowMessageFace("",0,0,2,41)
ShowMessage("And tickles the neck of my penis even more.")
ShowMessage("Her hair gradually increasing its grip on me...")
ShowMessageFace("",0,0,2,42)
ShowMessage("\\n<Luka>")
ShowMessage("Auuuu...!")
ShowMessageFace("kezyorou_fc1",1,0,2,43)
ShowMessage("\\n<Tsubaki>")
ShowMessage("I'll make it harder for you to endure.")
ShowMessage("Hora hora... can you resist this?")
ShowMessageFace("",0,0,2,44)
ShowMessage("With her skillful hair, she tickles the head of my penis thoroughly with soft brushes.")
ShowMessage("And rubs against my sensitive tip.")
ShowMessageFace("",0,0,2,45)
ShowMessage("All the while squeezing tighter and giving me a massage-like stimulation.")
ShowMessage("While her hair toys with my penis, my hips gradually lose their strength...")
ShowMessageFace("",0,0,2,46)
ShowMessage("\\n<Luka>")
ShowMessage("Nooo... Coming...")
ShowMessageFace("kezyorou_fc1",1,0,2,47)
ShowMessage("\\n<Tsubaki>")
ShowMessage("Ahaha, you have no endurance do you...")
ShowMessage("Hoora, I'll finish you off with this...!")
ShowMessageFace("",0,0,2,48)
ShowMessage("She then begins to tickle my urethra by rotating the tip of her hair.")
ShowMessage("That stimulation sends me to heaven...")
ShowMessageFace("",0,0,2,49)
ShowMessage("\\n<Luka>")
ShowMessage("Aaaaaaah...!")
RunCommonEvent(104)
PictureDisplay(5,"ev_kezyorou_ha6",0,0,0,0,100,100,255,0)
RunCommonEvent(105)
ShowMessageFace("",0,0,2,50)
ShowMessage("My semen is sent flying with her hair squeezing me.")
ShowMessage("However, her hair continues to wriggle which brings more stimulation to my still-coming penis...")
ShowMessageFace("",0,0,2,51)
ShowMessage("\\n<Luka>")
ShowMessage("Hauuuuu...!")
ShowMessage("I already came, you can stop...!")
ShowMessageFace("kezyorou_fc1",1,0,2,52)
ShowMessage("\\n<Tsubaki>")
ShowMessage("Ahaha... you're supposed to be a man, how shameful.")
ShowMessage("Horahora, I'll keep teasing your dick...!")
ShowMessageFace("",0,0,2,53)
ShowMessage("\\n<Luka>")
ShowMessage("Hyaaaaa...!!")
ShowMessageFace("",0,0,2,54)
ShowMessage("My body trembles as she continues the merciless hair punishment even after I came.")
ShowMessage("And so, what was once called pleasure became a living hell.")
ShowMessageFace("",0,0,2,55)
ShowMessage("The forceful stimulation causes my hips to tremble and my penis to twitch...")
RunCommonEvent(104)
PictureDisplay(5,"ev_kezyorou_ha7",0,0,0,0,100,100,255,0)
RunCommonEvent(105)
ShowMessageFace("",0,0,2,56)
ShowMessage("\\n<Luka>")
ShowMessage("Hauuuuu...")
ShowMessageFace("",0,0,2,57)
ShowMessage("The way my semen leaks feels completely different from a normal ejaculation.")
ShowMessage("It feels like incontinence...")
246(1)
ShowMessageFace("",0,0,2,58)
ShowMessage("\\n<Luka>")
ShowMessage("Faaaa...")
ShowMessageFace("kezyorou_fc1",1,0,2,59)
ShowMessage("\\n<Tsubaki>")
ShowMessage("Ahaha, are you peeing?")
ShowMessage("What a lewd boy, ahaha...")
ShowMessageFace("",0,0,2,60)
ShowMessage("Tears stream down my cheeks as my penis keeps leaking my bodily fluids...")
ShowMessage("Tsubaki laughs before this shameful sight.")
ShowMessageFace("",0,0,2,61)
ShowMessage("And so, I tasted the worst humiliation a man can go through...")
221()
PictureClear(5)
PictureClear(6)
ShowMessageFace("",0,0,2,62)
ShowMessage("・・・・・・・・")
RunCommonEvent(3998)
0()
