// EVENT 4313
Name "Spider Girl 3"

If(0,25,1)
 221()
 PictureClear(5)
 PictureClear(6)
 ShowMessageFace("",0,0,2,0)
 ShowMessage("......")
 242(2)
 Wait(120)
 241(bytes(0x04,0x08,0x6f,0x3a,0x0d,0x52,0x50,0x47,0x3a,0x3a,0x42,0x47,0x4d,0x08,0x3a,0x0a,0x40,0x6e,0x61,0x6d,0x65,0x49,0x22,0x0c,0x63,0x61,0x73,0x74,0x6c,0x65,0x36,0x06,0x3a,0x06,0x45,0x54,0x3a,0x0c,0x40,0x76,0x6f,0x6c,0x75,0x6d,0x65,0x69,0x69,0x3a,0x0b,0x40,0x70,0x69,0x74,0x63,0x68,0x69,0x69))
 EndEventProcessing()
 0()
EndIf()
PictureDisplay(5,"80_kumo_st02",0,0,0,0,100,100,255,0)
ShowMessageFace("kumo_fc1",1,0,2,1)
ShowMessage("\\n<Rachnee>Hey, hey... Can you help me make a web?")
ShowMessageFace("",0,0,2,2)
ShowMessage("\\n<Luka>Ok, sure.")
ShowMessageFace("kumo_fc1",1,0,2,3)
ShowMessage("\\n<Rachnee>All right, please follow me...")
221()
ShowMessageFace("",0,0,2,4)
ShowMessage("......")
222()
PictureDisplay(5,"ev_kumo_hc1",0,0,0,0,100,100,0,0)
PictureMove(5,null,0,0,0,0,100,100,255,0,30,true)
241(bytes(0x04,0x08,0x6f,0x3a,0x0d,0x52,0x50,0x47,0x3a,0x3a,0x42,0x47,0x4d,0x08,0x3a,0x0a,0x40,0x6e,0x61,0x6d,0x65,0x49,0x22,0x09,0x65,0x72,0x6f,0x31,0x06,0x3a,0x06,0x45,0x54,0x3a,0x0c,0x40,0x76,0x6f,0x6c,0x75,0x6d,0x65,0x69,0x69,0x3a,0x0b,0x40,0x70,0x69,0x74,0x63,0x68,0x69,0x69))
ShowMessageFace("",0,0,2,5)
ShowMessage("\\n<Luka>He-Hey, wait! What are you planning on doing!?")
ShowMessageFace("",0,0,2,6)
ShowMessage("I enter the cave where Rachnee is making her web.")
ShowMessage("But the moment I enter, I'm caught in her sticky web itself!")
ShowMessageFace("",0,0,2,7)
ShowMessage("\\n<Luka>Y-Your silk is all around me, I can't break free.\nC-Can you help me out?")
ShowMessageFace("kumo_fc1",1,0,2,8)
ShowMessage("\\n<Rachnee>Ahaha, you got caught!\nWow, it was really easy to catch you!")
ShowMessageFace("",0,0,2,9)
ShowMessage("\\n<Luka>No... This was your intention from the start?\nGe-Get off me...!")
ShowMessageFace("",0,0,2,10)
ShowMessage("As I struggle, more and more sticky silk wraps around my arms and legs.")
ShowMessage("As the sticky web covers more of me, it almost feels good against my skin.")
ShowMessageFace("",0,0,2,11)
ShowMessage("\\n<Luka>Auuu...")
ShowMessageFace("kumo_fc1",1,0,2,12)
ShowMessage("\\n<Rachnee>Ahaha, and you're struggling so much.\nLet me tie up your penis in sticky silk, too...")
PictureDisplay(5,"ev_kumo_hc2",0,0,0,0,100,100,250,0)
ShowMessageFace("",0,0,2,13)
ShowMessage("Rachnee winds sticky silk around my penis.")
ShowMessage("An unbearable pleasure fills me as the sticky threads cling to me.")
ShowMessageFace("",0,0,2,14)
ShowMessage("\\n<Luka>Nnngh...")
ShowMessageFace("kumo_fc1",1,0,2,15)
ShowMessage("\\n<Rachnee>From the base to the tip...\nAha, doesn't it feel good?")
ShowMessageFace("",0,0,2,16)
ShowMessage("Sticky silk coils around underneath the neck of my penis.")
ShowMessage("As the stickyness pulls and rubs against my glans, my body shivers against my will.")
ShowMessageFace("",0,0,2,17)
ShowMessage("At the same time, Rachnee starts to tighten the threads around my penis.")
ShowMessage("Her skilled manipulations of the silk feel incredible...")
ShowMessageFace("",0,0,2,18)
ShowMessage("\\n<Luka>Ah, aaaah...!")
ShowMessageFace("kumo_fc1",1,0,2,19)
ShowMessage("\\n<Rachnee>Your penis is my little prey.\nIt's like I'm playing with an insect...")
ShowMessageFace("",0,0,2,20)
ShowMessage("She sees my penis as nothing but a struggling insect caught in her web...")
ShowMessage("Rolled up in her silk, tightly...")
ShowMessageFace("",0,0,2,21)
ShowMessage("\\n<Luka>D-don't...! I'm coming...!")
ShowMessageFace("",0,0,2,22)
ShowMessage("The sweet sensation wells up in me as I feel myself nearing a climax.")
ShowMessage("Her increasingly tight silk feels too good to endure...")
ShowMessageFace("kumo_fc1",1,0,2,23)
ShowMessage("\\n<Rachnee>What? Already at your limit?\nThen come...!")
ShowMessageFace("",0,0,2,24)
ShowMessage("\\n<Luka>Ah, aaaaaah!!")
RunCommonEvent(104)
PictureDisplay(5,"ev_kumo_hc3",0,0,0,0,100,100,250,0)
RunCommonEvent(105)
ShowMessageFace("",0,0,2,25)
ShowMessage("My body spasms as I come everywhere.")
ShowMessage("Through the sticky silk, my semen spurts out.")
ShowMessageFace("",0,0,2,26)
ShowMessage("\\n<Luka>Nnngh...")
ShowMessageFace("",0,0,2,27)
ShowMessage("Treated like an insect, I still came...")
ShowMessage("Forced to a climax, I feel myself go weak in her web.")
ShowMessageFace("kumo_fc1",1,0,2,28)
ShowMessage("\\n<Rachnee>Are you satisfied? But I wonder if it's enough...\nWouldn't you like to use my spinneret to mate with?")
ShowMessageFace("",0,0,2,29)
ShowMessage("\\n<Luka>M-Mate...? We can't...")
ShowMessageFace("",0,0,2,30)
ShowMessage("Her strange-looking abdomen is pushed in front of me.")
ShowMessage("At the very tip is a small opening for spinning webs.")
ShowMessageFace("",0,0,2,31)
ShowMessage("It looks similar to a female vagina.")
ShowMessage("Filled with her sticky silk, it looks like it would feel good inside...")
ShowMessageFace("",0,0,2,32)
ShowMessage("\\n<Luka>Ah, aaah...")
ShowMessageFace("",0,0,2,33)
ShowMessage("Too weak to move, I can only watch as she moves it toward my penis.")
ShowMessage("In the depths of my heart, fear and expectation swirl as I watch.")
ShowMessageFace("kumo_fc1",1,0,2,34)
ShowMessage("\\n<Rachnee>Hora, I'll put it in!")
245(bytes(0x04,0x08,0x6f,0x3a,0x0d,0x52,0x50,0x47,0x3a,0x3a,0x42,0x47,0x53,0x08,0x3a,0x0a,0x40,0x6e,0x61,0x6d,0x65,0x49,0x22,0x17,0x6d,0x6f,0x6e,0x5f,0x68,0x73,0x65,0x61,0x6e,0x31,0x38,0x5f,0x73,0x6c,0x69,0x6d,0x65,0x31,0x06,0x3a,0x06,0x45,0x54,0x3a,0x0c,0x40,0x76,0x6f,0x6c,0x75,0x6d,0x65,0x69,0x55,0x3a,0x0b,0x40,0x70,0x69,0x74,0x63,0x68,0x69,0x69))
PictureDisplay(5,"ev_kumo_hc4",0,0,0,0,100,100,250,0)
ShowMessageFace("",0,0,2,35)
ShowMessage("Her spinneret takes me inside!")
ShowMessage("I feel her wriggling around inside, and filled with sticky silk.")
ShowMessageFace("",0,0,2,36)
ShowMessage("\\n<Luka>Hyaaa...!!")
ShowMessageFace("",0,0,2,37)
ShowMessage("I scream in pleasure as I'm brought inside her.")
ShowMessage("Feeling her sticky silk, and the warm flesh is amazing...")
ShowMessageFace("kumo_fc1",1,0,2,38)
ShowMessage("\\n<Rachnee>Ahaha, look at you moan.\nIt feels incredible inside me, doesn't it?")
ShowMessageFace("kumo_fc1",1,0,2,39)
ShowMessage("\\n<Rachnee>I'll move it inside more...\nMy sticky silk will swell...")
ShowMessageFace("",0,0,2,40)
ShowMessage("\\n<Luka>Ah... Hyaaaa!!")
ShowMessageFace("",0,0,2,41)
ShowMessage("Her flesh rubs against me inside.")
ShowMessage("As more sticky silk coils around my penis inside her, I moan in pleasure.")
ShowMessageFace("",0,0,2,42)
ShowMessage("It's like a mixer, moving and forcing me to come.")
ShowMessage("Writhing in pleasure, there's no way a man could endure this.")
ShowMessageFace("",0,0,2,43)
ShowMessage("\\n<Luka>Ahh!! A-Aaaaaah!!")
ShowMessageFace("",0,0,2,44)
ShowMessage("My waist trembles as my head goes pure white in ecstasy.")
RunCommonEvent(104)
PictureDisplay(5,"ev_kumo_hc5",0,0,0,0,100,100,250,0)
RunCommonEvent(105)
ShowMessageFace("",0,0,2,45)
ShowMessage("My penis spasms as I explode inside her.")
ShowMessage("I came after only seconds inside her spinneret...")
ShowMessageFace("",0,0,2,46)
ShowMessage("\\n<Luka>Ngh... Ah, aaah...")
ShowMessageFace("kumo_fc1",1,0,2,47)
ShowMessage("\\n<Rachnee>Aha, you came so fast!\nBut I want more~♪")
ShowMessageFace("",0,0,2,48)
ShowMessage("\\n<Luka>Do-Don't...\n...Ah, aieee!!")
ShowMessageFace("",0,0,2,49)
ShowMessage("Even as I come, her insides continue to move and squirm.")
ShowMessage("Swirling and rubbing against my penis, I'm brought to another high.")
ShowMessageFace("",0,0,2,50)
ShowMessage("\\n<Luka>Hyaaaa!!")
RunCommonEvent(104)
RunCommonEvent(105)
ShowMessageFace("",0,0,2,51)
ShowMessage("My second ejaculation begins before my first even finished.")
ShowMessage("A huge amount of semen explodes into her.")
ShowMessageFace("",0,0,2,52)
ShowMessage("\\n<Luka>Ngh...Ah...Ah...Ahhg...")
ShowMessageFace("kumo_fc1",1,0,2,53)
ShowMessage("\\n<Rachnee>Oh my, a continuous ejaculation.\nIf I keep going, I think you may really break.")
ShowMessageFace("kumo_fc1",1,0,2,54)
ShowMessage("\\n<Rachnee>I'd be annoyed if you died here, so I'll stop.\n....Ooooi! Are you listening?")
ShowMessageFace("",0,0,2,55)
ShowMessage("\\n<Luka>......")
ShowMessageFace("",0,0,2,56)
ShowMessage("I couldn't respond to her...")
221()
PictureClear(5)
PictureClear(6)
246(2)
ShowMessageFace("",0,0,2,57)
ShowMessage("Feeling too much pleasure, I lose consciousness.")
ShowMessage("The incredible ecstasy feels like my body itself is melting away in it.")
ShowMessageFace("",0,0,2,58)
ShowMessage("The pleasure that can only be felt with a spider's spinneret...")
ShowMessage("After tasting it, I was captivated.")
ShowMessageFace("",0,0,2,59)
ShowMessage("......")
242(2)
Wait(120)
241(bytes(0x04,0x08,0x6f,0x3a,0x0d,0x52,0x50,0x47,0x3a,0x3a,0x42,0x47,0x4d,0x08,0x3a,0x0a,0x40,0x6e,0x61,0x6d,0x65,0x49,0x22,0x0c,0x63,0x61,0x73,0x74,0x6c,0x65,0x36,0x06,0x3a,0x06,0x45,0x54,0x3a,0x0c,0x40,0x76,0x6f,0x6c,0x75,0x6d,0x65,0x69,0x69,0x3a,0x0b,0x40,0x70,0x69,0x74,0x63,0x68,0x69,0x69))
0()
