﻿// EVENT 0919
Name "敵レベルプラス"

If(1,151,0,0,0)
 If(1,121,0,100,2)
  ChangeVariable(149,149,1,0,90)
  0()
 EndIf()
 If(1,121,0,101,1)
  If(1,121,0,200,2)
   ChangeVariable(149,149,1,0,360)
   0()
  EndIf()
  0()
 EndIf()
 If(1,121,0,201,1)
  If(1,121,0,300,2)
   ChangeVariable(149,149,1,0,1050)
   0()
  EndIf()
  0()
 EndIf()
 If(1,121,0,301,1)
  ChangeVariable(149,149,1,0,3000)
  0()
 EndIf()
 0()
EndIf()
If(1,151,0,1,0)
 ChangeVariable(149,149,1,0,180)
 0()
EndIf()
If(1,151,0,2,0)
 ChangeVariable(149,149,1,0,450)
 0()
EndIf()
If(1,151,0,3,0)
 ChangeVariable(149,149,1,0,1200)
 0()
EndIf()
If(1,151,0,4,0)
 ChangeVariable(149,149,1,0,3000)
 0()
EndIf()
If(1,151,0,5,0)
 ChangeVariable(149,149,1,0,30000)
 0()
EndIf()
0()
