// EVENT 0053
Name "Skill: Play 131-140"

ChangeVariable(11,11,0,2,1,5)
If(1,100,0,131,0)
 If(1,11,0,1,0)
  ShowMessageFace("doll_fc1",0,0,2,1)
  ShowMessage("\\n<Miyabi>Play some more...")
  ShowMessageFace("",0,0,2,2)
  ShowMessage("Miyabi is giggling.")
  EndEventProcessing()
  0()
 EndIf()
 If(1,11,0,2,0)
  ShowMessageFace("doll_fc1",0,0,2,3)
  ShowMessage("\\n<Miyabi>Lalalaa, lalalaa...♪")
  ShowMessageFace("",0,0,2,4)
  ShowMessage("Miyabi is happily singing and dancing.")
  EndEventProcessing()
  0()
 EndIf()
 If(1,11,0,3,0)
  ShowMessageFace("doll_fc1",0,0,2,5)
  ShowMessage("\\n<Miyabi>Beanbag, beanbag...♪")
  ShowMessageFace("",0,0,2,6)
  ShowMessage("Miyabi is juggling...")
  ShowMessage("But nobody was watching!")
  EndEventProcessing()
  0()
 EndIf()
 If(1,11,0,4,0)
  ShowMessageFace("doll_fc1",0,0,2,7)
  ShowMessage("\\n<Miyabi>I'll fight too...")
  355("interrupt_skill(3308)")
  EndEventProcessing()
  0()
 EndIf()
 If(1,11,0,5,0)
  ShowMessageFace("doll_fc1",0,0,2,8)
  ShowMessage("\\n<Miyabi>Pretty rock...")
  250(bytes(0x04,0x08,0x6f,0x3a,0x0c,0x52,0x50,0x47,0x3a,0x3a,0x53,0x45,0x08,0x3a,0x0a,0x40,0x6e,0x61,0x6d,0x65,0x49,0x22,0x0a,0x49,0x74,0x65,0x6d,0x31,0x06,0x3a,0x06,0x45,0x54,0x3a,0x0b,0x40,0x70,0x69,0x74,0x63,0x68,0x69,0x69,0x3a,0x0c,0x40,0x76,0x6f,0x6c,0x75,0x6d,0x65,0x69,0x55))
  ChangeInventory_Item(449,0,0,1)
  ShowMessageFace("",0,0,2,9)
  ShowMessage("Miyabi picked up a rock.")
  ShowMessage("You obtain a \\ii[449]!")
  EndEventProcessing()
  0()
 EndIf()
 0()
EndIf()
If(1,100,0,132,0)
 If(1,11,0,1,0)
  ShowMessageFace("zonbe_fc2",0,0,2,10)
  ShowMessage("\\n<Ellie>Aa... Uuu...")
  ShowMessageFace("",0,0,2,11)
  ShowMessage("Ellie has spaced out...")
  EndEventProcessing()
  0()
 EndIf()
 If(1,11,0,2,0)
  ShowMessageFace("zonbe_fc2",0,0,2,12)
  ShowMessage("\\n<Ellie>Always... Train...")
  355("interrupt_skill(3291)")
  EndEventProcessing()
  0()
 EndIf()
 If(1,11,0,3,0)
  ShowMessageFace("zonbe_fc2",0,0,2,13)
  ShowMessage("\\n<Ellie>Oo... oo...")
  355("interrupt_skill(3292)")
  EndEventProcessing()
  0()
 EndIf()
 If(1,11,0,4,0)
  ShowMessageFace("zonbe_fc2",0,0,2,14)
  ShowMessage("\\n<Ellie>Sword... Auu...")
  ShowMessageFace("",0,0,2,15)
  ShowMessage("Ellie is sharpening her sword.")
  EndEventProcessing()
  0()
 EndIf()
 If(1,11,0,5,0)
  ShowMessageFace("zonbe_fc2",0,0,2,16)
  ShowMessage("\\n<Ellie>Always... Train...")
  ShowMessageFace("",0,0,2,17)
  ShowMessage("Ellie practices swinging her sword.")
  EndEventProcessing()
  0()
 EndIf()
 0()
EndIf()
If(1,100,0,133,0)
 If(1,11,0,1,0)
  ShowMessageFace("zonbe_fc3",3,0,2,18)
  ShowMessage("\\n<Zombies>A, Aaa.")
  ShowMessageFace("",0,0,2,19)
  ShowMessage("The Zombies have spaced out...")
  EndEventProcessing()
  0()
 EndIf()
 If(1,11,0,2,0)
  ShowMessageFace("zonbe_fc3",3,0,2,20)
  ShowMessage("\\n<Zombies>Ooooo...")
  ShowMessageFace("",0,0,2,21)
  ShowMessage("The Zombies called for help!")
  ShowMessage("...But nobody came.")
  EndEventProcessing()
  0()
 EndIf()
 If(1,11,0,3,0)
  ShowMessageFace("zonbe_fc3",0,0,2,22)
  ShowMessage("\\n<Zombie A>Queen of the zombies...")
  ShowMessageFace("zonbe_fc3",2,0,2,23)
  ShowMessage("\\n<Zombie B>Thriller...")
  ShowMessageFace("zonbe_fc3",1,0,2,24)
  ShowMessage("\\n<Zombie C>Owie...")
  ShowMessageFace("",0,0,2,25)
  ShowMessage("The Zombies are happily singing and dancing.")
  EndEventProcessing()
  0()
 EndIf()
 If(1,11,0,4,0)
  ShowMessageFace("zonbe_fc3",3,0,2,26)
  ShowMessage("\\n<Zombies>Ally... Ally...")
  250(bytes(0x04,0x08,0x6f,0x3a,0x0c,0x52,0x50,0x47,0x3a,0x3a,0x53,0x45,0x08,0x3a,0x0a,0x40,0x6e,0x61,0x6d,0x65,0x49,0x22,0x0a,0x49,0x74,0x65,0x6d,0x31,0x06,0x3a,0x06,0x45,0x54,0x3a,0x0b,0x40,0x70,0x69,0x74,0x63,0x68,0x69,0x69,0x3a,0x0c,0x40,0x76,0x6f,0x6c,0x75,0x6d,0x65,0x69,0x55))
  ChangeInventory_Item(444,0,0,1)
  ShowMessageFace("",0,0,2,27)
  ShowMessage("The Zombies have found a skeleton!")
  ShowMessage("You obtain a \\ii[444]!")
  EndEventProcessing()
  0()
 EndIf()
 If(1,11,0,5,0)
  ShowMessageFace("zonbe_fc3",3,0,2,28)
  ShowMessage("\\n<Zombies>We are zombies so we do not know any better...")
  ShowMessageFace("",0,0,2,29)
  ShowMessage("The Zombies are eating food they stole.")
  EndEventProcessing()
  0()
 EndIf()
 0()
EndIf()
If(1,100,0,134,0)
 If(1,11,0,1,0)
  ShowMessageFace("chrom_fc2",0,0,2,30)
  ShowMessage("\\n<Chrome>I just had a great idea! I have to write it down!")
  ShowMessageFace("",0,0,2,31)
  ShowMessage("Chrome is making a note.")
  EndEventProcessing()
  0()
 EndIf()
 If(1,11,0,2,0)
  ShowMessageFace("chrom_fc2",3,0,2,32)
  ShowMessage("\\n<Chrome>Kukuku... This is a trap!")
  355("interrupt_skill(3297)")
  EndEventProcessing()
  0()
 EndIf()
 If(1,11,0,3,0)
  ShowMessageFace("chrom_fc1",6,0,2,33)
  ShowMessage("\\n<Chrome>Here I go! Awaa!")
  355("interrupt_skill(3293)")
  EndEventProcessing()
  0()
 EndIf()
 If(1,11,0,4,0)
  ShowMessageFace("chrom_fc2",1,0,2,34)
  ShowMessage("\\n<Chrome>A rare discovery! Wait no, it's my latest invention! An automatic fly swatter machine!")
  355("interrupt_skill(3306)")
  EndEventProcessing()
  0()
 EndIf()
 If(1,11,0,5,0)
  ShowMessageFace("chrom_fc2",0,0,2,35)
  ShowMessage("\\n<Chrome>I added a zombie component to create an immortal tree! Don't worry, it should be gentle in nature.")
  355("interrupt_skill(3299)")
  EndEventProcessing()
  0()
 EndIf()
 0()
EndIf()
If(1,100,0,135,0)
 If(1,11,0,1,0)
  ShowMessageFace("frederika_fc1",0,0,2,36)
  ShowMessage("\\n<Frederica>This much... I can...")
  ShowMessageFace("",0,0,2,37)
  ShowMessage("Frederica jumped lightly and did a somersault!")
  EndEventProcessing()
  0()
 EndIf()
 If(1,11,0,2,0)
  ShowMessageFace("frederika_fc1",0,0,2,38)
  ShowMessage("\\n<Frederica>I'll use Chrome's latest invention, the Ultra Mazer...")
  355("interrupt_skill(3306)")
  EndEventProcessing()
  0()
 EndIf()
 If(1,11,0,3,0)
  ShowMessageFace("frederika_fc1",0,0,2,39)
  ShowMessage("\\n<Frederica>Hunger!")
  ShowMessageFace("",0,0,2,40)
  ShowMessage("Frederica struck her signature pose!")
  ShowMessage("...But nobody was watching.")
  EndEventProcessing()
  0()
 EndIf()
 If(1,11,0,4,0)
  ShowMessageFace("frederika_fc1",0,0,2,41)
  ShowMessage("\\n<Frederica>Chrome lacks basic life skills... She won't take baths, and I do all the cleaning and cooking.")
  ShowMessageFace("",0,0,2,42)
  ShowMessage("Frederica is complaining by herself.")
  EndEventProcessing()
  0()
 EndIf()
 If(1,11,0,5,0)
  ShowMessageFace("frederika_fc1",0,0,2,43)
  ShowMessage("\\n<Frederica>Aaaa...!")
  355("interrupt_skill(3294)")
  EndEventProcessing()
  0()
 EndIf()
 0()
EndIf()
If(1,100,0,136,0)
 If(1,11,0,1,0)
  ShowMessageFace("elf_fc1",0,0,2,44)
  ShowMessage("\\n<Claudia>I am a little bird, sweet tweet...")
  ShowMessageFace("",0,0,2,45)
  ShowMessage("Claudia is writing a cheesy poem.")
  EndEventProcessing()
  0()
 EndIf()
 If(1,11,0,2,0)
  ShowMessageFace("elf_fc1",0,0,2,46)
  ShowMessage("\\n<Claudia>Once I am toyed with by that monster... Ahh, I...")
  313(0,136,0,24)
  ShowMessageFace("",0,0,2,47)
  ShowMessage("Claudia is having dirty thoughts...")
  ShowMessage("Claudia has become horny!")
  EndEventProcessing()
  0()
 EndIf()
 If(1,11,0,3,0)
  ShowMessageFace("elf_fc1",0,0,2,48)
  ShowMessage("\\n<Claudia>Burn my unerring skill into your eyes!")
  ShowMessageFace("",0,0,2,49)
  ShowMessage("Claudia puts an apple on Luka's head while holding a bow!")
  ShowMessage("She fired an arrow and hit the apple beautifully!")
  EndEventProcessing()
  0()
 EndIf()
 If(1,11,0,4,0)
  ShowMessageFace("elf_fc1",0,0,2,50)
  ShowMessage("\\n<Claudia>Burn my unerring skill into your eyes!")
  ChangeVariable(26,26,0,3,3,1,4)
  ChangeVariable(26,26,4,0,10)
  311(0,1,1,1,26,true)
  ShowMessageFace("",0,0,2,51)
  ShowMessage("Claudia puts an apple on Luka's head while holding a bow!")
  ShowMessage("She fired an arrow and hit Luka in the face!\\D")
  ShowMessage("Luka takes \\V[26] damage!")
  EndEventProcessing()
  0()
 EndIf()
 If(1,11,0,5,0)
  ShowMessageFace("elf_fc1",2,0,2,52)
  ShowMessage("\\n<Claudia>Elves are innocent... Elves are pure and shy...")
  ShowMessageFace("",0,0,2,53)
  ShowMessage("Claudia quietly mutters something.")
  EndEventProcessing()
  0()
 EndIf()
 0()
EndIf()
If(1,100,0,137,0)
 If(1,11,0,1,0)
  ShowMessageFace("braunys_fc1",6,0,2,54)
  ShowMessage("\\n<Love & Lamb>Spin round and round!")
  ShowMessageFace("",0,0,2,55)
  ShowMessage("Love and Lamb hold hands and begin to spin around.")
  EndEventProcessing()
  0()
 EndIf()
 If(1,11,0,2,0)
  ShowMessageFace("braunys_fc1",6,0,2,56)
  ShowMessage("\\n<Love & Lamb>Full power unleashed!")
  355("interrupt_skill(3294)")
  EndEventProcessing()
  0()
 EndIf()
 If(1,11,0,3,0)
  ShowMessageFace("braunys_fc1",6,0,2,57)
  ShowMessage("\\n<Love & Lamb>Sneakily munching...")
  ShowMessageFace("",0,0,2,58)
  ShowMessage("Love and Lamb are eating some food they stole.")
  EndEventProcessing()
  0()
 EndIf()
 If(1,11,0,4,0)
  ShowMessageFace("braunys_fc1",6,0,2,59)
  ShowMessage("\\n<Love & Lamb>Here we go!")
  355("interrupt_skill(3292)")
  EndEventProcessing()
  0()
 EndIf()
 If(1,11,0,5,0)
  ShowMessageFace("braunys_fc1",6,0,2,60)
  ShowMessage("\\n<Love & Lamb>Once they fall into our pitfall...!")
  355("interrupt_skill(3297)")
  EndEventProcessing()
  0()
 EndIf()
 0()
EndIf()
If(1,100,0,138,0)
 If(1,11,0,1,0)
  ShowMessageFace("tfairy_fc1",0,0,2,61)
  ShowMessage("\\n<Mil & Lil>Yay, pretty flowers. ♪")
  ShowMessageFace("",0,0,2,62)
  ShowMessage("Mil and Lil are picking flowers.")
  EndEventProcessing()
  0()
 EndIf()
 If(1,11,0,2,0)
  ShowMessageFace("tfairy_fc1",0,0,2,63)
  ShowMessage("\\n<Mil & Lil>We'll make a pitfall!")
  355("interrupt_skill(3297)")
  EndEventProcessing()
  0()
 EndIf()
 If(1,11,0,3,0)
  ShowMessageFace("tfairy_fc1",0,0,2,64)
  ShowMessage("\\n<Mil & Lil>We'll make a pitfall!")
  355("interrupt_skill(3298)")
  EndEventProcessing()
  0()
 EndIf()
 If(1,11,0,4,0)
  ShowMessageFace("tfairy_fc1",0,0,2,65)
  ShowMessage("\\n<Mil & Lil>Best friend dance. ♪")
  ShowMessageFace("",0,0,2,66)
  ShowMessage("Mil and Lil are happily dancing and singing.")
  EndEventProcessing()
  0()
 EndIf()
 If(1,11,0,5,0)
  ShowMessageFace("tfairy_fc1",0,0,2,67)
  ShowMessage("\\n<Mil & Lil>We found a mushroom. ♪")
  250(bytes(0x04,0x08,0x6f,0x3a,0x0c,0x52,0x50,0x47,0x3a,0x3a,0x53,0x45,0x08,0x3a,0x0a,0x40,0x6e,0x61,0x6d,0x65,0x49,0x22,0x0a,0x49,0x74,0x65,0x6d,0x31,0x06,0x3a,0x06,0x45,0x54,0x3a,0x0b,0x40,0x70,0x69,0x74,0x63,0x68,0x69,0x69,0x3a,0x0c,0x40,0x76,0x6f,0x6c,0x75,0x6d,0x65,0x69,0x55))
  ChangeInventory_Item(443,0,0,1)
  ShowMessageFace("",0,0,2,68)
  ShowMessage("Mil and Lil brought an ominous mushroom.")
  ShowMessage("You obtain \\ii[443]!")
  EndEventProcessing()
  0()
 EndIf()
 0()
EndIf()
If(1,100,0,139,0)
 If(1,11,0,1,0)
  ShowMessageFace("fairys_fc1",3,0,2,69)
  ShowMessage("\\n<Fairies>Yay! Waiiit! ♪")
  ShowMessageFace("",0,0,2,70)
  ShowMessage("The Fairies are playing tag.")
  EndEventProcessing()
  0()
 EndIf()
 If(1,11,0,2,0)
  ShowMessageFace("fairys_fc1",3,0,2,71)
  ShowMessage("\\n<Fairies>Ahahaa, it's a pitfall. ♪")
  355("interrupt_skill(3297)")
  EndEventProcessing()
  0()
 EndIf()
 If(1,11,0,3,0)
  ShowMessageFace("fairys_fc1",3,0,2,72)
  ShowMessage("\\n<Fairies>Ahahaa, it's a pitfall.♪")
  355("interrupt_skill(3298)")
  EndEventProcessing()
  0()
 EndIf()
 If(1,11,0,4,0)
  ShowMessageFace("fairys_fc1",3,0,2,73)
  ShowMessage("\\n<Fairies>It's a fairy dance. ♪")
  355("interrupt_skill(2037)")
  EndEventProcessing()
  0()
 EndIf()
 If(1,11,0,5,0)
  ShowMessageFace("fairys_fc1",3,0,2,74)
  ShowMessage("\\n<Fairies>Let's draw. ♪")
  ShowMessageFace("",0,0,2,75)
  ShowMessage("The Fairies are drawing a picture on the ground.")
  EndEventProcessing()
  0()
 EndIf()
 0()
EndIf()
If(1,100,0,140,0)
 If(1,11,0,1,0)
  ShowMessageFace("taran_fc1",0,0,2,76)
  ShowMessage("\\n<Rachura>If you do not stretch, your body will get stiff.")
  ShowMessageFace("",0,0,2,77)
  ShowMessage("Rachura holds out her arms, bends her legs, and stretches.")
  EndEventProcessing()
  0()
 EndIf()
 If(1,11,0,2,0)
  ShowMessageFace("taran_fc1",2,0,2,78)
  ShowMessage("\\n<Rachura>Ah! I fell in... Hey! What is this?!")
  355("interrupt_skill(3310)")
  EndEventProcessing()
  0()
 EndIf()
 If(1,11,0,3,0)
  ShowMessageFace("taran_fc1",2,0,2,79)
  ShowMessage("\\n<Rachura>Ahhh! I got tangled in my own thread...")
  313(0,140,0,28)
  ShowMessageFace("",0,0,2,80)
  ShowMessage("Rachura got tangled in her own sticky thread!")
  ShowMessage("Rachura has been bound!")
  EndEventProcessing()
  0()
 EndIf()
 If(1,11,0,4,0)
  ShowMessageFace("taran_fc1",0,0,2,81)
  ShowMessage("\\n<Rachura>It's a beautiful day...")
  ShowMessageFace("",0,0,2,82)
  ShowMessage("Rachura is laying on the ground sunbathing.")
  EndEventProcessing()
  0()
 EndIf()
 If(1,11,0,5,0)
  ShowMessageFace("taran_fc1",0,0,2,83)
  ShowMessage("\\n<Rachura>Good luck! I'll be watching!")
  ShowMessageFace("",0,0,2,84)
  ShowMessage("Rachura cheers for everyone!")
  ShowMessage("But nobody heard her.")
  EndEventProcessing()
  0()
 EndIf()
 0()
EndIf()
0()
