﻿// EVENT 3145
Name "Reaper"

If(0,25,1)
 JumpToLabel("反省会")
 0()
EndIf()
PictureDisplay(5,"80_sinigami_st01",0,0,0,0,100,100,0,0)
PictureMove(5,null,0,0,0,0,100,100,255,0,30,true)
241(bytes(0x04,0x08,0x6f,0x3a,0x0d,0x52,0x50,0x47,0x3a,0x3a,0x42,0x47,0x4d,0x08,0x3a,0x0a,0x40,0x6e,0x61,0x6d,0x65,0x49,0x22,0x09,0x65,0x72,0x6f,0x31,0x06,0x3a,0x06,0x45,0x54,0x3a,0x0c,0x40,0x76,0x6f,0x6c,0x75,0x6d,0x65,0x69,0x69,0x3a,0x0b,0x40,0x70,0x69,0x74,0x63,0x68,0x69,0x69))
ShowMessageFace("",0,0,2,1)
ShowMessage("\\n<Luka>Ugh... St-strong...")
ShowMessageFace("sinigami_fc1",0,0,2,2)
ShowMessage("\\n<Reaper>What a foolish thing, to challenge me...\nThat body of yours, I will dispose of it...")
ShowMessageFace("",0,0,2,3)
ShowMessage("With no warning, the area surrounding me turns into a black slimy substance. Reaper's cloak expands and surrounds me...")
ShowMessageFace("",0,0,2,4)
ShowMessage("\\n<Luka>Wh-what are you...? Aaah...!")
245(bytes(0x04,0x08,0x6f,0x3a,0x0d,0x52,0x50,0x47,0x3a,0x3a,0x42,0x47,0x53,0x08,0x3a,0x0a,0x40,0x6e,0x61,0x6d,0x65,0x49,0x22,0x1e,0x6d,0x6f,0x6e,0x5f,0x68,0x73,0x65,0x61,0x6e,0x31,0x31,0x5f,0x69,0x6e,0x6e,0x65,0x72,0x77,0x6f,0x72,0x6b,0x73,0x5f,0x63,0x31,0x06,0x3a,0x06,0x45,0x54,0x3a,0x0c,0x40,0x76,0x6f,0x6c,0x75,0x6d,0x65,0x69,0x55,0x3a,0x0b,0x40,0x70,0x69,0x74,0x63,0x68,0x69,0x69))
PictureDisplay(5,"ev_sinigami_ha1",0,0,0,0,100,100,0,0)
PictureMove(5,null,0,0,0,0,100,100,255,0,30,true)
ShowMessageFace("",0,0,2,5)
ShowMessage("My arms and legs are tightly bound by the slimy swamp around me, rendering me immobile. My clothes are removed and my lower body is exposed to the slime.")
ShowMessageFace("",0,0,2,6)
ShowMessage("\\n<Luka>I need to es-escape... Nnngh...")
ShowMessageFace("",0,0,2,7)
ShowMessage("The moment the slime touches my body, all my strength fades. A sweet comfort spreads through my body quickly.")
ShowMessageFace("",0,0,2,8)
ShowMessage("A melting pleasure touches my skin, goes up my spine, and reaches my brain. I'm completely weakened and subdued by the ecstasy...")
ShowMessageFace("",0,0,2,9)
ShowMessage("\\n<Luka>Huaaa... Aaah...")
ShowMessageFace("sinigami_fc1",0,0,2,10)
ShowMessage("\\n<Reaper>The integration of chaos is pleasant.\nBecause it is the primordial pool and the source of all life...")
ShowMessageFace("sinigami_fc1",0,0,2,11)
ShowMessage("\\n<Reaper>Now is the time of your end.\nReturn to the chaos as raw energy...")
ShowMessageFace("",0,0,2,12)
ShowMessage("A tentacle comes out of Reaper's cape...\nIt opens its mouth and approaches my crotch.")
ShowMessageFace("",0,0,2,13)
ShowMessage("\\n<Luka>S-stop... Aaah...!")
245(bytes(0x04,0x08,0x6f,0x3a,0x0d,0x52,0x50,0x47,0x3a,0x3a,0x42,0x47,0x53,0x08,0x3a,0x0a,0x40,0x6e,0x61,0x6d,0x65,0x49,0x22,0x17,0x6d,0x6f,0x6e,0x5f,0x68,0x73,0x65,0x61,0x6e,0x31,0x38,0x5f,0x73,0x6c,0x69,0x6d,0x65,0x31,0x06,0x3a,0x06,0x45,0x54,0x3a,0x0c,0x40,0x76,0x6f,0x6c,0x75,0x6d,0x65,0x69,0x55,0x3a,0x0b,0x40,0x70,0x69,0x74,0x63,0x68,0x69,0x69))
PictureDisplay(5,"ev_sinigami_ha2",0,0,0,0,100,100,255,0)
ShowMessageFace("",0,0,2,14)
ShowMessage("*Slurp*...And my penis slips inside the tentacle.\nMy dick gets stimulated by the soft walls of the inside of the tentacle.")
ShowMessageFace("",0,0,2,15)
ShowMessage("At that moment my head goes pure white.\nThe melting feeling coming from my crotch erodes my entire body...")
ShowMessageFace("",0,0,2,16)
ShowMessage("\\n<Luka>Ah... Haaaa...")
ShowMessageFace("",0,0,2,17)
ShowMessage("It feels exactly like ascending to heaven.\nEvery spot the black slime touches feels like it's melting...")
ShowMessageFace("",0,0,2,18)
ShowMessage("\\n<Luka>Amazing...Aaah...")
ShowMessageFace("sinigami_fc1",0,0,2,19)
ShowMessage("\\n<Reaper>...it is indeed.\nAny creature that comes in contact with chaos feels like that.")
ShowMessageFace("sinigami_fc1",0,0,2,20)
ShowMessage("\\n<Reaper>Both the physical body and the soul are absorbed by chaos. Come as many times as you can and devote your seeds of life to the chaos.")
ShowMessageFace("",0,0,2,21)
ShowMessage("\\n<Luka>Huaaa... Aaah...")
ShowMessageFace("",0,0,2,22)
ShowMessage("I'm so immersed in ecstasy I don't even hear what she's saying anymore. My penis caught in her tentacle is wrapped in a dream-like pleasure...")
RunCommonEvent(104)
PictureDisplay(5,"ev_sinigami_ha3",0,0,0,0,100,100,255,0)
RunCommonEvent(105)
ShowMessageFace("",0,0,2,23)
ShowMessage("\\n<Luka>Aaaaah...")
ShowMessageFace("",0,0,2,24)
ShowMessage("And, I come.\nI shoot a lot of semen in her sweet hole.")
ShowMessageFace("",0,0,2,25)
ShowMessage("It feels like I'm offering up my soul.\nOn top of that, my ejaculation doesn't stop and my penis continues pulsating...")
RunCommonEvent(104)
RunCommonEvent(105)
ShowMessageFace("",0,0,2,26)
ShowMessage("\\n<Luka>Hya... What is this...")
ShowMessageFace("sinigami_fc1",0,0,2,27)
ShowMessage("\\n<Reaper>Once you come in here, there's no stopping it...\n...Until there's nothing left.")
ShowMessageFace("",0,0,2,28)
ShowMessage("\\n<Luka>N...no way...Hyaaaa...")
RunCommonEvent(104)
PictureDisplay(5,"ev_sinigami_ha4",0,0,0,0,100,100,255,0)
RunCommonEvent(105)
ShowMessageFace("",0,0,2,29)
ShowMessage("My penis keeps pulsating and pumping out my semen.\nEvery time my semen shoots out, a numbing feeling runs through my whole body.")
ShowMessageFace("",0,0,2,30)
ShowMessage("On top of that... the surrounding black slime makes me sink in it more. I'm slowly sinking into the eroding swamp from my feet up.")
ShowMessageFace("",0,0,2,31)
ShowMessage("\\n<Luka>Ngh... Aaah... This is...")
RunCommonEvent(104)
PictureDisplay(5,"ev_sinigami_ha5",0,0,0,0,100,100,255,0)
RunCommonEvent(105)
ShowMessageFace("",0,0,2,32)
ShowMessage("I know that my end is approaching me...\nDespite that, I couldn't resist at all.")
ShowMessageFace("",0,0,2,33)
ShowMessage("\\n<Luka>Noooo... Don't...")
ShowMessageFace("",0,0,2,34)
ShowMessage("My life seed is poured directly inside the chaos.\nIt also feels like my mind is slowly dripping inside it as well.")
ShowMessageFace("",0,0,2,35)
ShowMessage("I feel I have no strength left.\nMy reason also gradually slips from me and my consciousness is blurred...")
ShowMessageFace("sinigami_fc1",0,0,2,36)
ShowMessage("\\n<Reaper>Hmph, pathetic...")
ShowMessageFace("",0,0,2,37)
ShowMessage("Reaper gives me a cold gaze.\nAs she looks at me as my body sinks deeper into the chaos.")
RunCommonEvent(104)
PictureDisplay(5,"ev_sinigami_ha6",0,0,0,0,100,100,255,0)
RunCommonEvent(105)
ShowMessageFace("sinigami_fc1",0,0,2,38)
ShowMessage("\\n<Reaper>This is no longer needed.")
ShowMessageFace("",0,0,2,39)
ShowMessage("She removes the tentacle that was absorbing my semen from my crotch. At the same time, my penis sinks into the black swamp...")
ShowMessageFace("",0,0,2,40)
ShowMessage("\\n<Luka>Huaaa... Aaah...")
ShowMessageFace("",0,0,2,41)
ShowMessage("A sweet and crazy feeling attacks my penis immediately...")
RunCommonEvent(104)
PictureDisplay(5,"ev_sinigami_ha7",0,0,0,0,100,100,255,0)
RunCommonEvent(105)
ShowMessageFace("",0,0,2,42)
ShowMessage("The sperm I shot in the tentacle reaches Reaper.\nShe's looking at it as if she was looking at garbage...")
ShowMessageFace("sinigami_fc1",0,0,2,43)
ShowMessage("\\n<Reaper>Satisfied by something like this so soon...\nNow sink into the darkness of chaos.")
ShowMessageFace("",0,0,2,44)
ShowMessage("\\n<Luka>Ah... Aaah...")
PictureDisplay(5,"ev_sinigami_ha8",0,0,0,0,100,100,255,0)
ShowMessageFace("",0,0,2,45)
ShowMessage("My body is swallowed by the chaos.\nMy body melts as it's surrounded by a sweet crazy pleasure.")
ShowMessageFace("",0,0,2,46)
ShowMessage("My mind is drowned in ecstasy and my reason is non-existent anymore. My body and soul mix inside the chaos.")
ShowMessageFace("",0,0,2,47)
ShowMessage("My consciousness disappear as my body melts...")
221()
PictureClear(5)
246(2)
ShowMessageFace("",0,0,2,48)
ShowMessage("And my existence itself disappears.\nWhile tasting the finest pleasure, I became one with the chaos.")
DefineLabel("反省会")
ShowMessageFace("",0,0,2,49)
ShowMessage("......")
221()
242(1)
Wait(120)
355("memory_interruption")
ShowMessageFace("",0,0,2,50)
ShowMessage("You hear Ilias' voice calling out to you...\nReceive her Evaluation?")
ShowChoices(strings("Receive Evaluation","Change Difficulty","Reincarnate"),3)
IfPlayerPicksChoice(0,null)
 241(bytes(0x04,0x08,0x6f,0x3a,0x0d,0x52,0x50,0x47,0x3a,0x3a,0x42,0x47,0x4d,0x08,0x3a,0x0a,0x40,0x6e,0x61,0x6d,0x65,0x49,0x22,0x0a,0x69,0x72,0x69,0x61,0x73,0x06,0x3a,0x06,0x45,0x54,0x3a,0x0c,0x40,0x76,0x6f,0x6c,0x75,0x6d,0x65,0x69,0x5f,0x3a,0x0b,0x40,0x70,0x69,0x74,0x63,0x68,0x69,0x6e))
 PictureDisplay(1,"bg001",0,0,0,0,100,100,255,0)
 222()
 PictureDisplay(5,"80_iriasu_st01",0,0,0,0,100,100,0,0)
 PictureMove(5,null,0,0,0,0,100,100,255,0,30,true)
 ShowMessageFace("iriasu_fc1",0,0,2,51)
 ShowMessage("\\n<Ilias>Category error 666, message not found.\nBooting into safe mode.")
 ShowMessageFace("iriasu_fc1",0,0,2,52)
 ShowMessage("\\n<Ilias>......Reboot preparations completed.\nReboot now? Y / N")
 DefineLabel("選択")
 ShowChoices(strings("Y","N"),2)
 IfPlayerPicksChoice(0,null)
  0()
 IfPlayerPicksChoice(1,null)
  ShowMessageFace("iriasu_fc1",0,0,2,53)
  ShowMessage("\\n<Ilias>Invalid selection.\nReboot now? Y / N")
  JumpToLabel("選択")
  0()
 404()
 ShowMessageFace("iriasu_fc1",0,0,2,54)
 ShowMessage("\\n<Ilias>System rebooting...\\.\n■■\\.■■\\.■■\\.■■\\.■■\\.■■......\\.")
 242(1)
 221()
 PictureClear(5)
 PictureClear(1)
 Wait(60)
 0()
IfPlayerPicksChoice(1,null)
 ShowMessageFace("",0,0,2,55)
 ShowMessage("Please choose a difficulty level.")
 RunCommonEvent(110)
 0()
IfPlayerPicksChoice(2,null)
 0()
404()
RunCommonEvent(3000)
0()
