// EVENT 4601
Name "Worm Villager"

If(0,25,1)
 221()
 PictureClear(5)
 PictureClear(6)
 ShowMessageFace("",0,0,2,0)
 ShowMessage("......")
 242(2)
 Wait(120)
 241(bytes(0x04,0x08,0x6f,0x3a,0x0d,0x52,0x50,0x47,0x3a,0x3a,0x42,0x47,0x4d,0x08,0x3a,0x0a,0x40,0x6e,0x61,0x6d,0x65,0x49,0x22,0x0c,0x63,0x61,0x73,0x74,0x6c,0x65,0x36,0x06,0x3a,0x06,0x45,0x54,0x3a,0x0c,0x40,0x76,0x6f,0x6c,0x75,0x6d,0x65,0x69,0x69,0x3a,0x0b,0x40,0x70,0x69,0x74,0x63,0x68,0x69,0x69))
 EndEventProcessing()
 0()
EndIf()
PictureDisplay(5,"80_wormv_st02",0,0,0,0,100,100,255,0)
ShowMessageFace("wormv_fc1",1,0,2,1)
ShowMessage("\\n<Julia>Would you like me to suck your penis?")
ShowMessageFace("",0,0,2,2)
ShowMessage("\\n<Luka>Y...Yes... Please...")
ShowMessageFace("wormv_fc1",1,0,2,3)
ShowMessage("\\n<Julia>Well then, please come to my room.\nI'll turn you into a prisoner of pleasure... ♪")
ShowMessageFace("",0,0,2,4)
ShowMessage("Thus, I was invited to Julia's room.")
221()
PictureDisplay(1,"bg195",0,0,0,0,100,100,255,0)
PictureDisplay(5,"80_wormv_st02",0,0,0,0,100,100,255,0)
222()
241(bytes(0x04,0x08,0x6f,0x3a,0x0d,0x52,0x50,0x47,0x3a,0x3a,0x42,0x47,0x4d,0x08,0x3a,0x0a,0x40,0x6e,0x61,0x6d,0x65,0x49,0x22,0x09,0x65,0x72,0x6f,0x31,0x06,0x3a,0x06,0x45,0x54,0x3a,0x0c,0x40,0x76,0x6f,0x6c,0x75,0x6d,0x65,0x69,0x69,0x3a,0x0b,0x40,0x70,0x69,0x74,0x63,0x68,0x69,0x69))
ShowMessageFace("wormv_fc1",1,0,2,5)
ShowMessage("\\n<Julia>Well then, I will suck your penis.\nYour semen is too delicious to resist.")
ShowMessageFace("",0,0,2,6)
ShowMessage("\\n<Luka>Unnngh...")
250(bytes(0x04,0x08,0x6f,0x3a,0x0c,0x52,0x50,0x47,0x3a,0x3a,0x53,0x45,0x08,0x3a,0x0a,0x40,0x6e,0x61,0x6d,0x65,0x49,0x22,0x16,0x6d,0x6f,0x6e,0x5f,0x65,0x72,0x6f,0x5f,0x6d,0x61,0x6b,0x69,0x74,0x75,0x6b,0x69,0x33,0x06,0x3a,0x06,0x45,0x54,0x3a,0x0b,0x40,0x70,0x69,0x74,0x63,0x68,0x69,0x69,0x3a,0x0c,0x40,0x76,0x6f,0x6c,0x75,0x6d,0x65,0x69,0x69))
PictureDisplay(5,"ev_wormv_h1",0,0,0,0,100,100,255,0)
ShowMessageFace("",0,0,2,7)
ShowMessage("Julia's tentacle coils around me.")
ShowMessage("Completely entangled in her, I'm left unable to move.")
ShowMessageFace("wormv_fc1",1,0,2,8)
ShowMessage("\\n<Julia>Hora...Doesn't my tentacle look like it would feel amazing?")
250(bytes(0x04,0x08,0x6f,0x3a,0x0c,0x52,0x50,0x47,0x3a,0x3a,0x53,0x45,0x08,0x3a,0x0a,0x40,0x6e,0x61,0x6d,0x65,0x49,0x22,0x11,0x6d,0x6f,0x6e,0x5f,0x65,0x72,0x6f,0x5f,0x70,0x79,0x75,0x32,0x06,0x3a,0x06,0x45,0x54,0x3a,0x0b,0x40,0x70,0x69,0x74,0x63,0x68,0x69,0x69,0x3a,0x0c,0x40,0x76,0x6f,0x6c,0x75,0x6d,0x65,0x69,0x69))
ShowMessageFace("",0,0,2,9)
ShowMessage("With a lewd noise, a mouth opens at the end of one of her tentacles.")
ShowMessage("The flesh inside of it wriggles and vibrates around, as if inviting me.")
ShowMessageFace("",0,0,2,10)
ShowMessage("She's going to stick me in there...")
ShowMessage("Just thinking of that fills me with both apprehension and expectation.")
ShowMessageFace("",0,0,2,11)
ShowMessage("\\n<Luka>Ah, aaah...")
ShowMessageFace("wormv_fc1",1,0,2,12)
ShowMessage("\\n<Julia>Hehe... Are you ready?\nWell then... Here we go! ♪")
245(bytes(0x04,0x08,0x6f,0x3a,0x0d,0x52,0x50,0x47,0x3a,0x3a,0x42,0x47,0x53,0x08,0x3a,0x0a,0x40,0x6e,0x61,0x6d,0x65,0x49,0x22,0x17,0x6d,0x6f,0x6e,0x5f,0x68,0x73,0x65,0x61,0x6e,0x31,0x35,0x5f,0x6b,0x79,0x75,0x69,0x6e,0x32,0x06,0x3a,0x06,0x45,0x54,0x3a,0x0c,0x40,0x76,0x6f,0x6c,0x75,0x6d,0x65,0x69,0x55,0x3a,0x0b,0x40,0x70,0x69,0x74,0x63,0x68,0x69,0x69))
PictureDisplay(5,"ev_wormv_h6",0,0,0,0,100,100,255,0)
ShowMessageFace("",0,0,2,13)
ShowMessage("With a soft slurping noise, her tentacle sucks me all the way inside!")
ShowMessage("In an instant, I'm sucked all the way into the slimy tentacle's mouth!")
ShowMessageFace("",0,0,2,14)
ShowMessage("\\n<Luka>Ah, aaaah...!!")
ShowMessageFace("",0,0,2,15)
ShowMessage("My body shivers as the unexpected pleasure attacks me.")
ShowMessageFace("",0,0,2,16)
ShowMessage("The inside of her tentacle is softer and warmer than I expected.")
ShowMessageFace("",0,0,2,17)
ShowMessage("As I tremble after insertion, the soft flesh starts to narrow around me.")
ShowMessage("But above all was the suction...")
ShowMessageFace("",0,0,2,18)
ShowMessage("As if it was smoking me, the tentacle sucks and pulls on me with powerful sucking.")
ShowMessageFace("",0,0,2,19)
ShowMessage("\\n<Luka>Ahh... The sucking...")
ShowMessageFace("wormv_fc1",1,0,2,20)
ShowMessage("\\n<Julia>Hehehe... That's right...\nI'm sucking your penis with my tentacle.")
ShowMessageFace("wormv_fc1",1,0,2,21)
ShowMessage("\\n<Julia>Just like this, I'll suck everything out...")
ShowMessageFace("",0,0,2,22)
ShowMessage("\\n<Luka>Auuu... Amazing...")
ShowMessageFace("",0,0,2,23)
ShowMessage("The suction brings me a sweet pleasure.")
ShowMessage("The stimulation blows away my previous disgust at the slimy tentacle.")
ShowMessageFace("",0,0,2,24)
ShowMessage("The desire to explode inside of her tentacle boils up through me.")
ShowMessageFace("wormv_fc1",1,0,2,25)
ShowMessage("\\n<Julia>Hehe... You get it now, don't you? You want to come, right?\nYou want this tentacle to suck up all of your semen, right?")
ShowMessageFace("wormv_fc1",1,0,2,26)
ShowMessage("\\n<Julia>That's good... Just give in to your desires.\nI'll gladly suck out everything for you. ♪")
ShowMessageFace("",0,0,2,27)
ShowMessage("\\n<Luka>Ah, aaah...")
ShowMessageFace("",0,0,2,28)
ShowMessage("Julia seductively whispers in my ear as her tentacle continues its powerful suction.")
ShowMessageFace("",0,0,2,29)
ShowMessage("At the same time, the fleshy walls wriggle and vibrate around my penis.")
ShowMessageFace("wormv_fc1",1,0,2,30)
ShowMessage("\\n<Julia>Hahaha... I can taste your pre-come. ♪")
ShowMessageFace("wormv_fc1",1,0,2,31)
ShowMessage("\\n<Julia>I'll be able to taste all of your semen soon enough.\nJust surrender to the world of pleasure I can bring you, and don't think of anything else.")
ShowMessageFace("",0,0,2,32)
ShowMessage("\\n<Luka>Unnngh...")
ShowMessageFace("",0,0,2,33)
ShowMessage("My penis is inside of her strange tentacle...")
ShowMessage("Able to do nothing but look at her sucking on me, a deep sense of defeat fills me.")
ShowMessageFace("",0,0,2,34)
ShowMessage("But still, my body can't deny the pleasure...")
ShowMessageFace("",0,0,2,35)
ShowMessage("The desire to have my semen sucked out by her is slowly taking over my other thoughts...")
ShowMessageFace("",0,0,2,36)
ShowMessage("\\n<Luka>Don't...I'm coming...")
ShowMessageFace("wormv_fc1",1,0,2,37)
ShowMessage("\\n<Julia>Don't hold back... Just give in.\nHere, I'll help you... Once I do this, you'll be forced to surrender.")
ShowMessageFace("",0,0,2,38)
ShowMessage("The wriggling of her flesh violently increases.")
ShowMessage("With the lewd sounds from the suction getting even louder, the stimulation drastically increases.")
ShowMessageFace("",0,0,2,39)
ShowMessage("Unable to endure her forceful attack, I finally yield to the desire.")
ShowMessageFace("",0,0,2,40)
ShowMessage("\\n<Luka>Ah! I'm coming!")
RunCommonEvent(104)
PictureDisplay(5,"ev_wormv_h7",0,0,0,0,100,100,255,0)
RunCommonEvent(105)
ShowMessageFace("",0,0,2,41)
ShowMessage("I finally explode inside of her soft tentacle, pouring out everything into her.")
ShowMessageFace("",0,0,2,42)
ShowMessage("\\n<Luka>Faaa... Incredible...")
ShowMessageFace("",0,0,2,43)
ShowMessage("The sense of release is overwhelming.")
ShowMessage("As if my soul itself is being sucked out, I let out a sigh.")
ShowMessageFace("",0,0,2,44)
ShowMessage("Until my ejaculation ends, I'm stuck in a trance.")
ShowMessage("There's no escape from this pleasure anymore...")
ShowMessageFace("wormv_fc1",1,0,2,45)
ShowMessage("\\n<Julia>Hehe... Your semen is delicious. ♪")
ShowMessageFace("wormv_fc1",1,0,2,46)
ShowMessage("\\n<Julia>But I'm not done yet.\nUntil my thirst is gone...")
ShowMessageFace("",0,0,2,47)
ShowMessage("\\n<Luka>Ah... Aieee!!")
245(bytes(0x04,0x08,0x6f,0x3a,0x0d,0x52,0x50,0x47,0x3a,0x3a,0x42,0x47,0x53,0x08,0x3a,0x0a,0x40,0x6e,0x61,0x6d,0x65,0x49,0x22,0x17,0x6d,0x6f,0x6e,0x5f,0x68,0x73,0x65,0x61,0x6e,0x31,0x36,0x5f,0x6b,0x79,0x75,0x69,0x6e,0x33,0x06,0x3a,0x06,0x45,0x54,0x3a,0x0c,0x40,0x76,0x6f,0x6c,0x75,0x6d,0x65,0x69,0x55,0x3a,0x0b,0x40,0x70,0x69,0x74,0x63,0x68,0x69,0x69))
ShowMessageFace("",0,0,2,48)
ShowMessage("Suddenly, the tentacle starts to move back and forth.")
ShowMessageFace("",0,0,2,49)
ShowMessage("Until now it was only suction, but now she starts rubbing the tip of my penis.")
ShowMessageFace("",0,0,2,50)
ShowMessage("The new movement causes my penis to rub against the soft folds and bumps inside of her tentacle, as her suction remains as strong as before.")
ShowMessageFace("",0,0,2,51)
ShowMessage("In and out, from the base to the tip, I let out a yell as it becomes too much to take.")
ShowMessageFace("",0,0,2,52)
ShowMessage("\\n<Luka>Auu... Incredible!\nFaaa... Too good...")
ShowMessageFace("",0,0,2,53)
ShowMessage("The last of the resistance in my mind is destroyed as the stimulation makes it feel as though I'm floating.")
ShowMessageFace("",0,0,2,54)
ShowMessage("This devilish tentacle that is able to suck out my semen...")
ShowMessage("Any man would go crazy at this...")
ShowMessageFace("",0,0,2,55)
ShowMessage("\\n<Luka>Auuu... Amazing... It's too good...")
ShowMessageFace("wormv_fc1",1,0,2,56)
ShowMessage("\\n<Julia>It looks like you're really enjoying yourself now.\nDid you finally give yourself to the depravation?")
ShowMessageFace("wormv_fc1",1,0,2,57)
ShowMessage("\\n<Julia>Then let me keep sucking on you...\nUntil you're completely corrupt, I'll suck it all out. ♪")
ShowMessageFace("",0,0,2,58)
ShowMessage("\\n<Luka>Ahhh... Faa...")
ShowMessageFace("",0,0,2,59)
ShowMessage("Her movements start to become even quicker.")
ShowMessageFace("",0,0,2,60)
ShowMessage("With the lewd sucking noises sounding out, the rhythmic pumping forces me quickly over the edge again.")
ShowMessageFace("",0,0,2,61)
ShowMessage("\\n<Luka>Ahh! I'm coming again!")
ShowMessageFace("",0,0,2,62)
ShowMessage("As if rejoicing at the stimulation, I explode inside of her again.")
RunCommonEvent(104)
PictureDisplay(5,"ev_wormv_h8",0,0,0,0,100,100,255,0)
RunCommonEvent(105)
ShowMessageFace("",0,0,2,63)
ShowMessage("Each spurt inside of the tentacle is matched by a powerful suction as her tentacle sucks out every drop I shoot in her.")
ShowMessageFace("",0,0,2,64)
ShowMessage("\\n<Luka>Hnnaaa...")
ShowMessageFace("",0,0,2,65)
ShowMessage("My body relaxes at the bliss spreading through my body.")
ShowMessage("But she wasn't about to let me take a rest...")
ShowMessageFace("wormv_fc1",1,0,2,66)
ShowMessage("\\n<Julia>Delicious... But not enough...\nI want even more of your semen...")
ShowMessageFace("",0,0,2,67)
ShowMessage("\\n<Luka>Unnngh...!!")
ShowMessageFace("",0,0,2,68)
ShowMessage("As if spurred on by my last orgasm, the tentacle only becomes even more forceful.")
ShowMessageFace("",0,0,2,69)
ShowMessage("Sucking me inside, the tentacle pumps me even faster.")
ShowMessageFace("",0,0,2,70)
ShowMessage("While pumping, the tentacle squeezes the tip of my penis as if not wanting to let go, forcing great pleasure into my glans.") 
ShowMessageFace("",0,0,2,71)
ShowMessage("When I'm pulled almost all the way out of the tentacle, the suction on my tip is too much to take.")
ShowMessageFace("",0,0,2,72)
ShowMessage("\\n<Luka>Ahhh! It's too much!\nIf you do it like that...!")
ShowMessageFace("",0,0,2,73)
ShowMessage("The stimulation is too intense.")
ShowMessage("If she keeps doing this, I don't think I'll stay sane...")
ShowMessageFace("wormv_fc1",1,0,2,74)
ShowMessage("\\n<Julia>I won't stop... Until I'm satisfied, I'll keep sucking...\nBut don't worry, I won't kill you...")
ShowMessageFace("wormv_fc1",1,0,2,75)
ShowMessage("\\n<Julia>I'm really skilled...")
ShowMessageFace("wormv_fc1",1,0,2,76)
ShowMessage("\\n<Julia>I'll suck you to the border of death and resuscitate you,\nover and over...")
ShowMessageFace("",0,0,2,77)
ShowMessage("\\n<Luka>No way... Ahhh!")
RunCommonEvent(104)
RunCommonEvent(105)
ShowMessageFace("",0,0,2,78)
ShowMessage("I explode inside her tentacle again.")
ShowMessage("But there's still no end in sight...")
ShowMessageFace("",0,0,2,79)
ShowMessage("\\n<Luka>Stop... Please... I'll die...")
ShowMessageFace("wormv_fc1",1,0,2,80)
ShowMessage("\\n<Julia>You won't die with just this little.\nI'll stop at the absolute limit, so don't worry.")
ShowMessageFace("",0,0,2,81)
ShowMessage("\\n<Luka>Ahhhh!!")
ShowMessageFace("",0,0,2,82)
ShowMessage("My body shivers as she continues the attack of pleasure.")
ShowMessageFace("",0,0,2,83)
ShowMessage("The tentacles grips my penis completely, as she gives extra attention to the tip...")
ShowMessageFace("",0,0,2,84)
ShowMessage("\\n<Luka>Ahh! No more...")
RunCommonEvent(104)
PictureDisplay(5,"ev_wormv_h9",0,0,0,0,100,100,255,0)
RunCommonEvent(105)
ShowMessageFace("",0,0,2,85)
ShowMessage("My semen is continually sucked up by Julia.")
ShowMessage("But she just laughs and doesn't stop for a moment.")
ShowMessageFace("",0,0,2,86)
ShowMessage("I'm just food for Julia's tentacles.")
ShowMessageFace("",0,0,2,87)
ShowMessage("\\n<Luka>Ah, aaah...")
ShowMessageFace("wormv_fc1",1,0,2,88)
ShowMessage("\\n<Julia>Hehe, I can get even more...")
ShowMessageFace("wormv_fc1",1,0,2,89)
ShowMessage("\\n<Julia>You won't die yet, so don't worry...\nPlease let it out more...")
RunCommonEvent(104)
RunCommonEvent(105)
ShowMessageFace("",0,0,2,90)
ShowMessage("\\n<Luka>Unnngh...")
ShowMessageFace("",0,0,2,91)
ShowMessage("Even though she's saying she won't kill me, I feel my consciousness start to fade.")
ShowMessageFace("",0,0,2,92)
ShowMessage("I fainted, but that was only a short escape.")
221()
PictureClear(5)
246(2)
ShowMessageFace("",0,0,2,93)
ShowMessage("When I awoke, I was back in my room.")
ShowMessage("After I fainted, I guess Julia brought me to my room.")
ShowMessageFace("",0,0,2,94)
ShowMessage("The pleasure of being sucked by her tentacles is carved in my mind.")
ShowMessage("I may not be able to escape from the pleasure of her tentacles anymore.")
ShowMessageFace("",0,0,2,95)
ShowMessage("......")
242(2)
Wait(120)
241(bytes(0x04,0x08,0x6f,0x3a,0x0d,0x52,0x50,0x47,0x3a,0x3a,0x42,0x47,0x4d,0x08,0x3a,0x0a,0x40,0x6e,0x61,0x6d,0x65,0x49,0x22,0x0c,0x63,0x61,0x73,0x74,0x6c,0x65,0x36,0x06,0x3a,0x06,0x45,0x54,0x3a,0x0c,0x40,0x76,0x6f,0x6c,0x75,0x6d,0x65,0x69,0x69,0x3a,0x0b,0x40,0x70,0x69,0x74,0x63,0x68,0x69,0x69))
0()
