// EVENT 5061
Name "Automata Girl 1"

PictureDisplay(5,"80_artm_st01",0,0,0,0,100,100,0,0)
PictureMove(5,null,0,0,0,0,100,100,255,0,30,true)
ShowMessageFace("artm_fc1",0,0,2,1)
ShowMessage("\\n<Coppelia>")
ShowMessage("Master desires his penis washed...?")
ShowMessageFace("",0,0,2,2)
ShowMessage("\\n<Luka>P...Please...")
ShowMessageFace("artm_fc1",0,0,2,3)
ShowMessage("\\n<Coppelia>")
ShowMessage("Very well, Master's penis shall be thoroughly washed.")
ShowMessage("Please come this way.")
ShowMessageFace("",0,0,2,4)
ShowMessage("I follow Coppelia to her room...")
221()
PictureDisplay(1,"bg195",0,0,0,0,100,100,255,0)
PictureDisplay(5,"80_artm_st01",0,0,0,0,100,100,255,0)
PictureDisplay(6,"ev_artm_ct11",0,0,0,0,100,100,255,0)
222()
241(bytes(0x04,0x08,0x6f,0x3a,0x0d,0x52,0x50,0x47,0x3a,0x3a,0x42,0x47,0x4d,0x08,0x3a,0x0a,0x40,0x6e,0x61,0x6d,0x65,0x49,0x22,0x09,0x65,0x72,0x6f,0x31,0x06,0x3a,0x06,0x45,0x54,0x3a,0x0c,0x40,0x76,0x6f,0x6c,0x75,0x6d,0x65,0x69,0x69,0x3a,0x0b,0x40,0x70,0x69,0x74,0x63,0x68,0x69,0x69))
245(bytes(0x04,0x08,0x6f,0x3a,0x0d,0x52,0x50,0x47,0x3a,0x3a,0x42,0x47,0x53,0x08,0x3a,0x0a,0x40,0x6e,0x61,0x6d,0x65,0x49,0x22,0x17,0x6d,0x6f,0x6e,0x5f,0x68,0x73,0x65,0x61,0x6e,0x31,0x37,0x5f,0x73,0x69,0x67,0x6f,0x6b,0x69,0x06,0x3a,0x06,0x45,0x54,0x3a,0x0c,0x40,0x76,0x6f,0x6c,0x75,0x6d,0x65,0x69,0x55,0x3a,0x0b,0x40,0x70,0x69,0x74,0x63,0x68,0x69,0x69))
ShowMessageFace("artm_fc1",0,0,2,5)
ShowMessage("\\n<Coppelia>")
ShowMessage("I shall clean Master's genitals, as ordered.")
ShowMessageFace("",0,0,2,6)
ShowMessage("Coppelia gently holds my penis.")
ShowMessage("Her other hand fills up with foam.")
ShowMessageFace("",0,0,2,7)
ShowMessage("\\n<Luka>A...Ahh...")
ShowMessageFace("",0,0,2,8)
ShowMessage("She's going to cover me with foam and wash me...")
ShowMessage("Just thinking about it excites me.")
ShowMessageFace("artm_fc1",0,0,2,9)
ShowMessage("\\n<Coppelia>")
ShowMessage("Then I shall begin scrubbing.")
ShowMessage("Please relax.")
PictureDisplay(6,"ev_artm_ct12",0,0,0,0,100,100,255,0)
ShowMessageFace("",0,0,2,10)
ShowMessage("Her foam covered hand gently grabs me.")
ShowMessage("Stroking me, she starts to wash my penis.")
ShowMessageFace("",0,0,2,11)
ShowMessage("\\n<Luka>Haauuu...")
ShowMessageFace("",0,0,2,12)
ShowMessage("Her bubble filled hand carefully moves around my penis.")
ShowMessage("I soak in the ecstasy of her gentle touch.")
ShowMessageFace("artm_fc1",0,0,2,13)
ShowMessage("\\n<Coppelia>")
ShowMessage("Are you dreaming, Master?")
ShowMessage("I shall continue my service.")
ShowMessageFace("",0,0,2,14)
ShowMessage("\\n<Luka>Ahh... Faaa...")
ShowMessageFace("",0,0,2,15)
ShowMessage("Sweet pleasure fills me as she continues washing my penis.")
ShowMessage("Her frothy fingers trace up and down my shaft.")
ShowMessageFace("",0,0,2,16)
ShowMessage("I pant as my hips start to shake.")
ShowMessage("Coppelia continues to wash me without noticing.")
ShowMessageFace("artm_fc1",0,0,2,17)
ShowMessage("\\n<Coppelia>")
ShowMessage("More foam is required to thoroughly clean here.")
ShowMessageFace("",0,0,2,18)
ShowMessage("\\n<Luka>Hauu... Th-that feels good...")
ShowMessageFace("",0,0,2,19)
ShowMessage("Her foam covered hand sweetly massages me.")
ShowMessage("Coppelia's nimble fingers rub right under the neck of my penis.")
ShowMessageFace("",0,0,2,20)
ShowMessage("Covered in foam, her palm rubs my tip clean.")
ShowMessage("Every time her palm rubs against my glans, I quiver.")
ShowMessageFace("",0,0,2,21)
ShowMessage("\\n<Luka>Ahhh... I'm going to come...")
ShowMessageFace("",0,0,2,22)
ShowMessage("A numb feeling rises up my back as she washes me.")
ShowMessage("I'm going to come in her hands like this...")
ShowMessageFace("artm_fc1",0,0,2,23)
ShowMessage("\\n<Coppelia>")
ShowMessage("Will Master ejaculate?")
ShowMessage("Is there a preferred stimulation to experience for release?")
ShowMessageFace("",0,0,2,24)
ShowMessage("\\n<Luka>Hauu... Rub the tip...")
ShowMessageFace("artm_fc1",0,0,2,25)
ShowMessage("\\n<Coppelia>")
ShowMessage("Understood.")
ShowMessage("Please enjoy your climax with this stimulus.")
ShowMessageFace("",0,0,2,26)
ShowMessage("Right before I reach a climax, Coppelia focuses her palm on my tip.")
ShowMessage("Rubbing my tip clean, my head goes pure white as I climax.")
ShowMessageFace("",0,0,2,27)
ShowMessage("\\n<Luka>Ah, coming... Ahh...")
RunCommonEvent(104)
PictureDisplay(6,"ev_artm_ct13",0,0,0,0,100,100,255,0)
RunCommonEvent(105)
ShowMessageFace("",0,0,2,28)
ShowMessage("As she carefully washes my penis, I come into her hands.")
ShowMessage("My semen mixes with the foam, going everywhere.")
246(2)
PictureDisplay(6,"ev_artm_ct14",0,0,0,0,100,100,255,0)
ShowMessageFace("artm_fc1",0,0,2,29)
ShowMessage("\\n<Coppelia>")
ShowMessage("Master, you came during your penis wash.")
ShowMessage("Was my service acceptable?")
ShowMessageFace("",0,0,2,30)
ShowMessage("\\n<Luka>I-it felt so good...")
ShowMessageFace("",0,0,2,31)
ShowMessage("Immersed in my afterglow, I murmur in response.")
ShowMessage("Thanks to her careful washing, my penis is nice and clean too.")
ShowMessageFace("",0,0,2,32)
ShowMessage("I'm left completely weak after Coppelia's wash...")
221()
PictureClear(5)
PictureClear(6)
246(2)
ShowMessageFace("",0,0,2,33)
ShowMessage("......")
RunCommonEvent(3998)
0()
