// EVENT 4116
Name "Earthworm Girl"

If(0,25,1)
 221()
 PictureClear(5)
 PictureClear(6)
 ShowMessageFace("",0,0,2,0)
 ShowMessage("......")
 242(2)
 Wait(120)
 241(bytes(0x04,0x08,0x6f,0x3a,0x0d,0x52,0x50,0x47,0x3a,0x3a,0x42,0x47,0x4d,0x08,0x3a,0x0a,0x40,0x6e,0x61,0x6d,0x65,0x49,0x22,0x0c,0x63,0x61,0x73,0x74,0x6c,0x65,0x36,0x06,0x3a,0x06,0x45,0x54,0x3a,0x0c,0x40,0x76,0x6f,0x6c,0x75,0x6d,0x65,0x69,0x69,0x3a,0x0b,0x40,0x70,0x69,0x74,0x63,0x68,0x69,0x69))
 EndEventProcessing()
 0()
EndIf()
PictureDisplay(5,"80_mimizu_st01",0,0,0,0,100,100,255,0)
ShowMessageFace("mimizu_fc1",1,0,2,1)
ShowMessage("\\n<Mimi>So let me get this straight. You want to feel what it's like for me to use my tail on you, but just once.")
ShowMessageFace("",0,0,2,2)
ShowMessage("\\n<Luka>W-Well...")
ShowMessageFace("mimizu_fc1",1,0,2,3)
ShowMessage("\\n<Mimi>I mean, that's fine with me. I just want to be clear here.")
PictureDisplay(5,"80_mimizu_st01",0,0,0,0,100,100,255,0)
ShowMessageFace("mimizu_fc1",1,0,2,4)
ShowMessage("\\n<Mimi>Oh, don't get me wrong, I'm all for it. But are you suuure?")
ShowMessageFace("mimizu_fc1",1,0,2,5)
ShowMessage("\\n<Mimi>I mean, one try couldn't hurt, right? C'mon, live a little.")
ShowMessageFace("",0,0,2,6)
ShowMessage("\\n<Luka>......")
ShowMessageFace("",0,0,2,7)
ShowMessage("I glance from side to side, making sure no one is around to see me nod and step up to her.")
ShowMessageFace("mimizu_fc1",1,0,2,8)
ShowMessage("\\n<Mimi>Good choice. Here, follow me, sir. ♥")
ShowMessageFace("",0,0,2,9)
ShowMessage("Mimi guides me to a private room...")
221()
PictureClear(5)
PictureDisplay(1,"bg195",0,0,0,0,100,100,255,0)
222()
241(bytes(0x04,0x08,0x6f,0x3a,0x0d,0x52,0x50,0x47,0x3a,0x3a,0x42,0x47,0x4d,0x08,0x3a,0x0a,0x40,0x6e,0x61,0x6d,0x65,0x49,0x22,0x09,0x65,0x72,0x6f,0x31,0x06,0x3a,0x06,0x45,0x54,0x3a,0x0c,0x40,0x76,0x6f,0x6c,0x75,0x6d,0x65,0x69,0x69,0x3a,0x0b,0x40,0x70,0x69,0x74,0x63,0x68,0x69,0x69))
PictureDisplay(5,"ev_mimizu_h1",0,0,0,0,100,100,255,0)
ShowMessageFace("mimizu_fc1",1,0,2,10)
ShowMessage("\\n<Mimi>Just you and me until you're ready to tap out. Isn't this nice?")
ShowMessageFace("",0,0,2,11)
ShowMessage("\\n<Luka>Aaah!")
ShowMessageFace("",0,0,2,12)
ShowMessage("As soon as we're in the room, my clothes are picked off of me, and Mimi wraps her tail around me, slimy and slick and impossible to escape.")
ShowMessageFace("mimizu_fc1",1,0,2,13)
ShowMessage("\\n<Mimi>What, were you expecting missionary with hand-holding? This may surprise you, but I don't have any hands.")
241(bytes(0x04,0x08,0x6f,0x3a,0x0d,0x52,0x50,0x47,0x3a,0x3a,0x42,0x47,0x4d,0x08,0x3a,0x0a,0x40,0x6e,0x61,0x6d,0x65,0x49,0x22,0x09,0x65,0x72,0x6f,0x31,0x06,0x3a,0x06,0x45,0x54,0x3a,0x0c,0x40,0x76,0x6f,0x6c,0x75,0x6d,0x65,0x69,0x69,0x3a,0x0b,0x40,0x70,0x69,0x74,0x63,0x68,0x69,0x69))
245(bytes(0x04,0x08,0x6f,0x3a,0x0d,0x52,0x50,0x47,0x3a,0x3a,0x42,0x47,0x53,0x08,0x3a,0x0a,0x40,0x6e,0x61,0x6d,0x65,0x49,0x22,0x17,0x6d,0x6f,0x6e,0x5f,0x68,0x73,0x65,0x61,0x6e,0x31,0x34,0x5f,0x6b,0x79,0x75,0x69,0x6e,0x31,0x06,0x3a,0x06,0x45,0x54,0x3a,0x0c,0x40,0x76,0x6f,0x6c,0x75,0x6d,0x65,0x69,0x55,0x3a,0x0b,0x40,0x70,0x69,0x74,0x63,0x68,0x69,0x69))
PictureDisplay(5,"ev_mimizu_h3",0,0,0,0,100,100,255,0)
ShowMessageFace("",0,0,2,14)
ShowMessage("Her eyes are locked on my groin, and she licks her lips as the tip of her tail presses up against my lap, my penis sliding into it smoothly.")
ShowMessageFace("",0,0,2,11)
ShowMessage("\\n<Luka>Ah... Aaaaaah!")
ShowMessageFace("",0,0,2,15)
ShowMessage("Even with just the tip inside, it's incredible, but as it loosens up to take more of me in, I shiver in anticipation.")
ShowMessageFace("",0,0,2,16)
ShowMessage("And just like that, she's surrounding me, which means it's time to... clench down! The pleasure comes so suddenly that I can't help but moan.")
ShowMessageFace("mimizu_fc1",1,0,2,17)
ShowMessage("\\n<Mimi>Ooh, if you're moaning already, I wouldn't be surprised if you're reduced to whimpers by the end of our little playdate.")
ShowMessageFace("mimizu_fc1",1,0,2,18)
ShowMessage("\\n<Mimi>But then, that's the point, isn't it?\nHere, just enjoy it. After all, you're... safe here. After a fashion.")
ShowMessageFace("",0,0,2,19)
ShowMessage("\\n<Luka>Ahiii!")
ShowMessageFace("",0,0,2,20)
ShowMessage("Her tail tightens around me, wet, lewd slurping sounds ringing out with every powerful suck of her hole on my penis.")
ShowMessageFace("",0,0,2,21)
ShowMessage("The suction is incredible, and I feel as if I'm being pulled into her. As it stands, though, just my penis is being spoiled right now, squeezed tight.")
ShowMessageFace("",0,0,2,22)
ShowMessage("\\n<Luka>Fwaaah... A-Amazing...\nHuaaaa!!")
ShowMessageFace("mimizu_fc1",1,0,2,23)
ShowMessage("\\n<Mimi>No, no, no! You asked for this, don't try to wriggle your way out!")
ShowMessageFace("mimizu_fc1",1,0,2,24)
ShowMessage("\\n<Mimi>Just kidding. I know you're just squirming because you're not used to feeling this delectably good.")
ShowMessageFace("",0,0,2,25)
ShowMessage("\\n<Luka>Auuuu! Ah, ah, aaaaah!!")
ShowMessageFace("",0,0,2,26)
ShowMessage("Mimi grins wider and wider as she watches me, and soon my jaw drops, penis aching and throbbing inside her. If this is her idea of a game, I think I may have to play with her more often.")
ShowMessageFace("mimizu_fc1",1,0,2,27)
ShowMessage("\\n<Mimi>The look on your face... Delicious.\nDon't hold back. Just give in and enjoy it. ♥") 
ShowMessageFace("",0,0,2,28)
ShowMessage("My thoughts go hazy as she purrs in my ear, her tail milking and slurping lasciviously at me, her words coaxing me deeper into this fugue of pleasure.")
ShowMessageFace("",0,0,2,29)
ShowMessage("\\n<Luka>Ah... Aaaaaah!!")
RunCommonEvent(104)
PictureDisplay(5,"ev_mimizu_h4",0,0,0,0,100,100,255,0)
RunCommonEvent(105)
ShowMessageFace("",0,0,2,30)
ShowMessage("And just like that, I come.")
ShowMessageFace("",0,0,2,31)
ShowMessage("I buck my hips forward with every powerful shot, though perhaps it's more accurate to say Mimi's tail pulls me forward intensely with every spurt into her.")
ShowMessageFace("mimizu_fc1",1,0,2,32)
ShowMessage("\\n<Mimi>Absolutely p-e-r-f-e-c-t. ♥\nSee? My tail is the best by far.")
ShowMessageFace("mimizu_fc1",1,0,2,33)
ShowMessage("\\n<Mimi>I think I'll treat myself to some more of your semen to reward myself for being so incredible.")
ShowMessageFace("",0,0,2,34)
ShowMessage("\\n<Luka>Ah... aaah... That's so good...")
ShowMessageFace("",0,0,2,35)
ShowMessage("Mimi giggles to herself as she begins to milk me more rhythmically, her tail clenching down at the base before tightening up to the tip, over and over.")
ShowMessageFace("",0,0,2,36)
ShowMessage("\\n<Luka>Ah... Huaaa! Ahii!")
ShowMessageFace("mimizu_fc1",1,0,2,37)
ShowMessage("\\n<Mimi>You love it, don't you? Look, your hips are pushing up!")
ShowMessageFace("mimizu_fc1",1,0,2,38)
ShowMessage("\\n<Mimi>Don't be embarrassed, just enjoy it!\nI'm not going to stop sucking on you either way.")
ShowMessageFace("",0,0,2,39)
ShowMessage("True to her word, Mimi only grows more voracious in her movements, her tail wetly smacking against my groin, my penis still trapped in the hellish paradise of her tail-pussy.")
ShowMessageFace("",0,0,2,40)
ShowMessage("If she sucks any harder, she'll milk the cum right from my balls.")
ShowMessageFace("",0,0,2,41)
ShowMessage("And her words murmured right into my ear are just grinding my willpower into dust. Soon my body is slack in her grip, just waiting for the next orgasm.")
ShowMessageFace("",0,0,2,42)
ShowMessage("\\n<Luka>Ah.... Coming again! Auuu, aaaaah!")
RunCommonEvent(104)
PictureDisplay(5,"ev_mimizu_h5",0,0,0,0,100,100,255,0)
RunCommonEvent(105)
ShowMessageFace("",0,0,2,43)
ShowMessage("It doesn't take long before I spurt another load into her, jaw dropping as I pump my seed into her.")
ShowMessageFace("",0,0,2,44)
ShowMessage("As if she'd stop there.")
ShowMessageFace("mimizu_fc1",1,0,2,45)
ShowMessage("\\n<Mimi>Perfect, perfect! Just like that.")
ShowMessageFace("",0,0,2,46)
ShowMessage("\\n<Luka>P-Please... C-Can we... Stop?")
RunCommonEvent(104)
RunCommonEvent(105)
ShowMessageFace("",0,0,2,47)
ShowMessage("Again and again I come, my balls nearly empty thanks to her powerful suction.")
ShowMessageFace("",0,0,2,48)
ShowMessage("Wrapped up snug in her coils, I can do little more than mumble out a request when I'm not too distracted by the astounding sensation of her tail around me.")
ShowMessageFace("mimizu_fc1",1,0,2,49)
ShowMessage("\\n<Mimi>Why stop now?")
ShowMessageFace("mimizu_fc1",1,0,2,50)
ShowMessage("\\n<Mimi>It feels so good, doesn't it?\nJust a little longer. You owe it to yourself.")
ShowMessageFace("",0,0,2,51)
ShowMessage("\\n<Luka>Ah... Aaah... Nnngh, faaa...")
RunCommonEvent(104)
PictureDisplay(5,"ev_mimizu_h6",0,0,0,0,100,100,255,0)
RunCommonEvent(105)
ShowMessageFace("",0,0,2,52)
ShowMessage("My resolve, weak already, is brushed aside by her flimsy excuse, and I find myself nodding for a moment as my penis throbs inside her.")
ShowMessageFace("",0,0,2,53)
ShowMessage("But even if my willpower is so easily dismissed, my body is crying out in exhaustion.")
ShowMessageFace("mimizu_fc1",1,0,2,51)
ShowMessage("\\n<Mimi>What? You're about to faint? ...I can probably manage one or two more while you're passed out.")
ShowMessageFace("",0,0,2,54)
ShowMessage("The last thing I hear after that is the steady slurping noise of her tail on my lap, sucking away...")
RunCommonEvent(104)
RunCommonEvent(105)
ShowMessageFace("",0,0,2,55)
ShowMessage("Just as she said, Mimi continues for a while after that...")
221()
PictureClear(5)
246(2)
ShowMessageFace("",0,0,2,56)
ShowMessage("Soon I wake up, clothed, next to Mimi out in the castle. I return to my feet, shaky and ashamed I let my desires get the better of me.")
ShowMessageFace("",0,0,2,57)
ShowMessage("......")
242(2)
Wait(120)
241(bytes(0x04,0x08,0x6f,0x3a,0x0d,0x52,0x50,0x47,0x3a,0x3a,0x42,0x47,0x4d,0x08,0x3a,0x0a,0x40,0x6e,0x61,0x6d,0x65,0x49,0x22,0x0c,0x63,0x61,0x73,0x74,0x6c,0x65,0x36,0x06,0x3a,0x06,0x45,0x54,0x3a,0x0c,0x40,0x76,0x6f,0x6c,0x75,0x6d,0x65,0x69,0x69,0x3a,0x0b,0x40,0x70,0x69,0x74,0x63,0x68,0x69,0x69))
0()
