﻿// EVENT 0832
Name "イベント器速武器レジェンド"

If(1,150,0,9999,2)
 RunCommonEvent(805)
 EndEventProcessing()
 0()
EndIf()
If(1,150,0,10000,1)
 RunCommonEvent(806)
 EndEventProcessing()
 0()
EndIf()
0()
