// EVENT 4827
Name "Seahorse Marine 2"

PictureDisplay(5,"80_tatunoko_k_st02",0,0,0,0,100,100,0,0)
PictureMove(5,null,0,0,0,0,100,100,255,0,30,true)
241(bytes(0x04,0x08,0x6f,0x3a,0x0d,0x52,0x50,0x47,0x3a,0x3a,0x42,0x47,0x4d,0x08,0x3a,0x0a,0x40,0x6e,0x61,0x6d,0x65,0x49,0x22,0x09,0x65,0x72,0x6f,0x31,0x06,0x3a,0x06,0x45,0x54,0x3a,0x0c,0x40,0x76,0x6f,0x6c,0x75,0x6d,0x65,0x69,0x69,0x3a,0x0b,0x40,0x70,0x69,0x74,0x63,0x68,0x69,0x69))
ShowMessageFace("tatunoko_k_fc1",2,0,2,1)
ShowMessage("\\n<Tatsuko>To ask something so dirty of a sailor, you're a pervert...")
ShowMessageFace("",0,0,2,2)
ShowMessage("\\n<Luka>N-no that's not...")
ShowMessageFace("tatunoko_k_fc1",1,0,2,3)
ShowMessage("\\n<Tatsuko>The pervert is under arrest for his lewdness!\nI'll teach you some manners!")
ShowMessageFace("",0,0,2,4)
ShowMessage("\\n<Luka>St-stop...!")
ShowMessageFace("",0,0,2,5)
ShowMessage("Tatsuko lunges at me and knocks me down.")
241(bytes(0x04,0x08,0x6f,0x3a,0x0d,0x52,0x50,0x47,0x3a,0x3a,0x42,0x47,0x4d,0x08,0x3a,0x0a,0x40,0x6e,0x61,0x6d,0x65,0x49,0x22,0x09,0x65,0x72,0x6f,0x31,0x06,0x3a,0x06,0x45,0x54,0x3a,0x0c,0x40,0x76,0x6f,0x6c,0x75,0x6d,0x65,0x69,0x69,0x3a,0x0b,0x40,0x70,0x69,0x74,0x63,0x68,0x69,0x69))
PictureDisplay(5,"ev_tatunoko_k_hb1",0,0,0,0,100,100,255,0)
ShowMessageFace("",0,0,2,6)
ShowMessage("In an instant she forces herself over my body!\nAnd, she rubs her waist against my crotch...")
ShowMessageFace("tatunoko_k_fc1",1,0,2,7)
ShowMessage("\\n<Tatsuko>I have to punish you in accordance to the Navy's laws! Reflect on your actions as you're sexually abused!")
ShowMessageFace("",0,0,2,8)
ShowMessage("Her lower body has a pink opening on it.\nMy dick is pushed against it...")
ShowMessageFace("",0,0,2,9)
ShowMessage("\\n<Luka>No...Aaaah!")
ShowMessageFace("tatunoko_k_fc1",1,0,2,10)
ShowMessage("\\n<Tatsuko>Here we go! Ei!")
245(bytes(0x04,0x08,0x6f,0x3a,0x0d,0x52,0x50,0x47,0x3a,0x3a,0x42,0x47,0x53,0x08,0x3a,0x0a,0x40,0x6e,0x61,0x6d,0x65,0x49,0x22,0x1e,0x6d,0x6f,0x6e,0x5f,0x68,0x73,0x65,0x61,0x6e,0x30,0x36,0x5f,0x69,0x6e,0x6e,0x65,0x72,0x77,0x6f,0x72,0x6b,0x73,0x5f,0x61,0x36,0x06,0x3a,0x06,0x45,0x54,0x3a,0x0c,0x40,0x76,0x6f,0x6c,0x75,0x6d,0x65,0x69,0x55,0x3a,0x0b,0x40,0x70,0x69,0x74,0x63,0x68,0x69,0x69))
ShowMessageFace("",0,0,2,11)
ShowMessage("Tatsuko presses her waist down and slips me inside her vagina! My penis is wrapped inside her honeypot in a slimy sensation...")
ShowMessageFace("",0,0,2,12)
ShowMessage("\\n<Luka>Auuuu...! T-tight!")
ShowMessageFace("",0,0,2,13)
ShowMessage("Her vagina is very tight given how small her body is.\nHer soft vaginal walls seem to be holding my penis, like a hand...")
ShowMessageFace("tatunoko_k_fc1",1,0,2,14)
ShowMessage("\\n<Tatsuko>I will rape you!\nIf I move just a bit you'll come in an instant, won't you...?")
ShowMessageFace("",0,0,2,15)
ShowMessage("Just like that, Tatsuko starts moving her waist.\nShe squeezes my penis inside her narrow pussy.")
ShowMessageFace("",0,0,2,16)
ShowMessage("Her insides are tight and the friction inside feels amazing. In no time at all the slimy feeling and the tightness drive me into a corner.")
ShowMessageFace("",0,0,2,17)
ShowMessage("\\n<Luka>Ah! Aaaaaah!")
ShowMessageFace("tatunoko_k_fc1",1,0,2,18)
ShowMessage("\\n<Tatsuko>If I tighten like this while I swing my waist...")
ShowMessageFace("",0,0,2,19)
ShowMessage("Her flesh narrows and squeezes my penis.\nMy waist starts trembling from the pleasure.")
ShowMessageFace("",0,0,2,20)
ShowMessage("Her tight flesh pushes and pulls me inside her...\nI'm already on the brink of ejaculation.")
ShowMessageFace("",0,0,2,21)
ShowMessage("\\n<Luka>Stop...I'm going to come...")
ShowMessageFace("tatunoko_k_fc1",1,0,2,22)
ShowMessage("\\n<Tatsuko>Are you going to come already...?\nThe pervert can't hold back anymore!")
ShowMessageFace("",0,0,2,23)
ShowMessage("Her crazy tightness and friction attack my penis.\nFrom the forced pleasure my waist starts to tremble like mad.")
ShowMessageFace("",0,0,2,24)
ShowMessage("\\n<Luka>Ah, aaaaah!")
RunCommonEvent(104)
PictureDisplay(5,"ev_tatunoko_k_hb2",0,0,0,0,100,100,255,0)
RunCommonEvent(105)
ShowMessageFace("",0,0,2,25)
ShowMessage("I entrust myself to the feeling of release and shoot out my semen. Waves of my semen flood the inside of her vagina.")
ShowMessageFace("",0,0,2,26)
ShowMessage("\\n<Luka>Au...Fuaaa...")
ShowMessageFace("",0,0,2,27)
ShowMessage("She tightens around my penis as it's still pulsating.\nEven though I came, she doesn't free my penis.")
ShowMessageFace("tatunoko_k_fc1",1,0,2,28)
ShowMessage("\\n<Tatsuko>You can't come this quickly, you endured too little! I'm going to train you!")
ShowMessageFace("",0,0,2,29)
ShowMessage("While saying that Tatsuko keeps moving her waist!\nHer vagina attacks my penis with a strong piston movement!")
ShowMessageFace("",0,0,2,30)
ShowMessage("\\n<Luka>St-stop... Aaaah!!")
ShowMessageFace("tatunoko_k_fc1",1,0,2,31)
ShowMessage("\\n<Tatsuko>Quit your whining, it's useless anyway!\nNow put strength into your waist and endure!")
ShowMessageFace("",0,0,2,32)
ShowMessage("\\n<Luka>Ugh, guh...")
ShowMessageFace("",0,0,2,33)
ShowMessage("I try to put force into my waist...\nBut I'm completely helpless against her tight vagina and fast hip movements.")
ShowMessageFace("",0,0,2,34)
ShowMessage("\\n<Luka>Auu... Ah, aaaaah!!")
ShowMessageFace("",0,0,2,35)
ShowMessage("As time passes, the pleasure gets more and more agonizing. Her honeypot moves and wriggles and plays with my penis.")
ShowMessageFace("",0,0,2,36)
ShowMessage("The violent piston movements and her tightness quickly drive me into a corner again. The sense of release, once more, rises from my waist...")
ShowMessageFace("",0,0,2,37)
ShowMessage("\\n<Luka>This, I can't endure this...")
ShowMessageFace("tatunoko_k_fc1",2,0,2,38)
ShowMessage("\\n<Tatsuko>So you can't endure any longer...")
ShowMessageFace("tatunoko_k_fc1",1,0,2,39)
ShowMessage("\\n<Tatsuko>But, you have to endure!\nLike this, you have to endure at least 100 more hip shakes!")
ShowMessageFace("",0,0,2,40)
ShowMessage("\\n<Luka>Impossible... Ah, aaaaah!!")
ShowMessageFace("",0,0,2,41)
ShowMessage("Tatsuko speeds up her waist movement to an insane pace.\nMy waist jumps up as I can't hold back the feeling of release any longer...")
RunCommonEvent(104)
PictureDisplay(5,"ev_tatunoko_k_hb3",0,0,0,0,100,100,255,0)
RunCommonEvent(105)
ShowMessageFace("",0,0,2,42)
ShowMessage("Unable to endure, I come inside her vagina.\nA massive amount of semen gushes out from my penis.")
ShowMessageFace("",0,0,2,43)
ShowMessage("\\n<Luka>Auuu...")
ShowMessageFace("tatunoko_k_fc1",1,0,2,44)
ShowMessage("\\n<Tatsuko>Your endurance is insufficient!\n100 more waist swings!")
ShowMessageFace("",0,0,2,45)
ShowMessage("\\n<Luka>Stop... Ah, aaaaaaah!!")
ShowMessageFace("",0,0,2,46)
ShowMessage("Tatsuko doesn't stop and keeps going.\nMy penis gets tangled inside her soft vagina and a tight pleasure is forced into me...")
ShowMessageFace("",0,0,2,47)
ShowMessage("\\n<Luka>C-coming... Aaaaaah!!")
RunCommonEvent(104)
PictureDisplay(5,"ev_tatunoko_k_hb4",0,0,0,0,100,100,255,0)
RunCommonEvent(105)
246(2)
ShowMessageFace("",0,0,2,48)
ShowMessage("For a third time, I come inside her vagina.\nMy penis pulses and my semen floods her insides.")
ShowMessageFace("",0,0,2,49)
ShowMessage("\\n<Luka>Ah...aaaah...")
ShowMessageFace("",0,0,2,50)
ShowMessage("My body goes slack from all the consecutive ejaculations in such a short period of time... Tatsuko also seems a bit tired.")
ShowMessageFace("tatunoko_k_fc1",2,0,2,51)
ShowMessage("\\n<Tatsuko>My waist is tired...\nCan't give you anymore special training...")
ShowMessageFace("",0,0,2,52)
ShowMessage("\\n<Luka>........")
ShowMessageFace("",0,0,2,53)
ShowMessage("Both of us exhausted, our bodies relax.\nThe fatigue lasted all night long...")
221()
PictureClear(5)
PictureClear(6)
ShowMessageFace("",0,0,2,54)
ShowMessage("......")
RunCommonEvent(3998)
0()
