﻿// EVENT 1152
Name "Talk: Novistador Girl"

If(1,20,0,1,0)
 JumpToLabel("情報")
 0()
EndIf()
If(1,20,0,2,0)
 JumpToLabel("質問")
 0()
EndIf()
If(1,20,0,3,0)
 JumpToLabel("要求")
 0()
EndIf()
If(1,20,0,4,0)
 JumpToLabel("贈与")
 0()
EndIf()
DefineLabel("情報")
ChangeVariable(13,13,0,2,1,100)
If(1,13,0,10,2)
 ShowMessageFace("nobisutam_fc1",0,0,2,1)
 ShowMessage("\\n<Novistador Girl>*rustle rustle*....")
 EndEventProcessing()
 0()
EndIf()
If(1,13,0,20,2)
 ShowMessageFace("nobisutam_fc1",0,0,2,2)
 ShowMessage("\\n<Novistador Girl>Milk, please...")
 EndEventProcessing()
 0()
EndIf()
If(1,13,0,30,2)
 ShowMessageFace("nobisutam_fc1",0,0,2,3)
 ShowMessage("\\n<Novistador Girl>I have lots of insect friends in Plansect Village...")
 EndEventProcessing()
 0()
EndIf()
If(1,13,0,40,2)
 ShowMessageFace("nobisutam_fc1",2,0,2,4)
 ShowMessage("\\n<Novistador Girl>...! *wince*")
 EndEventProcessing()
 0()
EndIf()
If(1,13,0,50,2)
 ShowMessageFace("nobisutam_fc1",0,0,2,5)
 ShowMessage("\\n<Novistador Girl>Caterpillar, changing...")
 EndEventProcessing()
 0()
EndIf()
If(1,13,0,60,2)
 ShowMessageFace("nobisutam_fc1",0,0,2,6)
 ShowMessage("\\n<Novistador Girl>Friends, full...")
 EndEventProcessing()
 0()
EndIf()
If(1,13,0,70,2)
 ShowMessageFace("nobisutam_fc1",0,0,2,7)
 ShowMessage("\\n<Novistador Girl>Thread, sticky...")
 EndEventProcessing()
 0()
EndIf()
If(1,13,0,80,2)
 ShowMessageFace("nobisutam_fc1",0,0,2,8)
 ShowMessage("\\n<Novistador Girl>Boobs, big...")
 EndEventProcessing()
 0()
EndIf()
If(1,13,0,90,2)
 ShowMessageFace("nobisutam_fc1",0,0,2,9)
 ShowMessage("\\n<Novistador Girl>What kind of moth will I become...?")
 EndEventProcessing()
 0()
EndIf()
If(1,13,0,100,2)
 ShowMessageFace("nobisutam_fc1",0,0,2,10)
 ShowMessage("\\n<Novistador Girl>Mushroom head, took a bite...")
 EndEventProcessing()
 0()
EndIf()
DefineLabel("質問")
ChangeVariable(13,13,0,2,1,50)
If(1,13,0,10,2)
 ShowMessageFace("nobisutam_fc1",0,0,2,11)
 ShowMessage("\\n<Novistador Girl>Boobs, like?")
 ShowChoices(strings("I like them","I don't like them","I want to tear them off"),0)
 IfPlayerPicksChoice(0,"大好き")
  ShowMessageFace("nobisutam_fc1",0,0,2,12)
  ShowMessage("\\n<Novistador Girl>Then I'll squish a lot...")
  355("change_friend(10)")
  0()
 IfPlayerPicksChoice(1,"嫌い")
  ShowMessageFace("nobisutam_fc1",0,0,2,13)
  ShowMessage("\\n<Novistador Girl>............")
  355("change_friend(-5)")
  0()
 IfPlayerPicksChoice(2,"ちぎって持ち帰りたい")
  ShowMessageFace("nobisutam_fc1",2,0,2,14)
  ShowMessage("\\n<Novistador Girl>*trembling*...")
  ShowMessageFace("",0,0,2,15)
  ShowMessage("The Novistador Girl is frightened!")
  355("change_friend(-5)")
  0()
 404()
 EndEventProcessing()
 0()
EndIf()
If(1,13,0,20,2)
 ShowMessageFace("nobisutam_fc1",0,0,2,16)
 ShowMessage("\\n<Novistador Girl>I like leaves... What do humans like to eat?")
 ShowChoices(strings("Meat","Leaves","Monsters"),0)
 IfPlayerPicksChoice(0,"肉")
  ShowMessageFace("nobisutam_fc1",0,0,2,17)
  ShowMessage("\\n<Novistador Girl>Somehow, scary...")
  0()
 IfPlayerPicksChoice(1,"葉っぱ")
  ShowMessageFace("nobisutam_fc1",0,0,2,18)
  ShowMessage("\\n<Novistador Girl>Together with me!")
  355("change_friend(10)")
  0()
 IfPlayerPicksChoice(2,"魔物")
  ShowMessageFace("nobisutam_fc1",2,0,2,19)
  ShowMessage("\\n<Novistador Girl>*trembling*...")
  ShowMessageFace("",0,0,2,20)
  ShowMessage("The Novistador Girl is frightened!")
  355("change_friend(-5)")
  0()
 404()
 EndEventProcessing()
 0()
EndIf()
If(1,13,0,30,2)
 ShowMessageFace("nobisutam_fc1",0,0,2,21)
 ShowMessage("\\n<Novistador Girl>If I go outside the cave, will I be bullied...?")
 ShowChoices(strings("You'll be okay","You'll get bullied","I'll protect you"),0)
 IfPlayerPicksChoice(0,"大丈夫")
  ShowMessageFace("nobisutam_fc1",0,0,2,22)
  ShowMessage("\\n<Novistador Girl>Really? You aren't tricking me...?")
  355("change_friend(5)")
  0()
 IfPlayerPicksChoice(1,"いじめられる")
  ShowMessageFace("nobisutam_fc1",0,0,2,23)
  ShowMessage("\\n<Novistador Girl>Well, I lived in this cave for a long time...")
  355("change_friend(-5)")
  0()
 IfPlayerPicksChoice(2,"守ってあげる")
  ShowMessageFace("nobisutam_fc1",0,0,2,24)
  ShowMessage("\\n<Novistador Girl>Happy...")
  355("change_friend(10)")
  0()
 404()
 EndEventProcessing()
 0()
EndIf()
If(1,13,0,40,2)
 ShowMessageFace("nobisutam_fc1",0,0,2,25)
 ShowMessage("\\n<Novistador Girl>Money fell on the ground... What should we do?")
 ShowChoices(strings("Return it to the person who dropped it","Give it to someone you meet","Take it for yourselves"),0)
 IfPlayerPicksChoice(0,"落とした人に返す")
  ShowMessageFace("nobisutam_fc1",0,0,2,26)
  ShowMessage("\\n<Novistador Girl>I can't do that, I don't know...")
  0()
 IfPlayerPicksChoice(1,"出会った人にあげる")
  ShowMessageFace("nobisutam_fc1",0,0,2,27)
  ShowMessage("\\n<Novistador Girl>...You want it? That's not likely...")
  355("change_friend(-5)")
  0()
 IfPlayerPicksChoice(2,"ネコババする")
  ShowMessageFace("nobisutam_fc1",0,0,2,28)
  ShowMessage("\\n<Novistador Girl>Yeah, we'll take it...")
  355("change_friend(10)")
  0()
 404()
 EndEventProcessing()
 0()
EndIf()
If(1,13,0,50,2)
 ShowMessageFace("nobisutam_fc1",0,0,2,29)
 ShowMessage("\\n<Novistador Girl>How many feet do you think I have...?")
 ShowChoices(strings("2","16","A lot","You have no legs"),0)
 IfPlayerPicksChoice(0,"2本")
  ShowMessageFace("nobisutam_fc1",0,0,2,30)
  ShowMessage("\\n<Novistador Girl>There's more...")
  0()
 IfPlayerPicksChoice(1,"16本")
  ShowMessageFace("nobisutam_fc1",0,0,2,31)
  ShowMessage("\\n<Novistador Girl>...Really? I can't count more than 3...")
  0()
 IfPlayerPicksChoice(2,"たくさん")
  ShowMessageFace("nobisutam_fc1",0,0,2,32)
  ShowMessage("\\n<Novistador Girl>Yes, a lot!")
  355("change_friend(10)")
  0()
 IfPlayerPicksChoice(3,"足はない")
  ShowMessageFace("nobisutam_fc1",2,0,2,33)
  ShowMessage("\\n<Novistador Girl>I do!")
  355("change_friend(-5)")
  0()
 404()
 EndEventProcessing()
 0()
EndIf()
DefineLabel("要求")
ChangeVariable(13,13,0,2,1,30)
If(1,13,0,10,2)
 If(8,301)
  ShowMessageFace("nobisutam_fc1",0,0,2,34)
  ShowMessage("\\n<Novistador Girl>Apple, give...")
  ChangeVariable(24,24,0,3,0,301,0)
  ShowMessageFace("",0,0,2,35)
  ShowMessage("Do you want to give an \\ii[301]? (Have:\\V[24])")
  ShowChoices(strings("Yes","No"),2)
  IfPlayerPicksChoice(0,"Yes")
   ShowMessageFace("nobisutam_fc1",0,0,2,36)
   ShowMessage("\\n<Novistador Girl>Happy...!")
   ChangeInventory_Item(301,1,0,1)
   355("change_friend(20)")
   EndEventProcessing()
   0()
  IfPlayerPicksChoice(1,"No")
   ShowMessageFace("nobisutam_fc1",0,0,2,37)
   ShowMessage("\\n<Novistador Girl>Sad...")
   EndEventProcessing()
   0()
  404()
  0()
 Else()
  ChangeVariable(13,13,0,0,20)
  0()
 EndIf()
 0()
EndIf()
If(1,13,0,20,2)
 If(8,1)
  ShowMessageFace("nobisutam_fc1",0,0,2,38)
  ShowMessage("\\n<Novistador Girl>I'm injured, herb please...")
  ChangeVariable(24,24,0,3,0,1,0)
  ShowMessageFace("",0,0,2,39)
  ShowMessage("Do you want to give an \\ii[1]? (Have:\\V[24])")
  ShowChoices(strings("Yes","No"),2)
  IfPlayerPicksChoice(0,"Yes")
   ShowMessageFace("nobisutam_fc1",0,0,2,40)
   ShowMessage("\\n<Novistador Girl>Happy...!")
   ChangeInventory_Item(1,1,0,1)
   355("change_friend(30)")
   EndEventProcessing()
   0()
  IfPlayerPicksChoice(1,"No")
   ShowMessageFace("nobisutam_fc1",0,0,2,41)
   ShowMessage("\\n<Novistador Girl>Sad...")
   EndEventProcessing()
   0()
  404()
  0()
 Else()
  ChangeVariable(13,13,0,0,30)
  0()
 EndIf()
 0()
EndIf()
If(1,13,0,30,2)
 ShowMessageFace("nobisutam_fc1",0,0,2,42)
 ShowMessage("\\n<Novistador Girl>Money, want...")
 If(7,366,0)
  ChangeVariable(24,24,0,3,7,2,0)
  ShowMessageFace("",0,0,2,43)
  ShowMessage("Do you want to give 366G? (Have:\\V[24])")
  ShowChoices(strings("Yes","No"),2)
  IfPlayerPicksChoice(0,"Yes")
   ShowMessageFace("nobisutam_fc1",0,0,2,44)
   ShowMessage("\\n<Novistador Girl>Happy...!")
   125(1,0,366)
   355("change_friend(25)")
   EndEventProcessing()
   0()
  IfPlayerPicksChoice(1,"No")
   ShowMessageFace("nobisutam_fc1",0,0,2,45)
   ShowMessage("\\n<Novistador Girl>Sad...")
   EndEventProcessing()
   0()
  404()
  0()
 Else()
  ShowMessageFace("nobisutam_fc1",0,0,2,46)
  ShowMessage("\\n<Novistador Girl>...There's none? Nothing...")
  EndEventProcessing()
  0()
 EndIf()
 0()
EndIf()
DefineLabel("贈与")
ChangeVariable(13,13,0,2,1,30)
If(1,25,0,1,0)
 ChangeVariable(13,13,0,0,30)
 ChangeVariable(25,25,0,0,0)
 0()
EndIf()
If(1,25,0,2,0)
 ChangeVariable(13,13,0,2,1,20)
 ChangeVariable(25,25,0,0,0)
 0()
EndIf()
If(1,13,0,10,2)
 ShowMessageFace("nobisutam_fc1",0,0,2,47)
 ShowMessage("\\n<Novistador Girl>It's pretty, I'll give...")
 250(bytes(0x04,0x08,0x6f,0x3a,0x0c,0x52,0x50,0x47,0x3a,0x3a,0x53,0x45,0x08,0x3a,0x0a,0x40,0x6e,0x61,0x6d,0x65,0x49,0x22,0x0a,0x49,0x74,0x65,0x6d,0x31,0x06,0x3a,0x06,0x45,0x54,0x3a,0x0b,0x40,0x70,0x69,0x74,0x63,0x68,0x69,0x69,0x3a,0x0c,0x40,0x76,0x6f,0x6c,0x75,0x6d,0x65,0x69,0x55))
 ChangeInventory_Item(68,0,0,1)
 ShowMessageFace("",0,0,2,48)
 ShowMessage("The Novistador Girl gave you an \\ii[68]!")
 EndEventProcessing()
 0()
EndIf()
If(1,13,0,20,2)
 ShowMessageFace("nobisutam_fc1",0,0,2,49)
 ShowMessage("\\n<Novistador Girl>My shell peeled off, I'll give...")
 250(bytes(0x04,0x08,0x6f,0x3a,0x0c,0x52,0x50,0x47,0x3a,0x3a,0x53,0x45,0x08,0x3a,0x0a,0x40,0x6e,0x61,0x6d,0x65,0x49,0x22,0x0a,0x49,0x74,0x65,0x6d,0x31,0x06,0x3a,0x06,0x45,0x54,0x3a,0x0b,0x40,0x70,0x69,0x74,0x63,0x68,0x69,0x69,0x3a,0x0c,0x40,0x76,0x6f,0x6c,0x75,0x6d,0x65,0x69,0x55))
 ChangeInventory_Item(201,0,0,1)
 ShowMessageFace("",0,0,2,50)
 ShowMessage("The Novistador Girl gave you an \\ii[201]!")
 EndEventProcessing()
 0()
EndIf()
If(1,13,0,30,2)
 ShowMessageFace("nobisutam_fc1",0,0,2,51)
 ShowMessage("\\n<Novistador Girl>I'll give you this change...")
 250(bytes(0x04,0x08,0x6f,0x3a,0x0c,0x52,0x50,0x47,0x3a,0x3a,0x53,0x45,0x08,0x3a,0x0a,0x40,0x6e,0x61,0x6d,0x65,0x49,0x22,0x0a,0x49,0x74,0x65,0x6d,0x31,0x06,0x3a,0x06,0x45,0x54,0x3a,0x0b,0x40,0x70,0x69,0x74,0x63,0x68,0x69,0x69,0x3a,0x0c,0x40,0x76,0x6f,0x6c,0x75,0x6d,0x65,0x69,0x55))
 125(0,0,610)
 ShowMessageFace("",0,0,2,52)
 ShowMessage("The Novistador Girl gave you 610G!")
 EndEventProcessing()
 0()
EndIf()
0()
