// EVENT 4107
Name "Mandragora 2"

If(0,25,1)
 221()
 PictureClear(5)
 PictureClear(6)
 ShowMessageFace("",0,0,2,0)
 ShowMessage("......")
 242(2)
 Wait(120)
 241(bytes(0x04,0x08,0x6f,0x3a,0x0d,0x52,0x50,0x47,0x3a,0x3a,0x42,0x47,0x4d,0x08,0x3a,0x0a,0x40,0x6e,0x61,0x6d,0x65,0x49,0x22,0x0c,0x63,0x61,0x73,0x74,0x6c,0x65,0x36,0x06,0x3a,0x06,0x45,0x54,0x3a,0x0c,0x40,0x76,0x6f,0x6c,0x75,0x6d,0x65,0x69,0x69,0x3a,0x0b,0x40,0x70,0x69,0x74,0x63,0x68,0x69,0x69))
 EndEventProcessing()
 0()
EndIf()
PictureDisplay(5,"80_mdg_st01",0,0,0,0,100,100,255,0)
ShowMessageFace("mdg_fc1",2,0,2,1)
ShowMessage("\\n<Ragora>And now he wants me to lick his penis. For a so-called hero, you really have no shame. It's almost impressive.")
ShowMessageFace("",0,0,2,2)
ShowMessage("\\n<Luka>P-Please?")
ShowMessageFace("mdg_fc1",2,0,2,3)
ShowMessage("\\n<Ragora>...Fine. I guess I have no choice.")
ShowMessageFace("",0,0,2,4)
ShowMessage("Her words have nearly taken the wind from my sails, but I still manage to tug down my pants, and soon Ragora is staring at my already-hard penis.")
ShowMessageFace("mdg_fc1",0,0,2,5)
ShowMessage("\\n<Ragora>This excited before I've even started? Shameful...")
241(bytes(0x04,0x08,0x6f,0x3a,0x0d,0x52,0x50,0x47,0x3a,0x3a,0x42,0x47,0x4d,0x08,0x3a,0x0a,0x40,0x6e,0x61,0x6d,0x65,0x49,0x22,0x09,0x65,0x72,0x6f,0x31,0x06,0x3a,0x06,0x45,0x54,0x3a,0x0c,0x40,0x76,0x6f,0x6c,0x75,0x6d,0x65,0x69,0x69,0x3a,0x0b,0x40,0x70,0x69,0x74,0x63,0x68,0x69,0x69))
245(bytes(0x04,0x08,0x6f,0x3a,0x0d,0x52,0x50,0x47,0x3a,0x3a,0x42,0x47,0x53,0x08,0x3a,0x0a,0x40,0x6e,0x61,0x6d,0x65,0x49,0x22,0x10,0x6d,0x6f,0x6e,0x5f,0x68,0x76,0x6f,0x69,0x63,0x65,0x31,0x06,0x3a,0x06,0x45,0x54,0x3a,0x0c,0x40,0x76,0x6f,0x6c,0x75,0x6d,0x65,0x69,0x55,0x3a,0x0b,0x40,0x70,0x69,0x74,0x63,0x68,0x69,0x69))
PictureDisplay(6,"ev_mdg_ct11",0,0,0,0,100,100,0,0)
PictureMove(6,null,0,0,0,0,100,100,255,0,30,true)
ShowMessageFace("mdg_fc1",0,0,2,6)
ShowMessage("\\n<Ragora>Mmmn... *lick* *lick*")
ShowMessageFace("",0,0,2,7)
ShowMessage("Her words belie her skill, and in an instant her tongue is coiled around my penis, wrapping it tight in slick warmth.")
ShowMessageFace("",0,0,2,8)
ShowMessage("\\n<Luka>Huaaa...")
ShowMessageFace("",0,0,2,9)
ShowMessage("Her precision is unbelievable; she pampers the tip of my penis with a pleasure that has me surrendering in moments. With skill like this, it's no wonder I'd give myself over to her.")
ShowMessageFace("mdg_fc1",0,0,2,10)
ShowMessage("\\n<Ragora>It seems you like this. Not too surprising, of course. That being said... I hope you're ready for more.")
ShowMessageFace("mdg_fc1",1,0,2,11)
ShowMessage("\\n<Ragora>After all, we've only just begun.\nMmn... *slurp*")
ShowMessageFace("",0,0,2,12)
ShowMessage("\\n<Luka>Ah... Huaaa!")
ShowMessageFace("",0,0,2,13)
ShowMessage("The slickness of her tongue twisting around me was just the beginning, and after a hummed-out laugh, Ragora sucks the tip of my penis into her mouth.")
ShowMessageFace("",0,0,2,14)
ShowMessage("\\n<Luka>Ah...! Ah, aaaah!!")
ShowMessageFace("mdg_fc1",1,0,2,15)
ShowMessage("\\n<Ragora>Don't think you're getting off easy. You wanted a sample of my mouth, didn't you?")
ShowMessageFace("",0,0,2,16)
ShowMessage("\\n<Luka>Hyaaa... Ah, aaaah!")
ShowMessageFace("",0,0,2,17)
ShowMessage("There's not much I can do but shiver as she takes my limits and shatters them, one after another. If this continues, I doubt I'll be able to do much more than moan by the end.")
ShowMessageFace("",0,0,2,18)
ShowMessage("The combination of sensations is the best part. Her mouth sucking harder and harder, with her tongue squirming and clenching at the same time.")
ShowMessageFace("",0,0,2,19)
ShowMessage("And on top of all that, Ragora bobs her head as her mouth works its magic. Wet, tight, warm, and pistoning forwards and backwards...")
ShowMessageFace("mdg_fc1",1,0,2,20)
ShowMessage("\\n<Ragora>Let me suck your dick until you're milked dry. If you can't resist any longer, don't even try. Just give in...")
ShowMessageFace("mdg_fc1",1,0,2,21)
ShowMessage("\\n<Ragora>Mmmn... *suck* *suck*\nSspspsst!")
ShowMessageFace("",0,0,2,22)
ShowMessage("\\n<Luka>Too good.. Aaaaah!")
ShowMessageFace("",0,0,2,23)
ShowMessage("My back arches, and it's all I can do to limit myself to a moan, pathetic as it is. With a pleasure like heaven itself spreading through me, I can't manage much else.")
ShowMessageFace("",0,0,2,24)
ShowMessage("Her attentions have turned from indulgent to insatiable, the warmth of her mouth turning sweltering as the suction grows stronger around the tip of my penis.")
ShowMessageFace("",0,0,2,25)
ShowMessage("Even so, her tongue is as gentle as a lover's caress, lovingly kneading into my penis' flesh.")
ShowMessageFace("",0,0,2,26)
ShowMessage("The combination is incredible. Irresistible. They blend together in such a way that renders it impossible to want to hold back.")
ShowMessageFace("",0,0,2,27)
ShowMessage("\\n<Luka>Aaaah... Go-going to come...")
ShowMessageFace("mdg_fc1",1,0,2,28)
ShowMessage("\\n<Ragora>Really? And here I thought I was slacking.\nHmhmhm... Lucky me, finding someone so easily pleased.")
ShowMessageFace("",0,0,2,29)
ShowMessage("Joking or not, she speeds up. As if it weren't ponderously fast already...")
ShowMessageFace("",0,0,2,30)
ShowMessage("Her lips drag up and down my shaft as the inside of her mouth slurp away. At the same time, her tongue's intimate coil tightens steadily into something indisputably lustful.")
ShowMessageFace("",0,0,2,31)
ShowMessage("\\n<Luka>Ah, aaaah...")
ShowMessageFace("mdg_fc1",1,0,2,32)
ShowMessage("\\n<Ragora>Time to finish you off, darling.\nCome for me now!")
245(bytes(0x04,0x08,0x6f,0x3a,0x0d,0x52,0x50,0x47,0x3a,0x3a,0x42,0x47,0x53,0x08,0x3a,0x0a,0x40,0x6e,0x61,0x6d,0x65,0x49,0x22,0x10,0x6d,0x6f,0x6e,0x5f,0x68,0x76,0x6f,0x69,0x63,0x65,0x32,0x06,0x3a,0x06,0x45,0x54,0x3a,0x0c,0x40,0x76,0x6f,0x6c,0x75,0x6d,0x65,0x69,0x55,0x3a,0x0b,0x40,0x70,0x69,0x74,0x63,0x68,0x69,0x69))
ShowMessageFace("",0,0,2,33)
ShowMessage("Her entire mouth, each part dedicated to pleasuring a different part of my cock...")
ShowMessageFace("",0,0,2,34)
ShowMessage("Lips trailing up to the tip while her tongue spirals around the crown itself... My feet go suddenly unsteady, and my vision flashes white.")
ShowMessageFace("ruka_fc1",0,0,2,35)
ShowMessage("\\n<Luka>Auuu... Ah, aaaaaaah!!")
RunCommonEvent(104)
PictureDisplay(6,"ev_mdg_ct12",0,0,0,0,100,100,255,0)
RunCommonEvent(105)
ShowMessageFace("",0,0,2,36)
ShowMessage("...And, of course, I finish in her mouth.")
ShowMessageFace("",0,0,2,37)
ShowMessage("Ragora's first taste only spurs her on harder, and as I climax, her suction is no longer for my pleasure, though it feels incredible. No, she's sucking out all the cum I have.")
ShowMessageFace("",0,0,2,38)
ShowMessage("\\n<Luka>Hauuu! Aaaaah!!")
ShowMessageFace("",0,0,2,39)
ShowMessage("It's wonderfully brutal, arrhythmic and greedy, each shot like candy to her as my pleasure compounds into ecstasy.")
ShowMessageFace("",0,0,2,40)
ShowMessage("Trembling similarly dissolves into twitching, and Ragora burying her face in my groin seems perfectly natural. If it leads to more pleasure, it must be good.")
ShowMessageFace("mdg_fc1",1,0,2,41)
ShowMessage("\\n<Ragora>Hh. You truly have no shame.\nLucky for me, though. I'm not satisfied yet.")
ShowMessageFace("",0,0,2,42)
ShowMessage("\\n<Luka>Auuu... Please, I have to rest...")
ShowMessageFace("mdg_fc1",1,0,2,43)
ShowMessage("\\n<Ragora>What? I put in all this work to make you orgasm once, then you decide it's time for me to stop? That's my decision, darling.")
ShowMessageFace("mdg_fc1",1,0,2,44)
ShowMessage("\\n<Ragora>Make no mistake... You're only walking away once your balls are empty.")
ShowMessageFace("",0,0,2,45)
ShowMessage("\\n<Luka>Eeek! Aaaaah!!")
ShowMessageFace("",0,0,2,46)
ShowMessage("If I think I'm ready to stop after one orgasm, Ragora clearly disagrees, and soon her mouth movements are growing faster and more stimulating.")
RunCommonEvent(104)
PictureDisplay(6,"ev_mdg_ct13",0,0,0,0,100,100,255,0)
RunCommonEvent(105)
ShowMessageFace("mdg_fc1",1,0,2,47)
ShowMessage("\\n<Ragora>More, more, give me more...!")
ShowMessageFace("",0,0,2,48)
ShowMessage("\\n<Luka>Huaaaa... Stop it...")
RunCommonEvent(104)
RunCommonEvent(105)
ShowMessageFace("",0,0,2,49)
ShowMessage("Climax after climax, maddening pleasure only growing with every throbbing twitch of my cock and wet, sloppy slurp of her mouth at the crown of my prick.")
ShowMessageFace("",0,0,2,50)
ShowMessage("I buck my hips forward, my penis pushing into her mouth deeper as I splurt another shot of cum into her eager maw. Of course, my body can't take much more, no matter how much my penis would like it to.")
ShowMessageFace("mdg_fc1",1,0,2,51)
ShowMessage("\\n<Ragora>Yes, yes... Come... Give me more...")
ShowMessageFace("",0,0,2,52)
ShowMessage("\\n<Luka>I... Please... No more...!")
RunCommonEvent(104)
RunCommonEvent(105)
ShowMessageFace("",0,0,2,53)
ShowMessage("But her pleasure is paralytic, and I'm helpless in her grasp. She wrings another orgasm from my reluctant body, my exhausted pleasure just another snack to her.")
ShowMessageFace("",0,0,2,54)
ShowMessage("I lose track of how many times this happens... Dozens? I can hardly say.")
246(1)
PictureClear(6)
ShowMessageFace("",0,0,2,55)
ShowMessage("Finally, Ragora releases my penis from her mouth with a loud, wet pop just as I teeter on the edge of fainting.")
ShowMessageFace("mdg_fc1",0,0,2,56)
ShowMessage("\\n<Ragora>Such a delicious treat. You're so kind, dear.")
ShowMessageFace("",0,0,2,57)
ShowMessage("Ragora flashes me a satisfied smile and a wink as she gulps down all my semen.")
ShowMessageFace("",0,0,2,58)
ShowMessage("\\n<Luka>Ungh, nnngh...")
ShowMessageFace("mdg_fc1",0,0,2,59)
ShowMessage("\\n<Ragora>It's not like I'm heartless. Here, I'm letting you go now, aren't I? Just come back whenever you want to plant your seed in me, Luka ♥")
ShowMessageFace("",0,0,2,60)
ShowMessage("\\n<Luka>......")
ShowMessageFace("",0,0,2,61)
ShowMessage("Her teasing tone ringing in my ears, I can barely stand. No, I can't stand at all. I just lay there for a few moments, regretting such a foolhardy request.")
221()
PictureClear(5)
PictureClear(6)
246(2)
ShowMessageFace("",0,0,2,62)
ShowMessage("......")
242(2)
Wait(120)
241(bytes(0x04,0x08,0x6f,0x3a,0x0d,0x52,0x50,0x47,0x3a,0x3a,0x42,0x47,0x4d,0x08,0x3a,0x0a,0x40,0x6e,0x61,0x6d,0x65,0x49,0x22,0x0c,0x63,0x61,0x73,0x74,0x6c,0x65,0x36,0x06,0x3a,0x06,0x45,0x54,0x3a,0x0c,0x40,0x76,0x6f,0x6c,0x75,0x6d,0x65,0x69,0x69,0x3a,0x0b,0x40,0x70,0x69,0x74,0x63,0x68,0x69,0x69))
0()
