﻿// EVENT 6999
Name "Common: BF Victory"

ChangeSwitch(406,406,0)
355("$game_library.count_up_battlefuck_win")
ChangeVariable(907,907,1,0,1)
If(1,907,0,1,1)
 355("gain_medal(1411)")
 0()
EndIf()
If(1,907,0,15,1)
 355("gain_medal(1412)")
 If(8,611)
  0()
 Else()
  ShowMessageFace("",0,0,2,1)
  ShowMessage("Luka has prevailed against 15 battle fuckers and is now considered a full-fledged battle fucker himself!")
  250(bytes(0x04,0x08,0x6f,0x3a,0x0c,0x52,0x50,0x47,0x3a,0x3a,0x53,0x45,0x08,0x3a,0x0a,0x40,0x6e,0x61,0x6d,0x65,0x49,0x22,0x0a,0x49,0x74,0x65,0x6d,0x31,0x06,0x3a,0x06,0x45,0x54,0x3a,0x0b,0x40,0x70,0x69,0x74,0x63,0x68,0x69,0x69,0x3a,0x0c,0x40,0x76,0x6f,0x6c,0x75,0x6d,0x65,0x69,0x55))
  ChangeInventory_Item(611,0,0,1)
  0()
 EndIf()
 0()
EndIf()
If(1,907,0,30,1)
 355("gain_medal(1413)")
 0()
EndIf()
If(1,907,0,35,1)
 If(8,628)
  0()
 Else()
  ShowMessageFace("",0,0,2,2)
  ShowMessage("You have prevailed against 35 battle fuckers, and earned a place in their hall of fame!")
  250(bytes(0x04,0x08,0x6f,0x3a,0x0c,0x52,0x50,0x47,0x3a,0x3a,0x53,0x45,0x08,0x3a,0x0a,0x40,0x6e,0x61,0x6d,0x65,0x49,0x22,0x0a,0x49,0x74,0x65,0x6d,0x31,0x06,0x3a,0x06,0x45,0x54,0x3a,0x0b,0x40,0x70,0x69,0x74,0x63,0x68,0x69,0x69,0x3a,0x0c,0x40,0x76,0x6f,0x6c,0x75,0x6d,0x65,0x69,0x55))
  ChangeInventory_Item(628,0,0,1)
  ChangeSwitch(2311,2311,0)
  ShowMessageFace("",0,0,2,3)
  ShowMessage("With this item, you will be able to take up advanced jobs from the Prostitute line!")
  0()
 EndIf()
 0()
EndIf()
0()
