// EVENT 7191
Name "Orlan: Talk"

If(0,25,1)
 ShowMessageFace("",0,0,2,0)
 ShowMessage("You cannot challenge this BF without copying over the pictures from the first chapter.")
 PictureClear(5)
 EndEventProcessing()
 0()
EndIf()
If(1,820,0,0,0)
 ChangeVariable(820,820,0,0,1)
 0()
EndIf()
241(bytes(0x04,0x08,0x6f,0x3a,0x0d,0x52,0x50,0x47,0x3a,0x3a,0x42,0x47,0x4d,0x08,0x3a,0x0a,0x40,0x6e,0x61,0x6d,0x65,0x49,0x22,0x09,0x65,0x72,0x6f,0x32,0x06,0x3a,0x06,0x45,0x54,0x3a,0x0c,0x40,0x76,0x6f,0x6c,0x75,0x6d,0x65,0x69,0x50,0x3a,0x0b,0x40,0x70,0x69,0x74,0x63,0x68,0x69,0x69))
ShowMessageFace("mob_bukiya1_fc1",0,0,2,1)
ShowMessage("\\n<Orlan>A Battle Fuck with me?\nInteresting. Been a while since a guy has challenged me.")
If(1,820,0,2,1)
 ShowMessageFace("mob_bukiya1_fc1",0,0,2,2)
 ShowMessage("\\n<Orlan>Bet's 350G. If I lose, I got nothing for ya.\nYou already won once, ya know?")
 0()
Else()
 ShowMessageFace("mob_bukiya1_fc1",0,0,2,3)
 ShowMessage("\\n<Orlan>Bet's 350G. If I lose, I'll give ya an accessory.\nIt's a worthwhile item that reduces the SP consumption of your skills. Pretty handy if you like fighting with lots of special moves.")
 0()
EndIf()
ShowMessageFace("mob_bukiya1_fc1",0,0,2,4)
ShowMessage("\\n<Orlan>Just for your information, I'm from an Assassin family.\nWe're trained in a lot of sexual skills, ya know?")
ShowChoices(strings("Battle Fuck Challenge","Reconsider"),2)
IfPlayerPicksChoice(0,"バトルファックを挑む")
 If(7,350,0)
  If(0,2331,1)
   216(1)
   ShowMessageFace("",0,0,2,5)
   ShowMessage("Luka's allies leave the building...")
   0()
  EndIf()
  RunCommonEvent(7192)
  EndEventProcessing()
  0()
 Else()
  ShowMessageFace("mob_bukiya1_fc1",0,0,2,6)
  ShowMessage("\\n<Orlan>Oi, oi, you don't have the money.\nDon't get carried away with yourself...")
  If(0,2331,1)
   PictureClear(5)
   241(bytes(0x04,0x08,0x6f,0x3a,0x0d,0x52,0x50,0x47,0x3a,0x3a,0x42,0x47,0x4d,0x08,0x3a,0x0a,0x40,0x6e,0x61,0x6d,0x65,0x49,0x22,0x0a,0x63,0x69,0x74,0x79,0x31,0x06,0x3a,0x06,0x45,0x54,0x3a,0x0c,0x40,0x76,0x6f,0x6c,0x75,0x6d,0x65,0x69,0x69,0x3a,0x0b,0x40,0x70,0x69,0x74,0x63,0x68,0x69,0x69))
   0()
  EndIf()
  EndEventProcessing()
  0()
 EndIf()
 0()
IfPlayerPicksChoice(1,"やめておく")
 ShowMessageFace("mob_bukiya1_fc1",0,0,2,7)
 ShowMessage("\\n<Orlan>Running away, eh?\nThought I'd be able to squeeze someone for the first time in a while, too...")
 If(0,2331,1)
  PictureClear(5)
  241(bytes(0x04,0x08,0x6f,0x3a,0x0d,0x52,0x50,0x47,0x3a,0x3a,0x42,0x47,0x4d,0x08,0x3a,0x0a,0x40,0x6e,0x61,0x6d,0x65,0x49,0x22,0x0a,0x63,0x69,0x74,0x79,0x31,0x06,0x3a,0x06,0x45,0x54,0x3a,0x0c,0x40,0x76,0x6f,0x6c,0x75,0x6d,0x65,0x69,0x69,0x3a,0x0b,0x40,0x70,0x69,0x74,0x63,0x68,0x69,0x69))
  0()
 EndIf()
 EndEventProcessing()
 0()
404()
0()
