// EVENT 4088
Name "Slug Girl 3"

If(0,25,1)
 221()
 PictureClear(5)
 PictureClear(6)
 ShowMessageFace("",0,0,2,0)
 ShowMessage("......")
 242(2)
 Wait(120)
 241(bytes(0x04,0x08,0x6f,0x3a,0x0d,0x52,0x50,0x47,0x3a,0x3a,0x42,0x47,0x4d,0x08,0x3a,0x0a,0x40,0x6e,0x61,0x6d,0x65,0x49,0x22,0x0c,0x63,0x61,0x73,0x74,0x6c,0x65,0x36,0x06,0x3a,0x06,0x45,0x54,0x3a,0x0c,0x40,0x76,0x6f,0x6c,0x75,0x6d,0x65,0x69,0x69,0x3a,0x0b,0x40,0x70,0x69,0x74,0x63,0x68,0x69,0x69))
 EndEventProcessing()
 0()
EndIf()
PictureDisplay(5,"80_name_st02",0,0,0,0,100,100,255,0)
ShowMessageFace("name_fc1",1,0,2,1)
ShowMessage("\\n<Melk>Wouldn't you like to mate with me?")
ShowMessageFace("",0,0,2,2)
ShowMessage("\\n<Luka>Huh...?")
ShowMessageFace("name_fc1",1,0,2,3)
ShowMessage("\\n<Melk>Mate with me...\nJust stick it in this hole right here...")
PictureDisplay(5,"80_name_st12",0,0,0,0,100,100,255,0)
ShowMessageFace("",0,0,2,4)
ShowMessage("Melk rolls up her skirt, revealing her lower body.")
ShowMessageFace("",0,0,2,5)
ShowMessage("She slowly crawls closer to me and opens up a hole in her membrane.")
ShowMessageFace("name_fc1",1,0,2,6)
ShowMessage("\\n<Melk>Once you put your dick in here, you won't need to think about anything else... The only thing you need to do is give me your semen, over and over...")
ShowMessageFace("",0,0,2,7)
ShowMessage("\\n<Luka>Ahh... uuu....")
ShowMessageFace("",0,0,2,8)
ShowMessage("Though the hole looks similar to a woman's, it has mucus dripping out of it.")
ShowMessageFace("",0,0,2,9)
ShowMessage("That sticky, stretchy mucus... What would it feel like...")
ShowMessageFace("name_fc1",1,0,2,11)
ShowMessage("\\n<Melk>Fufu... Do you want to put it in?\nMate with me so I can become pregnant...")
250(bytes(0x04,0x08,0x6f,0x3a,0x0c,0x52,0x50,0x47,0x3a,0x3a,0x53,0x45,0x08,0x3a,0x0a,0x40,0x6e,0x61,0x6d,0x65,0x49,0x22,0x12,0x6d,0x6f,0x6e,0x5f,0x65,0x72,0x6f,0x5f,0x6e,0x61,0x6d,0x65,0x32,0x06,0x3a,0x06,0x45,0x54,0x3a,0x0b,0x40,0x70,0x69,0x74,0x63,0x68,0x69,0x69,0x3a,0x0c,0x40,0x76,0x6f,0x6c,0x75,0x6d,0x65,0x69,0x69))
ShowMessageFace("",0,0,2,12)
ShowMessage("The mucus-covered hole starts to wriggle, as if inviting me inside.")
ShowMessageFace("",0,0,2,13)
ShowMessage("\\n<Luka>I, I want to put it in...")
ShowMessageFace("name_fc1",1,0,2,14)
ShowMessage("\\n<Melk>Okay then, let's go back to my room.")
ShowMessageFace("",0,0,2,15)
ShowMessage("Thus, I was invited to Melk's room--")
221()
PictureDisplay(1,"bg195",0,0,0,0,100,100,255,0)
PictureDisplay(5,"ev_name_h01",0,0,0,0,100,100,255,0)
222()
241(bytes(0x04,0x08,0x6f,0x3a,0x0d,0x52,0x50,0x47,0x3a,0x3a,0x42,0x47,0x4d,0x08,0x3a,0x0a,0x40,0x6e,0x61,0x6d,0x65,0x49,0x22,0x09,0x65,0x72,0x6f,0x31,0x06,0x3a,0x06,0x45,0x54,0x3a,0x0c,0x40,0x76,0x6f,0x6c,0x75,0x6d,0x65,0x69,0x69,0x3a,0x0b,0x40,0x70,0x69,0x74,0x63,0x68,0x69,0x69))
245(bytes(0x04,0x08,0x6f,0x3a,0x0d,0x52,0x50,0x47,0x3a,0x3a,0x42,0x47,0x53,0x08,0x3a,0x0a,0x40,0x6e,0x61,0x6d,0x65,0x49,0x22,0x1e,0x6d,0x6f,0x6e,0x5f,0x68,0x73,0x65,0x61,0x6e,0x30,0x31,0x5f,0x69,0x6e,0x6e,0x65,0x72,0x77,0x6f,0x72,0x6b,0x73,0x5f,0x61,0x31,0x06,0x3a,0x06,0x45,0x54,0x3a,0x0c,0x40,0x76,0x6f,0x6c,0x75,0x6d,0x65,0x69,0x55,0x3a,0x0b,0x40,0x70,0x69,0x74,0x63,0x68,0x69,0x69))
ShowMessageFace("name_fc1",1,0,2,16)
ShowMessage("\\n<Melk>Fufufu...")
ShowMessageFace("",0,0,2,17)
ShowMessage("\\n<Luka>Ah... Unnngh...")
ShowMessageFace("",0,0,2,18)
ShowMessage("Melk's sticky body leans onto me, wrapping me in her viscous membrane.")
ShowMessageFace("",0,0,2,19)
ShowMessage("\\n<Luka>Ahhhh!")
ShowMessageFace("",0,0,2,20)
ShowMessage("My penis is sucked into the surprisingly warm, mucus-filled hole.")
ShowMessageFace("name_fc1",1,0,2,21)
ShowMessage("\\n<Melk>I'll melt your clothes...\nYou want to feel me with your bare skin, don't you?")
ShowMessageFace("",0,0,2,22)
ShowMessage("The mucus that was covering my body starts to melt off my clothes. I can feel the sticky mucus covering my body all over with my bare skin...")
ShowMessageFace("",0,0,2,23)
ShowMessage("\\n<Luka>Fuuaaa!")
ShowMessageFace("",0,0,2,24)
ShowMessage("Covered by Melk, I let loose a pleasure-filled sigh. I can feel my penis get even harder inside her.")
ShowMessageFace("name_fc1",1,0,2,25)
ShowMessage("\\n<Melk>This is how a slug mates...\nWe wrap up the male so they can't move...")
ShowMessageFace("name_fc1",1,0,2,26)
ShowMessage("\\n<Melk>And then violate them!")
ShowMessageFace("",0,0,2,27)
ShowMessage("\\n<Luka>Auuu...")
ShowMessageFace("",0,0,2,28)
ShowMessage("My dick is stuck in the mucus-filled hole that Melk showed me before...")
ShowMessageFace("",0,0,2,29)
ShowMessage("I'm unable to focus on anything but the sticky feeling filling my member...")
ShowMessageFace("name_fc1",1,0,2,30)
ShowMessage("\\n<Melk>Don't let it out yet... I want it in my deepest part...")
ShowMessageFace("",0,0,2,31)
ShowMessage("\\n<Luka>Ugh! Uuu....")
245(bytes(0x04,0x08,0x6f,0x3a,0x0d,0x52,0x50,0x47,0x3a,0x3a,0x42,0x47,0x53,0x08,0x3a,0x0a,0x40,0x6e,0x61,0x6d,0x65,0x49,0x22,0x1e,0x6d,0x6f,0x6e,0x5f,0x68,0x73,0x65,0x61,0x6e,0x30,0x34,0x5f,0x69,0x6e,0x6e,0x65,0x72,0x77,0x6f,0x72,0x6b,0x73,0x5f,0x61,0x34,0x06,0x3a,0x06,0x45,0x54,0x3a,0x0c,0x40,0x76,0x6f,0x6c,0x75,0x6d,0x65,0x69,0x55,0x3a,0x0b,0x40,0x70,0x69,0x74,0x63,0x68,0x69,0x69))
ShowMessageFace("",0,0,2,32)
ShowMessage("Melk moves her waist, forcing me even deeper into her.")
PictureDisplay(5,"ev_name_h02",0,0,0,0,100,100,255,0)
ShowMessageFace("",0,0,2,33)
ShowMessage("Her rubbery walls pull my dick deeper and deeper into her hole...")
ShowMessageFace("",0,0,2,34)
ShowMessage("\\n<Luka>Ahhhg!")
ShowMessageFace("",0,0,2,35)
ShowMessage("Even deeper inside of her, it feels surprisingly slippery.")
ShowMessageFace("",0,0,2,36)
ShowMessage("The entrance is sticky, but the inside is slippery... The alternating textures fill my body with ecstasy with every movement.")
ShowMessageFace("",0,0,2,37)
ShowMessage("With such amazing pleasure like this, it feels like I'm in heaven.")
ShowMessageFace("",0,0,2,38)
ShowMessage("\\n<Luka>Uhhgg... I... I can't take it anymore!\nI'm going to come!")
ShowMessageFace("name_fc1",1,0,2,39)
ShowMessage("\\n<Melk>Already coming? I thought you would last longer...")
ShowMessageFace("",0,0,2,40)
ShowMessage("The slug starts to quickly move her body, causing intense stimulation from the sticky mucus moving back and forth.")
ShowMessageFace("",0,0,2,41)
ShowMessage("\\n<Luka>Ahhhhhh!\nI... if you move like that!")
ShowMessageFace("name_fc1",1,0,2,42)
ShowMessage("\\n<Melk>Let it out then...\nGive me your semen... so I can have your children...")
ShowMessageFace("",0,0,2,43)
ShowMessage("Mating with a slug...")
ShowMessage("The immoral feeling filled me with even more sick pleasure.")
ShowMessageFace("",0,0,2,44)
ShowMessage("Being forcefully raped like this dealt a critical blow to my male pride.")
ShowMessageFace("",0,0,2,45)
ShowMessage("\\n<Luka>C...coming! Ahhhhh!")
RunCommonEvent(104)
PictureDisplay(5,"ev_name_h03",0,0,0,0,100,100,255,0)
RunCommonEvent(105)
ShowMessageFace("",0,0,2,46)
ShowMessage("I shoot my semen inside the soft walls of the slug's hole. I'm being raped by a slug... but I still orgasmed in her...")
ShowMessageFace("name_fc1",1,0,2,47)
ShowMessage("\\n<Melk>Haha, I can feel them inside me...\nYour energetic little children...")
ShowMessageFace("",0,0,2,48)
ShowMessage("\\n<Luka>No... I let it out...\nEven though I'm a human, I just mated with a slug...")
ShowMessageFace("",0,0,2,49)
ShowMessage("Breaking one of the strictest taboos of humanity fills me with a sickly pleasure.")
ShowMessageFace("",0,0,2,50)
ShowMessage("I don't think I can escape from this pleasure... If I just accept that, then I can just enjoy it... right?")
ShowMessageFace("name_fc1",1,0,2,51)
ShowMessage("\\n<Melk>Mating with me... how was it?\nDo you want even more...?")
ShowMessageFace("name_fc1",1,0,2,52)
ShowMessage("\\n<Melk>Over and over again...\nI'll have lots of your children.")
ShowMessageFace("",0,0,2,53)
ShowMessage("\\n<Luka>Auu...")
ShowMessageFace("name_fc1",1,0,2,54)
ShowMessage("\\n<Melk>More... more...\nGive me more of your semen...")
ShowMessageFace("",0,0,2,55)
ShowMessage("\\n<Luka>Ahh! Auu...")
245(bytes(0x04,0x08,0x6f,0x3a,0x0d,0x52,0x50,0x47,0x3a,0x3a,0x42,0x47,0x53,0x08,0x3a,0x0a,0x40,0x6e,0x61,0x6d,0x65,0x49,0x22,0x1e,0x6d,0x6f,0x6e,0x5f,0x68,0x73,0x65,0x61,0x6e,0x30,0x38,0x5f,0x69,0x6e,0x6e,0x65,0x72,0x77,0x6f,0x72,0x6b,0x73,0x5f,0x61,0x38,0x06,0x3a,0x06,0x45,0x54,0x3a,0x0c,0x40,0x76,0x6f,0x6c,0x75,0x6d,0x65,0x69,0x55,0x3a,0x0b,0x40,0x70,0x69,0x74,0x63,0x68,0x69,0x69))
ShowMessageFace("",0,0,2,56)
ShowMessage("The slippery interior of the Slug starts to rub against my penis, bringing me to the height of ecstasy.")
ShowMessageFace("",0,0,2,58)
ShowMessage("\\n<Luka>Ahh.. inside... mov..ing...\nIf you do that... I... come again...")
ShowMessageFace("name_fc1",1,0,2,59)
ShowMessage("\\n<Melk>Come as much as you want...\nGive me more of your children...")
ShowMessageFace("",0,0,2,60)
ShowMessage("Her slimy mucus-filled hole wrapped around my dick starts to squirm around.")
ShowMessageFace("",0,0,2,61)
ShowMessage("\\n<Luka>Am... amazing!\nToo... too good!")
RunCommonEvent(104)
PictureDisplay(5,"ev_name_h04",0,0,0,0,100,100,255,0)
RunCommonEvent(105)
ShowMessageFace("",0,0,2,62)
ShowMessage("I quickly ejaculate a third time...")
ShowMessageFace("name_fc1",1,0,2,63)
ShowMessage("\\n<Melk>You let out a lot...\nBut I still want more...")
ShowMessageFace("",0,0,2,64)
ShowMessage("My dick is continually squeezed inside Melk, without being given a moment to rest.")
ShowMessageFace("",0,0,2,65)
ShowMessage("I've completely surrendered to mating with her...")
ShowMessageFace("name_fc1",1,0,2,66)
ShowMessage("\\n<Melk>You'll be my mate...\nYou're not going anywhere for a while...")
ShowMessageFace("",0,0,2,67)
ShowMessage("\\n<Luka>Faaaa!")
RunCommonEvent(104)
RunCommonEvent(105)
ShowMessageFace("",0,0,2,68)
ShowMessage("While coming a fourth time, my body writhes in pleasure. I lose track of time as I offer up my semen to Melk.")
ShowMessageFace("name_fc1",1,0,2,69)
ShowMessage("\\n<Melk>More... more...")
ShowMessageFace("",0,0,2,70)
ShowMessage("\\n<Luka>Ahhhh!")
RunCommonEvent(104)
RunCommonEvent(105)
221()
PictureClear(5)
246(2)
ShowMessageFace("",0,0,2,71)
ShowMessage("After that, Melk and I continue to mate. I spew loads and loads of semen into her slug genitalia.")
ShowMessageFace("",0,0,2,72)
ShowMessage("Finally the mating ends, and she releases me. Nevertheless, I feel like my mind and body now belong to Melk.")
ShowMessageFace("",0,0,2,73)
ShowMessage("............")
242(2)
Wait(120)
241(bytes(0x04,0x08,0x6f,0x3a,0x0d,0x52,0x50,0x47,0x3a,0x3a,0x42,0x47,0x4d,0x08,0x3a,0x0a,0x40,0x6e,0x61,0x6d,0x65,0x49,0x22,0x0c,0x63,0x61,0x73,0x74,0x6c,0x65,0x36,0x06,0x3a,0x06,0x45,0x54,0x3a,0x0c,0x40,0x76,0x6f,0x6c,0x75,0x6d,0x65,0x69,0x69,0x3a,0x0b,0x40,0x70,0x69,0x74,0x63,0x68,0x69,0x69))
0()
