// EVENT 1036
Name "Talk: Eater"

If(1,20,0,1,0)
 JumpToLabel("情報")
 0()
EndIf()
If(1,20,0,2,0)
 JumpToLabel("質問")
 0()
EndIf()
If(1,20,0,3,0)
 JumpToLabel("要求")
 0()
EndIf()
If(1,20,0,4,0)
 JumpToLabel("贈与")
 0()
EndIf()
DefineLabel("情報")
ChangeVariable(13,13,0,2,1,100)
If(1,13,0,10,2)
 ShowMessageFace("eater_fc1",0,0,2,1)
 ShowMessage("\\n<Eater>I'm hungryyy!")
 EndEventProcessing()
 0()
EndIf()
If(1,13,0,20,2)
 ShowMessageFace("eater_fc1",1,0,2,2)
 ShowMessage("\\n<Eater>Is onii-chan tasty...?")
 EndEventProcessing()
 0()
EndIf()
If(1,13,0,30,2)
 ShowMessageFace("eater_fc1",0,0,2,3)
 ShowMessage("\\n<Eater>Bricks and dirt taste yucky...\nAnimals, those are tasty!")
 EndEventProcessing()
 0()
EndIf()
If(1,13,0,40,2)
 ShowMessageFace("eater_fc1",0,0,2,4)
 ShowMessage("\\n<Eater>Who am I?\nI don't know. I don't understand...")
 EndEventProcessing()
 0()
EndIf()
If(1,13,0,50,2)
 ShowMessageFace("eater_fc1",0,0,2,5)
 ShowMessage("\\n<Eater>I've eaten strange things before too!\nMy body felt as if it were shocked...")
 EndEventProcessing()
 0()
EndIf()
If(1,13,0,60,2)
 ShowMessageFace("eater_fc1",0,0,2,6)
 ShowMessage("\\n<Eater>I don't know where this is...\nWhy am I in this place?")
 EndEventProcessing()
 0()
EndIf()
If(1,13,0,70,2)
 ShowMessageFace("eater_fc1",0,0,2,7)
 ShowMessage("\\n<Eater>My tummy's never full no matter how much I eat...\nI still want to eat more, more...")
 EndEventProcessing()
 0()
EndIf()
If(1,13,0,80,2)
 ShowMessageFace("eater_fc1",0,0,2,8)
 ShowMessage("\\n<Eater>I have to eat all of you...\nBecause...this is a Class One Cross-World Contact...")
 EndEventProcessing()
 0()
EndIf()
If(1,13,0,90,2)
 ShowMessageFace("eater_fc1",0,0,2,9)
 ShowMessage("\\n<Eater>Class One Cross-World Contact...what?\nMy head...there's a strange voice in my head...")
 EndEventProcessing()
 0()
EndIf()
If(1,13,0,100,2)
 ShowMessageFace("eater_fc1",0,0,2,10)
 ShowMessage("\\n<Eater>Any who enter this place must be eliminated.\nThat is why we exist...")
 EndEventProcessing()
 0()
EndIf()
DefineLabel("質問")
ChangeVariable(13,13,0,2,1,50)
If(1,13,0,10,2)
 ShowMessageFace("eater_fc1",0,0,2,11)
 ShowMessage("\\n<Eater>Am I a flower?\nOr, an animal?")
 ShowChoices(strings("Flower","Animal","Mushroom"),0)
 IfPlayerPicksChoice(0,"Flower")
  ShowMessageFace("eater_fc1",1,0,2,12)
  ShowMessage("\\n<Eater>There are petals, and some ivy too...\nI'm a flower!")
  355("change_friend(10)")
  0()
 IfPlayerPicksChoice(1,"Animal")
  ShowMessageFace("eater_fc1",0,0,2,13)
  ShowMessage("\\n<Eater>It looks like my body is made of flesh...\nBut why do I have petals and some ivy?")
  0()
 IfPlayerPicksChoice(2,"Mushroom")
  ShowMessageFace("eater_fc1",2,0,2,14)
  ShowMessage("\\n<Eater>Mushrooms are delicious!\n...I, am I delicious?")
  355("change_friend(-5)")
  0()
 404()
 EndEventProcessing()
 0()
EndIf()
If(1,13,0,20,2)
 ShowMessageFace("eater_fc1",0,0,2,15)
 ShowMessage("\\n<Eater>I'm getting tired of eating the things in this world...\nAre there better tasting things in the world outside?")
 ShowChoices(strings("There's a lot of tastier things","There are some tastier things","You're not missing much"),0)
 IfPlayerPicksChoice(0,"There's a lot of tastier things")
  ShowMessageFace("eater_fc1",3,0,2,16)
  ShowMessage("\\n<Eater>Cool!\nI wanna go out! I wanna!")
  355("change_friend(10)")
  0()
 IfPlayerPicksChoice(1,"There are some tastier things")
  ShowMessageFace("eater_fc1",0,0,2,17)
  ShowMessage("\\n<Eater>Really?\nI want to see the world outside...")
  0()
 IfPlayerPicksChoice(2,"You're not missing much")
  ShowMessageFace("eater_fc1",2,0,2,18)
  ShowMessage("\\n<Eater>...oh.\nThen I guess staying here is fine...")
  355("change_friend(-5)")
  0()
 404()
 EndEventProcessing()
 0()
EndIf()
If(1,13,0,30,2)
 ShowMessageFace("eater_fc1",0,0,2,19)
 ShowMessage("\\n<Eater>Animals or plants, which ones tastier?")
 ShowChoices(strings("Animals","Plants","I'm better then all the meats"),0)
 IfPlayerPicksChoice(0,"Animals")
  ShowMessageFace("eater_fc1",3,0,2,20)
  ShowMessage("\\n<Eater>Yeah, meat tastes the best.\nSo I'll eat onii-chan's meat!")
  355("change_friend(10)")
  0()
 IfPlayerPicksChoice(1,"Plants")
  ShowMessageFace("eater_fc1",2,0,2,21)
  ShowMessage("\\n<Eater>Really?\nI don't like veggies. They taste all yucky and bitter.")
  355("change_friend(-5)")
  0()
 IfPlayerPicksChoice(2,"I'm better then all the meats")
  ShowMessageFace("eater_fc1",3,0,2,22)
  ShowMessage("\\n<Eater>No way! You're that yummy?!\nI REALLY wanna eat you now!!")
  355("change_friend(10)")
  0()
 404()
 EndEventProcessing()
 0()
EndIf()
If(1,13,0,40,2)
 ShowMessageFace("eater_fc1",0,0,2,23)
 ShowMessage("\\n<Eater>What was I before I turned into this...\nI wonder what I did, and where?")
 ShowChoices(strings("City Girl","Prostitute","My Wife"),0)
 IfPlayerPicksChoice(0,"City Girl")
  ShowMessageFace("eater_fc1",0,0,2,24)
  ShowMessage("\\n<Eater>City...?\nIs that tasty? Can I eat it?")
  0()
 IfPlayerPicksChoice(1,"Prostitute")
  ShowMessageFace("eater_fc1",2,0,2,25)
  ShowMessage("\\n<Eater>For some reason, that doesn't seem tasty...")
  355("change_friend(-5)")
  0()
 IfPlayerPicksChoice(2,"My Wife")
  ShowMessageFace("eater_fc1",1,0,2,26)
  ShowMessage("\\n<Eater>Wife...?\nOooh! I want to become a bride!")
  ShowMessageFace("eater_fc1",3,0,2,27)
  ShowMessage("\\n<Eater>...wait, what's a bride?\nIs it tasty? Can I eat it?")
  355("change_friend(10)")
  0()
 404()
 EndEventProcessing()
 0()
EndIf()
If(1,13,0,50,2)
 ShowMessageFace("eater_fc1",0,0,2,28)
 ShowMessage("\\n<Eater>There's a weird voice in my head...\nClass One Cross-World Contact. Remove intruder... It won't stop.")
 ShowMessageFace("eater_fc1",0,0,2,29)
 ShowMessage("\\n<Eater>Onii-chan, what voice is in your head?")
 ShowChoices(strings("I don't have one","It says nice stuff all the time","Class One Cross-World Contact. Remove intruder."),0)
 IfPlayerPicksChoice(0,"I don't have one")
  ShowMessageFace("eater_fc1",0,0,2,30)
  ShowMessage("\\n<Eater>Really? Lucky...")
  0()
 IfPlayerPicksChoice(1,"It says nice stuff all the time")
  ShowMessageFace("eater_fc1",1,0,2,31)
  ShowMessage("\\n<Eater>The person in onii-chan's head is a nice person...")
  355("change_friend(10)")
  0()
 IfPlayerPicksChoice(2,"Class One Cross-World Contact. Remove intruder.")
  ShowMessageFace("eater_fc1",4,0,2,32)
  ShowMessage("\\n<Eater>I knew it, it's the same for everyone.\nSo if I don't eat onii-chan...")
  355("change_friend(-5)")
  0()
 404()
 EndEventProcessing()
 0()
EndIf()
DefineLabel("要求")
ChangeVariable(13,13,0,2,1,30)
If(1,13,0,10,2)
 If(8,432)
  ShowMessageFace("eater_fc1",1,0,2,33)
  ShowMessage("\\n<Eater>Is that dry meat?\nI wanna eat it! Gimmie gimmie!")
  ChangeVariable(24,24,0,3,0,432,0)
  ShowMessageFace("",0,0,2,34)
  ShowMessage("Give \\ii[432]? (Have:\\V[24])")
  ShowChoices(strings("Yes","No"),2)
  IfPlayerPicksChoice(0,"Yes")
   ShowMessageFace("eater_fc1",3,0,2,35)
   ShowMessage("\\n<Eater>Yaay, I'm happy!")
   ChangeInventory_Item(432,1,0,1)
   355("change_friend(20)")
   EndEventProcessing()
   0()
  IfPlayerPicksChoice(1,"No")
   ShowMessageFace("eater_fc1",2,0,2,36)
   ShowMessage("\\n<Eater>But I want it...")
   EndEventProcessing()
   0()
  404()
  0()
 Else()
  ChangeVariable(13,13,0,0,20)
  0()
 EndIf()
 0()
EndIf()
If(1,13,0,20,2)
 If(8,329)
  ShowMessageFace("eater_fc1",1,0,2,37)
  ShowMessage("\\n<Eater>I smell fresh meat...\nGimmie! I wanna eat it!")
  ChangeVariable(24,24,0,3,0,329,0)
  ShowMessageFace("",0,0,2,38)
  ShowMessage("Give \\ii[329]? (Have:\\V[24])")
  ShowChoices(strings("Yes","No"),2)
  IfPlayerPicksChoice(0,"Yes")
   ShowMessageFace("eater_fc1",3,0,2,39)
   ShowMessage("\\n<Eater>Yaay, I'm happy!")
   ChangeInventory_Item(329,1,0,1)
   355("change_friend(30)")
   EndEventProcessing()
   0()
  IfPlayerPicksChoice(1,"No")
   ShowMessageFace("eater_fc1",2,0,2,40)
   ShowMessage("\\n<Eater>But I want it...")
   EndEventProcessing()
   0()
  404()
  0()
 Else()
  ChangeVariable(13,13,0,0,30)
  0()
 EndIf()
 0()
EndIf()
If(1,13,0,30,2)
 ShowMessageFace("eater_fc1",1,0,2,41)
 ShowMessage("\\n<Eater>Is money delicious?\nI wanna find out. Give it!")
 If(7,219,0)
  ChangeVariable(24,24,0,3,7,2,0)
  ShowMessageFace("",0,0,2,42)
  ShowMessage("Give 219G? (Have:\\V[24])")
  ShowChoices(strings("Yes","No"),2)
  IfPlayerPicksChoice(0,"Yes")
   ShowMessageFace("eater_fc1",3,0,2,43)
   ShowMessage("\\n<Eater>Oooh, shiny!\n...so can I eat it?")
   125(1,0,219)
   355("change_friend(25)")
   EndEventProcessing()
   0()
  IfPlayerPicksChoice(1,"No")
   ShowMessageFace("eater_fc1",2,0,2,44)
   ShowMessage("\\n<Eater>But I want it...")
   EndEventProcessing()
   0()
  404()
  0()
 Else()
  ShowMessageFace("eater_fc1",0,0,2,45)
  ShowMessage("\\n<Eater>...looks like you don't have any.")
  EndEventProcessing()
  0()
 EndIf()
 0()
EndIf()
DefineLabel("贈与")
ChangeVariable(13,13,0,2,1,30)
If(1,25,0,1,0)
 ChangeVariable(13,13,0,0,30)
 ChangeVariable(25,25,0,0,0)
 0()
EndIf()
If(1,25,0,2,0)
 ChangeVariable(13,13,0,2,1,20)
 ChangeVariable(25,25,0,0,0)
 0()
EndIf()
If(1,13,0,10,2)
 ShowMessageFace("eater_fc1",3,0,2,46)
 ShowMessage("\\n<Eater>These rocks keep falling everywhere.\nIt doesn't look tasty, so you can have it.")
 250(bytes(0x04,0x08,0x6f,0x3a,0x0c,0x52,0x50,0x47,0x3a,0x3a,0x53,0x45,0x08,0x3a,0x0a,0x40,0x6e,0x61,0x6d,0x65,0x49,0x22,0x0a,0x49,0x74,0x65,0x6d,0x31,0x06,0x3a,0x06,0x45,0x54,0x3a,0x0b,0x40,0x70,0x69,0x74,0x63,0x68,0x69,0x69,0x3a,0x0c,0x40,0x76,0x6f,0x6c,0x75,0x6d,0x65,0x69,0x55))
 ChangeInventory_Item(172,0,0,1)
 ShowMessageFace("",0,0,2,47)
 ShowMessage("Eater gave you a \\ii[172]!")
 EndEventProcessing()
 0()
EndIf()
If(1,13,0,20,2)
 ShowMessageFace("eater_fc1",0,0,2,48)
 ShowMessage("\\n<Eater>I found this weird stone lying around.\nIt feels creepy, so you keep it.")
 250(bytes(0x04,0x08,0x6f,0x3a,0x0c,0x52,0x50,0x47,0x3a,0x3a,0x53,0x45,0x08,0x3a,0x0a,0x40,0x6e,0x61,0x6d,0x65,0x49,0x22,0x0a,0x49,0x74,0x65,0x6d,0x31,0x06,0x3a,0x06,0x45,0x54,0x3a,0x0b,0x40,0x70,0x69,0x74,0x63,0x68,0x69,0x69,0x3a,0x0c,0x40,0x76,0x6f,0x6c,0x75,0x6d,0x65,0x69,0x55))
 ChangeInventory_Item(79,0,0,1)
 ShowMessageFace("",0,0,2,49)
 ShowMessage("Eater gave you a \\ii[79]!")
 EndEventProcessing()
 0()
EndIf()
If(1,13,0,30,2)
 ShowMessageFace("eater_fc1",0,0,2,50)
 ShowMessage("\\n<Eater>Huh? Why do I have money?\nYou can't use it here, so you can have it.")
 250(bytes(0x04,0x08,0x6f,0x3a,0x0c,0x52,0x50,0x47,0x3a,0x3a,0x53,0x45,0x08,0x3a,0x0a,0x40,0x6e,0x61,0x6d,0x65,0x49,0x22,0x0a,0x49,0x74,0x65,0x6d,0x31,0x06,0x3a,0x06,0x45,0x54,0x3a,0x0b,0x40,0x70,0x69,0x74,0x63,0x68,0x69,0x69,0x3a,0x0c,0x40,0x76,0x6f,0x6c,0x75,0x6d,0x65,0x69,0x55))
 125(0,0,365)
 ShowMessageFace("",0,0,2,51)
 ShowMessage("Eater gave you 365G!")
 EndEventProcessing()
 0()
EndIf()
0()
