﻿// EVENT 7273
Name "Marin: Defeat"

RunCommonEvent(7000)
PictureDisplay(5,"80_mob_mahousyouzyo_st01",0,0,0,0,100,100,255,0)
PictureClear(6)
ShowMessageFace("mob_mahousyouzyo_fc1",0,0,2,1)
ShowMessage("\\n<Magical Mari-chan>Yes, it's my victory. ♪\nNow you have to pay me your bet.")
125(1,0,900)
ShowMessageFace("",0,0,2,2)
ShowMessage("Luka hands over 900G!")
ShowMessageFace("mob_mahousyouzyo_fc1",0,0,2,3)
ShowMessage("\\n<Magical Mari-chan>Well then, come back again.\nI'll still spoil you pleeeenty next match. ♪")
If(0,2331,1)
 PictureClear(5)
 281(1)
 TeleportPlayer(0,49,12,28,2,0)
 216(0)
 0()
EndIf()
EndEventProcessing()
0()
