// EVENT 7215
Name "Milio: Ejaculation 1"

ShowMessageFace("ruka_fc1",0,0,2,1)
ShowMessage("\\n<Luka>Ah... I'm coming...")
ShowMessageFace("mob_kaihei_fc1",0,0,2,2)
ShowMessage("\\n<Milio>Eh? Already?")
PictureDisplay(10,"sys_white",0,0,0,0,100,100,0,0)
PictureMove(10,null,0,0,0,0,100,100,255,0,20,true)
PictureDisplay(5,"80_mob_kaihei_st01",0,0,-190,0,100,100,255,0)
PictureDisplay(6,"ev_mob_kaihei_ct43",0,0,240,50,100,100,255,0)
250(bytes(0x04,0x08,0x6f,0x3a,0x0c,0x52,0x50,0x47,0x3a,0x3a,0x53,0x45,0x08,0x3a,0x0a,0x40,0x6e,0x61,0x6d,0x65,0x49,0x22,0x0f,0x6d,0x6f,0x6e,0x5f,0x73,0x79,0x61,0x73,0x65,0x69,0x06,0x3a,0x06,0x45,0x54,0x3a,0x0b,0x40,0x70,0x69,0x74,0x63,0x68,0x69,0x69,0x3a,0x0c,0x40,0x76,0x6f,0x6c,0x75,0x6d,0x65,0x69,0x69))
PictureMove(10,null,0,0,0,0,100,100,0,0,25,true)
PictureMove(10,null,0,0,0,0,100,100,255,0,20,true)
PictureMove(10,null,0,0,0,0,100,100,0,0,25,true)
PictureMove(10,null,0,0,0,0,100,100,255,0,6,true)
PictureMove(10,null,0,0,0,0,100,100,0,0,60,true)
PictureDisplay(5,"ev_mob_kaihei_h3",0,0,0,0,100,100,255,0)
ShowMessageFace("",0,0,2,3)
ShowMessage("The moment Milio grabs hold of me, I come.")
ShowMessage("My semen scatters everywhere on her soft palm...")
ShowMessageFace("mob_kaihei_fc1",0,0,2,4)
ShowMessage("\\n<Milio>Arara, I only just grabbed it.")
ShowMessage("Teehee... You have to try harder than that.♪")
RunCommonEvent(7213)
EndEventProcessing()
0()
