// EVENT 7254
Name "Yayoi: Victory"

PictureDisplay(5,"80_mob_samurai_st01",0,0,0,0,100,100,255,0)
PictureClear(6)
ShowMessageFace("mob_samurai_fc1",1,0,2,1)
ShowMessage("\\n<Yayoi>For you to endure against my techniques!\n...I-I suppose...I must admit my defeat.")
250(bytes(0x04,0x08,0x6f,0x3a,0x0c,0x52,0x50,0x47,0x3a,0x3a,0x53,0x45,0x08,0x3a,0x0a,0x40,0x6e,0x61,0x6d,0x65,0x49,0x22,0x0d,0x6d,0x6f,0x6e,0x5f,0x6c,0x76,0x75,0x70,0x06,0x3a,0x06,0x45,0x54,0x3a,0x0b,0x40,0x70,0x69,0x74,0x63,0x68,0x69,0x69,0x3a,0x0c,0x40,0x76,0x6f,0x6c,0x75,0x6d,0x65,0x69,0x69))
ChangeSwitch(98,98,1)
ChangeSwitch(96,96,1)
ShowMessageFace("",0,0,2,2)
ShowMessage("Luka emerged from the battle fuck victorious!")
If(1,826,0,2,1)
 ShowMessageFace("mob_samurai_fc1",0,0,2,3)
 ShowMessage("\\n<Yayoi>However, as I've said before, I've no more prizes to give you. I have already handed it over to you...")
 0()
Else()
 ShowMessageFace("mob_samurai_fc1",0,0,2,4)
 ShowMessage("\\n<Yayoi>Then, here is your promised reward.\nWith this accessory, your katana techniques can be enhanced.")
 250(bytes(0x04,0x08,0x6f,0x3a,0x0c,0x52,0x50,0x47,0x3a,0x3a,0x53,0x45,0x08,0x3a,0x0a,0x40,0x6e,0x61,0x6d,0x65,0x49,0x22,0x0a,0x49,0x74,0x65,0x6d,0x31,0x06,0x3a,0x06,0x45,0x54,0x3a,0x0b,0x40,0x70,0x69,0x74,0x63,0x68,0x69,0x69,0x3a,0x0c,0x40,0x76,0x6f,0x6c,0x75,0x6d,0x65,0x69,0x55))
 ChangeInventoryArmor(1631,0,0,1,false)
 ChangeVariable(826,826,0,0,2)
 RunCommonEvent(6999)
 0()
EndIf()
ShowMessageFace("mob_samurai_fc1",0,0,2,5)
ShowMessage("\\n<Yayoi>Please, when you have the time, allow me the courtesy of a rematch. Next time, I'll show you the heavenly delights of my palm.")
If(0,2331,1)
 PictureClear(5)
 281(1)
 TeleportPlayer(0,53,47,22,2,0)
 216(0)
 0()
EndIf()
EndEventProcessing()
0()
