// EVENT 2234
Name "Seduction: Automata Girl"

355("$game_troop.lose_event_id = 3234")
ChangeVariable(26,26,0,3,3,1,4)
ChangeVariable(26,26,4,0,10)
ShowMessageFace("artm_fc1",0,0,2,1)
ShowMessage("\\n<Automata Girl>")
ShowMessage("Program malfunction due to combat shock...")
ShowMessage("Penis washing mode engaged.")
PictureDisplay(5,"ev_artm_ct11",0,0,0,0,100,100,255,0)
ShowMessageFace("",0,0,2,2)
ShowMessage("The Automata Girl grabs hold of Luka's penis!")
ShowMessage("Foam fills her other hand!")
ShowMessageFace("artm_fc1",0,0,2,3)
ShowMessage("\\n<Automata Girl>")
ShowMessage("Special Service program 3. I will clean my Master's penis.")
ShowMessage("Please, do not move around.")
ChangeSwitch(98,98,0)
ChangeSwitch(96,96,0)
ShowChoices(strings("Struggle","Let her continue"),1)
IfPlayerPicksChoice(0,"もがく")
 ShowMessageFace("",0,0,2,4)
 ShowMessage("But Luka struggles, and breaks free!")
 RunCommonEvent(1999)
 EndEventProcessing()
 0()
IfPlayerPicksChoice(1,"なすがまま")
 0()
404()
PictureDisplay(5,"ev_artm_ct12",0,0,0,0,100,100,255,0)
ShowMessageFace("artm_fc1",0,0,2,5)
ShowMessage("\\n<Automata Girl>")
ShowMessage("Bubbles will be used to thoroughly clean.")
ChangeVariable(26,26,3,0,3)
250(bytes(0x04,0x08,0x6f,0x3a,0x0c,0x52,0x50,0x47,0x3a,0x3a,0x53,0x45,0x08,0x3a,0x0a,0x40,0x6e,0x61,0x6d,0x65,0x49,0x22,0x12,0x6d,0x6f,0x6e,0x5f,0x65,0x72,0x6f,0x5f,0x6b,0x6f,0x6b,0x69,0x31,0x06,0x3a,0x06,0x45,0x54,0x3a,0x0b,0x40,0x70,0x69,0x74,0x63,0x68,0x69,0x69,0x3a,0x0c,0x40,0x76,0x6f,0x6c,0x75,0x6d,0x65,0x69,0x69))
311(0,1,1,1,26,true)
ShowMessageFace("",0,0,2,6)
ShowMessage("Bubbles fill the Automata Girl's hands!")
ShowMessage("Lathering up his penis, she washes Luka!\\D")
ShowMessage("Luka takes \\V[26] damage!")
ChangeVariable(27,27,0,3,3,1,2)
If(1,27,0,0,0)
 JumpToLabel("射精1")
 0()
EndIf()
ShowMessageFace("",0,0,2,7)
ShowMessage("\\n<Luka>Th-that feels good...")
ShowMessageFace("",0,0,2,8)
ShowMessage("Luka is immersed in ecstasy!")
ShowMessageFace("artm_fc1",0,0,2,9)
ShowMessage("\\n<Automata Girl>")
ShowMessage("Are you dreaming, Master?")
ShowMessage("Service shall continue.")
250(bytes(0x04,0x08,0x6f,0x3a,0x0c,0x52,0x50,0x47,0x3a,0x3a,0x53,0x45,0x08,0x3a,0x0a,0x40,0x6e,0x61,0x6d,0x65,0x49,0x22,0x12,0x6d,0x6f,0x6e,0x5f,0x65,0x72,0x6f,0x5f,0x6b,0x6f,0x6b,0x69,0x31,0x06,0x3a,0x06,0x45,0x54,0x3a,0x0b,0x40,0x70,0x69,0x74,0x63,0x68,0x69,0x69,0x3a,0x0c,0x40,0x76,0x6f,0x6c,0x75,0x6d,0x65,0x69,0x69))
311(0,1,1,1,26,true)
ShowMessageFace("",0,0,2,10)
ShowMessage("The Automata Girl continues washing Luka's penis!\\D")
ShowMessage("Luka takes \\V[26] damage!")
ChangeVariable(27,27,0,3,3,1,2)
If(1,27,0,0,0)
 JumpToLabel("射精1")
 0()
EndIf()
ShowMessageFace("artm_fc1",0,0,2,11)
ShowMessage("\\n<Automata Girl>")
ShowMessage("Penis washing continuing according to Master's orders.")
250(bytes(0x04,0x08,0x6f,0x3a,0x0c,0x52,0x50,0x47,0x3a,0x3a,0x53,0x45,0x08,0x3a,0x0a,0x40,0x6e,0x61,0x6d,0x65,0x49,0x22,0x12,0x6d,0x6f,0x6e,0x5f,0x65,0x72,0x6f,0x5f,0x6b,0x6f,0x6b,0x69,0x31,0x06,0x3a,0x06,0x45,0x54,0x3a,0x0b,0x40,0x70,0x69,0x74,0x63,0x68,0x69,0x69,0x3a,0x0c,0x40,0x76,0x6f,0x6c,0x75,0x6d,0x65,0x69,0x69))
311(0,1,1,1,26,true)
ShowMessageFace("",0,0,2,12)
ShowMessage("The foaming bubbles rub into his penis!\\D")
ShowMessage("Luka takes \\V[26] damage!")
ChangeVariable(27,27,0,3,3,1,2)
If(1,27,0,0,0)
 JumpToLabel("射精1")
 0()
EndIf()
ShowMessageFace("artm_fc1",0,0,2,13)
ShowMessage("\\n<Automata Girl>")
ShowMessage("Master's penis must be thoroughly cleaned.")
250(bytes(0x04,0x08,0x6f,0x3a,0x0c,0x52,0x50,0x47,0x3a,0x3a,0x53,0x45,0x08,0x3a,0x0a,0x40,0x6e,0x61,0x6d,0x65,0x49,0x22,0x12,0x6d,0x6f,0x6e,0x5f,0x65,0x72,0x6f,0x5f,0x6b,0x6f,0x6b,0x69,0x31,0x06,0x3a,0x06,0x45,0x54,0x3a,0x0b,0x40,0x70,0x69,0x74,0x63,0x68,0x69,0x69,0x3a,0x0c,0x40,0x76,0x6f,0x6c,0x75,0x6d,0x65,0x69,0x69))
311(0,1,1,1,26,true)
ShowMessageFace("",0,0,2,14)
ShowMessage("Her foam covered hand strokes and massages Luka's penis as she cleans!\\D")
ShowMessage("Luka takes \\V[26] damage!")
ChangeVariable(27,27,0,3,3,1,2)
If(1,27,0,0,0)
 JumpToLabel("射精1")
 0()
EndIf()
DefineLabel("射精1")
ShowMessageFace("",0,0,2,15)
ShowMessage("\\n<Luka>No, I'm coming... Hauu...")
RunCommonEvent(104)
PictureDisplay(5,"ev_artm_ct13",0,0,0,0,100,100,255,0)
RunCommonEvent(105)
PictureDisplay(5,"ev_artm_ct14",0,0,0,0,100,100,255,0)
ShowMessageFace("",0,0,2,16)
ShowMessage("As she carefully washes my penis, I come.")
ShowMessage("My semen scatters everywhere, mixing with the foam.")
ShowMessageFace("artm_fc1",0,0,2,17)
ShowMessage("\\n<Automata Girl>")
ShowMessage("Unexpected error.")
ShowMessage("Master ejaculated mid wash.")
RunCommonEvent(2000)
EndEventProcessing()
0()
