﻿// EVENT 2374
Name "Seduction: Experiment S-2"

355("$game_troop.lose_event_id = 3374")
ChangeVariable(26,26,0,3,3,1,4)
ChangeVariable(26,26,4,0,10)
ShowMessageFace("c_s2_fc1",2,0,2,1)
ShowMessage("\\n<S-2>Don't bully me...\nAwawa, do you want my bubbles?")
355("battler_graphic_hide")
PictureDisplay(5,"ev_c_s2_hb1",0,0,0,0,100,100,255,0)
ShowMessageFace("",0,0,2,2)
ShowMessage("S-2's frothy slime approaches Luka's lower body!")
ShowMessageFace("c_s2_fc1",0,0,2,3)
ShowMessage("\\n<S-2>I'll give you a bubble massage.\nYour penis will feel good...♪")
ChangeSwitch(98,98,0)
ChangeSwitch(96,96,0)
ShowChoices(strings("Struggle","Let her continue"),1)
IfPlayerPicksChoice(0,null)
 ShowMessageFace("",0,0,2,4)
 ShowMessage("Luka struggles violently, and escapes from S-2's restraint!")
 RunCommonEvent(1999)
 EndEventProcessing()
 0()
IfPlayerPicksChoice(1,null)
 0()
404()
ShowMessageFace("c_s2_fc1",0,0,2,5)
ShowMessage("\\n<S-2>Let's awawa♪\nRub rub, squish squish...")
ChangeVariable(26,26,3,0,2)
250(bytes(0x04,0x08,0x6f,0x3a,0x0c,0x52,0x50,0x47,0x3a,0x3a,0x53,0x45,0x08,0x3a,0x0a,0x40,0x6e,0x61,0x6d,0x65,0x49,0x22,0x13,0x6d,0x6f,0x6e,0x5f,0x65,0x72,0x6f,0x5f,0x73,0x6c,0x69,0x6d,0x65,0x33,0x06,0x3a,0x06,0x45,0x54,0x3a,0x0b,0x40,0x70,0x69,0x74,0x63,0x68,0x69,0x69,0x3a,0x0c,0x40,0x76,0x6f,0x6c,0x75,0x6d,0x65,0x69,0x69))
PictureDisplay(6,"ev_c_s2_ct01",0,0,0,0,100,100,255,0)
311(0,1,1,1,26,true)
ShowMessageFace("",0,0,2,6)
ShowMessage("S-2's frothy slime approaches Luka's lower body!\nHer frothy slime wraps around his penis, giving him a squishy stimulation!\\D")
ShowMessage("Luka takes \\V[26] damage!")
ChangeVariable(27,27,0,3,3,1,2)
If(1,27,0,0,0)
 JumpToLabel("射精1")
 0()
EndIf()
ShowMessageFace("c_s2_fc1",0,0,2,7)
ShowMessage("\\n<S-2>I'll squeeze it more...\nLet out a lot inside my bubbles...")
250(bytes(0x04,0x08,0x6f,0x3a,0x0c,0x52,0x50,0x47,0x3a,0x3a,0x53,0x45,0x08,0x3a,0x0a,0x40,0x6e,0x61,0x6d,0x65,0x49,0x22,0x13,0x6d,0x6f,0x6e,0x5f,0x65,0x72,0x6f,0x5f,0x73,0x6c,0x69,0x6d,0x65,0x33,0x06,0x3a,0x06,0x45,0x54,0x3a,0x0b,0x40,0x70,0x69,0x74,0x63,0x68,0x69,0x69,0x3a,0x0c,0x40,0x76,0x6f,0x6c,0x75,0x6d,0x65,0x69,0x69))
311(0,1,1,1,26,true)
ShowMessageFace("",0,0,2,8)
ShowMessage("A lot more frothy slime covers Luka's lower body!\nHis dick is covered in the foam, the sliminess wrapping around it!\\D")
ShowMessage("Luka takes \\V[26] damage!")
ChangeVariable(27,27,0,3,3,1,2)
If(1,27,0,0,0)
 JumpToLabel("射精1")
 0()
EndIf()
ShowMessageFace("c_s2_fc1",0,0,2,9)
ShowMessage("\\n<S-2>Awawa, squish squish... My tentacles are also slimy...")
250(bytes(0x04,0x08,0x6f,0x3a,0x0c,0x52,0x50,0x47,0x3a,0x3a,0x53,0x45,0x08,0x3a,0x0a,0x40,0x6e,0x61,0x6d,0x65,0x49,0x22,0x13,0x6d,0x6f,0x6e,0x5f,0x65,0x72,0x6f,0x5f,0x73,0x6c,0x69,0x6d,0x65,0x31,0x06,0x3a,0x06,0x45,0x54,0x3a,0x0b,0x40,0x70,0x69,0x74,0x63,0x68,0x69,0x69,0x3a,0x0c,0x40,0x76,0x6f,0x6c,0x75,0x6d,0x65,0x69,0x69))
311(0,1,1,1,26,true)
ShowMessageFace("",0,0,2,10)
ShowMessage("S-2's frothy slime clings to Luka's penis!\\D")
ShowMessage("Luka takes \\V[26] damage!")
ChangeVariable(27,27,0,3,3,1,2)
250(bytes(0x04,0x08,0x6f,0x3a,0x0c,0x52,0x50,0x47,0x3a,0x3a,0x53,0x45,0x08,0x3a,0x0a,0x40,0x6e,0x61,0x6d,0x65,0x49,0x22,0x16,0x6d,0x6f,0x6e,0x5f,0x65,0x72,0x6f,0x5f,0x6d,0x61,0x6b,0x69,0x74,0x75,0x6b,0x69,0x31,0x06,0x3a,0x06,0x45,0x54,0x3a,0x0b,0x40,0x70,0x69,0x74,0x63,0x68,0x69,0x69,0x3a,0x0c,0x40,0x76,0x6f,0x6c,0x75,0x6d,0x65,0x69,0x69))
311(0,1,1,1,26,true)
ShowMessageFace("",0,0,2,11)
ShowMessage("She wraps a frothy tentacle around his penis, slowly stimulating him!\\D")
ShowMessage("Luka takes \\V[26] damage!")
ChangeVariable(27,27,0,3,3,1,2)
If(1,27,0,0,0)
 JumpToLabel("射精1")
 0()
EndIf()
ShowMessageFace("c_s2_fc1",0,0,2,12)
ShowMessage("\\n<S-2>Let out your semen soon...")
ChangeVariable(26,26,3,0,2)
250(bytes(0x04,0x08,0x6f,0x3a,0x0c,0x52,0x50,0x47,0x3a,0x3a,0x53,0x45,0x08,0x3a,0x0a,0x40,0x6e,0x61,0x6d,0x65,0x49,0x22,0x13,0x6d,0x6f,0x6e,0x5f,0x65,0x72,0x6f,0x5f,0x73,0x6c,0x69,0x6d,0x65,0x33,0x06,0x3a,0x06,0x45,0x54,0x3a,0x0b,0x40,0x70,0x69,0x74,0x63,0x68,0x69,0x69,0x3a,0x0c,0x40,0x76,0x6f,0x6c,0x75,0x6d,0x65,0x69,0x69))
311(0,1,1,1,26,true)
ShowMessageFace("",0,0,2,13)
ShowMessage("The frothy slime wrapped around Luka's penis gives him a squishy stimulation!\\D")
ShowMessage("Luka takes \\V[26] damage!")
ChangeVariable(27,27,0,3,3,1,2)
If(1,27,0,0,0)
 JumpToLabel("射精1")
 0()
EndIf()
DefineLabel("射精1")
ShowMessageFace("",0,0,2,14)
ShowMessage("\\n<Luka>No, I'm coming... Aaaah...")
RunCommonEvent(104)
PictureDisplay(5,"ev_c_s2_hb2",0,0,0,0,100,100,255,0)
PictureDisplay(6,"ev_c_s2_ct02",0,0,0,0,100,100,255,0)
RunCommonEvent(105)
ShowMessageFace("",0,0,2,15)
ShowMessage("As S-2 rubs my penis with her frothy slime, I come. My semen pours out inside of her slime.")
ShowMessageFace("c_s2_fc1",0,0,2,16)
ShowMessage("\\n<S-2>You've filled my bubbles with semen...\nIt's so delicious...")
RunCommonEvent(2000)
EndEventProcessing()
0()
