// EVENT 5641
Name "A-3_1"

PictureDisplay(5,"80_c_a3_st01",0,0,0,0,100,100,0,0)
PictureMove(5,null,0,0,0,0,100,100,255,0,30,true)
ShowMessageFace("",0,0,2,1)
ShowMessage("\\n<Luka>")
ShowMessage("P-please...")
ShowMessageFace("c_a3_fc1",0,0,2,2)
ShowMessage("\\n<Flappy>")
ShowMessage("You want to feel pleasure? Then I'll let you taste humiliation...")
241(bytes(0x04,0x08,0x6f,0x3a,0x0d,0x52,0x50,0x47,0x3a,0x3a,0x42,0x47,0x4d,0x08,0x3a,0x0a,0x40,0x6e,0x61,0x6d,0x65,0x49,0x22,0x09,0x65,0x72,0x6f,0x31,0x06,0x3a,0x06,0x45,0x54,0x3a,0x0c,0x40,0x76,0x6f,0x6c,0x75,0x6d,0x65,0x69,0x69,0x3a,0x0b,0x40,0x70,0x69,0x74,0x63,0x68,0x69,0x69))
250(bytes(0x04,0x08,0x6f,0x3a,0x0c,0x52,0x50,0x47,0x3a,0x3a,0x53,0x45,0x08,0x3a,0x0a,0x40,0x6e,0x61,0x6d,0x65,0x49,0x22,0x16,0x6d,0x6f,0x6e,0x5f,0x65,0x72,0x6f,0x5f,0x6d,0x61,0x6b,0x69,0x74,0x75,0x6b,0x69,0x33,0x06,0x3a,0x06,0x45,0x54,0x3a,0x0b,0x40,0x70,0x69,0x74,0x63,0x68,0x69,0x69,0x3a,0x0c,0x40,0x76,0x6f,0x6c,0x75,0x6d,0x65,0x69,0x69))
PictureDisplay(5,"ev_c_a3_ha1",0,0,0,0,100,100,255,0)
ShowMessageFace("",0,0,2,3)
ShowMessage("Flappy's tentacles wrap around my body and hoist me into the air. Like that, her growing tongue wraps around my penis...")
ShowMessageFace("",0,0,2,4)
ShowMessage("\\n<Luka>")
ShowMessage("Ah, auuu...")
ShowMessageFace("",0,0,2,5)
ShowMessage("My upper body is dipped in her mucus-like body. Like this, the only part of me that I can move are my legs...")
ShowMessageFace("c_a3_fc1",0,0,2,6)
ShowMessage("\\n<Flappy>")
ShowMessage("What an embarrassing position... But I can easily squeeze your semen this way.")
ShowMessageFace("c_a3_fc1",0,0,2,7)
ShowMessage("\\n<Flappy>")
ShowMessage("Give both your semen and life to me. You'll be food to satisfy my desires...")
ShowMessageFace("",0,0,2,8)
ShowMessage("\\n<Luka>")
ShowMessage("S-stop... Aaaaaaah...!")
245(bytes(0x04,0x08,0x6f,0x3a,0x0d,0x52,0x50,0x47,0x3a,0x3a,0x42,0x47,0x53,0x08,0x3a,0x0a,0x40,0x6e,0x61,0x6d,0x65,0x49,0x22,0x10,0x6d,0x6f,0x6e,0x5f,0x68,0x76,0x6f,0x69,0x63,0x65,0x31,0x06,0x3a,0x06,0x45,0x54,0x3a,0x0c,0x40,0x76,0x6f,0x6c,0x75,0x6d,0x65,0x69,0x55,0x3a,0x0b,0x40,0x70,0x69,0x74,0x63,0x68,0x69,0x69))
ShowMessageFace("",0,0,2,9)
ShowMessage("Stuck in this humiliating position, she starts working on me. Her tongue coils around my penis, almost as if she's trying to clean it.")
ShowMessageFace("",0,0,2,10)
ShowMessage("The rough tongue trails up and down my shaft, with a short lick across my glans.")
ShowMessageFace("",0,0,2,11)
ShowMessage("The slimy feeling of her saliva makes me shiver as she carefully tastes every inch of my penis.")
ShowMessageFace("",0,0,2,12)
ShowMessage("\\n<Luka>")
ShowMessage("Stop... Auuu...")
ShowMessageFace("",0,0,2,13)
ShowMessage("I shake my feet, doing anything I can to try to escape but it doesn't work...")
ShowMessageFace("c_a3_fc1",0,0,2,14)
ShowMessage("\\n<Flappy>")
ShowMessage("Hmph, it's pointless to struggle...")
ShowMessageFace("",0,0,2,15)
ShowMessage("Making things even worse, her tentacle coils around my feet, stopping even that form of struggling. Deprived of all resistance, I can only resign myself to being milked...")
ShowMessageFace("c_a3_fc1",0,0,2,16)
ShowMessage("\\n<Flappy>")
ShowMessage("If I simply licked you, you would come. But I want this to be over quickly...")
ShowMessageFace("c_a3_fc1",0,0,2,17)
ShowMessage("\\n<Flappy>")
ShowMessage("Hoora, how about this...? Don't struggle, just come quickly...")
ShowMessageFace("",0,0,2,18)
ShowMessage("\\n<Luka>")
ShowMessage("Ah, auuuu...!")
ShowMessageFace("",0,0,2,19)
ShowMessage("The change in tongue motion makes me let loose a moan. Her tongue coils around my penis and starts to stroke me up and down.")
ShowMessageFace("",0,0,2,20)
ShowMessage("All the while, her saliva covered tongue still feels like it's licking me. Almost like a soft hand, stroking my penis up and down...")
ShowMessageFace("c_a3_fc1",0,0,2,21)
ShowMessage("\\n<Flappy>")
ShowMessage("When I was an angel, I was proud of my tongue. No man could last more than 30 seconds...")
ShowMessageFace("c_a3_fc1",0,0,2,22)
ShowMessage("\\n<Flappy>")
ShowMessage("So hurry up and accept it, give me your thick semen...")
ShowMessageFace("",0,0,2,23)
ShowMessage("\\n<Luka>")
ShowMessage("Hyaaaaa...!")
ShowMessageFace("",0,0,2,24)
ShowMessage("Her tongue motions almost make me feel like I'm being milked. My body jerks back and forth as her tongue squeezes me even tighter.")
ShowMessageFace("",0,0,2,25)
ShowMessage("My moans get louder as her tongue movements get even quicker...")
ShowMessageFace("",0,0,2,26)
ShowMessage("There's no way I can fight against such intense pleasure.")
ShowMessageFace("",0,0,2,27)
ShowMessage("\\n<Luka>")
ShowMessage("Auu... I'm going to come...")
ShowMessageFace("c_a3_fc1",0,0,2,28)
ShowMessage("\\n<Flappy>")
ShowMessage("Hurry up and come, hoora... I'll lick you more so you can come faster... Horahora...")
245(bytes(0x04,0x08,0x6f,0x3a,0x0d,0x52,0x50,0x47,0x3a,0x3a,0x42,0x47,0x53,0x08,0x3a,0x0a,0x40,0x6e,0x61,0x6d,0x65,0x49,0x22,0x10,0x6d,0x6f,0x6e,0x5f,0x68,0x76,0x6f,0x69,0x63,0x65,0x32,0x06,0x3a,0x06,0x45,0x54,0x3a,0x0c,0x40,0x76,0x6f,0x6c,0x75,0x6d,0x65,0x69,0x55,0x3a,0x0b,0x40,0x70,0x69,0x74,0x63,0x68,0x69,0x69))
ShowMessageFace("",0,0,2,29)
ShowMessage("As if spurred on by my cries, her tongue gets even faster than before. With a final moan, my body jerks as I give in to the climax...")
ShowMessageFace("",0,0,2,30)
ShowMessage("\\n<Luka>")
ShowMessage("Ah, aaaaaah...!!")
RunCommonEvent(104)
PictureDisplay(5,"ev_c_a3_ha2",0,0,0,0,100,100,255,0)
RunCommonEvent(105)
ShowMessageFace("",0,0,2,31)
ShowMessage("My penis pulses and sprays semen out all over her tongue. Even during my ejaculation, she continues squeezing me, milking out every drop.")
ShowMessageFace("c_a3_fc1",0,0,2,32)
ShowMessage("\\n<Flappy>")
ShowMessage("I won't leave a single drop... I'll use it all as my nourishment...")
ShowMessageFace("",0,0,2,33)
ShowMessage("\\n<Luka>")
ShowMessage("Ah... Ugh...")
ShowMessageFace("",0,0,2,34)
ShowMessage("Her tongue keeps pressing and squeezing me, licking my urethral hole until she is sure nothing is left...")
ShowMessageFace("c_a3_fc1",0,0,2,35)
ShowMessage("\\n<Flappy>")
ShowMessage("It's still not enough... I'll keep squeezing you until your male extract is completely gone...")
ShowMessageFace("",0,0,2,36)
ShowMessage("Her tongue's up and down motions continue again. As soon as she licked up the last of my semen, she already started working on the next one...")
ShowMessageFace("",0,0,2,37)
ShowMessage("\\n<Luka>")
ShowMessage("Stop...! I just came, so...")
ShowMessageFace("c_a3_fc1",0,0,2,38)
ShowMessage("\\n<Flappy>")
ShowMessage("Quit acting like a spoiled child... I already told you I'd squeeze out your semen until your death...")
ShowMessageFace("",0,0,2,39)
ShowMessage("\\n<Luka>")
ShowMessage("S-stop... Aaaaaaah!!")
ShowMessageFace("",0,0,2,40)
ShowMessage("Her ruthless tongue stroking continues on, despite my cries. At her mercy, my body spasms as the pleasure takes over my thoughts.")
ShowMessageFace("",0,0,2,41)
ShowMessage("If this stimulation continues on, I won't be able to stay sane. Even worse is in this humiliating position, I can't even resist...")
ShowMessageFace("",0,0,2,42)
ShowMessage("\\n<Luka>")
ShowMessage("Ah... Auuuu...!")
ShowMessageFace("c_a3_fc1",0,0,2,43)
ShowMessage("\\n<Flappy>")
ShowMessage("Don't gasp, just come. Hurry up, let it out... Hora hora hora...")
ShowMessageFace("",0,0,2,44)
ShowMessage("Her tongue strokes me even faster, not caring about anything but the next ejaculation...")
ShowMessageFace("",0,0,2,45)
ShowMessage("She doesn't care about me or anything... Only that if she licks my penis, she can get my semen. The complete humiliation of the act overpowers me as I feel another orgasm coming.")
ShowMessageFace("",0,0,2,46)
ShowMessage("\\n<Luka>")
ShowMessage("Auu... I'm going to come again...")
ShowMessageFace("",0,0,2,47)
ShowMessage("I beg her to stop as I moan about my building orgasm. But my begging is meaningless, for she doesn't stop.")
ShowMessageFace("",0,0,2,48)
ShowMessage("Rather, it seems to have encouraged her to finish me off even quicker...")
ShowMessageFace("c_a3_fc1",0,0,2,49)
ShowMessage("\\n<Flappy>")
ShowMessage("Hora, hurry up and come. Quit wasting so much of my time...")
ShowMessageFace("",0,0,2,50)
ShowMessage("\\n<Luka>")
ShowMessage("Ah, aaaaaaah!!")
RunCommonEvent(104)
PictureDisplay(5,"ev_c_a3_ha3",0,0,0,0,100,100,255,0)
RunCommonEvent(105)
ShowMessageFace("",0,0,2,51)
ShowMessage("I explode, spraying semen all over her face and tongue. That tongue that ruthlessly made me come a second time.")
ShowMessageFace("",0,0,2,52)
ShowMessage("\\n<Luka>")
ShowMessage("Ah... Au... Ugh...")
ShowMessageFace("",0,0,2,53)
ShowMessage("Coming so quickly for a second time, I'm completely drained of strength and judging from my fatigue, the amount of vitality I'm losing from each ejaculation seems far from ordinary.")
ShowMessageFace("",0,0,2,54)
ShowMessage("If she keeps this up, my life may really be in danger... Is she really planning on milking me to death...?")
ShowMessageFace("",0,0,2,55)
ShowMessage("\\n<Luka>")
ShowMessage("S-stop it.. Help me...")
ShowMessageFace("c_a3_fc1",0,0,2,56)
ShowMessage("\\n<Flappy>")
ShowMessage("There's no point, even if you beg... You're fated to become my prey. Resign yourself and stop enduring ejaculations...")
ShowMessageFace("c_a3_fc1",0,0,2,57)
ShowMessage("\\n<Flappy>")
ShowMessage("I'll do this to make you ejaculate consecutively. When I was an angel, I used this tongue technique to toy with men...")
ShowMessageFace("",0,0,2,58)
ShowMessage("\\n<Luka>")
ShowMessage("Auu...? Ah, aaaah...!")
PictureDisplay(5,"ev_c_a3_ha4",0,0,0,0,100,100,255,0)
ShowMessageFace("",0,0,2,59)
ShowMessage("Suddenly, I feel something pressing into my ass. A warm wet thing slips into my anus.")
ShowMessageFace("",0,0,2,60)
ShowMessage("It's a tongue... While she's using one to coil around my penis, another one is inside my ass...")
ShowMessageFace("c_a3_fc1",0,0,2,61)
ShowMessage("\\n<Flappy>")
ShowMessage("I'll violate your ass with this tongue. Like this, you'll come over and over quickly...")
ShowMessageFace("c_a3_fc1",0,0,2,62)
ShowMessage("\\n<Flappy>")
ShowMessage("Until you die...")
ShowMessageFace("",0,0,2,63)
ShowMessage("\\n<Luka>")
ShowMessage("N-not that... Please, I'm begging you...")
ShowMessageFace("",0,0,2,64)
ShowMessage("Fear grips my body. She's going to violate my ass with her tongue and make me ejaculate until my death...")
ShowMessageFace("c_a3_fc1",0,0,2,65)
ShowMessage("\\n<Flappy>")
ShowMessage("Now then, I'll keep you in a state of orgasm until your death...")
ShowMessageFace("c_a3_fc1",0,0,2,66)
ShowMessage("\\n<Flappy>")
ShowMessage("Give me all your semen...")
ShowMessageFace("",0,0,2,67)
ShowMessage("\\n<Luka>")
ShowMessage("Stop it...! Hyaaaaa...!!")
ShowMessageFace("",0,0,2,68)
ShowMessage("Finally, the nightmare began for real. Her tongue starts to wriggle in my ass.")
ShowMessageFace("",0,0,2,69)
ShowMessage("It goes in and out like a piston, the tip of her tongue pressing against my prostate with each cycle.")
ShowMessageFace("",0,0,2,70)
ShowMessage("My body spasms in horrible pleasure as my dignity as a man is shredded.")
ShowMessageFace("",0,0,2,71)
ShowMessage("\\n<Luka>")
ShowMessage("Hyaa...! Ah, aaaaaaah!!")
ShowMessageFace("",0,0,2,72)
ShowMessage("At the same time, her tongue squeezes down on my penis as the stroking continues.")
ShowMessageFace("",0,0,2,73)
ShowMessage("Assaulted both from the front and back, I helplessly moan and cry out as another orgasm comes blindingly fast...")
ShowMessageFace("",0,0,2,74)
ShowMessage("\\n<Luka>")
ShowMessage("Ah, aaaaaaah!!")
RunCommonEvent(104)
PictureDisplay(5,"ev_c_a3_ha5",0,0,0,0,100,100,255,0)
RunCommonEvent(105)
ShowMessageFace("",0,0,2,75)
ShowMessage("I erupt in no time, spraying more semen onto Flappy's face...")
ShowMessageFace("",0,0,2,76)
ShowMessage("\\n<Luka>")
ShowMessage("Stop it... Stop it already...")
ShowMessageFace("c_a3_fc1",0,0,2,77)
ShowMessage("\\n<Flappy>")
ShowMessage("Just give up... I'm not stopping until you're dried up.")
ShowMessageFace("c_a3_fc1",0,0,2,78)
ShowMessage("\\n<Flappy>")
ShowMessage("You'll keep coming until you die. Meet your death with a smile, knowing you'll be my food...")
ShowMessageFace("",0,0,2,79)
ShowMessage("\\n<Luka>")
ShowMessage("Hyaaaaaaaaa...!!")
RunCommonEvent(104)
RunCommonEvent(105)
ShowMessageFace("",0,0,2,80)
ShowMessage("From that moment, she forces me to come over and over again, without a break between climaxes. My heart and body are quickly worn down until I lose consciousness...")
246(1)
ShowMessageFace("",0,0,2,81)
ShowMessage("After the final orgasm, as I'm nearing the very end, I hear Flappy's words...")
ShowMessageFace("c_a3_fc1",0,0,2,82)
ShowMessage("\\n<Flappy>")
ShowMessage("This isn't enough... I need more... I need more semen...")
221()
PictureClear(5)
PictureClear(6)
ShowMessageFace("",0,0,2,83)
ShowMessage("......")
RunCommonEvent(3999)
0()
