// EVENT 7243
Name "Satsuki: Defeat"

RunCommonEvent(7000)
PictureDisplay(5,"80_mob_miko1_st01",0,0,0,0,100,100,255,0)
PictureClear(6)
ShowMessageFace("mob_miko1_fc1",2,0,2,1)
ShowMessage("\\n<Satsuki>Uhufu, I'm the winner.\nSo I guess that means you'll have to pay me...")
125(1,0,700)
ShowMessageFace("",0,0,2,2)
ShowMessage("Luka hands over 700G!")
ShowMessageFace("mob_miko1_fc1",6,0,2,3)
ShowMessage("\\n<Satsuki>Please, come back to battle fuck me again.\nI will give you as many opportunities as you want...")
If(0,2331,1)
 PictureClear(5)
 281(1)
 TeleportPlayer(0,53,47,22,2,0)
 216(0)
 0()
EndIf()
EndEventProcessing()
0()
