﻿// EVENT 1243
Name "Talk: Ghoul C"

If(1,20,0,1,0)
 JumpToLabel("情報")
 0()
EndIf()
If(1,20,0,2,0)
 JumpToLabel("質問")
 0()
EndIf()
If(1,20,0,3,0)
 JumpToLabel("要求")
 0()
EndIf()
If(1,20,0,4,0)
 JumpToLabel("贈与")
 0()
EndIf()
DefineLabel("情報")
ChangeVariable(13,13,0,2,1,50)
If(1,13,0,10,2)
 ShowMessageFace("gool_fc1",2,0,2,1)
 ShowMessage("\\n<Ghoul>Uuuu......")
 EndEventProcessing()
 0()
EndIf()
If(1,13,0,20,2)
 ShowMessageFace("gool_fc1",2,0,2,2)
 ShowMessage("\\n<Ghoul>I...hungry...")
 EndEventProcessing()
 0()
EndIf()
If(1,13,0,30,2)
 ShowMessageFace("gool_fc1",2,0,2,3)
 ShowMessage("\\n<Ghoul>Oooh...aaah...♪")
 ShowMessageFace("",0,0,2,4)
 ShowMessage("The Ghoul is dancing!")
 EndEventProcessing()
 0()
EndIf()
If(1,13,0,40,2)
 ShowMessageFace("gool_fc1",2,0,2,5)
 ShowMessage("\\n<Ghoul>Ahh...oooooh...")
 EndEventProcessing()
 0()
EndIf()
If(1,13,0,50,2)
 ShowMessageFace("gool_fc1",2,0,2,6)
 ShowMessage("\\n<Ghoul>Beeeh...")
 ShowMessageFace("",0,0,2,7)
 ShowMessage("The Ghoul is pulling her eyelid as she sticks her tongue out!")
 EndEventProcessing()
 0()
EndIf()
DefineLabel("質問")
ChangeVariable(13,13,0,2,1,30)
If(1,13,0,10,2)
 ShowMessageFace("gool_fc1",3,0,2,8)
 ShowMessage("\\n<Ghoul A>Guuuh...")
 ShowMessageFace("gool_fc1",3,0,2,9)
 ShowMessage("\\n<Ghoul B>Gaaah...")
 ShowMessageFace("",0,0,2,10)
 ShowMessage("The Ghouls are stuck to each other!")
 ShowChoices(strings("Stop them","Stay silent","Join in"),0)
 IfPlayerPicksChoice(0,"やめさせる")
  ShowMessageFace("gool_fc1",3,0,2,11)
  ShowMessage("\\n<Ghoul>Oooh...")
  ShowMessageFace("",0,0,2,12)
  ShowMessage("She seems to appreciate it!")
  355("change_friend(10)")
  0()
 IfPlayerPicksChoice(1,"黙って見ている")
  ShowMessageFace("gool_fc1",3,0,2,13)
  ShowMessage("\\n<Ghoul A>Guuuh...")
  ShowMessageFace("gool_fc1",3,0,2,14)
  ShowMessage("\\n<Ghoul B>Gaaah...")
  ShowMessageFace("",0,0,2,15)
  ShowMessage("The Ghouls are stuck to each other...")
  355("change_friend(-5)")
  0()
 IfPlayerPicksChoice(2,"一緒にかぶりつく")
  ShowMessageFace("ruka_fc1",0,0,2,16)
  ShowMessage("\\n<Luka>Guuuh...")
  ShowMessageFace("gool_fc1",3,0,2,17)
  ShowMessage("\\n<Ghoul>......?!")
  ShowMessageFace("",0,0,2,18)
  ShowMessage("The Ghouls are tugging at each other...")
  0()
 404()
 EndEventProcessing()
 0()
EndIf()
If(1,13,0,20,2)
 ShowMessageFace("gool_fc1",3,0,2,19)
 ShowMessage("\\n<Ghoul>Oooh...aaah...♪")
 ShowMessageFace("",0,0,2,20)
 ShowMessage("The Ghouls started dancing!")
 ShowChoices(strings("Dance with them","Try singing","Ignore them"),0)
 IfPlayerPicksChoice(0,"一緒に踊る")
  ShowMessageFace("gool_fc1",3,0,2,21)
  ShowMessage("\\n<Ghoul>Oooh...aaah...♪")
  ShowMessageFace("",0,0,2,22)
  ShowMessage("The Ghouls seem to be in a good mood!")
  355("change_friend(10)")
  0()
 IfPlayerPicksChoice(1,"歌ってあげる")
  ShowMessageFace("gool_fc1",3,0,2,23)
  ShowMessage("\\n<Ghoul>......?!")
  ShowMessageFace("",0,0,2,24)
  ShowMessage("The Ghouls were scared...")
  355("change_friend(-5)")
  0()
 IfPlayerPicksChoice(2,"無視する")
  ShowMessageFace("gool_fc1",3,0,2,25)
  ShowMessage("\\n<Ghoul>Oooh...aaah...♪")
  ShowMessageFace("",0,0,2,26)
  ShowMessage("The Ghouls continue to dance...")
  0()
 404()
 EndEventProcessing()
 0()
EndIf()
If(1,13,0,30,2)
 ShowMessageFace("gool_fc1",2,0,2,27)
 ShowMessage("\\n<Ghoul>Uuu...ooh...")
 ShowMessageFace("",0,0,2,28)
 ShowMessage("The Ghoul's clothes ripped and fell off!")
 ShowChoices(strings("Put them back on","Take them","Leave her alone"),0)
 IfPlayerPicksChoice(0,"着せてあげる")
  ShowMessageFace("gool_fc1",2,0,2,29)
  ShowMessage("\\n<Ghoul>Aaah...")
  ShowMessageFace("",0,0,2,30)
  ShowMessage("The Ghoul looks pleased!")
  355("change_friend(10)")
  0()
 IfPlayerPicksChoice(1,"もらう")
  ChangeInventoryArmor(2,0,0,1,false)
  ShowMessageFace("gool_fc1",2,0,2,31)
  ShowMessage("\\n<Ghoul>............")
  ShowMessageFace("",0,0,2,32)
  ShowMessage("The Ghoul looks sad...")
  355("change_friend(-5)")
  0()
 IfPlayerPicksChoice(2,"放っておく")
  ShowMessageFace("gool_fc1",2,0,2,33)
  ShowMessage("\\n<Ghoul>............")
  0()
 404()
 EndEventProcessing()
 0()
EndIf()
DefineLabel("要求")
ChangeVariable(13,13,0,2,1,30)
If(1,13,0,10,2)
 If(8,329)
  ShowMessageFace("gool_fc1",2,0,2,34)
  ShowMessage("\\n<Ghoul>Meat...")
  ChangeVariable(24,24,0,3,0,329,0)
  ShowMessageFace("",0,0,2,35)
  ShowMessage("Do you want to give \\ii[329]? (Have:\\V[24])")
  ShowChoices(strings("Yes","No"),2)
  IfPlayerPicksChoice(0,"Yes")
   ShowMessageFace("gool_fc1",2,0,2,36)
   ShowMessage("\\n<Ghoul>Ooh...uuh...♪")
   ChangeInventory_Item(329,1,0,1)
   355("change_friend(20)")
   EndEventProcessing()
   0()
  IfPlayerPicksChoice(1,"No")
   ShowMessageFace("gool_fc1",2,0,2,37)
   ShowMessage("\\n<Ghoul>............")
   EndEventProcessing()
   0()
  404()
  0()
 Else()
  ChangeVariable(13,13,0,0,20)
  0()
 EndIf()
 0()
EndIf()
If(1,13,0,20,2)
 If(8,432)
  ShowMessageFace("gool_fc1",2,0,2,38)
  ShowMessage("\\n<Ghoul>Dry... Meat...")
  ChangeVariable(24,24,0,3,0,432,0)
  ShowMessageFace("",0,0,2,39)
  ShowMessage("Do you want to give \\ii[432]? (Have:\\V[24])")
  ShowChoices(strings("Yes","No"),2)
  IfPlayerPicksChoice(0,"Yes")
   ShowMessageFace("gool_fc1",2,0,2,40)
   ShowMessage("\\n<Ghoul>Ooh...uuh...♪")
   ChangeInventory_Item(432,1,0,1)
   355("change_friend(30)")
   EndEventProcessing()
   0()
  IfPlayerPicksChoice(1,"No")
   ShowMessageFace("gool_fc1",2,0,2,41)
   ShowMessage("\\n<Ghoul>............")
   EndEventProcessing()
   0()
  404()
  0()
 Else()
  ChangeVariable(13,13,0,0,30)
  0()
 EndIf()
 0()
EndIf()
If(1,13,0,30,2)
 ShowMessageFace("gool_fc1",2,0,2,42)
 ShowMessage("\\n<Ghoul>Mo..ney...")
 If(7,405,0)
  ChangeVariable(24,24,0,3,7,2,0)
  ShowMessageFace("",0,0,2,43)
  ShowMessage("Do you want to give 405G? (Remaining:\\V[24])")
  ShowChoices(strings("Yes","No"),2)
  IfPlayerPicksChoice(0,"Yes")
   ShowMessageFace("gool_fc1",2,0,2,44)
   ShowMessage("\\n<Ghoul>Ooh...uuh...♪")
   125(1,0,405)
   355("change_friend(25)")
   EndEventProcessing()
   0()
  IfPlayerPicksChoice(1,"No")
   ShowMessageFace("gool_fc1",2,0,2,45)
   ShowMessage("\\n<Ghoul>............")
   EndEventProcessing()
   0()
  404()
  0()
 Else()
  ShowMessageFace("gool_fc1",2,0,2,46)
  ShowMessage("\\n<Ghoul>............None?")
  EndEventProcessing()
  0()
 EndIf()
 0()
EndIf()
DefineLabel("贈与")
ChangeVariable(13,13,0,2,1,30)
If(1,25,0,1,0)
 ChangeVariable(13,13,0,0,30)
 ChangeVariable(25,25,0,0,0)
 0()
EndIf()
If(1,25,0,2,0)
 ChangeVariable(13,13,0,2,1,20)
 ChangeVariable(25,25,0,0,0)
 0()
EndIf()
If(1,13,0,10,2)
 ShowMessageFace("gool_fc1",2,0,2,47)
 ShowMessage("\\n<Ghoul>Th...this...")
 250(bytes(0x04,0x08,0x6f,0x3a,0x0c,0x52,0x50,0x47,0x3a,0x3a,0x53,0x45,0x08,0x3a,0x0a,0x40,0x6e,0x61,0x6d,0x65,0x49,0x22,0x0a,0x49,0x74,0x65,0x6d,0x31,0x06,0x3a,0x06,0x45,0x54,0x3a,0x0b,0x40,0x70,0x69,0x74,0x63,0x68,0x69,0x69,0x3a,0x0c,0x40,0x76,0x6f,0x6c,0x75,0x6d,0x65,0x69,0x55))
 ChangeInventory_Item(405,0,0,1)
 ShowMessageFace("",0,0,2,48)
 ShowMessage("The Ghoul gave you a \\ii[405]!")
 EndEventProcessing()
 0()
EndIf()
If(1,13,0,20,2)
 ShowMessageFace("gool_fc1",2,0,2,49)
 ShowMessage("\\n<Ghoul>Th...this...")
 250(bytes(0x04,0x08,0x6f,0x3a,0x0c,0x52,0x50,0x47,0x3a,0x3a,0x53,0x45,0x08,0x3a,0x0a,0x40,0x6e,0x61,0x6d,0x65,0x49,0x22,0x0a,0x49,0x74,0x65,0x6d,0x31,0x06,0x3a,0x06,0x45,0x54,0x3a,0x0b,0x40,0x70,0x69,0x74,0x63,0x68,0x69,0x69,0x3a,0x0c,0x40,0x76,0x6f,0x6c,0x75,0x6d,0x65,0x69,0x55))
 ChangeInventory_Item(221,0,0,1)
 ShowMessageFace("",0,0,2,50)
 ShowMessage("The Ghoul gave you some \\ii[221]!")
 EndEventProcessing()
 0()
EndIf()
If(1,13,0,30,2)
 ShowMessageFace("gool_fc1",2,0,2,51)
 ShowMessage("\\n<Ghoul>Th...This...")
 250(bytes(0x04,0x08,0x6f,0x3a,0x0c,0x52,0x50,0x47,0x3a,0x3a,0x53,0x45,0x08,0x3a,0x0a,0x40,0x6e,0x61,0x6d,0x65,0x49,0x22,0x0a,0x49,0x74,0x65,0x6d,0x31,0x06,0x3a,0x06,0x45,0x54,0x3a,0x0b,0x40,0x70,0x69,0x74,0x63,0x68,0x69,0x69,0x3a,0x0c,0x40,0x76,0x6f,0x6c,0x75,0x6d,0x65,0x69,0x55))
 125(0,0,675)
 ShowMessageFace("",0,0,2,52)
 ShowMessage("The Ghoul gave you 675G!")
 EndEventProcessing()
 0()
EndIf()
0()
