﻿// EVENT 3140
Name "Chimera Homunculus"

If(0,25,1)
 JumpToLabel("反省会")
 0()
EndIf()
PictureDisplay(5,"80_c_homunculus_st02",0,0,0,0,100,100,0,0)
PictureMove(5,null,0,0,0,0,100,100,255,0,30,true)
241(bytes(0x04,0x08,0x6f,0x3a,0x0d,0x52,0x50,0x47,0x3a,0x3a,0x42,0x47,0x4d,0x08,0x3a,0x0a,0x40,0x6e,0x61,0x6d,0x65,0x49,0x22,0x09,0x65,0x72,0x6f,0x31,0x06,0x3a,0x06,0x45,0x54,0x3a,0x0c,0x40,0x76,0x6f,0x6c,0x75,0x6d,0x65,0x69,0x69,0x3a,0x0b,0x40,0x70,0x69,0x74,0x63,0x68,0x69,0x69))
ShowMessageFace("",0,0,2,1)
ShowMessage("\\n<Luka>Unnngh...")
ShowMessageFace("c_homunculus_fc1",1,0,2,2)
ShowMessage("\\n<Chimera Homunculus>You can't resist anymore...\nI'll feed on your energy...")
ShowMessageFace("",0,0,2,3)
ShowMessage("The Chimera Homunculus shows off a strange organ with countless tentacles at its tip. She slowly brings it to my crotch.")
ShowMessageFace("",0,0,2,4)
ShowMessage("The tentacles at the tip stretch out to my dick...")
ShowMessageFace("",0,0,2,5)
ShowMessage("\\n<Luka>S-stop...Don't...")
ShowMessageFace("c_homunculus_fc1",1,0,2,6)
ShowMessage("\\n<Chimera Homunculus>This is a special tentacle used for draining men of semen. It's a really efficient tool for squeezing out life energy too.")
250(bytes(0x04,0x08,0x6f,0x3a,0x0c,0x52,0x50,0x47,0x3a,0x3a,0x53,0x45,0x08,0x3a,0x0a,0x40,0x6e,0x61,0x6d,0x65,0x49,0x22,0x16,0x6d,0x6f,0x6e,0x5f,0x65,0x72,0x6f,0x5f,0x6d,0x61,0x6b,0x69,0x74,0x75,0x6b,0x69,0x33,0x06,0x3a,0x06,0x45,0x54,0x3a,0x0b,0x40,0x70,0x69,0x74,0x63,0x68,0x69,0x69,0x3a,0x0c,0x40,0x76,0x6f,0x6c,0x75,0x6d,0x65,0x69,0x69))
245(bytes(0x04,0x08,0x6f,0x3a,0x0d,0x52,0x50,0x47,0x3a,0x3a,0x42,0x47,0x53,0x08,0x3a,0x0a,0x40,0x6e,0x61,0x6d,0x65,0x49,0x22,0x17,0x6d,0x6f,0x6e,0x5f,0x68,0x73,0x65,0x61,0x6e,0x31,0x34,0x5f,0x6b,0x79,0x75,0x69,0x6e,0x31,0x06,0x3a,0x06,0x45,0x54,0x3a,0x0c,0x40,0x76,0x6f,0x6c,0x75,0x6d,0x65,0x69,0x55,0x3a,0x0b,0x40,0x70,0x69,0x74,0x63,0x68,0x69,0x69))
PictureDisplay(5,"ev_c_homunculus_h1",0,0,0,0,100,100,255,0)
ShowMessageFace("",0,0,2,7)
ShowMessage("The strange tentacles wind around my penis.\nIn an instant my penis is covered in her tentacles.")
ShowMessageFace("",0,0,2,8)
ShowMessage("At the same time my crotch is enveloped in a strange feeling. A sweet melting numbness...")
ShowMessageFace("",0,0,2,9)
ShowMessage("\\n<Luka>Huaaa... What is this...")
ShowMessageFace("",0,0,2,10)
ShowMessage("The extraordinary pleasure makes my waist tremble.")
ShowMessageFace("",0,0,2,11)
ShowMessage("It was a pleasure unlike anything else I've ever felt, not squeezing or stroking.")
ShowMessageFace("",0,0,2,12)
ShowMessage("The tentacles wound around my penis don't even move or stimulate me in any way.")
ShowMessageFace("",0,0,2,13)
ShowMessage("Rather, it was coming just from the act of being held by the tentacle... The slimy texture of the tentacle seems to spread into my penis, almost like osmosis...")
ShowMessageFace("",0,0,2,14)
ShowMessage("\\n<Luka>Unnngh... That feels good...")
ShowMessageFace("",0,0,2,15)
ShowMessage("It feels like my penis is melting from this sweet magical stimulation. My penis starts pulsating unexpectedly...")
RunCommonEvent(104)
PictureDisplay(5,"ev_c_homunculus_h2",0,0,0,0,100,100,255,0)
RunCommonEvent(105)
ShowMessageFace("",0,0,2,16)
ShowMessage("\\n<Luka>Huaaa...")
ShowMessageFace("",0,0,2,17)
ShowMessage("Semen starts to drip out of my penis in slow drops.\nIt was so unexpected, I don't even know if I can call it an ejaculation...")
ShowMessageFace("",0,0,2,18)
ShowMessage("\\n<Luka>Unnngh... What's going on...?")
ShowMessageFace("",0,0,2,19)
ShowMessage("The pleasure that brought me to that orgasm was different from a physical stimulation... It's almost like her tentacles used some strange magic on my penis to make me incontinent.")
ShowMessageFace("",0,0,2,20)
ShowMessage("But the drain of energy I feel is much more powerful than a normal ejaculation. Along with the semen, it feels like my life energy itself was leaked out...")
ShowMessageFace("c_homunculus_fc1",1,0,2,21)
ShowMessage("\\n<Chimera Homunculus>Once this tentacle captures a male's penis, it can immediately force an ejaculation.")
ShowMessageFace("c_homunculus_fc1",1,0,2,22)
ShowMessage("\\n<Chimera Homunculus>With that, I can easily extract their life energy...")
ShowMessageFace("c_homunculus_fc1",1,0,2,23)
ShowMessage("\\n<Chimera Homunculus>I'll extract out all of your vitality...\nI'll wind your genitals up in this tentacle, and milk it all out...")
ShowMessageFace("",0,0,2,24)
ShowMessage("\\n<Luka>Stop... Don't do that...!")
ShowMessageFace("",0,0,2,25)
ShowMessage("Just by coiling around my penis, she was able to force an ejaculation.")
ShowMessageFace("",0,0,2,26)
ShowMessage("If she really wrapped it all the way up and tried, I'd be drained dry in no time...")
ShowMessageFace("c_homunculus_fc1",1,0,2,27)
ShowMessage("\\n<Chimera Homunculus>I'll take your semen as nutrients...\nGive me everything...")
ShowMessageFace("",0,0,2,28)
ShowMessage("\\n<Luka>Stop, I'm going to die...\nAh, aaaaaah!!")
245(bytes(0x04,0x08,0x6f,0x3a,0x0d,0x52,0x50,0x47,0x3a,0x3a,0x42,0x47,0x53,0x08,0x3a,0x0a,0x40,0x6e,0x61,0x6d,0x65,0x49,0x22,0x17,0x6d,0x6f,0x6e,0x5f,0x68,0x73,0x65,0x61,0x6e,0x31,0x35,0x5f,0x6b,0x79,0x75,0x69,0x6e,0x32,0x06,0x3a,0x06,0x45,0x54,0x3a,0x0c,0x40,0x76,0x6f,0x6c,0x75,0x6d,0x65,0x69,0x55,0x3a,0x0b,0x40,0x70,0x69,0x74,0x63,0x68,0x69,0x69))
PictureDisplay(5,"ev_c_homunculus_h3",0,0,0,0,100,100,255,0)
ShowMessageFace("",0,0,2,29)
ShowMessage("Countless tentacles surge and wrap around my penis.\nThe intense pleasure being forced into me makes it feel like I could melt away in it.")
ShowMessageFace("",0,0,2,30)
ShowMessage("\\n<Luka>Ngh... Ah, aiyeee...!")
ShowMessageFace("",0,0,2,31)
ShowMessage("My body trembles from the overpowering stimulation.\nAn eroding weakness fills me, making it feel like my body itself is being stolen from me.")
RunCommonEvent(104)
PictureDisplay(5,"ev_c_homunculus_h4",0,0,0,0,100,100,255,0)
RunCommonEvent(105)
ShowMessageFace("",0,0,2,32)
ShowMessage("Without knowing the exact trigger, I come again.\nThere's no buildup to the ejaculation, it just comes... Almost like peeing on accident.")
ShowMessageFace("",0,0,2,33)
ShowMessage("Apart from being wrapped in her tentacles, there is no stimulation at all. Just being wound up inside them is enough to make me ejaculate.")
ShowMessageFace("c_homunculus_fc1",1,0,2,34)
ShowMessage("\\n<Chimera Homunculus>You can't resist anymore...\nI'm going to squeeze out your semen...")
ShowMessageFace("",0,0,2,35)
ShowMessage("\\n<Luka>No, don't... Unnngh...\nNo, don't... It won't stop...")
RunCommonEvent(104)
PictureDisplay(5,"ev_c_homunculus_h5",0,0,0,0,100,100,255,0)
RunCommonEvent(105)
ShowMessageFace("",0,0,2,36)
ShowMessage("Regardless of my will, my semen keeps leaking out.\nIt's as if my penis wasn't my own anymore.")
ShowMessageFace("",0,0,2,37)
ShowMessage("And the more semen I release, the weaker I feel.\nMy body is dominated by a sweet weakness, I can't even lift a finger anymore.")
ShowMessageFace("",0,0,2,38)
ShowMessage("By some devilish force, my energy is being sucked out.")
ShowMessageFace("",0,0,2,39)
ShowMessage("\\n<Luka>Help...I'll die...")
ShowMessageFace("",0,0,2,40)
ShowMessage("If this goes on, my life will really be in danger.\nI know that much...")
RunCommonEvent(104)
PictureDisplay(5,"ev_c_homunculus_h6",0,0,0,0,100,100,255,0)
RunCommonEvent(105)
ShowMessageFace("",0,0,2,41)
ShowMessage("I continue to leak my energy as a sweet feeling of paralysis erodes my body.")
ShowMessageFace("",0,0,2,42)
ShowMessage("Ignoring my desperation, my penis continues to leak my energy out...")
ShowMessageFace("c_homunculus_fc1",1,0,2,43)
ShowMessage("\\n<Chimera Homunculus>You have more energy than a normal human...\nBut you're almost out of it...")
ShowMessageFace("c_homunculus_fc1",1,0,2,44)
ShowMessage("\\n<Chimera Homunculus>You're lucky that you can enjoy this pleasure longer than a normal man...")
ShowMessageFace("",0,0,2,45)
ShowMessage("\\n<Luka>Ah, unnngh... Ah, aaaah...!")
RunCommonEvent(104)
RunCommonEvent(105)
ShowMessageFace("",0,0,2,46)
ShowMessage("Regardless of the danger I'm in, my penis continues to devote my energy to the tentacles, as if seduced by the Chimera Homunculus...")
ShowMessageFace("",0,0,2,47)
ShowMessage("\\n<Luka>Huaaa...H-help...")
ShowMessageFace("",0,0,2,48)
ShowMessage("Tears stream down my cheeks while my semen seeps out.\nBut the Chimera Homunculus doesn't stop her merciless drain.")
ShowMessageFace("",0,0,2,49)
ShowMessage("At this rate I'll die as nothing more than food for this chimera...")
ShowMessageFace("c_homunculus_fc1",1,0,2,50)
ShowMessage("\\n<Chimera Homunculus>It's almost time...\nI'll squeeze your remaining life and semen...")
ShowMessageFace("",0,0,2,51)
ShowMessage("\\n<Luka>Hyaaaaaa...")
RunCommonEvent(104)
RunCommonEvent(105)
ShowMessageFace("",0,0,2,52)
ShowMessage("The weakness increases more and more, I feel my consciousness fading away. More of my semen is squeezed out along with my life...")
RunCommonEvent(104)
RunCommonEvent(105)
ShowMessageFace("",0,0,2,53)
ShowMessage("\\n<Luka>Ah, unnngh...")
ShowMessageFace("",0,0,2,54)
ShowMessage("The last bits of my semen and life are mercilessly drained out...")
RunCommonEvent(104)
RunCommonEvent(105)
ShowMessageFace("",0,0,2,55)
ShowMessage("\\n<Luka>Ah...ah...")
ShowMessageFace("",0,0,2,56)
ShowMessage("Even if I can barely breathe, my penis keeps ejaculating...")
RunCommonEvent(104)
RunCommonEvent(105)
ShowMessageFace("",0,0,2,57)
ShowMessage("\\n<Luka>......")
ShowMessageFace("",0,0,2,58)
ShowMessage("At last, my body itself erodes away from the pleasure...")
246(1)
ShowMessageFace("c_homunculus_fc1",1,0,2,59)
ShowMessage("\\n<Chimera Homunculus>Finished...")
ShowMessageFace("",0,0,2,60)
ShowMessage("With his semen squeezed out, all that remains is the boy's corpse...")
ShowMessageFace("",0,0,2,61)
ShowMessage("Standing over it, the Chimera Homunculus doesn't even look satiated.")
ShowMessageFace("",0,0,2,62)
ShowMessage("Thus the hero became nothing but food for the monster...")
221()
PictureClear(5)
DefineLabel("反省会")
ShowMessageFace("",0,0,2,63)
ShowMessage("......")
221()
242(1)
Wait(120)
355("memory_interruption")
ShowMessageFace("",0,0,2,64)
ShowMessage("You hear Ilias' voice calling out to you...\nReceive her evaluation?")
ShowChoices(strings("Receive evaluation","Change difficulty","Reincarnate"),3)
IfPlayerPicksChoice(0,null)
 241(bytes(0x04,0x08,0x6f,0x3a,0x0d,0x52,0x50,0x47,0x3a,0x3a,0x42,0x47,0x4d,0x08,0x3a,0x0a,0x40,0x6e,0x61,0x6d,0x65,0x49,0x22,0x0a,0x69,0x72,0x69,0x61,0x73,0x06,0x3a,0x06,0x45,0x54,0x3a,0x0c,0x40,0x76,0x6f,0x6c,0x75,0x6d,0x65,0x69,0x5f,0x3a,0x0b,0x40,0x70,0x69,0x74,0x63,0x68,0x69,0x6e))
 PictureDisplay(1,"bg001",0,0,0,0,100,100,255,0)
 222()
 PictureDisplay(5,"80_iriasu_st04",0,0,0,0,100,100,0,0)
 PictureMove(5,null,0,0,0,0,100,100,255,0,30,true)
 ShowMessageFace("iriasu_fc1",3,0,2,65)
 ShowMessage("\\n<Ilias>Today's youth has been avoiding the sciences too much, but that's not your case. I'm glad you were able to get along so well with the product of a biology experiment.")
 PictureDisplay(5,"80_iriasu_st01",0,0,0,0,100,100,255,0)
 ShowMessageFace("iriasu_fc1",0,0,2,66)
 ShowMessage("\\n<Ilias>The Chimera Homunculus is a magical being that uses Tentacle skills.\nHer tentacle attacks and ice magic are quite strong.")
 ShowMessageFace("iriasu_fc1",0,0,2,67)
 ShowMessage("\\n<Ilias>Both blind and silence can be applied with a moderate chance. Petrification is effective against her, so if you have time magic, don't hesitate to use it.")
 ShowMessageFace("iriasu_fc1",0,0,2,68)
 ShowMessage("\\n<Ilias>Her elemental resistance is the same as all magical creatures. Strong against fire, ice, and lightning; and weak against wind, water, and earth.")
 PictureDisplay(5,"80_iriasu_st02",0,0,0,0,100,100,255,0)
 ShowMessageFace("iriasu_fc1",1,0,2,69)
 ShowMessage("\\n<Ilias>Now go, oh brave Luka.\nStudying science is fine, but fight seriously from time to time.")
 242(1)
 221()
 PictureClear(5)
 PictureClear(1)
 Wait(60)
 0()
IfPlayerPicksChoice(1,null)
 ShowMessageFace("",0,0,2,70)
 ShowMessage("Please choose a difficulty level.")
 RunCommonEvent(110)
 0()
IfPlayerPicksChoice(2,null)
 0()
404()
RunCommonEvent(3000)
0()
