﻿// EVENT 7323
Name "Aurora: Defeat"

RunCommonEvent(7000)
PictureDisplay(5,"80_mob_douguya_st01",0,0,0,0,100,100,255,0)
PictureClear(6)
ShowMessageFace("mob_douguya_fc1",0,0,2,1)
ShowMessage("\\n<Aurora>It's my victory...\nIn which case I'll be taking your bet.")
125(1,0,1400)
ShowMessageFace("",0,0,2,2)
ShowMessage("Luka hands over 1400G!")
ShowMessageFace("mob_douguya_fc1",0,0,2,3)
ShowMessage("\\n<Aurora>If you would like a rematch, I'll be your opponent any time. You're just going to be defeated by my hand again anyways...")
If(0,2331,1)
 PictureClear(5)
 281(1)
 TeleportPlayer(0,187,16,49,2,0)
 216(0)
 0()
EndIf()
EndEventProcessing()
0()
