// EVENT 0908
Name "Chaos Labyrinth Rank 5 Items"

ChangeVariable(12,12,0,2,1,3)
If(1,12,0,1,0)
 JumpToLabel("消費アイテム")
 0()
EndIf()
If(1,12,0,2,0)
 JumpToLabel("素材アイテム")
 0()
EndIf()
If(1,12,0,3,0)
 JumpToLabel("アクセサリ")
 0()
EndIf()
DefineLabel("消費アイテム")
ChangeVariable(11,11,0,2,1,26)
If(1,11,0,1,0)
 ChangeInventory_Item(3,0,0,1)
 EndEventProcessing()
 0()
EndIf()
If(1,11,0,2,0)
 ChangeInventory_Item(6,0,0,1)
 EndEventProcessing()
 0()
EndIf()
If(1,11,0,3,0)
 ChangeInventory_Item(8,0,0,1)
 EndEventProcessing()
 0()
EndIf()
If(1,11,0,4,0)
 ChangeInventory_Item(12,0,0,1)
 EndEventProcessing()
 0()
EndIf()
If(1,11,0,5,0)
 ChangeInventory_Item(9,0,0,1)
 EndEventProcessing()
 0()
EndIf()
If(1,11,0,6,0)
 ChangeInventory_Item(22,0,0,1)
 EndEventProcessing()
 0()
EndIf()
If(1,11,0,7,0)
 ChangeInventory_Item(24,0,0,1)
 EndEventProcessing()
 0()
EndIf()
If(1,11,0,8,0)
 ChangeInventory_Item(26,0,0,1)
 EndEventProcessing()
 0()
EndIf()
If(1,11,0,9,0)
 ChangeInventory_Item(27,0,0,1)
 EndEventProcessing()
 0()
EndIf()
If(1,11,0,10,0)
 ChangeInventory_Item(29,0,0,1)
 EndEventProcessing()
 0()
EndIf()
If(1,11,0,11,0)
 ChangeInventory_Item(30,0,0,1)
 EndEventProcessing()
 0()
EndIf()
If(1,11,0,12,0)
 ChangeInventory_Item(31,0,0,1)
 EndEventProcessing()
 0()
EndIf()
If(1,11,0,13,0)
 ChangeInventory_Item(38,0,0,1)
 EndEventProcessing()
 0()
EndIf()
If(1,11,0,14,0)
 ChangeInventory_Item(42,0,0,1)
 EndEventProcessing()
 0()
EndIf()
If(1,11,0,15,0)
 ChangeInventory_Item(46,0,0,1)
 EndEventProcessing()
 0()
EndIf()
If(1,11,0,16,0)
 ChangeInventory_Item(105,0,0,1)
 EndEventProcessing()
 0()
EndIf()
If(1,11,0,17,0)
 ChangeInventory_Item(106,0,0,1)
 EndEventProcessing()
 0()
EndIf()
If(1,11,0,18,0)
 ChangeInventory_Item(109,0,0,1)
 EndEventProcessing()
 0()
EndIf()
If(1,11,0,19,0)
 ChangeInventory_Item(110,0,0,1)
 EndEventProcessing()
 0()
EndIf()
If(1,11,0,20,0)
 ChangeInventory_Item(111,0,0,1)
 EndEventProcessing()
 0()
EndIf()
If(1,11,0,21,0)
 ChangeInventory_Item(112,0,0,1)
 EndEventProcessing()
 0()
EndIf()
If(1,11,0,22,0)
 ChangeInventory_Item(32,0,0,1)
 EndEventProcessing()
 0()
EndIf()
If(1,11,0,23,0)
 ChangeInventory_Item(565,0,0,1)
 EndEventProcessing()
 0()
EndIf()
If(1,11,0,24,1)
 If(1,11,0,26,2)
  ChangeInventory_Item(93,0,0,1)
  EndEventProcessing()
  0()
 EndIf()
 0()
EndIf()
DefineLabel("素材アイテム")
ChangeVariable(11,11,0,2,9,18)
If(1,11,0,9,0)
 ChangeInventory_Item(244,0,0,1)
 EndEventProcessing()
 0()
EndIf()
If(1,11,0,10,0)
 ChangeInventory_Item(245,0,0,1)
 EndEventProcessing()
 0()
EndIf()
If(1,11,0,11,0)
 ChangeInventory_Item(246,0,0,1)
 EndEventProcessing()
 0()
EndIf()
If(1,11,0,12,0)
 ChangeInventory_Item(247,0,0,1)
 EndEventProcessing()
 0()
EndIf()
If(1,11,0,13,0)
 ChangeInventory_Item(248,0,0,1)
 EndEventProcessing()
 0()
EndIf()
If(1,11,0,14,0)
 ChangeInventory_Item(249,0,0,1)
 EndEventProcessing()
 0()
EndIf()
If(1,11,0,15,0)
 ChangeInventory_Item(250,0,0,1)
 EndEventProcessing()
 0()
EndIf()
If(1,11,0,16,0)
 ChangeInventory_Item(251,0,0,1)
 EndEventProcessing()
 0()
EndIf()
If(1,11,0,17,0)
 ChangeInventory_Item(252,0,0,1)
 EndEventProcessing()
 0()
EndIf()
If(1,11,0,18,0)
 ChangeInventory_Item(253,0,0,1)
 EndEventProcessing()
 0()
EndIf()
DefineLabel("アクセサリ")
ChangeVariable(11,11,0,2,19,185)
If(1,11,0,19,0)
 ChangeInventoryArmor(1005,0,0,1,false)
 EndEventProcessing()
 0()
EndIf()
If(1,11,0,20,0)
 ChangeInventoryArmor(1010,0,0,1,false)
 EndEventProcessing()
 0()
EndIf()
If(1,11,0,21,0)
 ChangeInventoryArmor(1015,0,0,1,false)
 EndEventProcessing()
 0()
EndIf()
If(1,11,0,22,0)
 ChangeInventoryArmor(1020,0,0,1,false)
 EndEventProcessing()
 0()
EndIf()
If(1,11,0,23,0)
 ChangeInventoryArmor(1025,0,0,1,false)
 EndEventProcessing()
 0()
EndIf()
If(1,11,0,24,0)
 ChangeInventoryArmor(1030,0,0,1,false)
 EndEventProcessing()
 0()
EndIf()
If(1,11,0,25,0)
 ChangeInventoryArmor(1035,0,0,1,false)
 EndEventProcessing()
 0()
EndIf()
If(1,11,0,26,0)
 ChangeInventoryArmor(1040,0,0,1,false)
 EndEventProcessing()
 0()
EndIf()
If(1,11,0,27,0)
 ChangeInventoryArmor(1045,0,0,1,false)
 EndEventProcessing()
 0()
EndIf()
If(1,11,0,28,0)
 ChangeInventoryArmor(1049,0,0,1,false)
 EndEventProcessing()
 0()
EndIf()
If(1,11,0,29,0)
 ChangeInventoryArmor(1052,0,0,1,false)
 EndEventProcessing()
 0()
EndIf()
If(1,11,0,30,0)
 ChangeInventoryArmor(1058,0,0,1,false)
 EndEventProcessing()
 0()
EndIf()
If(1,11,0,31,0)
 ChangeInventoryArmor(1063,0,0,1,false)
 EndEventProcessing()
 0()
EndIf()
If(1,11,0,32,0)
 ChangeInventoryArmor(1069,0,0,1,false)
 EndEventProcessing()
 0()
EndIf()
If(1,11,0,33,0)
 ChangeInventoryArmor(1074,0,0,1,false)
 EndEventProcessing()
 0()
EndIf()
If(1,11,0,34,0)
 ChangeInventoryArmor(1079,0,0,1,false)
 EndEventProcessing()
 0()
EndIf()
If(1,11,0,35,0)
 ChangeInventoryArmor(1084,0,0,1,false)
 EndEventProcessing()
 0()
EndIf()
If(1,11,0,36,0)
 ChangeInventoryArmor(1088,0,0,1,false)
 EndEventProcessing()
 0()
EndIf()
If(1,11,0,37,0)
 ChangeInventoryArmor(1094,0,0,1,false)
 EndEventProcessing()
 0()
EndIf()
If(1,11,0,38,0)
 ChangeInventoryArmor(1098,0,0,1,false)
 EndEventProcessing()
 0()
EndIf()
If(1,11,0,39,0)
 ChangeInventoryArmor(1102,0,0,1,false)
 EndEventProcessing()
 0()
EndIf()
If(1,11,0,40,0)
 ChangeInventoryArmor(1108,0,0,1,false)
 EndEventProcessing()
 0()
EndIf()
If(1,11,0,41,0)
 ChangeInventoryArmor(1110,0,0,1,false)
 EndEventProcessing()
 0()
EndIf()
If(1,11,0,42,0)
 ChangeInventoryArmor(1117,0,0,1,false)
 EndEventProcessing()
 0()
EndIf()
If(1,11,0,43,0)
 ChangeInventoryArmor(1119,0,0,1,false)
 EndEventProcessing()
 0()
EndIf()
If(1,11,0,44,0)
 ChangeInventoryArmor(1122,0,0,1,false)
 EndEventProcessing()
 0()
EndIf()
If(1,11,0,45,0)
 ChangeInventoryArmor(1125,0,0,1,false)
 EndEventProcessing()
 0()
EndIf()
If(1,11,0,46,0)
 ChangeInventoryArmor(1129,0,0,1,false)
 EndEventProcessing()
 0()
EndIf()
If(1,11,0,47,0)
 ChangeInventoryArmor(1133,0,0,1,false)
 EndEventProcessing()
 0()
EndIf()
If(1,11,0,48,0)
 ChangeInventoryArmor(1136,0,0,1,false)
 EndEventProcessing()
 0()
EndIf()
If(1,11,0,49,0)
 ChangeInventoryArmor(1140,0,0,1,false)
 EndEventProcessing()
 0()
EndIf()
If(1,11,0,50,0)
 ChangeInventoryArmor(1156,0,0,1,false)
 EndEventProcessing()
 0()
EndIf()
If(1,11,0,51,0)
 ChangeInventoryArmor(1159,0,0,1,false)
 EndEventProcessing()
 0()
EndIf()
If(1,11,0,52,0)
 ChangeInventoryArmor(1166,0,0,1,false)
 EndEventProcessing()
 0()
EndIf()
If(1,11,0,53,0)
 ChangeInventoryArmor(1170,0,0,1,false)
 EndEventProcessing()
 0()
EndIf()
If(1,11,0,54,0)
 ChangeInventoryArmor(1172,0,0,1,false)
 EndEventProcessing()
 0()
EndIf()
If(1,11,0,55,0)
 ChangeInventoryArmor(1173,0,0,1,false)
 EndEventProcessing()
 0()
EndIf()
If(1,11,0,56,0)
 ChangeInventoryArmor(1179,0,0,1,false)
 EndEventProcessing()
 0()
EndIf()
If(1,11,0,57,0)
 ChangeInventoryArmor(1182,0,0,1,false)
 EndEventProcessing()
 0()
EndIf()
If(1,11,0,58,0)
 ChangeInventoryArmor(1184,0,0,1,false)
 EndEventProcessing()
 0()
EndIf()
If(1,11,0,59,0)
 ChangeInventoryArmor(1185,0,0,1,false)
 EndEventProcessing()
 0()
EndIf()
If(1,11,0,60,0)
 ChangeInventoryArmor(1188,0,0,1,false)
 EndEventProcessing()
 0()
EndIf()
If(1,11,0,61,0)
 ChangeInventoryArmor(1195,0,0,1,false)
 EndEventProcessing()
 0()
EndIf()
If(1,11,0,62,0)
 ChangeInventoryArmor(1198,0,0,1,false)
 EndEventProcessing()
 0()
EndIf()
If(1,11,0,63,0)
 ChangeInventoryArmor(1238,0,0,1,false)
 EndEventProcessing()
 0()
EndIf()
If(1,11,0,64,0)
 ChangeInventoryArmor(1241,0,0,1,false)
 EndEventProcessing()
 0()
EndIf()
If(1,11,0,65,0)
 ChangeInventoryArmor(1245,0,0,1,false)
 EndEventProcessing()
 0()
EndIf()
If(1,11,0,66,0)
 ChangeInventoryArmor(1248,0,0,1,false)
 EndEventProcessing()
 0()
EndIf()
If(1,11,0,67,0)
 ChangeInventoryArmor(1251,0,0,1,false)
 EndEventProcessing()
 0()
EndIf()
If(1,11,0,68,0)
 ChangeInventoryArmor(1254,0,0,1,false)
 EndEventProcessing()
 0()
EndIf()
If(1,11,0,69,0)
 ChangeInventoryArmor(1257,0,0,1,false)
 EndEventProcessing()
 0()
EndIf()
If(1,11,0,70,0)
 ChangeInventoryArmor(1260,0,0,1,false)
 EndEventProcessing()
 0()
EndIf()
If(1,11,0,71,0)
 ChangeInventoryArmor(1263,0,0,1,false)
 EndEventProcessing()
 0()
EndIf()
If(1,11,0,72,0)
 ChangeInventoryArmor(1266,0,0,1,false)
 EndEventProcessing()
 0()
EndIf()
If(1,11,0,73,0)
 ChangeInventoryArmor(1269,0,0,1,false)
 EndEventProcessing()
 0()
EndIf()
If(1,11,0,74,0)
 ChangeInventoryArmor(1272,0,0,1,false)
 EndEventProcessing()
 0()
EndIf()
If(1,11,0,75,0)
 ChangeInventoryArmor(1275,0,0,1,false)
 EndEventProcessing()
 0()
EndIf()
If(1,11,0,76,0)
 ChangeInventoryArmor(1278,0,0,1,false)
 EndEventProcessing()
 0()
EndIf()
If(1,11,0,77,0)
 ChangeInventoryArmor(1281,0,0,1,false)
 EndEventProcessing()
 0()
EndIf()
If(1,11,0,78,0)
 ChangeInventoryArmor(1410,0,0,1,false)
 EndEventProcessing()
 0()
EndIf()
If(1,11,0,79,0)
 ChangeInventoryArmor(1414,0,0,1,false)
 EndEventProcessing()
 0()
EndIf()
If(1,11,0,80,0)
 ChangeInventoryArmor(1417,0,0,1,false)
 EndEventProcessing()
 0()
EndIf()
If(1,11,0,81,0)
 ChangeInventoryArmor(1420,0,0,1,false)
 EndEventProcessing()
 0()
EndIf()
If(1,11,0,82,0)
 ChangeInventoryArmor(1423,0,0,1,false)
 EndEventProcessing()
 0()
EndIf()
If(1,11,0,83,0)
 ChangeInventoryArmor(1426,0,0,1,false)
 EndEventProcessing()
 0()
EndIf()
If(1,11,0,84,0)
 ChangeInventoryArmor(1429,0,0,1,false)
 EndEventProcessing()
 0()
EndIf()
If(1,11,0,85,0)
 ChangeInventoryArmor(1432,0,0,1,false)
 EndEventProcessing()
 0()
EndIf()
If(1,11,0,86,0)
 ChangeInventoryArmor(1435,0,0,1,false)
 EndEventProcessing()
 0()
EndIf()
If(1,11,0,87,0)
 ChangeInventoryArmor(1438,0,0,1,false)
 EndEventProcessing()
 0()
EndIf()
If(1,11,0,88,0)
 ChangeInventoryArmor(1441,0,0,1,false)
 EndEventProcessing()
 0()
EndIf()
If(1,11,0,89,0)
 ChangeInventoryArmor(1444,0,0,1,false)
 EndEventProcessing()
 0()
EndIf()
If(1,11,0,90,0)
 ChangeInventoryArmor(1447,0,0,1,false)
 EndEventProcessing()
 0()
EndIf()
If(1,11,0,91,0)
 ChangeInventoryArmor(1450,0,0,1,false)
 EndEventProcessing()
 0()
EndIf()
If(1,11,0,92,0)
 ChangeInventoryArmor(1453,0,0,1,false)
 EndEventProcessing()
 0()
EndIf()
If(1,11,0,93,0)
 ChangeInventoryArmor(1456,0,0,1,false)
 EndEventProcessing()
 0()
EndIf()
If(1,11,0,94,0)
 ChangeInventoryArmor(1459,0,0,1,false)
 EndEventProcessing()
 0()
EndIf()
If(1,11,0,95,0)
 ChangeInventoryArmor(1462,0,0,1,false)
 EndEventProcessing()
 0()
EndIf()
If(1,11,0,96,0)
 ChangeInventoryArmor(1465,0,0,1,false)
 EndEventProcessing()
 0()
EndIf()
If(1,11,0,97,0)
 ChangeInventoryArmor(1468,0,0,1,false)
 EndEventProcessing()
 0()
EndIf()
If(1,11,0,98,0)
 ChangeInventoryArmor(1471,0,0,1,false)
 EndEventProcessing()
 0()
EndIf()
If(1,11,0,99,0)
 ChangeInventoryArmor(1474,0,0,1,false)
 EndEventProcessing()
 0()
EndIf()
If(1,11,0,100,0)
 ChangeInventoryArmor(1477,0,0,1,false)
 EndEventProcessing()
 0()
EndIf()
If(1,11,0,101,0)
 ChangeInventoryArmor(1480,0,0,1,false)
 EndEventProcessing()
 0()
EndIf()
If(1,11,0,102,0)
 ChangeInventoryArmor(1483,0,0,1,false)
 EndEventProcessing()
 0()
EndIf()
If(1,11,0,103,0)
 ChangeInventoryArmor(1486,0,0,1,false)
 EndEventProcessing()
 0()
EndIf()
If(1,11,0,104,0)
 ChangeInventoryArmor(1490,0,0,1,false)
 EndEventProcessing()
 0()
EndIf()
If(1,11,0,105,0)
 ChangeInventoryArmor(1495,0,0,1,false)
 EndEventProcessing()
 0()
EndIf()
If(1,11,0,106,0)
 ChangeInventoryArmor(1499,0,0,1,false)
 EndEventProcessing()
 0()
EndIf()
If(1,11,0,107,0)
 ChangeInventoryArmor(1503,0,0,1,false)
 EndEventProcessing()
 0()
EndIf()
If(1,11,0,108,0)
 ChangeInventoryArmor(1507,0,0,1,false)
 EndEventProcessing()
 0()
EndIf()
If(1,11,0,109,0)
 ChangeInventoryArmor(1511,0,0,1,false)
 EndEventProcessing()
 0()
EndIf()
If(1,11,0,110,0)
 ChangeInventoryArmor(1515,0,0,1,false)
 EndEventProcessing()
 0()
EndIf()
If(1,11,0,111,0)
 ChangeInventoryArmor(1518,0,0,1,false)
 EndEventProcessing()
 0()
EndIf()
If(1,11,0,112,0)
 ChangeInventoryArmor(1522,0,0,1,false)
 EndEventProcessing()
 0()
EndIf()
If(1,11,0,113,0)
 ChangeInventoryArmor(1527,0,0,1,false)
 EndEventProcessing()
 0()
EndIf()
If(1,11,0,114,0)
 ChangeInventoryArmor(1531,0,0,1,false)
 EndEventProcessing()
 0()
EndIf()
If(1,11,0,115,0)
 ChangeInventoryArmor(1534,0,0,1,false)
 EndEventProcessing()
 0()
EndIf()
If(1,11,0,116,0)
 ChangeInventoryArmor(1545,0,0,1,false)
 EndEventProcessing()
 0()
EndIf()
If(1,11,0,117,0)
 ChangeInventoryArmor(1628,0,0,1,false)
 EndEventProcessing()
 0()
EndIf()
If(1,11,0,118,0)
 ChangeInventoryArmor(1629,0,0,1,false)
 EndEventProcessing()
 0()
EndIf()
If(1,11,0,119,0)
 ChangeInventoryArmor(1630,0,0,1,false)
 EndEventProcessing()
 0()
EndIf()
If(1,11,0,120,0)
 ChangeInventoryArmor(1631,0,0,1,false)
 EndEventProcessing()
 0()
EndIf()
If(1,11,0,121,0)
 ChangeInventoryArmor(1632,0,0,1,false)
 EndEventProcessing()
 0()
EndIf()
If(1,11,0,122,0)
 ChangeInventoryArmor(1633,0,0,1,false)
 EndEventProcessing()
 0()
EndIf()
If(1,11,0,123,0)
 ChangeInventoryArmor(1634,0,0,1,false)
 EndEventProcessing()
 0()
EndIf()
If(1,11,0,124,0)
 ChangeInventoryArmor(1635,0,0,1,false)
 EndEventProcessing()
 0()
EndIf()
If(1,11,0,125,0)
 ChangeInventoryArmor(1636,0,0,1,false)
 EndEventProcessing()
 0()
EndIf()
If(1,11,0,126,0)
 ChangeInventoryArmor(1637,0,0,1,false)
 EndEventProcessing()
 0()
EndIf()
If(1,11,0,127,0)
 ChangeInventoryArmor(1638,0,0,1,false)
 EndEventProcessing()
 0()
EndIf()
If(1,11,0,128,0)
 ChangeInventoryArmor(1639,0,0,1,false)
 EndEventProcessing()
 0()
EndIf()
If(1,11,0,129,0)
 ChangeInventoryArmor(1640,0,0,1,false)
 EndEventProcessing()
 0()
EndIf()
If(1,11,0,130,0)
 ChangeInventoryArmor(1641,0,0,1,false)
 EndEventProcessing()
 0()
EndIf()
If(1,11,0,131,0)
 ChangeInventoryArmor(1642,0,0,1,false)
 EndEventProcessing()
 0()
EndIf()
If(1,11,0,132,0)
 ChangeInventoryArmor(1643,0,0,1,false)
 EndEventProcessing()
 0()
EndIf()
If(1,11,0,133,0)
 ChangeInventoryArmor(1644,0,0,1,false)
 EndEventProcessing()
 0()
EndIf()
If(1,11,0,134,0)
 ChangeInventoryArmor(1645,0,0,1,false)
 EndEventProcessing()
 0()
EndIf()
If(1,11,0,135,0)
 ChangeInventoryArmor(1646,0,0,1,false)
 EndEventProcessing()
 0()
EndIf()
If(1,11,0,136,0)
 ChangeInventoryArmor(1647,0,0,1,false)
 EndEventProcessing()
 0()
EndIf()
If(1,11,0,137,0)
 ChangeInventoryArmor(1648,0,0,1,false)
 EndEventProcessing()
 0()
EndIf()
If(1,11,0,138,0)
 ChangeInventoryArmor(1649,0,0,1,false)
 EndEventProcessing()
 0()
EndIf()
If(1,11,0,139,0)
 ChangeInventoryArmor(1650,0,0,1,false)
 EndEventProcessing()
 0()
EndIf()
If(1,11,0,140,0)
 ChangeInventoryArmor(1651,0,0,1,false)
 EndEventProcessing()
 0()
EndIf()
If(1,11,0,141,0)
 ChangeInventoryArmor(1652,0,0,1,false)
 EndEventProcessing()
 0()
EndIf()
If(1,11,0,142,0)
 ChangeInventoryArmor(1653,0,0,1,false)
 EndEventProcessing()
 0()
EndIf()
If(1,11,0,143,0)
 ChangeInventoryArmor(1654,0,0,1,false)
 EndEventProcessing()
 0()
EndIf()
If(1,11,0,144,0)
 ChangeInventoryArmor(1655,0,0,1,false)
 EndEventProcessing()
 0()
EndIf()
If(1,11,0,145,0)
 ChangeInventoryArmor(1656,0,0,1,false)
 EndEventProcessing()
 0()
EndIf()
If(1,11,0,146,0)
 ChangeInventoryArmor(1657,0,0,1,false)
 EndEventProcessing()
 0()
EndIf()
If(1,11,0,147,0)
 ChangeInventoryArmor(1658,0,0,1,false)
 EndEventProcessing()
 0()
EndIf()
If(1,11,0,148,0)
 ChangeInventoryArmor(1659,0,0,1,false)
 EndEventProcessing()
 0()
EndIf()
If(1,11,0,149,0)
 ChangeInventoryArmor(1660,0,0,1,false)
 EndEventProcessing()
 0()
EndIf()
If(1,11,0,150,0)
 ChangeInventoryArmor(1661,0,0,1,false)
 EndEventProcessing()
 0()
EndIf()
If(1,11,0,151,0)
 ChangeInventoryArmor(1662,0,0,1,false)
 EndEventProcessing()
 0()
EndIf()
If(1,11,0,152,0)
 ChangeInventoryArmor(1663,0,0,1,false)
 EndEventProcessing()
 0()
EndIf()
If(1,11,0,153,0)
 ChangeInventoryArmor(1664,0,0,1,false)
 EndEventProcessing()
 0()
EndIf()
If(1,11,0,154,0)
 ChangeInventoryArmor(1665,0,0,1,false)
 EndEventProcessing()
 0()
EndIf()
If(1,11,0,155,0)
 ChangeInventoryArmor(1666,0,0,1,false)
 EndEventProcessing()
 0()
EndIf()
If(1,11,0,156,0)
 ChangeInventoryArmor(1667,0,0,1,false)
 EndEventProcessing()
 0()
EndIf()
If(1,11,0,157,0)
 ChangeInventoryArmor(1668,0,0,1,false)
 EndEventProcessing()
 0()
EndIf()
If(1,11,0,158,0)
 ChangeInventoryArmor(1669,0,0,1,false)
 EndEventProcessing()
 0()
EndIf()
If(1,11,0,159,0)
 ChangeInventoryArmor(1670,0,0,1,false)
 EndEventProcessing()
 0()
EndIf()
If(1,11,0,160,0)
 ChangeInventoryArmor(1671,0,0,1,false)
 EndEventProcessing()
 0()
EndIf()
If(1,11,0,161,0)
 ChangeInventoryArmor(1672,0,0,1,false)
 EndEventProcessing()
 0()
EndIf()
If(1,11,0,162,0)
 ChangeInventoryArmor(1673,0,0,1,false)
 EndEventProcessing()
 0()
EndIf()
If(1,11,0,163,0)
 ChangeInventoryArmor(1674,0,0,1,false)
 EndEventProcessing()
 0()
EndIf()
If(1,11,0,164,0)
 ChangeInventoryArmor(1675,0,0,1,false)
 EndEventProcessing()
 0()
EndIf()
If(1,11,0,165,0)
 ChangeInventoryArmor(1676,0,0,1,false)
 EndEventProcessing()
 0()
EndIf()
If(1,11,0,166,0)
 ChangeInventoryArmor(1677,0,0,1,false)
 EndEventProcessing()
 0()
EndIf()
If(1,11,0,167,0)
 ChangeInventoryArmor(1678,0,0,1,false)
 EndEventProcessing()
 0()
EndIf()
If(1,11,0,168,0)
 ChangeInventoryArmor(1679,0,0,1,false)
 EndEventProcessing()
 0()
EndIf()
If(1,11,0,169,0)
 ChangeInventoryArmor(1680,0,0,1,false)
 EndEventProcessing()
 0()
EndIf()
If(1,11,0,170,0)
 ChangeInventoryArmor(1681,0,0,1,false)
 EndEventProcessing()
 0()
EndIf()
If(1,11,0,171,0)
 ChangeInventoryArmor(1682,0,0,1,false)
 EndEventProcessing()
 0()
EndIf()
If(1,11,0,172,0)
 ChangeInventoryArmor(1683,0,0,1,false)
 EndEventProcessing()
 0()
EndIf()
If(1,11,0,173,0)
 ChangeInventoryArmor(1689,0,0,1,false)
 EndEventProcessing()
 0()
EndIf()
If(1,11,0,174,0)
 ChangeInventoryArmor(1692,0,0,1,false)
 EndEventProcessing()
 0()
EndIf()
If(1,11,0,175,0)
 ChangeInventoryArmor(1695,0,0,1,false)
 EndEventProcessing()
 0()
EndIf()
If(1,11,0,176,0)
 ChangeInventoryArmor(1698,0,0,1,false)
 EndEventProcessing()
 0()
EndIf()
If(1,11,0,177,0)
 ChangeInventoryArmor(1701,0,0,1,false)
 EndEventProcessing()
 0()
EndIf()
If(1,11,0,178,0)
 ChangeInventoryArmor(1704,0,0,1,false)
 EndEventProcessing()
 0()
EndIf()
If(1,11,0,179,0)
 ChangeInventoryArmor(1738,0,0,1,false)
 EndEventProcessing()
 0()
EndIf()
If(1,11,0,180,0)
 ChangeInventoryArmor(1739,0,0,1,false)
 EndEventProcessing()
 0()
EndIf()
If(1,11,0,181,0)
 ChangeInventoryArmor(1053,0,0,1,false)
 EndEventProcessing()
 0()
EndIf()
If(1,11,0,182,0)
 ChangeInventoryArmor(1137,0,0,1,false)
 EndEventProcessing()
 0()
EndIf()
If(1,11,0,183,0)
 ChangeInventoryArmor(1189,0,0,1,false)
 EndEventProcessing()
 0()
EndIf()
If(1,11,0,184,0)
 ChangeInventoryArmor(1591,0,0,1,false)
 EndEventProcessing()
 0()
EndIf()
If(1,11,0,185,0)
 ChangeInventoryArmor(1687,0,0,1,false)
 EndEventProcessing()
 0()
EndIf()
0()
