﻿// EVENT 3489
Name "ターサ"

PictureDisplay(5,"80_tarsa_st11",0,0,0,0,100,100,0,0)
PictureMove(5,null,0,0,0,0,100,100,255,0,30,true)
241(bytes(0x04,0x08,0x6f,0x3a,0x0d,0x52,0x50,0x47,0x3a,0x3a,0x42,0x47,0x4d,0x08,0x3a,0x0a,0x40,0x6e,0x61,0x6d,0x65,0x49,0x22,0x09,0x65,0x72,0x6f,0x31,0x06,0x3a,0x06,0x45,0x54,0x3a,0x0c,0x40,0x76,0x6f,0x6c,0x75,0x6d,0x65,0x69,0x69,0x3a,0x0b,0x40,0x70,0x69,0x74,0x63,0x68,0x69,0x69))
ShowMessageFace("",0,0,2,1)
ShowMessage("\\n<Luka>")
ShowMessage("あぅぅぅ……")
ShowMessageFace("tarsa_fc2",0,0,2,2)
ShowMessage("\\n<Tarsa>")
ShowMessage("あはっ、もう戦いは終わり？")
ShowMessage("それじゃあ、もっと楽しいことしよーよ♪")
PictureDisplay(5,"ev_tarsa_h1",0,0,0,0,100,100,0,0)
PictureMove(5,null,0,0,0,0,100,100,255,0,30,true)
ShowMessageFace("tarsa_fc2",1,0,2,3)
ShowMessage("\\n<Tarsa>")
ShowMessage("さあ、後ろから挿れちゃって♪")
ShowMessage("ほらほら、あたしのおまんこ気持ちいーよ♪")
ShowMessageFace("",0,0,2,4)
ShowMessage("\\n<Luka>")
ShowMessage("あ、あぁぁぁ……")
ShowMessageFace("",0,0,2,5)
ShowMessage("僕は誘われるがまま、下腹をターサのお尻に押しつけた。")
ShowMessage("そして、大きくなったペニスを膣口へとあてがう――")
ShowMessageFace("tarsa_fc2",1,0,2,6)
ShowMessage("\\n<Tarsa>")
ShowMessage("はやく、はやく……♪")
ShowMessageFace("",0,0,2,7)
ShowMessage("そのまま僕は、一気に腰を進め――")
245(bytes(0x04,0x08,0x6f,0x3a,0x0d,0x52,0x50,0x47,0x3a,0x3a,0x42,0x47,0x53,0x08,0x3a,0x0a,0x40,0x6e,0x61,0x6d,0x65,0x49,0x22,0x1e,0x6d,0x6f,0x6e,0x5f,0x68,0x73,0x65,0x61,0x6e,0x30,0x33,0x5f,0x69,0x6e,0x6e,0x65,0x72,0x77,0x6f,0x72,0x6b,0x73,0x5f,0x61,0x33,0x06,0x3a,0x06,0x45,0x54,0x3a,0x0c,0x40,0x76,0x6f,0x6c,0x75,0x6d,0x65,0x69,0x55,0x3a,0x0b,0x40,0x70,0x69,0x74,0x63,0x68,0x69,0x69))
PictureDisplay(5,"ev_tarsa_h2",0,0,0,0,100,100,255,0)
ShowMessageFace("",0,0,2,8)
ShowMessage("肉棒が、ターサの膣内に侵入した。")
ShowMessage("熱い柔肉が、ぎゅっと握るようにペニスを包んでくる――")
ShowMessageFace("",0,0,2,9)
ShowMessage("\\n<Luka>")
ShowMessage("あ……あぅぅっ！")
ShowMessageFace("tarsa_fc2",1,0,2,10)
ShowMessage("\\n<Tarsa>")
ShowMessage("あはっ、入ってきたね……♪")
ShowMessage("ぎゅっぎゅっぎゅ～って、締めちゃうぞ♪")
ShowMessageFace("",0,0,2,11)
ShowMessage("\\n<Luka>")
ShowMessage("はぅ……あ、あぁぁっ！！")
ShowMessageFace("",0,0,2,12)
ShowMessage("次の瞬間、僕は腰をぶるっと震わせていた。")
ShowMessage("ターサの膣内が、収縮するように締まったのだ。")
ShowMessageFace("",0,0,2,13)
ShowMessage("亀頭がぎゅっと握り込まれ、揉み洗いされ――")
ShowMessage("ペニス全体も、リズミカルに揉みしだかれる心地だ。")
ShowMessageFace("",0,0,2,14)
ShowMessage("\\n<Luka>")
ShowMessage("き、きもちいい……はぅぅっ！！")
ShowMessageFace("",0,0,2,15)
ShowMessage("熱い膣壁の収縮動作に、僕はたちまち追い込まれた。")
ShowMessage("不意に、ペニスがびくびくと脈動を始め――")
RunCommonEvent(104)
PictureDisplay(5,"ev_tarsa_h3",0,0,0,0,100,100,255,0)
RunCommonEvent(105)
ShowMessageFace("",0,0,2,16)
ShowMessage("\\n<Luka>")
ShowMessage("あ、あぅぅぅぅ……")
ShowMessageFace("",0,0,2,17)
ShowMessage("ターサの膣内に、ドクドクと精液が漏れ出ていく。")
ShowMessage("あっという間に、イかされてしまったのだ――")
ShowMessageFace("tarsa_fc2",1,0,2,18)
ShowMessage("\\n<Tarsa>")
ShowMessage("あれぇ？　もう出しちゃったのぉ……？")
ShowMessage("あははっ、キミってはやいねー♪")
ShowMessageFace("tarsa_fc2",1,0,2,19)
ShowMessage("\\n<Tarsa>")
ShowMessage("精気が、あたしの中に流れ込んできて……")
ShowMessage("うふふっ、力が溢れてきちゃう♪")
ShowMessageFace("",0,0,2,20)
ShowMessage("\\n<Luka>")
ShowMessage("あ、あぁぁぁ……")
ShowMessageFace("",0,0,2,21)
ShowMessage("ぐねぐねと、別の生き物のようにうねる膣壁。")
ShowMessage("ペニスを巻き込み蠕動する動きは、まさに極上の快感だった。")
ShowMessageFace("",0,0,2,22)
ShowMessage("さらに膣奥は脈打つように収縮し、亀頭に刺激を与える。")
ShowMessage("時には甘く吸い付くような動作で、悦びを与えてきた。")
ShowMessageFace("",0,0,2,23)
ShowMessage("\\n<Luka>")
ShowMessage("はぅぅぅっ……")
ShowMessageFace("tarsa_fc2",1,0,2,24)
ShowMessage("\\n<Tarsa>")
ShowMessage("まだまだ出せるよね？")
ShowMessage("ぜ～んぶ、吸い取っちゃうから♪")
ShowMessageFace("",0,0,2,25)
ShowMessage("\\n<Luka>")
ShowMessage("そんな……はぅぅぅ～～！！")
ShowMessageFace("tarsa_fc2",1,0,2,26)
ShowMessage("\\n<Tarsa>")
ShowMessage("あははっ、いっぱい気持ちよくなってね♪")
ShowMessageFace("",0,0,2,27)
ShowMessage("ターサは意図的に膣内をうねらせ、快楽を与えてくる。")
ShowMessage("楽しそうに腰をくねらせ、僕を責めたててくるのだ。")
ShowMessageFace("tarsa_fc2",1,0,2,28)
ShowMessage("\\n<Tarsa>")
ShowMessage("あははっ、このダンスはどう？")
ShowMessage("こうやって腰を動かしたら、中がぎゅって締まるでしょ？")
ShowMessageFace("tarsa_fc2",1,0,2,29)
ShowMessage("\\n<Tarsa>")
ShowMessage("これをしてあげたら、男の人はすぐイっちゃうんだから。")
ShowMessage("キミは、どれくらい耐えられるかな～？")
ShowMessageFace("",0,0,2,30)
ShowMessage("\\n<Luka>")
ShowMessage("はぅぅぅぅ～～！！")
ShowMessageFace("",0,0,2,31)
ShowMessage("ペニスを柔らかく押し潰すような締め付け――")
ShowMessage("そして、リズミカルな腰さばきの甘いピストン運動。")
ShowMessageFace("",0,0,2,32)
ShowMessage("僕はターサの背にしがみついたまま、びくびくと腰を震わせ――")
PictureDisplay(5,"ev_tarsa_h4",0,0,0,0,100,100,255,0)
ShowMessageFace("",0,0,2,33)
ShowMessage("そのまま、ドクドクと膣内に射精してしまった。")
ShowMessage("艶めかしい腰の動きで、あえなくイかされてしまったのだ。")
ShowMessageFace("tarsa_fc2",1,0,2,34)
ShowMessage("\\n<Tarsa>")
ShowMessage("あはっ、またイっちゃった。")
ShowMessage("キミの力が、あたしの中に流れ込んでくるのが分かるよ～♪")
ShowMessageFace("",0,0,2,35)
ShowMessage("\\n<Luka>")
ShowMessage("はぅぅぅ……")
ShowMessageFace("",0,0,2,36)
ShowMessage("ターサの膣内に、じゅるじゅると精液が吸い取られていく。")
ShowMessage("そして射精が終わった後も、亀頭に吸い付かれる感触は止まらない――")
ShowMessageFace("",0,0,2,37)
ShowMessage("\\n<Luka>")
ShowMessage("あぁぁ……中で、吸われて……はぅぅっ！！")
ShowMessageFace("tarsa_fc2",1,0,2,38)
ShowMessage("\\n<Tarsa>")
ShowMessage("あははっ……ちゅうちゅうしてるの、やっぱり分かる？")
ShowMessage("おまんこの中で、先っちょに吸い付いてあげてるんだよ。")
ShowMessageFace("tarsa_fc2",0,0,2,39)
ShowMessage("\\n<Tarsa>")
ShowMessage("おちんちんが溶けちゃうくらい気持ちいいでしょ？")
ShowMessage("みんな、悲鳴上げながら気絶しちゃうよ……♡")
ShowMessageFace("",0,0,2,40)
ShowMessage("\\n<Luka>")
ShowMessage("あぁ、こんなぁ……はぅぅぅっ……！")
ShowMessageFace("",0,0,2,41)
ShowMessage("膣奥の子宮口に、亀頭がちゅうちゅう吸い付かれる。")
ShowMessage("その狂おしい吸い付きに、みるみる僕は脱力し――")
RunCommonEvent(104)
RunCommonEvent(105)
ShowMessageFace("",0,0,2,42)
ShowMessage("\\n<Luka>")
ShowMessage("はぅぅぅ……")
ShowMessageFace("",0,0,2,43)
ShowMessage("あまりの気持ち良さに、あっさりイかされ――")
ShowMessage("そして、熱い膣内にどっぷりと精を捧げてしまう。")
ShowMessageFace("tarsa_fc2",0,0,2,44)
ShowMessage("\\n<Tarsa>")
ShowMessage("あははっ、やっぱり早いね～♪")
ShowMessage("でも、まだまだ吸い取っちゃうから♡")
ShowMessageFace("",0,0,2,45)
ShowMessage("\\n<Luka>")
ShowMessage("あぁぁ……もうやめてぇ……はぅぅっ！！")
RunCommonEvent(104)
RunCommonEvent(105)
ShowMessageFace("",0,0,2,46)
ShowMessage("そのまま僕は、延々と精液を吸い取られた。")
ShowMessage("時には口や手、おっぱいまで使われて――")
ShowMessageFace("",0,0,2,47)
ShowMessage("\\n<Luka>")
ShowMessage("はぅぅぅぅ……")
ShowMessageFace("tarsa_fc2",0,0,2,48)
ShowMessage("\\n<Tarsa>")
ShowMessage("もっと……もっと、ちょうだい♪")
RunCommonEvent(104)
RunCommonEvent(105)
ShowMessageFace("",0,0,2,49)
ShowMessage("何度も何度もイかされ、精を搾取され――")
ShowMessage("ひたすらに搾られ、射精を繰り返し――")
ShowMessageFace("",0,0,2,50)
ShowMessage("そして――")
RunCommonEvent(104)
PictureDisplay(5,"ev_tarsa_h5",0,0,0,0,100,100,255,0)
RunCommonEvent(105)
246(2)
ShowMessageFace("tarsa_fc2",0,0,2,51)
ShowMessage("\\n<Tarsa>")
ShowMessage("あはっ、もう一滴も出なくなっちゃった。")
ShowMessage("あたしも、おなかいっぱいだよっ♡")
ShowMessageFace("",0,0,2,52)
ShowMessage("\\n<Luka>")
ShowMessage("ぅ……ぁぁ……")
ShowMessageFace("",0,0,2,53)
ShowMessage("空撃ちするまで射精させられ、すっかり僕は涸れ果てていた。")
ShowMessage("全身を精液まみれにしたターサを、うつろな目で眺めながら――")
ShowMessageFace("",0,0,2,54)
ShowMessage("\\n<Luka>")
ShowMessage("ぁ……ぅ……")
ShowMessageFace("",0,0,2,55)
ShowMessage("そのまま、意識を失ってしまった。")
ShowMessage("ひたすらに搾られた挙げ句に、失神してしまったのである――")
221()
PictureClear(5)
PictureClear(6)
246(2)
ShowMessageFace("",0,0,2,56)
ShowMessage("・・・・・・・・")
221()
242(1)
Wait(120)
ShowChoices(strings("難易度を変更する","輪廻に戻る"),2)
IfPlayerPicksChoice(0,null)
 ShowMessageFace("",0,0,2,57)
 ShowMessage("難易度を選択して下さい。")
 RunCommonEvent(110)
 0()
IfPlayerPicksChoice(1,null)
 0()
404()
RunCommonEvent(2999)
0()
