// EVENT 5461
Name "Kraken"

PictureDisplay(5,"80_kraken_st02",0,0,0,0,100,100,0,0)
PictureMove(5,null,0,0,0,0,100,100,255,0,30,true)
ShowMessageFace("kraken_fc1",0,0,2,1)
ShowMessage("\\n<Kraken>")
ShowMessage("You want me to pleasure you...?")
ShowMessageFace("",0,0,2,2)
ShowMessage("\\n<Luka>")
ShowMessage("Y-Yes please...")
ShowMessageFace("kraken_fc1",1,0,2,3)
ShowMessage("\\n<Kraken>")
ShowMessage("What a shameless request...")
ShowMessage("Now I have to punish you.")
241(bytes(0x04,0x08,0x6f,0x3a,0x0d,0x52,0x50,0x47,0x3a,0x3a,0x42,0x47,0x4d,0x08,0x3a,0x0a,0x40,0x6e,0x61,0x6d,0x65,0x49,0x22,0x09,0x65,0x72,0x6f,0x31,0x06,0x3a,0x06,0x45,0x54,0x3a,0x0c,0x40,0x76,0x6f,0x6c,0x75,0x6d,0x65,0x69,0x69,0x3a,0x0b,0x40,0x70,0x69,0x74,0x63,0x68,0x69,0x69))
250(bytes(0x04,0x08,0x6f,0x3a,0x0c,0x52,0x50,0x47,0x3a,0x3a,0x53,0x45,0x08,0x3a,0x0a,0x40,0x6e,0x61,0x6d,0x65,0x49,0x22,0x16,0x6d,0x6f,0x6e,0x5f,0x65,0x72,0x6f,0x5f,0x6d,0x61,0x6b,0x69,0x74,0x75,0x6b,0x69,0x33,0x06,0x3a,0x06,0x45,0x54,0x3a,0x0b,0x40,0x70,0x69,0x74,0x63,0x68,0x69,0x69,0x3a,0x0c,0x40,0x76,0x6f,0x6c,0x75,0x6d,0x65,0x69,0x69))
PictureDisplay(5,"ev_kraken_st11",0,0,0,0,100,100,255,0)
ShowMessageFace("",0,0,2,4)
ShowMessage("One of the Kraken's tentacles shoots out and coils around me.")
ShowMessageFace("",0,0,2,5)
ShowMessage("Her soft tentacle tightens around me, depriving me of my freedom.")
ShowMessageFace("",0,0,2,6)
ShowMessage("\\n<Luka>")
ShowMessage("G...Get off!")
ShowMessageFace("",0,0,2,7)
ShowMessage("My struggling doesn't even budge her tight grip on me, though.")
ShowMessage("On the contrary, it just makes me feel even more powerless.")
ShowMessageFace("kraken_fc1",1,0,2,8)
ShowMessage("\\n<Kraken>")
ShowMessage("Now then... To ensure you don't have any children, I shall be the first to see to squeezing out all of your semen.")
ShowMessageFace("",0,0,2,9)
ShowMessage("\\n<Luka>")
ShowMessage("The te... tentacle is... Ahhh...")
245(bytes(0x04,0x08,0x6f,0x3a,0x0d,0x52,0x50,0x47,0x3a,0x3a,0x42,0x47,0x53,0x08,0x3a,0x0a,0x40,0x6e,0x61,0x6d,0x65,0x49,0x22,0x17,0x6d,0x6f,0x6e,0x5f,0x68,0x73,0x65,0x61,0x6e,0x31,0x37,0x5f,0x73,0x69,0x67,0x6f,0x6b,0x69,0x06,0x3a,0x06,0x45,0x54,0x3a,0x0c,0x40,0x76,0x6f,0x6c,0x75,0x6d,0x65,0x69,0x55,0x3a,0x0b,0x40,0x70,0x69,0x74,0x63,0x68,0x69,0x69))
PictureDisplay(5,"ev_kraken_h1",0,0,0,0,100,100,255,0)
ShowMessageFace("",0,0,2,10)
ShowMessage("A tentacle slowly wraps around my penis.")
ShowMessage("Coiling from the root to the tip, it slowly moves up my penis in a spiral.")
ShowMessageFace("",0,0,2,11)
ShowMessage("Finally, the rubbery tentacle is completely wrapped around my penis.")
ShowMessageFace("",0,0,2,12)
ShowMessage("\\n<Luka>")
ShowMessage("Auu... That feels good...")
ShowMessageFace("kraken_fc1",1,0,2,13)
ShowMessage("\\n<Kraken>")
ShowMessage("Haha... I know.")
ShowMessage("Do you want me to squeeze you?")
ShowMessageFace("kraken_fc1",1,0,2,14)
ShowMessage("\\n<Kraken>")
ShowMessage("Are you looking forward to being squeezed dry every single day?")
ShowMessageFace("",0,0,2,15)
ShowMessage("The tentacle wrapped around my penis gradually begins to tighten.")
ShowMessageFace("",0,0,2,16)
ShowMessage("\\n<Luka>")
ShowMessage("Ah, aaaah...")
ShowMessageFace("",0,0,2,17)
ShowMessage("The tentacle wrapped around my penis in a spiral presses on me.")
ShowMessage("But not tight enough to cause pain.")
ShowMessageFace("",0,0,2,18)
ShowMessage("The rubbery tentacle pressing into me feels surprisingly good.")
ShowMessageFace("kraken_fc1",1,0,2,19)
ShowMessage("\\n<Kraken>")
ShowMessage("Here...")
ShowMessage("How does it feel when I squeeze on your penis?")
ShowMessageFace("",0,0,2,20)
ShowMessage("\\n<Luka>")
ShowMessage("Ahhhhhh...")
ShowMessageFace("",0,0,2,21)
ShowMessage("The slow tightening continues, as if being gripped by a hand.")
ShowMessage("But the elastic feeling of the tentacle feels many times better than any hand.")
ShowMessageFace("",0,0,2,22)
ShowMessage("Even under a tight pressure, the rubbery feeling makes it so it doesn't cause any pain.")
ShowMessage("My body writhes under the feeling of her soft tentacle around me.")
ShowMessageFace("kraken_fc1",1,0,2,23)
ShowMessage("\\n<Kraken>")
ShowMessage("Does it feel good?")
ShowMessage("Then let me loosen it a little...")
ShowMessageFace("",0,0,2,24)
ShowMessage("She starts to loosen the pressure on me.")
ShowMessage("When I'm finally relaxing, she suddenly tightens it even more than before.")
ShowMessageFace("",0,0,2,25)
ShowMessage("She quickly continues the pattern of loosening and tightening.")
ShowMessage("I shake my head helplessly as she continues to play with me like that.")
ShowMessageFace("",0,0,2,26)
ShowMessage("\\n<Luka>")
ShowMessage("Ah, aaaah...!!")
ShowMessageFace("kraken_fc1",1,0,2,27)
ShowMessage("\\n<Kraken>")
ShowMessage("Squeeze, release. Squeeze, release...")
ShowMessage("Haha... Is this effective?")
ShowMessageFace("kraken_fc1",1,0,2,28)
ShowMessage("\\n<Kraken>")
ShowMessage("No man has been able to resist ejaculating from this yet.")
ShowMessageFace("",0,0,2,29)
ShowMessage("\\n<Luka>")
ShowMessage("Ah, Aaaaahhh!!")
ShowMessageFace("",0,0,2,30)
ShowMessage("She tightens up and forces pleasure into me, then quickly loosens and causes it to fade.")
ShowMessageFace("",0,0,2,31)
ShowMessage("The rhythmic pattern causes me to sigh every time she releases the pressure.")
ShowMessageFace("",0,0,2,32)
ShowMessage("The different sensations make it difficult to resist the rising pleasure spreading through my waist.")
ShowMessageFace("",0,0,2,33)
ShowMessage("\\n<Luka>")
ShowMessage("No... Stop this...")
ShowMessageFace("",0,0,2,34)
ShowMessage("As if my penis was crying, pre-come leaks out and spreads onto Kraken's tentacle.")
ShowMessageFace("",0,0,2,35)
ShowMessage("I shiver in disgrace at already leaking out semen just from being squeezed like this.")
ShowMessage("But I'm not able to endure this...")
ShowMessageFace("",0,0,2,36)
ShowMessage("Trembling in misery, I can't do anything but take her attacks.")
ShowMessageFace("kraken_fc1",1,0,2,37)
ShowMessage("\\n<Kraken>")
ShowMessage("Are you frustrated? Are you miserable?")
ShowMessage("But I won't pardon you.")
ShowMessageFace("kraken_fc1",1,0,2,38)
ShowMessage("\\n<Kraken>")
ShowMessage("While sending you to the pits of disgrace, I'll give you the highest of pleasure.")
ShowMessage("Wasting all of your semen, I'll make sure it's all squeezed out...")
ShowMessageFace("kraken_fc1",1,0,2,39)
ShowMessage("\\n<Kraken>")
ShowMessage("That is your punishment.")
ShowMessage("You have no choice but to lay there and take it!")
ShowMessageFace("",0,0,2,40)
ShowMessage("She quickens her pace as she forces me to come.")
ShowMessageFace("",0,0,2,41)
ShowMessage("To that increased stimulation, I finally give in to the desire.")
ShowMessageFace("",0,0,2,42)
ShowMessage("\\n<Luka>")
ShowMessage("Aaaaaa!!")
RunCommonEvent(104)
PictureDisplay(5,"ev_kraken_h2",0,0,0,0,100,100,255,0)
RunCommonEvent(105)
ShowMessageFace("",0,0,2,43)
ShowMessage("A cloud of semen shoots out from my penis, as if creating a white flag of surrender.")
PictureDisplay(5,"ev_kraken_h2a",0,0,0,0,100,100,255,0)
ShowMessageFace("",0,0,2,44)
ShowMessage("The semen shot out falls back onto her tentacle, covering it.")
ShowMessageFace("",0,0,2,45)
ShowMessage("\\n<Luka>")
ShowMessage("U-Ugh...")
ShowMessageFace("",0,0,2,46)
ShowMessage("I tremble in humiliation at being forced to come.")
ShowMessageFace("",0,0,2,47)
ShowMessage("But her punishment isn't over yet...")
ShowMessage("The tentacle coiled around my penis doesn't let go.")
ShowMessageFace("kraken_fc1",1,0,2,48)
ShowMessage("\\n<Kraken>")
ShowMessage("Haha... That's the first one.")
ShowMessage("Forced to come against your will... The ultimate disgrace for a man.")
ShowMessageFace("kraken_fc1",1,0,2,49)
ShowMessage("\\n<Kraken>")
ShowMessage("But even then, I can see it in your face that you felt good.")
ShowMessageFace("kraken_fc1",1,0,2,50)
ShowMessage("\\n<Kraken>")
ShowMessage("Are you horrified? Hahaha.")
ShowMessageFace("",0,0,2,51)
ShowMessage("Kraken gives a triumphant smile at me and continues her squeezing motion with her tentacle.")
ShowMessageFace("",0,0,2,52)
ShowMessage("Starting from the base of my penis, she starts to tighten the tentacle even more than before.")
ShowMessageFace("",0,0,2,53)
ShowMessage("The pressure slowly increases from the base of my penis up to the middle... Finally, she squeezes down on my tip.")
ShowMessageFace("",0,0,2,54)
ShowMessage("The slow rising squeezing motion forces all of the leftover semen in my penis from my last orgasm out.")
ShowMessage("Once she reaches my tip, the movement starts all over again from my base.")
ShowMessageFace("",0,0,2,55)
ShowMessage("\\n<Luka>")
ShowMessage("Aaaaa!!")
ShowMessageFace("",0,0,2,56)
ShowMessage("It's as if she's milking my penis with her squeezing movement...")
ShowMessageFace("",0,0,2,57)
ShowMessage("I involuntarily tighten my stomach to try to endure the sensation.")
ShowMessageFace("kraken_fc1",1,0,2,58)
ShowMessage("\\n<Kraken>")
ShowMessage("Even if you try to resist it, it's pointless.")
ShowMessage("Until I wring everything out, this won't end.")
ShowMessageFace("",0,0,2,59)
ShowMessage("\\n<Luka>")
ShowMessage("Aaaahhh...!")
ShowMessageFace("",0,0,2,60)
ShowMessage("Tightly bound by her tentacles, I can't do anything to stop her.")
ShowMessageFace("",0,0,2,61)
ShowMessage("No matter how I try to endure, the desire to release keeps boiling up.")
ShowMessage("My body twists and writhes, but there's no escape.")
ShowMessageFace("",0,0,2,62)
ShowMessage("With no refuge from her stimulation, I have to just lay here and take it...")
ShowMessageFace("",0,0,2,63)
ShowMessage("\\n<Luka>")
ShowMessage("Ah, Aaaaahhh...!")
ShowMessageFace("",0,0,2,64)
ShowMessage("Her milking movement quickens as I moan.")
ShowMessage("Forced to another orgasm, the moment of my disgrace explodes again.")
RunCommonEvent(104)
PictureDisplay(5,"ev_kraken_h3",0,0,0,0,100,100,255,0)
RunCommonEvent(105)
ShowMessageFace("",0,0,2,65)
ShowMessage("\\n<Luka>")
ShowMessage("Unnngh...")
PictureDisplay(5,"ev_kraken_h3a",0,0,0,0,100,100,255,0)
ShowMessageFace("",0,0,2,66)
ShowMessage("The semen falls back onto her tentacles, covering more of her.")
ShowMessage("As she continues to squeeze out all my semen, the sense of defeat fills my mind.")
ShowMessageFace("kraken_fc1",1,0,2,67)
ShowMessage("\\n<Kraken>")
ShowMessage("You seem to have a lot of semen...")
ShowMessage("We'll need to quickly get it all out...")
ShowMessageFace("",0,0,2,68)
ShowMessage("\\n<Luka>")
ShowMessage("Eh...? Ahhh!")
PictureDisplay(5,"ev_kraken_h4",0,0,0,0,100,100,255,0)
ShowMessageFace("",0,0,2,69)
ShowMessage("Suddenly, a tentacle forces itself into my anus.")
ShowMessage("Her soft tentacle invades my body, and starts to wriggle around.")
ShowMessageFace("kraken_fc1",1,0,2,70)
ShowMessage("\\n<Kraken>")
ShowMessage("Let's use this method of forcing a man to quickly come.")
ShowMessage("While I directly stimulate your prostate, I'll keep squeezing you...")
ShowMessageFace("",0,0,2,71)
ShowMessage("The tentacle inside of me starts to move.")
ShowMessageFace("",0,0,2,72)
ShowMessage("The tip of her tentacle starts to press against the walls of my rectum, as a strange trembling comes over my body.")
ShowMessageFace("",0,0,2,73)
ShowMessage("\\n<Luka>")
ShowMessage("Aiee! What is this!?")
ShowMessageFace("",0,0,2,74)
ShowMessage("The lower half of my body is completely overcome by a strong stimulation, as my resistance is shattered.")
RunCommonEvent(104)
PictureDisplay(5,"ev_kraken_h5",0,0,0,0,100,100,255,0)
RunCommonEvent(105)
ShowMessageFace("",0,0,2,75)
ShowMessage("More than last time, my semen explodes all over Kraken's tentacles.")
ShowMessageFace("",0,0,2,76)
ShowMessage("\\n<Luka>")
ShowMessage("Nnngh...")
ShowMessageFace("",0,0,2,77)
ShowMessage("The unexpected stimulation from the tentacle inside my ass forces me to come right away.")
ShowMessage("It was as if she pushed an orgasm button...")
ShowMessageFace("",0,0,2,78)
ShowMessage("More than ever before, the humiliation floods over my body.")
ShowMessageFace("kraken_fc1",1,0,2,79)
ShowMessage("\\n<Kraken>")
ShowMessage("I'll stimulate your prostate and squeeze out all your semen...")
ShowMessage("While taking your punishment, repent for your crimes...")
ShowMessageFace("",0,0,2,80)
ShowMessage("The tentacle in my ass starts to wriggle again.")
ShowMessage("Like last time, the pleasure floods through my lower body, and...")
ShowMessageFace("",0,0,2,81)
ShowMessage("\\n<Luka>")
ShowMessage("Ahh... No... This... Ahhh!")
RunCommonEvent(104)
RunCommonEvent(105)
ShowMessageFace("",0,0,2,82)
ShowMessage("Due to the strange pleasure, more semen gushes out.")
ShowMessage("It's as if she's completely in control of when I orgasm...")
ShowMessageFace("",0,0,2,83)
ShowMessage("With her tentacle still coiled around my penis, the milking doesn't stop.")
ShowMessage("In addition, the tentacle in my ass continues to wriggle around.")
ShowMessageFace("kraken_fc1",1,0,2,84)
ShowMessage("\\n<Kraken>")
ShowMessage("It looks like you still have more...")
ShowMessage("I guess I need to increase the stimulation to get everything out...")
ShowMessageFace("",0,0,2,85)
ShowMessage("\\n<Luka>")
ShowMessage("No, stop! Ahhhh!")
ShowMessageFace("",0,0,2,86)
ShowMessage("As she stimulates my prostate again, I let out a pathetic moan.")
RunCommonEvent(104)
RunCommonEvent(105)
ShowMessageFace("",0,0,2,87)
ShowMessage("The semen overflows and drips on the floor.")
ShowMessageFace("",0,0,2,88)
ShowMessage("\\n<Luka>")
ShowMessage("Auu... Stop already...")
ShowMessageFace("",0,0,2,89)
ShowMessage("Humiliated at my situation, tears start to fill my eyes.")
ShowMessage("Too much of my power has been drained, and all I can do is move my head side to side.")
ShowMessageFace("",0,0,2,90)
ShowMessage("My resistance is pointless, as I'm completely at the mercy of Kraken.")
ShowMessage("Ignoring my pleas, she continues her stimulation.")
ShowMessageFace("kraken_fc1",1,0,2,91)
ShowMessage("\\n<Kraken>")
ShowMessage("Haha... Such a pathetic appearance.")
ShowMessage("But I guess all men squeezed like this end up like that.")
ShowMessageFace("",0,0,2,92)
ShowMessage("\\n<Luka>")
ShowMessage("Auu... Aaaa...")
ShowMessageFace("",0,0,2,93)
ShowMessage("The tentacle in my rectum continues to wriggle around.")
ShowMessage("Without mercy, it continues to rub and stimulate my prostate.")
ShowMessageFace("",0,0,2,94)
ShowMessage("At the same time, the tentacle on my penis continues its milking movements.")
RunCommonEvent(104)
RunCommonEvent(105)
ShowMessageFace("",0,0,2,95)
ShowMessage("With the pleasure coming from both my front and the back, I'm forced to come again.")
ShowMessageFace("",0,0,2,96)
ShowMessage("\\n<Luka>")
ShowMessage("Auu... No more...")
ShowMessage("I can't come any more... Help me...")
ShowMessageFace("kraken_fc1",1,0,2,97)
ShowMessage("\\n<Kraken>")
ShowMessage("What are you saying? You have more in you...")
ShowMessage("Here, I'll show you...")
ShowMessageFace("",0,0,2,98)
ShowMessage("As she laughs, the tentacle rubs against my prostate again.")
RunCommonEvent(104)
RunCommonEvent(105)
ShowMessageFace("",0,0,2,99)
ShowMessage("Unable to resist, I instantly ejaculate again.")
ShowMessageFace("",0,0,2,100)
ShowMessage("She continues my punishment, squeezing out everything I have...")
ShowMessageFace("",0,0,2,101)
ShowMessage("Wallowing in misery, the only thing I can do is lay back and accept it.")
ShowMessageFace("kraken_fc1",1,0,2,102)
ShowMessage("\\n<Kraken>")
ShowMessage("More... Let out more...")
RunCommonEvent(104)
RunCommonEvent(105)
ShowMessageFace("kraken_fc1",1,0,2,103)
ShowMessage("\\n<Kraken>")
ShowMessage("It's not over yet...")
RunCommonEvent(104)
RunCommonEvent(105)
ShowMessageFace("kraken_fc1",1,0,2,104)
ShowMessage("\\n<Kraken>")
ShowMessage("There must be more left...")
RunCommonEvent(104)
RunCommonEvent(105)
221()
PictureClear(5)
PictureClear(6)
246(2)
ShowMessageFace("",0,0,2,105)
ShowMessage("As she continues her brutal rape, I finally faint.")
ShowMessage("While she squeezes out all of my semen, I lose consciousness.")
ShowMessageFace("",0,0,2,106)
ShowMessage("......")
RunCommonEvent(3998)
0()
