// EVENT 7002
Name "Marie: Match"

ShowMessageFace("mob_maid_fc1",0,0,2,1)
ShowMessage("\\n<Marie>Huhu, well then, I'll pleasure you with my hand.\nIt may only be a hand job, but don't underestimate\nmy skill.")
ShowMessageFace("mob_maid_fc1",0,0,2,2)
ShowMessage("\\n<Marie>I've lost count of how many men have succumbed to\nmy smooth palms and dexterous fingers. Will you be\nthe next on the list, Luka?")
ChangeSwitch(96,96,0)
ChangeSwitch(98,98,0)
ShowMessageFace("mob_maid_fc1",0,0,2,3)
ShowMessage("\\n<Marie>Let's find out... You have to resist my hand job\nfor 5 minutes, got it?")
ShowMessageFace("",0,0,2,4)
ShowMessage("As Marie pulls Luka's pants down, his erect penis")
ShowMessage("springs out right in front of her face.")
ShowMessageFace("mob_maid_fc1",0,0,2,5)
ShowMessage("\\n<Marie>Oh my, you're already so big. Don't come the\ninstant I touch you, all right?")
PictureDisplay(6,"ev_mob_maid_h1",0,0,120,50,100,100,255,0)
250(bytes(0x04,0x08,0x6f,0x3a,0x0c,0x52,0x50,0x47,0x3a,0x3a,0x53,0x45,0x08,0x3a,0x0a,0x40,0x6e,0x61,0x6d,0x65,0x49,0x22,0x12,0x6d,0x6f,0x6e,0x5f,0x65,0x72,0x6f,0x5f,0x6b,0x6f,0x6b,0x69,0x31,0x06,0x3a,0x06,0x45,0x54,0x3a,0x0b,0x40,0x70,0x69,0x74,0x63,0x68,0x69,0x69,0x3a,0x0c,0x40,0x76,0x6f,0x6c,0x75,0x6d,0x65,0x69,0x69))
ChangeVariable(11,11,0,2,4,6)
311(0,1,1,1,11,true)
ShowMessageFace("",0,0,2,6)
ShowMessage("Marie's tender hand takes a gentle hold of my penis! Its")
ShowMessage("warm, smooth sensation gradually spreads over each inch!\\D")
ShowMessage("Luka takes \\V[11] damage!")
ChangeVariable(27,27,0,3,3,1,2)
If(1,27,0,0,0)
 RunCommonEvent(7003)
 EndEventProcessing()
 0()
EndIf()
ShowMessageFace("mob_maid_fc1",0,0,2,7)
ShowMessage("\\n<Marie>Huhuhu, you're already hard.\nNow let me stroke you nice and slowly...")
250(bytes(0x04,0x08,0x6f,0x3a,0x0c,0x52,0x50,0x47,0x3a,0x3a,0x53,0x45,0x08,0x3a,0x0a,0x40,0x6e,0x61,0x6d,0x65,0x49,0x22,0x12,0x6d,0x6f,0x6e,0x5f,0x65,0x72,0x6f,0x5f,0x6b,0x6f,0x6b,0x69,0x31,0x06,0x3a,0x06,0x45,0x54,0x3a,0x0b,0x40,0x70,0x69,0x74,0x63,0x68,0x69,0x69,0x3a,0x0c,0x40,0x76,0x6f,0x6c,0x75,0x6d,0x65,0x69,0x69))
ChangeVariable(11,11,0,2,4,6)
311(0,1,1,1,11,true)
ShowMessageFace("",0,0,2,8)
ShowMessage("Marie begins methodically moving her hand back and forth,")
ShowMessage("drawing my penis across her soft palm!\\D")
ShowMessage("Luka takes \\V[11] damage!")
ChangeVariable(27,27,0,3,3,1,2)
If(1,27,0,0,0)
 RunCommonEvent(7004)
 EndEventProcessing()
 0()
EndIf()
ShowMessageFace("mob_maid_fc1",0,0,2,9)
ShowMessage("\\n<Marie>I'm starting off easy on you so try not to disappoint me. It'd be shameful to come from just this, wouldn't it?")
250(bytes(0x04,0x08,0x6f,0x3a,0x0c,0x52,0x50,0x47,0x3a,0x3a,0x53,0x45,0x08,0x3a,0x0a,0x40,0x6e,0x61,0x6d,0x65,0x49,0x22,0x12,0x6d,0x6f,0x6e,0x5f,0x65,0x72,0x6f,0x5f,0x6b,0x6f,0x6b,0x69,0x31,0x06,0x3a,0x06,0x45,0x54,0x3a,0x0b,0x40,0x70,0x69,0x74,0x63,0x68,0x69,0x69,0x3a,0x0c,0x40,0x76,0x6f,0x6c,0x75,0x6d,0x65,0x69,0x69))
ChangeVariable(11,11,0,2,4,6)
311(0,1,1,1,11,true)
ShowMessageFace("",0,0,2,10)
ShowMessage("Marie tightens her grip a bit and resumes stroking my penis!")
ShowMessage("I can feel the friction of her gentle movements beneath the")
ShowMessage("skin like a wave rippling up and down my shaft!\\D")
ShowMessage("Luka takes \\V[11] damage!")
ChangeVariable(27,27,0,3,3,1,2)
If(1,27,0,0,0)
 RunCommonEvent(7004)
 EndEventProcessing()
 0()
EndIf()
250(bytes(0x04,0x08,0x6f,0x3a,0x0c,0x52,0x50,0x47,0x3a,0x3a,0x53,0x45,0x08,0x3a,0x0a,0x40,0x6e,0x61,0x6d,0x65,0x49,0x22,0x12,0x6d,0x6f,0x6e,0x5f,0x65,0x72,0x6f,0x5f,0x6b,0x6f,0x6b,0x69,0x31,0x06,0x3a,0x06,0x45,0x54,0x3a,0x0b,0x40,0x70,0x69,0x74,0x63,0x68,0x69,0x69,0x3a,0x0c,0x40,0x76,0x6f,0x6c,0x75,0x6d,0x65,0x69,0x69))
ChangeVariable(11,11,0,2,4,6)
311(0,1,1,1,11,true)
ShowMessageFace("",0,0,2,11)
ShowMessage("As she takes a firmer grip on my penis, she focuses her")
ShowMessage("strokes around my glans, imparting a sweet stimulation!\\D")
ShowMessage("Luka takes \\V[11] damage!")
ChangeVariable(27,27,0,3,3,1,2)
If(1,27,0,0,0)
 RunCommonEvent(7004)
 EndEventProcessing()
 0()
EndIf()
If(1,27,0,25,4)
 ShowMessageFace("ruka_fc1",0,0,2,12)
 ShowMessage("\\n<Luka>Ah, aghhhhh...")
 ShowMessageFace("mob_maid_fc1",0,0,2,13)
 ShowMessage("\\n<Marie>Oh my, feeling that good already? Looks like this\nmight be over faster than I thought.")
 0()
Else()
 ShowMessageFace("mob_maid_fc1",0,0,2,14)
 ShowMessage("\\n<Marie>Huhu, you're holding up well, but you're only\nhalfway there...")
 0()
EndIf()
250(bytes(0x04,0x08,0x6f,0x3a,0x0c,0x52,0x50,0x47,0x3a,0x3a,0x53,0x45,0x08,0x3a,0x0a,0x40,0x6e,0x61,0x6d,0x65,0x49,0x22,0x12,0x6d,0x6f,0x6e,0x5f,0x65,0x72,0x6f,0x5f,0x6b,0x6f,0x6b,0x69,0x31,0x06,0x3a,0x06,0x45,0x54,0x3a,0x0b,0x40,0x70,0x69,0x74,0x63,0x68,0x69,0x69,0x3a,0x0c,0x40,0x76,0x6f,0x6c,0x75,0x6d,0x65,0x69,0x69))
ChangeVariable(11,11,0,2,4,6)
311(0,1,1,1,11,true)
ShowMessageFace("",0,0,2,15)
ShowMessage("Marie slowly speeds up her motions, stroking my penis faster")
ShowMessage("with every passing second!\\D")
ShowMessage("Luka takes \\V[11] damage!")
ChangeVariable(27,27,0,3,3,1,2)
If(1,27,0,0,0)
 RunCommonEvent(7004)
 EndEventProcessing()
 0()
EndIf()
250(bytes(0x04,0x08,0x6f,0x3a,0x0c,0x52,0x50,0x47,0x3a,0x3a,0x53,0x45,0x08,0x3a,0x0a,0x40,0x6e,0x61,0x6d,0x65,0x49,0x22,0x12,0x6d,0x6f,0x6e,0x5f,0x65,0x72,0x6f,0x5f,0x6b,0x6f,0x6b,0x69,0x31,0x06,0x3a,0x06,0x45,0x54,0x3a,0x0b,0x40,0x70,0x69,0x74,0x63,0x68,0x69,0x69,0x3a,0x0c,0x40,0x76,0x6f,0x6c,0x75,0x6d,0x65,0x69,0x69))
ChangeVariable(11,11,0,2,4,6)
311(0,1,1,1,11,true)
ShowMessageFace("",0,0,2,16)
ShowMessage("She gets into a rhythm, drawing my shaft through her tender")
ShowMessage("hand over and over. She forms a ring with her fingers, which")
ShowMessage("feels amazing each time it bumps into my head!\\D")
ShowMessage("Luka takes \\V[11] damage!")
ChangeVariable(27,27,0,3,3,1,2)
If(1,27,0,0,0)
 RunCommonEvent(7004)
 EndEventProcessing()
 0()
EndIf()
ShowMessageFace("mob_maid_fc1",0,0,2,17)
ShowMessage("\\n<Marie>That's enough foreplay. It's time to use a\nfew of my best techniques on you.")
250(bytes(0x04,0x08,0x6f,0x3a,0x0c,0x52,0x50,0x47,0x3a,0x3a,0x53,0x45,0x08,0x3a,0x0a,0x40,0x6e,0x61,0x6d,0x65,0x49,0x22,0x12,0x6d,0x6f,0x6e,0x5f,0x65,0x72,0x6f,0x5f,0x6b,0x6f,0x6b,0x69,0x31,0x06,0x3a,0x06,0x45,0x54,0x3a,0x0b,0x40,0x70,0x69,0x74,0x63,0x68,0x69,0x69,0x3a,0x0c,0x40,0x76,0x6f,0x6c,0x75,0x6d,0x65,0x69,0x69))
ChangeVariable(11,11,0,2,4,6)
311(0,1,1,1,11,true)
ShowMessageFace("",0,0,2,18)
ShowMessage("Marie's soft palms skillfully rub my glans while her fingers")
ShowMessage("work their magic on my tip!\\D")
ShowMessage("Luka takes \\V[11] damage!")
ChangeVariable(27,27,0,3,3,1,2)
If(1,27,0,0,0)
 RunCommonEvent(7005)
 EndEventProcessing()
 0()
EndIf()
250(bytes(0x04,0x08,0x6f,0x3a,0x0c,0x52,0x50,0x47,0x3a,0x3a,0x53,0x45,0x08,0x3a,0x0a,0x40,0x6e,0x61,0x6d,0x65,0x49,0x22,0x12,0x6d,0x6f,0x6e,0x5f,0x65,0x72,0x6f,0x5f,0x6b,0x6f,0x6b,0x69,0x31,0x06,0x3a,0x06,0x45,0x54,0x3a,0x0b,0x40,0x70,0x69,0x74,0x63,0x68,0x69,0x69,0x3a,0x0c,0x40,0x76,0x6f,0x6c,0x75,0x6d,0x65,0x69,0x69))
ChangeVariable(11,11,0,2,4,6)
311(0,1,1,1,11,true)
ShowMessageFace("",0,0,2,19)
ShowMessage("Her hands stroke my head and neck areas, the combination of")
ShowMessage("which feels like a loving caress on my end of my penis!\\D")
ShowMessage("Luka takes \\V[11] damage!")
ChangeVariable(27,27,0,3,3,1,2)
If(1,27,0,0,0)
 RunCommonEvent(7005)
 EndEventProcessing()
 0()
EndIf()
ShowMessageFace("mob_maid_fc1",0,0,2,20)
ShowMessage("\\n<Marie>Huhu, you're actually hanging in there...\nBut playtime is over.")
ShowMessageFace("mob_maid_fc1",0,0,2,21)
ShowMessage("\\n<Marie>You win if you can last another 30 seconds, but\nI've saved the best for last!")
250(bytes(0x04,0x08,0x6f,0x3a,0x0c,0x52,0x50,0x47,0x3a,0x3a,0x53,0x45,0x08,0x3a,0x0a,0x40,0x6e,0x61,0x6d,0x65,0x49,0x22,0x12,0x6d,0x6f,0x6e,0x5f,0x65,0x72,0x6f,0x5f,0x6b,0x6f,0x6b,0x69,0x31,0x06,0x3a,0x06,0x45,0x54,0x3a,0x0b,0x40,0x70,0x69,0x74,0x63,0x68,0x69,0x69,0x3a,0x0c,0x40,0x76,0x6f,0x6c,0x75,0x6d,0x65,0x69,0x69))
ChangeVariable(11,11,0,2,5,7)
311(0,1,1,1,11,true)
ShowMessageFace("",0,0,2,22)
ShowMessage("Her palm envelops my glans and gives it a stroking massage!")
ShowMessage("At the same time, her fingers trace around underneath it!\\D")
ShowMessage("Luka takes \\V[11] damage!")
ChangeVariable(27,27,0,3,3,1,2)
If(1,27,0,0,0)
 RunCommonEvent(7005)
 EndEventProcessing()
 0()
EndIf()
ShowMessageFace("mob_maid_fc1",0,0,2,23)
ShowMessage("\\n<Marie>10 more seconds...\nI'll make you come with this technique then!")
250(bytes(0x04,0x08,0x6f,0x3a,0x0c,0x52,0x50,0x47,0x3a,0x3a,0x53,0x45,0x08,0x3a,0x0a,0x40,0x6e,0x61,0x6d,0x65,0x49,0x22,0x12,0x6d,0x6f,0x6e,0x5f,0x65,0x72,0x6f,0x5f,0x6b,0x6f,0x6b,0x69,0x31,0x06,0x3a,0x06,0x45,0x54,0x3a,0x0b,0x40,0x70,0x69,0x74,0x63,0x68,0x69,0x69,0x3a,0x0c,0x40,0x76,0x6f,0x6c,0x75,0x6d,0x65,0x69,0x69))
ChangeVariable(11,11,0,2,6,8)
311(0,1,1,1,11,true)
ShowMessageFace("",0,0,2,24)
ShowMessage("With her fingers forming a ring, she rhythmically strokes")
ShowMessage("the head of my penis while her palm wraps my glans and acts")
ShowMessage("like its trying to rub my shaft clean!\\D")
ShowMessage("Luka takes \\V[11] damage!")
ChangeVariable(27,27,0,3,3,1,2)
If(1,27,0,0,0)
 RunCommonEvent(7005)
 EndEventProcessing()
 0()
EndIf()
RunCommonEvent(7007)
EndEventProcessing()
0()
