﻿// EVENT 0820
Name "アクセサリレア"

ChangeVariable(11,11,0,2,1,10)
If(1,11,0,1,0)
 ChangeInventoryArmor(3666,0,0,1,false)
 EndEventProcessing()
 0()
EndIf()
If(1,11,0,2,0)
 ChangeInventoryArmor(3667,0,0,1,false)
 EndEventProcessing()
 0()
EndIf()
If(1,11,0,3,0)
 ChangeInventoryArmor(3668,0,0,1,false)
 EndEventProcessing()
 0()
EndIf()
If(1,11,0,4,0)
 ChangeInventoryArmor(3669,0,0,1,false)
 EndEventProcessing()
 0()
EndIf()
If(1,11,0,5,0)
 ChangeInventoryArmor(3670,0,0,1,false)
 EndEventProcessing()
 0()
EndIf()
If(1,11,0,6,0)
 ChangeInventoryArmor(3671,0,0,1,false)
 EndEventProcessing()
 0()
EndIf()
If(1,11,0,7,0)
 ChangeInventoryArmor(3672,0,0,1,false)
 EndEventProcessing()
 0()
EndIf()
If(1,11,0,8,0)
 ChangeInventoryArmor(3673,0,0,1,false)
 EndEventProcessing()
 0()
EndIf()
If(1,11,0,9,0)
 ChangeInventoryArmor(3674,0,0,1,false)
 EndEventProcessing()
 0()
EndIf()
If(1,11,0,10,0)
 ChangeInventoryArmor(3675,0,0,1,false)
 EndEventProcessing()
 0()
EndIf()
0()
