// EVENT 4206
Name "Harpy"

If(0,25,1)
 221()
 PictureClear(5)
 PictureClear(6)
 ShowMessageFace("",0,0,2,0)
 ShowMessage("......")
 242(2)
 Wait(120)
 241(bytes(0x04,0x08,0x6f,0x3a,0x0d,0x52,0x50,0x47,0x3a,0x3a,0x42,0x47,0x4d,0x08,0x3a,0x0a,0x40,0x6e,0x61,0x6d,0x65,0x49,0x22,0x0c,0x63,0x61,0x73,0x74,0x6c,0x65,0x36,0x06,0x3a,0x06,0x45,0x54,0x3a,0x0c,0x40,0x76,0x6f,0x6c,0x75,0x6d,0x65,0x69,0x69,0x3a,0x0b,0x40,0x70,0x69,0x74,0x63,0x68,0x69,0x69))
 EndEventProcessing()
 0()
EndIf()
PictureDisplay(5,"80_hapy_a_st02",0,0,0,0,100,100,255,0)
ShowMessageFace("hapy_a_fc1",1,0,2,1)
ShowMessage("\\n<Reina>Hehe, you want to do bad things with me? You're such a pervert, wanting to get dirty with your companions...")
ShowMessageFace("",0,0,2,2)
ShowMessage("\\n<Luka>......")
ShowMessageFace("hapy_a_fc1",1,0,2,3)
ShowMessage("\\n<Reina>...It's all right, I'll do it.\nLet's go back to my room. ♪")
ShowMessageFace("",0,0,2,4)
ShowMessage("Thus, I was invited to Reina's room--")
221()
PictureDisplay(1,"bg195",0,0,0,0,100,100,255,0)
PictureDisplay(5,"80_hapy_a_st02",0,0,0,0,100,100,255,0)
222()
241(bytes(0x04,0x08,0x6f,0x3a,0x0d,0x52,0x50,0x47,0x3a,0x3a,0x42,0x47,0x4d,0x08,0x3a,0x0a,0x40,0x6e,0x61,0x6d,0x65,0x49,0x22,0x09,0x65,0x72,0x6f,0x31,0x06,0x3a,0x06,0x45,0x54,0x3a,0x0c,0x40,0x76,0x6f,0x6c,0x75,0x6d,0x65,0x69,0x69,0x3a,0x0b,0x40,0x70,0x69,0x74,0x63,0x68,0x69,0x69))
ShowMessageFace("hapy_a_fc1",1,0,2,5)
ShowMessage("\\n<Reina>Okay, mating time. ♪\nLet's make lots of babies. ♪")
ShowMessageFace("",0,0,2,6)
ShowMessage("Reina flashes me a smile as she gets on top of me.")
ShowMessageFace("",0,0,2,7)
ShowMessage("\\n<Luka>B-babies? Do we really have to go that far...")
ShowMessageFace("hapy_a_fc1",1,0,2,8)
ShowMessage("\\n<Reina>What do you mean? That's what mating is for. ♪ Hoora, let's put it in. ♪")
241(bytes(0x04,0x08,0x6f,0x3a,0x0d,0x52,0x50,0x47,0x3a,0x3a,0x42,0x47,0x4d,0x08,0x3a,0x0a,0x40,0x6e,0x61,0x6d,0x65,0x49,0x22,0x09,0x65,0x72,0x6f,0x31,0x06,0x3a,0x06,0x45,0x54,0x3a,0x0c,0x40,0x76,0x6f,0x6c,0x75,0x6d,0x65,0x69,0x69,0x3a,0x0b,0x40,0x70,0x69,0x74,0x63,0x68,0x69,0x69))
245(bytes(0x04,0x08,0x6f,0x3a,0x0d,0x52,0x50,0x47,0x3a,0x3a,0x42,0x47,0x53,0x08,0x3a,0x0a,0x40,0x6e,0x61,0x6d,0x65,0x49,0x22,0x1e,0x6d,0x6f,0x6e,0x5f,0x68,0x73,0x65,0x61,0x6e,0x30,0x32,0x5f,0x69,0x6e,0x6e,0x65,0x72,0x77,0x6f,0x72,0x6b,0x73,0x5f,0x61,0x32,0x06,0x3a,0x06,0x45,0x54,0x3a,0x0c,0x40,0x76,0x6f,0x6c,0x75,0x6d,0x65,0x69,0x55,0x3a,0x0b,0x40,0x70,0x69,0x74,0x63,0x68,0x69,0x69))
PictureDisplay(5,"ev_hapy_a_h5",0,0,0,0,100,100,255,0)
ShowMessageFace("",0,0,2,9)
ShowMessage("Reina quickly drops her waist.")
ShowMessage("I sink through her feathers into her warm vagina!")
ShowMessageFace("",0,0,2,10)
ShowMessage("\\n<Luka>Ahh....! Ahhhhh...")
ShowMessageFace("",0,0,2,11)
ShowMessage("Her insides were warm and moving around like it was a separate animal.")
ShowMessageFace("",0,0,2,12)
ShowMessage("The walls of Reina's insides are unusually rough, rubbing me with its grainy texture with every movement.")
ShowMessageFace("hapy_a_fc1",1,0,2,13)
ShowMessage("\\n<Reina>It feels amazing when I move like this, doesn't it?\nYou'll be able to enjoy it a lot as my little stallion.")
ShowMessageFace("hapy_a_fc1",1,0,2,14)
ShowMessage("\\n<Reina>Don't bother trying to hold it in, just let it all out in me.")
ShowMessageFace("",0,0,2,15)
ShowMessage("\\n<Luka>Auuuuu!")
ShowMessageFace("",0,0,2,16)
ShowMessage("Reina tightens her insides as I let out a yell.")
ShowMessageFace("",0,0,2,17)
ShowMessage("My penis is pressed from the base to the tip, the pleasure bringing me instantly to the edge.")
ShowMessageFace("",0,0,2,18)
ShowMessage("Only just having penetrated her, I'm already so close...")
ShowMessageFace("hapy_a_fc1",1,0,2,20)
ShowMessage("\\n<Reina>Fufu, are you already at your limit?\nIt's all right, just mate a lot with me.")
ShowMessageFace("",0,0,2,21)
ShowMessage("Moving in her wriggling insides, Reina tightens around me.")
ShowMessageFace("",0,0,2,22)
ShowMessage("As she tightens, the rough feeling from her grainy vagina gives a sharp increase in the pleasure in my waist.")
ShowMessageFace("hapy_a_fc1",1,0,2,23)
ShowMessage("\\n<Reina>Well? My child-making hole is the greatest, isn't it?\nLet it all out inside, and get me pregnant.")
ShowMessageFace("",0,0,2,24)
ShowMessage("\\n<Luka>Amazing... Your insides...")
ShowMessageFace("",0,0,2,25)
ShowMessage("Unable to resist, the desire to come in her rises in me.")
ShowMessage("Actually making a monster pregnant... If I can't endure, it would be the absolute worst form of breaking Ilias' law...")
ShowMessageFace("",0,0,2,26)
ShowMessage("The desire starts to overpower the horror of breaking the taboo...")
ShowMessage("In this amazing pussy, I want to let it out...")
ShowMessageFace("",0,0,2,27)
ShowMessage("\\n<Luka>Ahh... I can't... I'm coming!")
ShowMessageFace("hapy_a_fc1",1,0,2,28)
ShowMessage("\\n<Reina>Then... Let me help!")
ShowMessageFace("",0,0,2,29)
ShowMessage("As she says that, Reina tightly squeezes around me!")
ShowMessage("With the intense stimulation from her tightness, my body joins my mind in it's surrender to the Harpy.")
RunCommonEvent(104)
PictureDisplay(5,"ev_hapy_a_h6",0,0,0,0,100,100,255,0)
RunCommonEvent(105)
ShowMessageFace("",0,0,2,30)
ShowMessage("I explode inside Reina's hole.")
ShowMessageFace("",0,0,2,31)
ShowMessage("Having surrendered both physically and mentally, I accept my position as the Harpy's child-making mate.")
ShowMessageFace("hapy_a_fc1",1,0,2,32)
ShowMessage("\\n<Reina>Hahaha, you let out so much.\nWith this much, I'm sure to conceive.")
245(bytes(0x04,0x08,0x6f,0x3a,0x0d,0x52,0x50,0x47,0x3a,0x3a,0x42,0x47,0x53,0x08,0x3a,0x0a,0x40,0x6e,0x61,0x6d,0x65,0x49,0x22,0x1e,0x6d,0x6f,0x6e,0x5f,0x68,0x73,0x65,0x61,0x6e,0x30,0x36,0x5f,0x69,0x6e,0x6e,0x65,0x72,0x77,0x6f,0x72,0x6b,0x73,0x5f,0x61,0x36,0x06,0x3a,0x06,0x45,0x54,0x3a,0x0c,0x40,0x76,0x6f,0x6c,0x75,0x6d,0x65,0x69,0x55,0x3a,0x0b,0x40,0x70,0x69,0x74,0x63,0x68,0x69,0x69))
ShowMessageFace("",0,0,2,33)
ShowMessage("As Reina laughs and rubs her lower waist, she starts to violently grind her waist against me!")
ShowMessageFace("",0,0,2,35)
ShowMessage("\\n<Luka>Wh... What are you...")
ShowMessageFace("",0,0,2,36)
ShowMessage("The sudden stimulation as I'm still sensitive after ejaculating causes my body to writhe.")
ShowMessageFace("hapy_a_fc1",1,0,2,37)
ShowMessage("\\n<Reina>I want more of your energetic semen...\nLet out more!")
ShowMessageFace("hapy_a_fc1",1,0,2,38)
ShowMessage("\\n<Reina>Put more of your virile milk in me!")
ShowMessageFace("",0,0,2,39)
ShowMessage("As if trying to hurt me, she slams her waist back and forth into mine.")
ShowMessage("Completely at her mercy, I writhe as she pumps me.")
ShowMessageFace("",0,0,2,40)
ShowMessage("\\n<Luka>Aaaaaahhhh!")
ShowMessageFace("",0,0,2,41)
ShowMessage("Violently moving, the Harpy keeps moving faster and faster.")
ShowMessage("Unable to concentrate on anything but the forced pleasure, my vision starts to go hazy.")
ShowMessageFace("",0,0,2,42)
ShowMessage("Being completely dominated by her, I have no choice but to accept the torture.")
ShowMessageFace("hapy_a_fc1",1,0,2,43)
ShowMessage("\\n<Reina>Hahaha... Shoot more in me!\nI know you can't endure much more of this.")
ShowMessageFace("",0,0,2,44)
ShowMessage("\\n<Luka>No more... Ahhhhh!")
ShowMessageFace("",0,0,2,45)
ShowMessage("Her fast movements cause the roughness of her walls to shoot ecstasy through me with their grainy texture.")
ShowMessageFace("",0,0,2,46)
ShowMessage("From the surface to the tip, my dick feels like it's melting inside of her.")
ShowMessageFace("hapy_a_fc1",1,0,2,47)
ShowMessage("\\n<Reina>Now... Inseminate me again.")
ShowMessageFace("",0,0,2,48)
ShowMessage("\\n<Luka>Aaa....aahhhhh...")
RunCommonEvent(104)
PictureDisplay(5,"ev_hapy_a_h7",0,0,0,0,100,100,255,0)
RunCommonEvent(105)
ShowMessageFace("",0,0,2,49)
ShowMessage("I explode inside of Reina again, shooting more of my seed into her.")
ShowMessageFace("",0,0,2,50)
ShowMessage("Even though it was my second time, there was a surprising amount.")
ShowMessageFace("hapy_a_fc1",1,0,2,51)
ShowMessage("\\n<Reina>That's it...\nPut all of your child-making seed in me...")
ShowMessageFace("hapy_a_fc1",1,0,2,52)
ShowMessage("\\n<Reina>We can make a lot of cute babies.")
ShowMessageFace("",0,0,2,53)
ShowMessage("After my last spurt, Reina starts to move her waist again.")
ShowMessage("Making deep movements, she continues to rape me.")
ShowMessageFace("",0,0,2,54)
ShowMessage("Each forced thrust of pleasure seems to drain more of my energy.")
ShowMessageFace("",0,0,2,55)
ShowMessage("\\n<Luka>St...op it alre...ady...")
ShowMessageFace("hapy_a_fc1",1,0,2,56)
ShowMessage("\\n<Reina>It's way too early to stop.\nUntil there's nothing left, I want all of your seed.")
ShowMessageFace("",0,0,2,57)
ShowMessage("\\n<Luka>Ahhhhh!")
RunCommonEvent(104)
PictureDisplay(5,"ev_hapy_a_h8",0,0,0,0,100,100,255,0)
RunCommonEvent(105)
ShowMessageFace("",0,0,2,58)
ShowMessage("Our mating continued for a long time after that...")
ShowMessage("Forced to come over and over, I lose consciousness.")
ShowMessageFace("",0,0,2,59)
ShowMessage("Squeezed until I was empty, I fainted in ecstasy.")
246(1)
ShowMessageFace("hapy_a_fc1",1,0,2,60)
ShowMessage("\\n<Reina>Oh? Down already?\nDid I ride him a little too hard?")
ShowMessageFace("hapy_a_fc1",1,0,2,61)
ShowMessage("\\n<Reina>I got a lot of sperm out of him though...\nI wonder if I should have babies...\nHmmm...")
ShowMessageFace("",0,0,2,62)
ShowMessage("\\n<Luka>..............")
221()
PictureClear(1)
PictureClear(5)
246(2)
ShowMessageFace("",0,0,2,63)
ShowMessage("..............")
242(2)
Wait(120)
241(bytes(0x04,0x08,0x6f,0x3a,0x0d,0x52,0x50,0x47,0x3a,0x3a,0x42,0x47,0x4d,0x08,0x3a,0x0a,0x40,0x6e,0x61,0x6d,0x65,0x49,0x22,0x0c,0x63,0x61,0x73,0x74,0x6c,0x65,0x36,0x06,0x3a,0x06,0x45,0x54,0x3a,0x0c,0x40,0x76,0x6f,0x6c,0x75,0x6d,0x65,0x69,0x69,0x3a,0x0b,0x40,0x70,0x69,0x74,0x63,0x68,0x69,0x69))
0()
