﻿// EVENT 0530
Name "コラボ後日談：エスト"

ShowMessageFace("",0,0,2,1)
ShowMessage("\\n<係員>")
ShowMessage("こちらは出場受付となります。")
ShowMessage("どの試合に参加されますか……？")
If(0,4,0)
 ShowMessageFace("alice_fc5",0,0,2,2)
 ShowMessage("\\n<Alice>")
 ShowMessage("エストと戦えるなら、何でもいい。")
 0()
EndIf()
If(0,5,0)
 ShowMessageFace("iriasu_fc4",7,0,2,3)
 ShowMessage("\\n<Ilias>")
 ShowMessage("何でも良いので、エストと戦える試合にしなさい。")
 0()
EndIf()
ShowMessageFace("",0,0,2,4)
ShowMessage("\\n<係員>")
ShowMessage("では、このトーナメントの申請書に――")
242(1)
221()
ShowMessageFace("",0,0,2,5)
ShowMessage("こうして僕達は、トーナメントに参加した。")
ShowMessage("難なく試合を勝ち抜き、決勝でエストとの試合となったのである――")
TeleportPlayer(0,483,32,31,6,2)
241(bytes(0x04,0x08,0x6f,0x3a,0x0d,0x52,0x50,0x47,0x3a,0x3a,0x42,0x47,0x4d,0x08,0x3a,0x0a,0x40,0x6e,0x61,0x6d,0x65,0x49,0x22,0x0a,0x71,0x75,0x65,0x65,0x6e,0x06,0x3a,0x06,0x45,0x54,0x3a,0x0c,0x40,0x76,0x6f,0x6c,0x75,0x6d,0x65,0x69,0x69,0x3a,0x0b,0x40,0x70,0x69,0x74,0x63,0x68,0x69,0x69))
222()
PictureDisplay(5,"80_est_st01",0,0,0,0,100,100,0,0)
PictureMove(5,null,0,0,0,0,100,100,255,0,30,true)
ShowMessageFace("est_fc1",1,0,2,6)
ShowMessage("\\n<Est>")
ShowMessage("あら……次の相手は、あなた達なの。")
ShowMessage("うふふっ、とても愉しめそうね……")
ShowMessageFace("rovissa_fc1",0,0,2,7)
ShowMessage("\\n<Rovissa>")
ShowMessage("エスト……いったい何を考えてるの？")
ShowMessageFace("est_fc1",1,0,2,8)
ShowMessage("\\n<Est>")
ShowMessage("コロシアム……面白いじゃない。")
ShowMessage("ぶつかり合い、感じ合う肉体と肉体……♡")
If(0,4,0)
 ShowMessageFace("alice_fc5",2,0,2,9)
 ShowMessage("\\n<Alice>")
 ShowMessage("そもそも貴様、物理攻撃は効かんではないか。")
 ShowMessage("反則もいいところだぞ……")
 0()
EndIf()
If(0,5,0)
 ShowMessageFace("iriasu_fc4",2,0,2,10)
 ShowMessage("\\n<Ilias>")
 ShowMessage("そもそも、貴方は物理攻撃は効かないでしょう。")
 ShowMessage("反則もいいところですね……")
 0()
EndIf()
ShowMessageFace("est_fc1",1,0,2,11)
ShowMessage("\\n<Est>")
ShowMessage("アタシを前にした闘士は、みんな性技で挑んでくるわ。")
ShowMessage("それを堕としてあげるの……ゆっくり、気持ち良くね。")
ShowMessageFace("est_fc1",1,0,2,12)
ShowMessage("\\n<Est>")
ShowMessage("対戦相手も、観客も悦んでくれるわ……")
ShowMessage("ここは、夢に溢れた素敵な場所よ♪")
ShowMessageFace("rovissa_fc1",0,0,2,13)
ShowMessage("\\n<Rovissa>")
ShowMessage("ふん、趣味が悪いわね……")
ShowMessage("どちらにしろ、やりたい放題はさせないわ！")
ShowMessageFace("ruka_fc1",0,0,2,14)
ShowMessage("\\n<Luka>")
ShowMessage("そういうわけで……")
ShowMessage("悪いけど、ここは勝たせてもらう！")
ShowMessageFace("est_fc1",1,0,2,15)
ShowMessage("\\n<Est>")
ShowMessage("勝ち負けなんて忘れて、愉しまないと……")
ShowMessage("さあ、快楽の夢に溺れなさい♡")
SetBattleBGM(bytes(0x04,0x08,0x6f,0x3a,0x0d,0x52,0x50,0x47,0x3a,0x3a,0x42,0x47,0x4d,0x08,0x3a,0x0a,0x40,0x6e,0x61,0x6d,0x65,0x49,0x22,0x08,0x63,0x62,0x35,0x06,0x3a,0x06,0x45,0x54,0x3a,0x0c,0x40,0x76,0x6f,0x6c,0x75,0x6d,0x65,0x69,0x69,0x3a,0x0b,0x40,0x70,0x69,0x74,0x63,0x68,0x69,0x69))
283("コロシアム","")
Battle(0,1426,false,false)
SetBattleBGM(bytes(0x04,0x08,0x6f,0x3a,0x0d,0x52,0x50,0x47,0x3a,0x3a,0x42,0x47,0x4d,0x08,0x3a,0x0a,0x40,0x6e,0x61,0x6d,0x65,0x49,0x22,0x0b,0x62,0x61,0x74,0x74,0x6c,0x65,0x06,0x3a,0x06,0x45,0x54,0x3a,0x0c,0x40,0x76,0x6f,0x6c,0x75,0x6d,0x65,0x69,0x69,0x3a,0x0b,0x40,0x70,0x69,0x74,0x63,0x68,0x69,0x69))
241(bytes(0x04,0x08,0x6f,0x3a,0x0d,0x52,0x50,0x47,0x3a,0x3a,0x42,0x47,0x4d,0x08,0x3a,0x0a,0x40,0x6e,0x61,0x6d,0x65,0x49,0x22,0x14,0x73,0x63,0x65,0x6e,0x65,0x5f,0x65,0x70,0x69,0x6c,0x6f,0x67,0x75,0x65,0x31,0x06,0x3a,0x06,0x45,0x54,0x3a,0x0c,0x40,0x76,0x6f,0x6c,0x75,0x6d,0x65,0x69,0x69,0x3a,0x0b,0x40,0x70,0x69,0x74,0x63,0x68,0x69,0x69))
314(0,0)
ShowMessageFace("est_fc1",1,0,2,16)
ShowMessage("\\n<Est>")
ShowMessage("ふふっ、本当に素敵ね♡")
ShowMessage("こんなに愉しめて満足よ……♡")
If(0,4,0)
 ShowMessageFace("alice_fc5",2,0,2,17)
 ShowMessage("\\n<Alice>")
 ShowMessage("貴様ほど危険な者を、放置はしておけん。")
 ShowMessage("元の世界に戻るまで、管理下に置かせてもらうぞ。")
 0()
EndIf()
If(0,5,0)
 ShowMessageFace("iriasu_fc4",7,0,2,18)
 ShowMessage("\\n<Ilias>")
 ShowMessage("貴方は危険な存在、放置などできません。")
 ShowMessage("元の世界に戻るまで、監視下に置かせてもらいますよ。")
 0()
EndIf()
ShowMessageFace("est_fc1",1,0,2,19)
ShowMessage("\\n<Est>")
ShowMessage("あら、アタシを飼う気……？")
ShowMessage("夢を繋ぎ止めておくなんて、誰にもできないわ。")
ShowMessageFace("rovissa_fc1",0,0,2,20)
ShowMessage("\\n<Rovissa>")
ShowMessage("ふん、こっちから願い下げよ！")
ShowMessage("ねぇ、ラルス！")
ShowMessageFace("lars_fc01",0,0,2,21)
ShowMessage("\\n<Lars>")
ShowMessage("……………………")
ShowMessageFace("",0,0,2,22)
ShowMessage("ラルスは複雑な表情をしている……")
ShowMessageFace("est_fc1",1,0,2,23)
ShowMessage("\\n<Est>")
ShowMessage("でも、この快楽に溢れた世界を回るのも愉しそうね。")
ShowMessage("まだまだ、味わっていない悦びがたくさんありそう……")
If(0,4,0)
 ShowMessageFace("alice_fc5",0,0,2,24)
 ShowMessage("\\n<Alice>")
 ShowMessage("まあ、退屈はしないだろうな。")
 0()
EndIf()
If(0,5,0)
 ShowMessageFace("iriasu_fc4",2,0,2,25)
 ShowMessage("\\n<Ilias>")
 ShowMessage("この世界、退屈する事はないでしょうね……")
 0()
EndIf()
ShowMessageFace("est_fc1",1,0,2,26)
ShowMessage("\\n<Est>")
ShowMessage("そうね……一緒に行ってあげてもいいわよ。")
ShowMessage("アタシを愉しませてくれる限り……ね♡")
PictureClear(5)
205(0,bytes(0x04,0x08,0x6f,0x3a,0x13,0x52,0x50,0x47,0x3a,0x3a,0x4d,0x6f,0x76,0x65,0x52,0x6f,0x75,0x74,0x65,0x09,0x3a,0x0c,0x40,0x72,0x65,0x70,0x65,0x61,0x74,0x46,0x3a,0x0f,0x40,0x73,0x6b,0x69,0x70,0x70,0x61,0x62,0x6c,0x65,0x46,0x3a,0x0a,0x40,0x77,0x61,0x69,0x74,0x54,0x3a,0x0a,0x40,0x6c,0x69,0x73,0x74,0x5b,0x09,0x6f,0x3a,0x15,0x52,0x50,0x47,0x3a,0x3a,0x4d,0x6f,0x76,0x65,0x43,0x6f,0x6d,0x6d,0x61,0x6e,0x64,0x07,0x3a,0x0a,0x40,0x63,0x6f,0x64,0x65,0x69,0x2a,0x3a,0x10,0x40,0x70,0x61,0x72,0x61,0x6d,0x65,0x74,0x65,0x72,0x73,0x5b,0x00,0x6f,0x3b,0x0a,0x07,0x3b,0x0b,0x69,0x13,0x3b,0x0c,0x5b,0x07,0x69,0xf7,0x69,0x00,0x6f,0x3b,0x0a,0x07,0x3b,0x0b,0x69,0x2c,0x3b,0x0c,0x5b,0x00,0x6f,0x3b,0x0a,0x07,0x3b,0x0b,0x69,0x00,0x3b,0x0c,0x5b,0x00))
355("add_actor_ex(803)")
249(bytes(0x04,0x08,0x6f,0x3a,0x0c,0x52,0x50,0x47,0x3a,0x3a,0x4d,0x45,0x08,0x3a,0x0a,0x40,0x6e,0x61,0x6d,0x65,0x49,0x22,0x0c,0x66,0x61,0x6e,0x66,0x61,0x6c,0x65,0x06,0x3a,0x06,0x45,0x54,0x3a,0x0b,0x40,0x70,0x69,0x74,0x63,0x68,0x69,0x69,0x3a,0x0c,0x40,0x76,0x6f,0x6c,0x75,0x6d,0x65,0x69,0x69))
ShowMessageFace("",0,0,2,27)
ShowMessage("エストが仲間に加わった！")
ChangeVariable(1218,1218,0,0,3)
Wait(60)
If(0,4,0)
 ShowMessageFace("alice_fc5",1,0,2,28)
 ShowMessage("\\n<Alice>")
 ShowMessage("やれやれ、苦労を掛けさせてくれたものだ。")
 ShowMessage("だが、仲間になれば心強いな……")
 0()
EndIf()
If(0,5,0)
 ShowMessageFace("iriasu_fc4",0,0,2,29)
 ShowMessage("\\n<Ilias>")
 ShowMessage("まったく、手間を掛けさせてくれたものです。")
 ShowMessage("しかし、仲間になれば心強いですね……")
 0()
EndIf()
ShowMessageFace("rovissa_fc1",0,0,2,30)
ShowMessage("\\n<Rovissa>")
ShowMessage("私は、賛成できないけどね……")
ShowMessage("寝首を掻かれても、知らないわよ。")
ShowMessageFace("est_fc1",1,0,2,31)
ShowMessage("\\n<Est>")
ShowMessage("ふふっ……そんな事はしないわ。")
ShowMessage("ちょっと夢に出てきて、悪戯するかもしれないけど……")
ShowMessageFace("byakunen_fc2",0,0,2,32)
ShowMessage("\\n<Hakunen>")
ShowMessage("夢の中でさえ、気が抜けないとは……")
If(1,1216,0,5,1)
 If(1,1219,0,0,0)
  ChangeVariable(1219,1219,0,0,1)
  0()
 EndIf()
 0()
EndIf()
If(1,1213,0,3,1)
 If(1,1214,0,9,1)
  If(1,1215,0,5,1)
   If(1,1216,0,6,1)
    If(1,1217,0,5,1)
     If(1,1218,0,3,1)
      ShowMessageFace("",0,0,2,33)
      ShowMessage("ともかく、これで世界をうろつく全ての同盟者を仲間にした。")
      ShowMessage("今度こそ本当に、あの一件が全て片付いたのだ――")
      242(1)
      221()
      Wait(60)
      211(0)
      TeleportPlayer(0,950,22,17,0,2)
      222()
      EndEventProcessing()
      0()
     EndIf()
     0()
    EndIf()
    0()
   EndIf()
   0()
  EndIf()
  0()
 EndIf()
 0()
EndIf()
ShowMessageFace("",0,0,2,34)
ShowMessage("ともかく、これでこの一件は片付いた。")
ShowMessage("他の同盟者達の行方を追うとしよう――")
242(1)
221()
TeleportPlayer(0,484,14,10,2,2)
222()
0()
