// EVENT 5297
Name "/カサンドラ"

241(bytes(0x04,0x08,0x6f,0x3a,0x0d,0x52,0x50,0x47,0x3a,0x3a,0x42,0x47,0x4d,0x08,0x3a,0x0a,0x40,0x6e,0x61,0x6d,0x65,0x49,0x22,0x09,0x65,0x72,0x6f,0x31,0x06,0x3a,0x06,0x45,0x54,0x3a,0x0c,0x40,0x76,0x6f,0x6c,0x75,0x6d,0x65,0x69,0x69,0x3a,0x0b,0x40,0x70,0x69,0x74,0x63,0x68,0x69,0x69))
PictureDisplay(5,"80_cassandra_st02",0,0,0,0,100,100,0,0)
PictureMove(5,null,0,0,0,0,100,100,255,0,30,true)
ShowMessageFace("",0,0,2,1)
ShowMessage("【ルカ】")
ShowMessage("あぅぅぅ……")
ShowMessageFace("",0,0,2,2)
ShowMessage("精を放ち、脱力してしまう僕――")
ShowMessage("その体を、じゅるじゅるとカサンドラの粘肉が取り巻いていく。")
250(bytes(0x04,0x08,0x6f,0x3a,0x0c,0x52,0x50,0x47,0x3a,0x3a,0x53,0x45,0x08,0x3a,0x0a,0x40,0x6e,0x61,0x6d,0x65,0x49,0x22,0x13,0x6d,0x6f,0x6e,0x5f,0x65,0x72,0x6f,0x5f,0x73,0x6c,0x69,0x6d,0x65,0x33,0x06,0x3a,0x06,0x45,0x54,0x3a,0x0b,0x40,0x70,0x69,0x74,0x63,0x68,0x69,0x69,0x3a,0x0c,0x40,0x76,0x6f,0x6c,0x75,0x6d,0x65,0x69,0x69))
245(bytes(0x04,0x08,0x6f,0x3a,0x0d,0x52,0x50,0x47,0x3a,0x3a,0x42,0x47,0x53,0x08,0x3a,0x0a,0x40,0x6e,0x61,0x6d,0x65,0x49,0x22,0x1a,0x6d,0x6f,0x6e,0x5f,0x68,0x73,0x65,0x61,0x6e,0x32,0x31,0x5f,0x74,0x65,0x6e,0x74,0x61,0x63,0x6c,0x65,0x32,0x06,0x3a,0x06,0x45,0x54,0x3a,0x0c,0x40,0x76,0x6f,0x6c,0x75,0x6d,0x65,0x69,0x55,0x3a,0x0b,0x40,0x70,0x69,0x74,0x63,0x68,0x69,0x69))
PictureDisplay(5,"ev_cassandra_hb1",0,0,0,0,100,100,255,0)
ShowMessageFace("",0,0,2,3)
ShowMessage("その粘肉が寄り集まって、不気味な器官を形成し――")
ShowMessage("僕の体を、その内部へと取り込んでしまった。")
ShowMessageFace("",0,0,2,4)
ShowMessage("【ルカ】")
ShowMessage("ぐっ……！ なんだ、これ……！！")
ShowMessageFace("",0,0,2,5)
ShowMessage("異様な器官に囚われ、僕はもがこうとする。")
ShowMessage("しかし粘肉で全身を完全に絡め取られ、動かす事さえできなかった。")
ShowMessageFace("",0,0,2,6)
ShowMessage("こんなおぞましい状況で、いったい何をされるのか――")
ShowMessage("想像しただけでも、思わず寒気がしてしまう。")
ShowMessageFace("cassandra_fc1",1,0,2,7)
ShowMessage("【カサンドラ】")
ShowMessage("私は、自身の体組織や内臓器官を外部に展開する事もできるのです。")
ShowMessage("つまり、この空間は私の体内そのもの――")
ShowMessageFace("cassandra_fc1",1,0,2,8)
ShowMessage("【カサンドラ】")
ShowMessage("そしてあなたが捕らえられたのは、私の体組織で形成した搾精器官。")
ShowMessage("いわば、あなたはオス搾りの肉檻に囚われてしまったのですよ。")
ShowMessageFace("",0,0,2,9)
ShowMessage("【ルカ】")
ShowMessage("そ、そんな……あぅぅ……")
ShowMessageFace("",0,0,2,10)
ShowMessage("外部に露出している肉棒に、濃厚な粘肉がねっとりと垂れてきた。")
ShowMessage("そのまま粘肉はねとねとと肉棒に絡みつき、妖しく這い回ってくる――")
ShowMessageFace("cassandra_fc1",1,0,2,11)
ShowMessage("【カサンドラ】")
ShowMessage("ほぉら……男を悦ばせ、射精に導く淫肉が……")
ShowMessage("あなたの男性器に、じっくりと絡みついてきましたよ……")
ShowMessageFace("",0,0,2,12)
ShowMessage("【ルカ】")
ShowMessage("こんなの……あ、あぅぅぅぅ……")
ShowMessageFace("",0,0,2,13)
ShowMessage("意志を持っているかのように蠢く粘肉が、じゅくじゅくと肉棒に")
ShowMessage("まとわりついてくる。")
ShowMessageFace("",0,0,2,14)
ShowMessage("そのままサオを覆い、じっくりと締め付け、粘っこい刺激を与えてきた。")
ShowMessage("さらにカリの溝を覆い、にゅぐにゅぐと這い回ってくる――")
ShowMessageFace("",0,0,2,15)
ShowMessage("【ルカ】")
ShowMessage("あ……あぅぅぅ……！！")
ShowMessageFace("",0,0,2,16)
ShowMessage("ねちっこく絡みつくような快感に、僕は思わず身を震わせてしまった。")
ShowMessageFace("",0,0,2,17)
ShowMessage("粘肉はねっとりとペニスを覆い、じゅるじゅる巻き付いてくる。")
ShowMessage("さらにサオを包んだまま妖しくうねり、亀頭に這い回ってきた――")
ShowMessageFace("cassandra_fc1",1,0,2,18)
ShowMessage("【カサンドラ】")
ShowMessage("ほぉら、よく見ておきなさい。")
ShowMessage("御自分の男性器が、粘肉で淫らに弄ばれている様を……")
ShowMessageFace("",0,0,2,19)
ShowMessage("【ルカ】")
ShowMessage("あぅぅぅぅ……")
ShowMessageFace("",0,0,2,20)
ShowMessage("得体の知れない粘肉に、男の象徴である器官が蹂躙されている――")
ShowMessage("その様子を、意図的に見せ付けられているのだ。")
ShowMessageFace("",0,0,2,21)
ShowMessage("自分の肉棒に、粘肉がうじゅうじゅと這い回るのを眺める事しかできない恥辱。")
ShowMessage("このまま射精させられるなんて、男として屈辱の極みなのに――")
ShowMessageFace("cassandra_fc1",1,0,2,22)
ShowMessage("【カサンドラ】")
ShowMessage("ふふっ、実に惨めでしょう……？")
ShowMessage("このまま、なすすべもなく射精させられてしまうのですよ。")
ShowMessageFace("cassandra_fc1",1,0,2,23)
ShowMessage("【カサンドラ】")
ShowMessage("あなたの子供の素である精子が、無様に撒き散らされ……")
ShowMessage("この私に食べられ、養分にされてしまうのです。")
ShowMessageFace("cassandra_fc1",1,0,2,24)
ShowMessage("【カサンドラ】")
ShowMessage("生物として、オスとして……")
ShowMessage("これほど惨めなことは存在しないでしょう？")
ShowMessageFace("",0,0,2,25)
ShowMessage("【ルカ】")
ShowMessage("や、やめてぇ……あぁぁっ……！")
ShowMessageFace("",0,0,2,26)
ShowMessage("カリ首の溝を包み込み、ぞわぞわと這い回る粘肉。")
ShowMessage("裏筋にもねちっこく這い回られ、じっくりと刺激され――")
ShowMessageFace("",0,0,2,27)
ShowMessage("その異様な蠢きは、腰の辺りに甘い痺れをもたらした。")
ShowMessage("粘っこい快楽をペニスに与えられ、早くも射精感が湧き上がってきたのだ。")
ShowMessageFace("",0,0,2,28)
ShowMessage("【ルカ】")
ShowMessage("あぅぅ……出ちゃうよぉ……")
ShowMessageFace("cassandra_fc1",1,0,2,29)
ShowMessage("【カサンドラ】")
ShowMessage("ふふっ、もう果てるのですか。")
ShowMessage("ご自身の性器が快感に屈し、精液を吐き出す様をよくごらんなさい……")
ShowMessageFace("",0,0,2,30)
ShowMessage("裏筋やカリに粘肉が取り付き、ねちっこく這い回ってくる。")
ShowMessage("包み込まれ、締め付けられ、うじゅうじゅと蠢き――")
ShowMessageFace("",0,0,2,31)
ShowMessage("ペニスにもたらされる甘い粘肉マッサージに、僕は身を任せてしまった。")
ShowMessage("口が思わず半開きになり、頭の中が真っ白になってしまう――")
ShowMessageFace("",0,0,2,32)
ShowMessage("【ルカ】")
ShowMessage("あ、あぁぁぁぁ……")
RunCommonEvent(104)
PictureDisplay(5,"ev_cassandra_hb2",0,0,0,0,100,100,255,0)
RunCommonEvent(105)
ShowMessageFace("",0,0,2,33)
ShowMessage("甘い絶頂感と共に、精液がびゅるびゅると放たれた。")
ShowMessage("発射された白濁は、粘肉の上へと撒き散らされていく。")
ShowMessageFace("",0,0,2,34)
ShowMessage("【ルカ】")
ShowMessage("ふぁぁぁぁ……")
ShowMessageFace("",0,0,2,35)
ShowMessage("その快感と、そして深い屈辱感に脱力してしまう。")
ShowMessageFace("",0,0,2,36)
ShowMessage("粘肉に取り付かれた肉棒が快楽に屈し、精液を吐き出す様子――")
ShowMessage("男の屈辱の瞬間を、わざわざ見せ付けられてしまったのだ。")
ShowMessageFace("",0,0,2,37)
ShowMessage("それはまるで、男のプライドを踏みにじられたかのようだった――")
ShowMessageFace("cassandra_fc1",1,0,2,38)
ShowMessage("【カサンドラ】")
ShowMessage("ふふっ、気持ちよかったでしょう……？")
ShowMessage("快楽に屈し、惨めに果てる気分が味わえたでしょう？")
ShowMessageFace("cassandra_fc1",1,0,2,39)
ShowMessage("【カサンドラ】")
ShowMessage("……ですが、お遊びはここまでです。")
ShowMessage("これからは、餌として容赦なく搾りますよ。")
ShowMessageFace("",0,0,2,40)
ShowMessage("【ルカ】")
ShowMessage("や、やめてぇ……")
PictureDisplay(5,"ev_cassandra_hb3",0,0,0,0,100,100,255,0)
ShowMessageFace("",0,0,2,41)
ShowMessage("粘肉器官の蓋が閉じ、僕の股間部が密閉されてしまう。")
ShowMessage("それは、これから行われる無慈悲な搾精の第一歩だった――")
ShowMessageFace("",0,0,2,42)
ShowMessage("【ルカ】")
ShowMessage("あ、あぁぁぁぁぁぁ――！！")
245(bytes(0x04,0x08,0x6f,0x3a,0x0d,0x52,0x50,0x47,0x3a,0x3a,0x42,0x47,0x53,0x08,0x3a,0x0a,0x40,0x6e,0x61,0x6d,0x65,0x49,0x22,0x1a,0x6d,0x6f,0x6e,0x5f,0x68,0x73,0x65,0x61,0x6e,0x32,0x32,0x5f,0x74,0x65,0x6e,0x74,0x61,0x63,0x6c,0x65,0x33,0x06,0x3a,0x06,0x45,0x54,0x3a,0x0c,0x40,0x76,0x6f,0x6c,0x75,0x6d,0x65,0x69,0x55,0x3a,0x0b,0x40,0x70,0x69,0x74,0x63,0x68,0x69,0x69))
ShowMessageFace("",0,0,2,43)
ShowMessage("そして次の瞬間、股間がじゅるじゅるした肉の感触に包み込まれてしまう。")
ShowMessage("内部がぐちゅぐちゅと蠢き、異様な刺激がもたらされたのだ。")
ShowMessageFace("",0,0,2,44)
ShowMessage("ペニスに柔らかくぬめった何かが絡みつき、蹂躙されている――")
ShowMessage("自分の性器に何をされているのか見えないのが、さらに恐怖と興奮を煽り立てた。")
ShowMessageFace("",0,0,2,45)
ShowMessage("【ルカ】")
ShowMessage("な、何これぇ……！ な、何されてるのぉ……？")
ShowMessage("あ、あぁぁぁぁぁぁ……！")
PictureDisplay(6,"ev_cassandra_ct01",0,0,0,0,100,100,255,0)
ShowMessageFace("",0,0,2,46)
ShowMessage("粘肉がペニスに粘り着き、這い回られているような感触。")
ShowMessage("柔突起たっぷりのブラシのようなもので、じゅるじゅる擦られている感触。")
ShowMessageFace("",0,0,2,47)
ShowMessage("触手に絡め取られ、締め付けられているような感触――")
ShowMessage("何重もの責めがペニスを覆い込み、揉みくちゃにされているようだった。")
ShowMessageFace("",0,0,2,48)
ShowMessage("【ルカ】")
ShowMessage("な、何これぇ……き、気持ちいいよぉ……")
ShowMessageFace("cassandra_fc1",1,0,2,49)
ShowMessage("【カサンドラ】")
ShowMessage("男を悦ばせる機能を持った器官を、色々と体験させているだけ。")
ShowMessage("どうです？ とろけそうなほど心地良いでしょう……？")
ShowMessageFace("",0,0,2,50)
ShowMessage("【ルカ】")
ShowMessage("あひ……あぁぁぁぁ……！")
ShowMessageFace("",0,0,2,51)
ShowMessage("肉ブラシが亀頭に貼り付き、柔突起をぐちゅぐちゅ蠢かせる。")
ShowMessage("それは亀頭全体を蹂躙する刺激となり、狂おしい快楽を味わわされた。")
ShowMessageFace("",0,0,2,52)
ShowMessage("粘肉は亀頭の裏側に粘り着き、ねちっこく蠢く刺激を与えてくる。")
ShowMessage("さらに、絡みついた触手がペニス全体を締め付けるのだ。")
ShowMessageFace("",0,0,2,53)
ShowMessage("徹底的に男を蹂躙する複合刺激は、僕のモノを快楽の世界に導いた。")
ShowMessage("突き上げるような射精感がこみ上げ、たちまち絶頂に追いやられていく――")
ShowMessageFace("",0,0,2,54)
ShowMessage("【ルカ】")
ShowMessage("あ、あぁぁぁぁぁ――！！")
RunCommonEvent(104)
PictureDisplay(5,"ev_cassandra_hb4",0,0,0,0,100,100,255,0)
PictureDisplay(6,"ev_cassandra_ct02",0,0,0,0,100,100,255,0)
RunCommonEvent(105)
ShowMessageFace("",0,0,2,55)
ShowMessage("無数の肉器官に取り付かれたペニスから、びゅるびゅると精液が放たれていく。")
ShowMessage("あまりに心地良い放出感に、僕は完全に身を任せてしまった。")
ShowMessageFace("",0,0,2,56)
ShowMessage("得体の知れない肉器官にペニスを嫐られながら、イかされてしまう――")
ShowMessage("男として屈辱的な射精を体験しながらも、それに身を委ねてしまったのだ。")
ShowMessageFace("",0,0,2,57)
ShowMessage("【ルカ】")
ShowMessage("あぅぅぅぅ……")
ShowMessageFace("",0,0,2,58)
ShowMessage("そして、甘い恍惚に満ちた射精が終わり――")
ShowMessage("それでも、ペニスはぐちゅぐちゅと刺激されたままだった。")
ShowMessageFace("",0,0,2,59)
ShowMessage("肉ブラシや触手、粘肉がペニスに取り付き嫐り続ける。")
ShowMessage("射精直後の肉棒に与えられ続ける激しい刺激に、びくびくと体を痙攣させてしまった。")
ShowMessageFace("",0,0,2,60)
ShowMessage("【ルカ】")
ShowMessage("あひっ……！ もう、やめてぇ……！")
ShowMessageFace("cassandra_fc1",1,0,2,61)
ShowMessage("【カサンドラ】")
ShowMessage("何を言っているのです……？")
ShowMessage("一度や二度の射精で終わるとお思いですか？")
ShowMessageFace("cassandra_fc1",1,0,2,62)
ShowMessage("【カサンドラ】")
ShowMessage("あなたは、この肉檻に精液を搾り尽くされるのです。")
ShowMessage("最後の一滴まで、じっくりと……ふふふっ。")
ShowMessageFace("",0,0,2,63)
ShowMessage("【ルカ】")
ShowMessage("ひぁぁぁぁぁ……")
ShowMessageFace("",0,0,2,64)
ShowMessage("肉ブラシの柔突起が亀頭にまとわりつき、尿道口や裏筋をくすぐる。")
ShowMessage("柔らかな触手はカリのくびれに食い込み、上下に扱く刺激を与えてきた。")
ShowMessageFace("",0,0,2,65)
ShowMessage("粘肉はペニス全体を這い回り、ぐちゅぐちゅと蠢く――")
ShowMessage("その刺激は男性器に強制快楽を与え、容赦なく精液の射出を促した。")
ShowMessageFace("",0,0,2,66)
ShowMessage("【ルカ】")
ShowMessage("あぅぅ、また出ちゃうよぉ……")
ShowMessageFace("cassandra_fc1",1,0,2,67)
ShowMessage("【カサンドラ】")
ShowMessage("ふふふ……男の精を搾るための肉檻なのですよ。")
ShowMessage("抵抗などせず、思う存分に射精してしまいなさい。")
ShowMessageFace("cassandra_fc1",1,0,2,68)
ShowMessage("【カサンドラ】")
ShowMessage("そして、精を一滴残らず搾り出されてしまうのです……")
ShowMessage("その搾檻の中で、干物のように干涸らびるまでね……ふふふっ。")
ShowMessageFace("",0,0,2,69)
ShowMessage("【ルカ】")
ShowMessage("あ、あぁぁぁぁ……")
RunCommonEvent(104)
PictureDisplay(5,"ev_cassandra_hb5",0,0,0,0,100,100,255,0)
PictureDisplay(6,"ev_cassandra_ct03",0,0,0,0,100,100,255,0)
RunCommonEvent(105)
ShowMessageFace("",0,0,2,70)
ShowMessage("魔性の肉檻の中で、僕はまたも果てていた。")
ShowMessage("漏れ出た精液は肉器官に吸収され、養分として吸い取られていく――")
ShowMessageFace("",0,0,2,71)
ShowMessage("これは、その為の機能を持った肉檻なのだ。")
ShowMessage("ここに囚われた男は、なすすべもなく精を搾り取られるしかない――")
ShowMessageFace("cassandra_fc1",1,0,2,72)
ShowMessage("【カサンドラ】")
ShowMessage("ほらほら、もっと励みなさい。")
ShowMessage("根こそぎ搾り尽くしてしまうまで、男性器への陵辱は続きますよ。")
ShowMessageFace("",0,0,2,73)
ShowMessage("【ルカ】")
ShowMessage("ひぁぁぁぁ……！ た、たすけてぇ……")
ShowMessageFace("",0,0,2,74)
ShowMessage("どれだけ抗っても、腕一本動かせない。")
ShowMessage("完全に粘肉で動きを封じられた状態で、男性器への強制刺激が続くのだ。")
ShowMessageFace("",0,0,2,75)
ShowMessage("しかも、肉ブラシや触手、粘肉による刺激は巧緻かつ甘美だった。")
ShowMessage("どんな男をもたちまち果てさせる刺激が、延々と肉棒を蹂躙してくる――")
ShowMessageFace("",0,0,2,76)
ShowMessage("【ルカ】")
ShowMessage("あぅぅぅぅ……！")
RunCommonEvent(104)
RunCommonEvent(105)
ShowMessageFace("",0,0,2,77)
ShowMessage("強制快感に促され、ドクドクと漏れ出す精液。")
ShowMessage("精を吸収しながら、じゅるじゅるとペニスを蹂躙する肉器官――")
ShowMessageFace("",0,0,2,78)
ShowMessage("延々と精を搾られる惨めさに、僕は涙を流してしまった。")
ShowMessageFace("cassandra_fc1",1,0,2,79)
ShowMessage("【カサンドラ】")
ShowMessage("あらあら……なぜ泣くのです？")
ShowMessage("私に精を搾取してもらえるなんて、幸せではありませんか。")
ShowMessageFace("cassandra_fc1",1,0,2,80)
ShowMessage("【カサンドラ】")
ShowMessage("この肉檻では、男として最高の快楽が味わえるのですよ……")
ShowMessageFace("",0,0,2,81)
ShowMessage("【ルカ】")
ShowMessage("あ……！ あぁぁぁぁぁ……！！")
ShowMessageFace("",0,0,2,82)
ShowMessage("ペニスを覆い込んだ肉器官が、無慈悲にペニスへと快楽を強制する。")
ShowMessage("その刺激に導かれ、僕はまたも射精させられてしまう――")
RunCommonEvent(104)
RunCommonEvent(105)
ShowMessageFace("",0,0,2,83)
ShowMessage("【ルカ】")
ShowMessage("ふぁぁぁ……")
ShowMessageFace("",0,0,2,84)
ShowMessage("性機能を完全にカサンドラに支配され、精を搾取され――")
ShowMessage("僕は身も心もボロボロになり、肉檻の中でタコのように脱力してしまった。")
ShowMessageFace("",0,0,2,85)
ShowMessage("そんな僕を、容赦なく搾肉が貪っていく。")
ShowMessage("じゅるじゅると精を吸い上げ、生命そのものを搾取するかのように――")
ShowMessageFace("",0,0,2,86)
ShowMessage("【ルカ】")
ShowMessage("ぁぁぁ……ぁ……")
ShowMessageFace("cassandra_fc1",1,0,2,87)
ShowMessage("【カサンドラ】")
ShowMessage("ふふっ、すっかり衰弱してしまいましたね。")
ShowMessage("私に吸われて、最高の気分でしょう？")
ShowMessageFace("cassandra_fc1",1,0,2,88)
ShowMessage("【カサンドラ】")
ShowMessage("では、ひと思いに天国へと送って差し上げます。")
ShowMessage("ほぉら、こんな風に搾りたててしまえば――")
ShowMessageFace("",0,0,2,89)
ShowMessage("じゅぶっ……と肉器官がペニスを包み込み、きつく搾りたててきた。")
ShowMessage("まるで、乾いた雑巾をぎゅっと絞るように――")
RunCommonEvent(104)
RunCommonEvent(105)
ShowMessageFace("",0,0,2,90)
ShowMessage("ドクドクと、最後の精が僕の体から漏れ出していく。")
ShowMessage("これが最後の一搾りだった事は、失神寸前の僕にも分かった――")
ShowMessageFace("",0,0,2,91)
ShowMessage("【ルカ】")
ShowMessage("ぁ……ぁぁ……")
ShowMessageFace("",0,0,2,92)
ShowMessage("みるみる力が抜けていき、意識も消え失せていく。")
ShowMessage("最後の生命エネルギーを搾取され、僕は根こそぎ搾り尽くされてしまったのだ。")
ShowMessageFace("",0,0,2,93)
ShowMessage("後に残ったのは、精を搾られきって干涸らびた肉体だけだった――")
221()
PictureClear(5)
PictureClear(6)
246(2)
ShowMessageFace("cassandra_fc1",1,0,2,94)
ShowMessage("【カサンドラ】")
ShowMessage("ふふっ、なんて快楽に満ちた死に顔……")
ShowMessage("天国でも、私の与えた快楽を思い出しなさいね……")
ShowMessageFace("",0,0,2,95)
ShowMessage("干涸らびたルカの屍を、カサンドラの粘肉がじゅるじゅると貪っていく。")
ShowMessageFace("",0,0,2,96)
ShowMessage("こうして肉体さえ食べられ、ルカの身も心もこの世から")
ShowMessage("消え去ってしまったのである――")
ShowMessageFace("",0,0,2,97)
ShowMessage("......")
RunCommonEvent(3998)
0()
