// EVENT 0058
Name "Skill: Play 181-190"

ChangeVariable(11,11,0,2,1,5)
If(1,100,0,181,0)
 If(1,11,0,1,0)
  ShowMessageFace("gaistvine_fc1",0,0,2,1)
  ShowMessage("\\n<Lisa>I have some artistic talent, of course.")
  ShowMessageFace("",0,0,2,2)
  ShowMessage("Lisa is drawing a picture.")
  EndEventProcessing()
  0()
 EndIf()
 If(1,11,0,2,0)
  ShowMessageFace("gaistvine_fc1",0,0,2,3)
  ShowMessage("\\n<Lisa>The Birth of Venus...")
  ShowMessageFace("",0,0,2,4)
  ShowMessage("Lisa struck a pose!")
  ShowMessage("...But nobody was watching.")
  EndEventProcessing()
  0()
 EndIf()
 If(1,11,0,3,0)
  ShowMessageFace("gaistvine_fc1",0,0,2,5)
  ShowMessage("\\n<Lisa>I'll steal your heart...")
  355("interrupt_skill(3296)")
  EndEventProcessing()
  0()
 EndIf()
 If(1,11,0,4,0)
  ShowMessageFace("gaistvine_fc1",0,0,2,6)
  ShowMessage("\\n<Lisa>Now, let's dance...")
  355("interrupt_skill(2033)")
  EndEventProcessing()
  0()
 EndIf()
 If(1,11,0,5,0)
  ShowMessageFace("gaistvine_fc1",1,0,2,7)
  ShowMessage("\\n<Lisa>......")
  ShowMessageFace("",0,0,2,8)
  ShowMessage("Lisa withdrew into her painting.")
  EndEventProcessing()
  0()
 EndIf()
 0()
EndIf()
If(1,100,0,182,0)
 If(1,11,0,1,0)
  ShowMessageFace("c_homunculus_fc1",0,0,2,9)
  ShowMessage("\\n<Crowley>The Good Children's Laboratory... Today's experiment is the charge reaction of a thunder stone.")
  ShowMessageFace("",0,0,2,10)
  ShowMessage("Crowley began a classroom experiment!")
  ShowMessage("However, nobody was listening!")
  EndEventProcessing()
  0()
 EndIf()
 If(1,11,0,2,0)
  ShowMessageFace("c_homunculus_fc1",2,0,2,11)
  ShowMessage("\\n<Crowley>Who put water in me?")
  355("interrupt_skill(3307)")
  EndEventProcessing()
  0()
 EndIf()
 If(1,11,0,3,0)
  ShowMessageFace("c_homunculus_fc1",0,0,2,12)
  ShowMessage("\\n<Crowley>Let's plant the seeds that came from my body...")
  355("interrupt_skill(3299)")
  EndEventProcessing()
  0()
 EndIf()
 If(1,11,0,4,0)
  ShowMessageFace("c_homunculus_fc1",0,0,2,13)
  ShowMessage("\\n<Crowley>Let's pretend to actually fight...")
  355("interrupt_skill(3292)")
  EndEventProcessing()
  0()
 EndIf()
 If(1,11,0,5,0)
  ShowMessageFace("c_homunculus_fc1",0,0,2,14)
  ShowMessage("\\n<Crowley>Stop it... Let's settle this with a match of mental arithmetic.")
  ShowMessageFace("",0,0,2,15)
  ShowMessage("Crowley tried to stop the fight!")
  ShowMessage("...But nobody was listening.")
  EndEventProcessing()
  0()
 EndIf()
 0()
EndIf()
If(1,100,0,183,0)
 If(1,11,0,1,0)
  ShowMessageFace("ironmaiden_k_fc1",0,0,2,16)
  ShowMessage("\\n<Torture>......")
  ShowMessageFace("",0,0,2,17)
  ShowMessage("Torture is thinking.")
  EndEventProcessing()
  0()
 EndIf()
 If(1,11,0,2,0)
  ShowMessageFace("ironmaiden_k_fc1",0,0,2,18)
  ShowMessage("\\n<Torture>......")
  ShowMessageFace("",0,0,2,19)
  ShowMessage("Torture sent a seductive glance...")
  ShowMessage("However, it looked like a glare!")
  EndEventProcessing()
  0()
 EndIf()
 If(1,11,0,3,0)
  ShowMessageFace("ironmaiden_k_fc1",0,0,2,20)
  ShowMessage("\\n<Torture>What is a sinner? Someone guilty of a crime. Moral ethics is not a factor in sin.")
  ShowMessageFace("",0,0,2,21)
  ShowMessage("Torture began preaching!")
  ShowMessage("...But nobody was listening.")
  EndEventProcessing()
  0()
 EndIf()
 If(1,11,0,4,0)
  ShowMessageFace("ironmaiden_k_fc1",0,0,2,22)
  ShowMessage("\\n<Torture>Let's show off my dance...")
  355("interrupt_skill(2038)")
  EndEventProcessing()
  0()
 EndIf()
 If(1,11,0,5,0)
  ShowMessageFace("ironmaiden_k_fc1",0,0,2,23)
  ShowMessage("\\n<Torture>Weeding is the first step in the correction process.")
  250(bytes(0x04,0x08,0x6f,0x3a,0x0c,0x52,0x50,0x47,0x3a,0x3a,0x53,0x45,0x08,0x3a,0x0a,0x40,0x6e,0x61,0x6d,0x65,0x49,0x22,0x0a,0x49,0x74,0x65,0x6d,0x31,0x06,0x3a,0x06,0x45,0x54,0x3a,0x0b,0x40,0x70,0x69,0x74,0x63,0x68,0x69,0x69,0x3a,0x0c,0x40,0x76,0x6f,0x6c,0x75,0x6d,0x65,0x69,0x55))
  ChangeInventory_Item(445,0,0,1)
  ShowMessageFace("",0,0,2,24)
  ShowMessage("Torture is pulling weeds.")
  ShowMessage("You obtain \\ii[445]!")
  EndEventProcessing()
  0()
 EndIf()
 0()
EndIf()
If(1,100,0,184,0)
 If(1,11,0,1,0)
  ShowMessageFace("junkdoll_fc2",0,0,2,25)
  ShowMessage("\\n<Francesca>Painting, draw, draw... Ah, a bit of glue.")
  ShowMessageFace("",0,0,2,26)
  ShowMessage("Francesca is making a plastic model.")
  EndEventProcessing()
  0()
 EndIf()
 If(1,11,0,2,0)
  ShowMessageFace("junkdoll_fc2",0,0,2,27)
  ShowMessage("\\n<Francesca>Ready everyone? Adjust your timing... Ha!")
  ShowMessageFace("",0,0,2,28)
  ShowMessage("Francesca is practicing posing positions!")
  ShowMessage("...But nobody was watching.")
  EndEventProcessing()
  0()
 EndIf()
 If(1,11,0,3,0)
  ShowMessageFace("junkdoll_fc1",0,0,2,29)
  ShowMessage("\\n<Francesca>I'll attack the enemy on the right.")
  ShowMessageFace("junkdoll_fc1",2,0,2,30)
  ShowMessage("\\n<Francesca>Ah, wait... Our balance...")
  ShowMessageFace("junkdoll_fc1",1,0,2,31)
  ShowMessage("\\n<Francesca>Big sister, that's not helping...")
  ShowMessageFace("",0,0,2,32)
  ShowMessage("Francesca's bodies pull on each other and end up doing nothing at all.")
  EndEventProcessing()
  0()
 EndIf()
 If(1,11,0,4,0)
  ShowMessageFace("junkdoll_fc2",0,0,2,33)
  ShowMessage("\\n<Francesca>Take this, as a token of my appreciation.")
  ShowMessageFace("",0,0,2,34)
  ShowMessage("Francesca presents a gift!")
  250(bytes(0x04,0x08,0x6f,0x3a,0x0c,0x52,0x50,0x47,0x3a,0x3a,0x53,0x45,0x08,0x3a,0x0a,0x40,0x6e,0x61,0x6d,0x65,0x49,0x22,0x0a,0x49,0x74,0x65,0x6d,0x31,0x06,0x3a,0x06,0x45,0x54,0x3a,0x0b,0x40,0x70,0x69,0x74,0x63,0x68,0x69,0x69,0x3a,0x0c,0x40,0x76,0x6f,0x6c,0x75,0x6d,0x65,0x69,0x55))
  ChangeInventory_Item(359,0,0,1)
  ShowMessageFace("",0,0,2,35)
  ShowMessage("You obtain a \\ii[359]!")
  EndEventProcessing()
  0()
 EndIf()
 If(1,11,0,5,0)
  ShowMessageFace("junkdoll_fc2",0,0,2,36)
  ShowMessage("\\n<Francesca>Now, let's all have a party!")
  ShowMessageFace("",0,0,2,37)
  ShowMessage("Francesca popped a party popper!")
  ShowMessage("...But nobody joined in.")
  EndEventProcessing()
  0()
 EndIf()
 0()
EndIf()
If(1,100,0,185,0)
 If(1,11,0,1,0)
  ShowMessageFace("radio_fc1",0,0,2,38)
  ShowMessage("\\n<Radio>MaSter...")
  ShowMessageFace("",0,0,2,39)
  ShowMessage("Radio is recalling memories of the past.")
  EndEventProcessing()
  0()
 EndIf()
 If(1,11,0,2,0)
  ShowMessageFace("radio_fc1",0,0,2,40)
  ShowMessage("\\n<Radio>Flies are fLYing around... ExtermiNating...")
  355("interrupt_skill(3311)")
  EndEventProcessing()
  0()
 EndIf()
 If(1,11,0,3,0)
  ShowMessageFace("radio_fc1",0,0,2,41)
  ShowMessage("\\n<Radio>A switch on the top of my HEad... What is it suppOsed to be? It's smaLl...")
  355("interrupt_skill(3306)")
  EndEventProcessing()
  0()
 EndIf()
 If(1,11,0,4,0)
  ShowMessageFace("radio_fc1",0,0,2,42)
  ShowMessage("\\n<Radio>ERRoR in the roller function... Gyah!")
  355("interrupt_skill(3293)")
  EndEventProcessing()
  0()
 EndIf()
 If(1,11,0,5,0)
  ShowMessageFace("radio_fc1",0,0,2,43)
  ShowMessage("\\n<Radio>Gaga... Piii! Gagaga...")
  ShowMessageFace("",0,0,2,44)
  ShowMessage("Noises are coming from Radio.")
  EndEventProcessing()
  0()
 EndIf()
 0()
EndIf()
0()
