﻿// EVENT 0797
Name "アイテムゲット"

ChangeVariable(12,12,0,2,1,10)
If(1,150,0,0,1)
 If(1,150,0,2000,2)
  If(1,12,0,4,2)
   RunCommonEvent(904)
   EndEventProcessing()
   0()
  EndIf()
  If(1,12,0,7,2)
   RunCommonEvent(905)
   EndEventProcessing()
   0()
  EndIf()
  If(1,12,0,10,2)
   RunCommonEvent(906)
   EndEventProcessing()
   0()
  EndIf()
  0()
 EndIf()
 0()
EndIf()
If(1,150,0,2001,1)
 If(1,150,0,4000,2)
  If(1,12,0,4,2)
   RunCommonEvent(905)
   EndEventProcessing()
   0()
  EndIf()
  If(1,12,0,7,2)
   RunCommonEvent(906)
   EndEventProcessing()
   0()
  EndIf()
  If(1,12,0,10,2)
   RunCommonEvent(907)
   EndEventProcessing()
   0()
  EndIf()
  0()
 EndIf()
 0()
EndIf()
If(1,150,0,4001,1)
 If(1,150,0,6000,2)
  If(1,12,0,5,2)
   RunCommonEvent(906)
   EndEventProcessing()
   0()
  EndIf()
  If(1,12,0,9,2)
   RunCommonEvent(907)
   EndEventProcessing()
   0()
  EndIf()
  If(1,12,0,10,2)
   RunCommonEvent(908)
   EndEventProcessing()
   0()
  EndIf()
  0()
 EndIf()
 0()
EndIf()
If(1,150,0,6001,1)
 If(1,150,0,20000,2)
  If(1,12,0,2,2)
   RunCommonEvent(906)
   EndEventProcessing()
   0()
  EndIf()
  If(1,12,0,7,2)
   RunCommonEvent(907)
   EndEventProcessing()
   0()
  EndIf()
  If(1,12,0,10,2)
   RunCommonEvent(908)
   EndEventProcessing()
   0()
  EndIf()
  0()
 EndIf()
 0()
EndIf()
0()
