// EVENT 4196
Name "Bee Girl 1"

If(0,25,1)
 221()
 PictureClear(5)
 PictureClear(6)
 ShowMessageFace("",0,0,2,0)
 ShowMessage("......")
 242(2)
 Wait(120)
 241(bytes(0x04,0x08,0x6f,0x3a,0x0d,0x52,0x50,0x47,0x3a,0x3a,0x42,0x47,0x4d,0x08,0x3a,0x0a,0x40,0x6e,0x61,0x6d,0x65,0x49,0x22,0x0c,0x63,0x61,0x73,0x74,0x6c,0x65,0x36,0x06,0x3a,0x06,0x45,0x54,0x3a,0x0c,0x40,0x76,0x6f,0x6c,0x75,0x6d,0x65,0x69,0x69,0x3a,0x0b,0x40,0x70,0x69,0x74,0x63,0x68,0x69,0x69))
 EndEventProcessing()
 0()
EndIf()
PictureDisplay(5,"80_mitubati_st02",0,0,0,0,100,100,255,0)
ShowMessageFace("mitubati_fc1",1,0,2,1)
ShowMessage("\\n<Honey>You want me to lick you with my tongue?")
ShowMessageFace("",0,0,2,2)
ShowMessage("\\n<Luka>Y-yeah...")
ShowMessageFace("mitubati_fc1",1,0,2,3)
ShowMessage("\\n<Honey>All right, I'll let you feel a slice of heaven. First, I'll start with some honey...")
ShowMessageFace("",0,0,2,4)
ShowMessage("The bee girl dribbles a dollop of honey on my crotch--")
241(bytes(0x04,0x08,0x6f,0x3a,0x0d,0x52,0x50,0x47,0x3a,0x3a,0x42,0x47,0x4d,0x08,0x3a,0x0a,0x40,0x6e,0x61,0x6d,0x65,0x49,0x22,0x09,0x65,0x72,0x6f,0x31,0x06,0x3a,0x06,0x45,0x54,0x3a,0x0c,0x40,0x76,0x6f,0x6c,0x75,0x6d,0x65,0x69,0x69,0x3a,0x0b,0x40,0x70,0x69,0x74,0x63,0x68,0x69,0x69))
245(bytes(0x04,0x08,0x6f,0x3a,0x0d,0x52,0x50,0x47,0x3a,0x3a,0x42,0x47,0x53,0x08,0x3a,0x0a,0x40,0x6e,0x61,0x6d,0x65,0x49,0x22,0x10,0x6d,0x6f,0x6e,0x5f,0x68,0x76,0x6f,0x69,0x63,0x65,0x31,0x06,0x3a,0x06,0x45,0x54,0x3a,0x0c,0x40,0x76,0x6f,0x6c,0x75,0x6d,0x65,0x69,0x55,0x3a,0x0b,0x40,0x70,0x69,0x74,0x63,0x68,0x69,0x69))
PictureDisplay(5,"ev_mitubati_h1",0,0,0,0,100,100,255,0)
PictureDisplay(6,"ev_mitubati_ct01",0,0,0,0,100,100,255,0)
ShowMessageFace("",0,0,2,5)
ShowMessage("Once I'm fully coated in honey, Honey coils her tongue around my penis. I can feel the warm sensation of her tongue looping around me starting from the base.")
ShowMessageFace("",0,0,2,6)
ShowMessage("Her tongue spirals up my shaft and firmly wraps around my mushroom tip.")
ShowMessageFace("",0,0,2,7)
ShowMessage("She crawls around my glans, digging the end of her tongue beneath my head and diligently licking up all the honey and precum that have collected there.")
ShowMessageFace("",0,0,2,8)
ShowMessage("\\n<Luka>Haauu....")
ShowMessageFace("",0,0,2,9)
ShowMessage("Wrapped around me, my back arches as the pleasure was more than I expected.")
ShowMessageFace("mitubati_fc1",1,0,2,10)
ShowMessage("\\n<Honey>You men... you're all weak here.")
ShowMessageFace("",0,0,2,11)
ShowMessage("Wrapped around my honey-covered dick, Honey increases the force that she's licking my tip with.")
ShowMessageFace("",0,0,2,13)
ShowMessage("\\n<Luka>Hyaaaa!\nDon't lick my tip like that!")
ShowMessageFace("mitubati_fc1",1,0,2,14)
ShowMessage("\\n<Honey>Fufu... honey and semen... delicious.")
ShowMessageFace("",0,0,2,15)
ShowMessage("\\n<Luka>Faaa... Stop...")
ShowMessageFace("",0,0,2,16)
ShowMessage("Her rough tongue, wrapped tightly around me, starts to slowly move up and down, massaging my sensitive area.")
ShowMessageFace("",0,0,2,17)
ShowMessage("The sensation makes shivers run through my body.")
ShowMessageFace("mitubati_fc1",1,0,2,18)
ShowMessage("\\n<Honey>Mmmm.\n*Lick* *Lick*")
ShowMessageFace("",0,0,2,19)
ShowMessage("\\n<Luka>Auuuu!")
ShowMessageFace("",0,0,2,20)
ShowMessage("Her warm and sticky tongue licks me without mercy.")
ShowMessageFace("",0,0,2,21)
ShowMessage("As she tastes my sticky honey-covered penis, a sweet pleasure spreads through my waist.")
ShowMessageFace("mitubati_fc1",1,0,2,22)
ShowMessage("\\n<Honey>I can sense a slightly salty taste now...\nYour male juice is leaking out...")
ShowMessageFace("",0,0,2,23)
ShowMessage("Her tongue starts to poke at the urethral opening, lapping up all of the pre-come that's coming out.")
ShowMessageFace("",0,0,2,24)
ShowMessage("\\n<Luka>Faaaa!")
ShowMessageFace("",0,0,2,25)
ShowMessage("Stimulating my most sensitive part, the trembling in my body gets more violent.")
ShowMessageFace("mitubati_fc1",1,0,2,26)
ShowMessage("\\n<Honey>It looks like I lapped it all up...\nI guess I need to just force more out of you...")
ShowMessageFace("mitubati_fc1",1,0,2,27)
ShowMessage("\\n<Honey>*Lick*")
ShowMessageFace("",0,0,2,28)
ShowMessage("\\n<Luka>Aahh... Faaa....\nThat's... Amazing!")
ShowMessageFace("",0,0,2,29)
ShowMessage("As the Bee Girl licks my tip, she tightens the part of her tongue that's coiled around my dick.")
ShowMessageFace("",0,0,2,30)
ShowMessage("From the base to the shaft to the tip, my entire glans is stimulated.")
ShowMessageFace("",0,0,2,31)
ShowMessage("\\n<Luka>Co...coming!\nAaaahhh!")
RunCommonEvent(104)
PictureDisplay(5,"ev_mitubati_h2",0,0,0,0,100,100,255,0)
PictureDisplay(6,"ev_mitubati_ct02",0,0,0,0,100,100,255,0)
RunCommonEvent(105)
ShowMessageFace("",0,0,2,32)
ShowMessage("Receiving her sweet stimulation, my cock explodes, shooting semen all over her tongue.")
ShowMessageFace("mitubati_fc1",1,0,2,34)
ShowMessage("\\n<Honey>Your semen... Delicious.\n*Lick* *Lick*")
ShowMessageFace("",0,0,2,35)
ShowMessage("Drunk on the pleasure, my strength fades as her violent licking continues.")
ShowMessageFace("",0,0,2,36)
ShowMessage("Due to all her licking, the honey is almost all gone.")
246(1)
ShowMessageFace("mitubati_fc1",1,0,2,37)
ShowMessage("\\n<Honey>Fufu... Do you want more honey?")
ShowMessageFace("",0,0,2,38)
ShowMessage("\\n<Luka>Ah....")
ShowMessageFace("",0,0,2,39)
ShowMessage("The bee pours honey from the hive on her back all over me.")
245(bytes(0x04,0x08,0x6f,0x3a,0x0d,0x52,0x50,0x47,0x3a,0x3a,0x42,0x47,0x53,0x08,0x3a,0x0a,0x40,0x6e,0x61,0x6d,0x65,0x49,0x22,0x10,0x6d,0x6f,0x6e,0x5f,0x68,0x76,0x6f,0x69,0x63,0x65,0x35,0x06,0x3a,0x06,0x45,0x54,0x3a,0x0c,0x40,0x76,0x6f,0x6c,0x75,0x6d,0x65,0x69,0x55,0x3a,0x0b,0x40,0x70,0x69,0x74,0x63,0x68,0x69,0x69))
ShowMessageFace("",0,0,2,40)
ShowMessage("Now completely covered in her warm honey, the Bee Girl tightens her tongue around my sticky dick.")
ShowMessageFace("",0,0,2,41)
ShowMessage("\\n<Luka>Faaaa!")
ShowMessageFace("mitubati_fc1",1,0,2,42)
ShowMessage("\\n<Honey>*Lick* *Lick*")
ShowMessageFace("",0,0,2,43)
ShowMessage("The rough tongue massaging me, covered in sticky honey, is too much for me to bear.")
ShowMessageFace("",0,0,2,44)
ShowMessage("My vision goes hazy as my endurance fades.")
ShowMessageFace("",0,0,2,45)
ShowMessage("Her tongue, tightly wrapped around me, continues to tighten and play with me as my body unconsciously twitches with every lick.")
ShowMessageFace("",0,0,2,46)
ShowMessage("\\n<Luka>Ahiii... Amazing...!")
ShowMessageFace("",0,0,2,47)
ShowMessage("Her movements start to slowly change from before.")
ShowMessageFace("",0,0,2,48)
ShowMessage("As if simply licking candy instead of trying to stimulate me, the unexpected change in licking brought intense pleasure.")
ShowMessageFace("",0,0,2,49)
ShowMessage("Slowly crawling all over me, I twitch helplessly as her tongue forces pleasure into me.")
ShowMessageFace("",0,0,2,50)
ShowMessage("Brought to the limit, I'm unable to hold on any longer.")
ShowMessageFace("",0,0,2,51)
ShowMessage("\\n<Luka>Aaaah!")
RunCommonEvent(104)
PictureDisplay(6,"ev_mitubati_ct03",0,0,0,0,100,100,255,0)
RunCommonEvent(105)
ShowMessageFace("",0,0,2,52)
ShowMessage("So soon after my last orgasm, I explode again.")
ShowMessage("Not letting up, Honey sticks her tongue on my tip, licking even harder as I spurt.")
ShowMessageFace("",0,0,2,53)
ShowMessage("\\n<Luka>Faaa... don't lick... the hole where it comes out...!")
ShowMessageFace("mitubati_fc1",1,0,2,54)
ShowMessage("\\n<Honey>Mmm... You let it out again. Delicious.\n*Lick* *Lick*")
ShowMessageFace("",0,0,2,55)
ShowMessage("Ignoring my pleas, the Bee Girl continues to forcefully lick my urethral opening, licking up the honey-mixed semen.")
ShowMessageFace("mitubati_fc1",1,0,2,57)
ShowMessage("\\n<Honey>*Lick* *Lick*")
ShowMessageFace("",0,0,2,58)
ShowMessage("\\n<Luka>Ahiii!")
ShowMessageFace("",0,0,2,59)
ShowMessage("As soon as she lapped everything up, Honey tightens her tongue to force even more out of me.")
ShowMessageFace("",0,0,2,60)
ShowMessage("My increasingly sensitive glans, I'm too weak to resist her tongue.")
ShowMessage("As her tongue continues to lick my tip, I feebly yell out.")
ShowMessageFace("",0,0,2,61)
ShowMessage("\\n<Luka>St...op...! Coming...again...")
ShowMessageFace("mitubati_fc1",1,0,2,62)
ShowMessage("\\n<Honey>Fufu... shoot it out!\n*Lick* *Lick*")
ShowMessageFace("",0,0,2,63)
ShowMessage("Honey looks at me as she tightens her tongue.")
ShowMessageFace("",0,0,2,64)
ShowMessage("Poking my tip with her tongue, the rising feeling of another ejaculation becomes overpowering.")
ShowMessageFace("",0,0,2,65)
ShowMessage("Even though I just came, her tongue is forcing me to reach another height...")
ShowMessageFace("",0,0,2,66)
ShowMessage("\\n<Luka>Aaa.... Coming..... Ah...h....")
RunCommonEvent(104)
PictureDisplay(6,"ev_mitubati_ct04",0,0,0,0,100,100,255,0)
RunCommonEvent(105)
ShowMessageFace("",0,0,2,67)
ShowMessage("Her sweet tongue stimulates me over and over, bringing me to repeated heights.")
ShowMessage("How many times has it been now...? I've lost track...")
ShowMessageFace("mitubati_fc1",1,0,2,68)
ShowMessage("\\n<Honey>Mmm... Delicious.\n*Lick* *Lick*")
ShowMessageFace("",0,0,2,69)
ShowMessage("After each ejaculation, she laps everything up and continues stimulating me towards the next.")
246(1)
ShowMessageFace("mitubati_fc1",1,0,2,70)
ShowMessage("\\n<Honey>Your sperm is unusually delicious...\nIf you ever want me to lick you again, just ask.")
ShowMessageFace("",0,0,2,71)
ShowMessage("\\n<Luka>............")
ShowMessageFace("",0,0,2,72)
ShowMessage("After she gulps down the last drops of semen, Honey giggles. I'm left exhausted after experiencing everything her tongue had to offer--")
221()
PictureClear(5)
PictureClear(6)
246(2)
ShowMessageFace("",0,0,2,73)
ShowMessage("............")
242(2)
Wait(120)
241(bytes(0x04,0x08,0x6f,0x3a,0x0d,0x52,0x50,0x47,0x3a,0x3a,0x42,0x47,0x4d,0x08,0x3a,0x0a,0x40,0x6e,0x61,0x6d,0x65,0x49,0x22,0x0c,0x63,0x61,0x73,0x74,0x6c,0x65,0x36,0x06,0x3a,0x06,0x45,0x54,0x3a,0x0c,0x40,0x76,0x6f,0x6c,0x75,0x6d,0x65,0x69,0x69,0x3a,0x0b,0x40,0x70,0x69,0x74,0x63,0x68,0x69,0x69))
0()
