﻿// EVENT 0642
Name "Event: Minotauros"

ChangeSwitch(73,73,0)
If(0,72,0)
 ShowMessageFace("mino_fc1",0,0,2,1)
 ShowMessage("\\n<Minotauros>How is it? Don't you feel fired up?!")
 ChangeSwitch(73,73,1)
 EndEventProcessing()
 0()
EndIf()
ShowMessageFace("mino_fc1",0,0,2,2)
ShowMessage("\\n<Minotauros>Come on, let's eat beef bowl!")
ChangeSwitch(72,72,0)
250(bytes(0x04,0x08,0x6f,0x3a,0x0c,0x52,0x50,0x47,0x3a,0x3a,0x53,0x45,0x08,0x3a,0x0a,0x40,0x6e,0x61,0x6d,0x65,0x49,0x22,0x0a,0x48,0x65,0x61,0x6c,0x37,0x06,0x3a,0x06,0x45,0x54,0x3a,0x0b,0x40,0x70,0x69,0x74,0x63,0x68,0x69,0x69,0x3a,0x0c,0x40,0x76,0x6f,0x6c,0x75,0x6d,0x65,0x69,0x55))
ShowMessageFace("",0,0,2,3)
ShowMessage("The Minotauros shares her beef bowl with you!\nAttack is increased at the start of battle until the next boss floor!")
ChangeSwitch(73,73,1)
EndEventProcessing()
0()
