﻿
DisplayName "Secret Tent"



EVENT   1
 PAGE   1
  250(bytes(0x04,0x08,0x6f,0x3a,0x0c,0x52,0x50,0x47,0x3a,0x3a,0x53,0x45,0x08,0x3a,0x0a,0x40,0x6e,0x61,0x6d,0x65,0x49,0x22,0x09,0x4d,0x6f,0x76,0x65,0x06,0x3a,0x06,0x45,0x54,0x3a,0x0b,0x40,0x70,0x69,0x74,0x63,0x68,0x69,0x69,0x3a,0x0c,0x40,0x76,0x6f,0x6c,0x75,0x6d,0x65,0x69,0x55))
  TeleportPlayer(0,2,289,354,0,0)
  216(0)
  0()



EVENT   2
 PAGE   1
  If(1,907,0,10,1)
   If(1,801,0,2,1)
    If(0,1544,1)
     ShowMessageFace("mob_maid_fc1",0,0,2,1)
     ShowMessage("\\n<Marie>By the way, Luka, wouldn't you like to have me as a companion? I'll follow YOU around especially.")
     ShowChoices(strings("Let her join","Decline for now"),0)
     IfPlayerPicksChoice(0,null)
      ShowMessageFace("mob_maid_fc1",0,0,2,2)
      ShowMessage("\\n<Marie>I'm sure we'll get along great...")
      PictureClear(5)
      205(0,bytes(0x04,0x08,0x6f,0x3a,0x13,0x52,0x50,0x47,0x3a,0x3a,0x4d,0x6f,0x76,0x65,0x52,0x6f,0x75,0x74,0x65,0x09,0x3a,0x0c,0x40,0x72,0x65,0x70,0x65,0x61,0x74,0x46,0x3a,0x0f,0x40,0x73,0x6b,0x69,0x70,0x70,0x61,0x62,0x6c,0x65,0x46,0x3a,0x0a,0x40,0x77,0x61,0x69,0x74,0x54,0x3a,0x0a,0x40,0x6c,0x69,0x73,0x74,0x5b,0x09,0x6f,0x3a,0x15,0x52,0x50,0x47,0x3a,0x3a,0x4d,0x6f,0x76,0x65,0x43,0x6f,0x6d,0x6d,0x61,0x6e,0x64,0x07,0x3a,0x0a,0x40,0x63,0x6f,0x64,0x65,0x69,0x2a,0x3a,0x10,0x40,0x70,0x61,0x72,0x61,0x6d,0x65,0x74,0x65,0x72,0x73,0x5b,0x00,0x6f,0x3b,0x0a,0x07,0x3b,0x0b,0x69,0x0f,0x3b,0x0c,0x5b,0x00,0x6f,0x3b,0x0a,0x07,0x3b,0x0b,0x69,0x2c,0x3b,0x0c,0x5b,0x00,0x6f,0x3b,0x0a,0x07,0x3b,0x0b,0x69,0x00,0x3b,0x0c,0x5b,0x00))
      355("add_actor_ex(544)")
      249(bytes(0x04,0x08,0x6f,0x3a,0x0c,0x52,0x50,0x47,0x3a,0x3a,0x4d,0x45,0x08,0x3a,0x0a,0x40,0x6e,0x61,0x6d,0x65,0x49,0x22,0x0c,0x66,0x61,0x6e,0x66,0x61,0x6c,0x65,0x06,0x3a,0x06,0x45,0x54,0x3a,0x0b,0x40,0x70,0x69,0x74,0x63,0x68,0x69,0x69,0x3a,0x0c,0x40,0x76,0x6f,0x6c,0x75,0x6d,0x65,0x69,0x69))
      ShowMessageFace("",0,0,2,3)
      ShowMessage("Marie joined the party!")
      Wait(60)
      EndEventProcessing()
      0()
     IfPlayerPicksChoice(1,null)
      ShowMessageFace("mob_maid_fc1",0,0,2,4)
      ShowMessage("\\n<Marie>Oh? That's a shame.")
      0()
     404()
     0()
    EndIf()
    0()
   EndIf()
   0()
  Else()
   ShowMessageFace("mob_maid_fc1",0,0,2,5)
   ShowMessage("\\n<Marie>I'll be glad to help you out on your journey, but only after you've proven yourself against some of the other battle fuckers.")
   0()
  EndIf()
  RunCommonEvent(7001)
  0()
 PAGE   2
  // condition: party contains actor #544
  0()
