﻿
DisplayName "Grand Noah Castle B1F"



EVENT   1
 PAGE   1
  250(bytes(0x04,0x08,0x6f,0x3a,0x0c,0x52,0x50,0x47,0x3a,0x3a,0x53,0x45,0x08,0x3a,0x0a,0x40,0x6e,0x61,0x6d,0x65,0x49,0x22,0x09,0x4d,0x6f,0x76,0x65,0x06,0x3a,0x06,0x45,0x54,0x3a,0x0b,0x40,0x70,0x69,0x74,0x63,0x68,0x69,0x69,0x3a,0x0c,0x40,0x76,0x6f,0x6c,0x75,0x6d,0x65,0x69,0x55))
  TeleportPlayer(0,871,20,5,2,0)
  0()



EVENT   2
 PAGE   1
  250(bytes(0x04,0x08,0x6f,0x3a,0x0c,0x52,0x50,0x47,0x3a,0x3a,0x53,0x45,0x08,0x3a,0x0a,0x40,0x6e,0x61,0x6d,0x65,0x49,0x22,0x09,0x4d,0x6f,0x76,0x65,0x06,0x3a,0x06,0x45,0x54,0x3a,0x0b,0x40,0x70,0x69,0x74,0x63,0x68,0x69,0x69,0x3a,0x0c,0x40,0x76,0x6f,0x6c,0x75,0x6d,0x65,0x69,0x55))
  TeleportPlayer(0,871,20,5,2,0)
  0()



EVENT   3
 PAGE   1
  250(bytes(0x04,0x08,0x6f,0x3a,0x0c,0x52,0x50,0x47,0x3a,0x3a,0x53,0x45,0x08,0x3a,0x0a,0x40,0x6e,0x61,0x6d,0x65,0x49,0x22,0x09,0x4d,0x6f,0x76,0x65,0x06,0x3a,0x06,0x45,0x54,0x3a,0x0b,0x40,0x70,0x69,0x74,0x63,0x68,0x69,0x69,0x3a,0x0c,0x40,0x76,0x6f,0x6c,0x75,0x6d,0x65,0x69,0x55))
  TeleportPlayer(0,871,20,5,2,0)
  0()



EVENT   4
 PAGE   1
  241(bytes(0x04,0x08,0x6f,0x3a,0x0d,0x52,0x50,0x47,0x3a,0x3a,0x42,0x47,0x4d,0x08,0x3a,0x0a,0x40,0x6e,0x61,0x6d,0x65,0x49,0x22,0x00,0x06,0x3a,0x06,0x45,0x54,0x3a,0x0c,0x40,0x76,0x6f,0x6c,0x75,0x6d,0x65,0x69,0x69,0x3a,0x0b,0x40,0x70,0x69,0x74,0x63,0x68,0x69,0x69))
  ChangeSwitch(31,31,1)
  ChangeSwitch(32,32,1)
  ChangeSwitch(33,33,1)
  355("keep_all_equip")
  355("set_temp_actors(819)")
  314(0,0)
  Wait(60)
  ShowMessageFace("",0,0,2,1)
  ShowMessage("\\n<Lest>")
  ShowMessage("う……うぅっ……")
  ShowMessageFace("",0,0,2,2)
  ShowMessage("深い昏睡から、徐々に意識が浮上していく。")
  ShowMessage("目を開けると、そこは――")
  241(bytes(0x04,0x08,0x6f,0x3a,0x0d,0x52,0x50,0x47,0x3a,0x3a,0x42,0x47,0x4d,0x08,0x3a,0x0a,0x40,0x6e,0x61,0x6d,0x65,0x49,0x22,0x0d,0x64,0x75,0x6e,0x67,0x65,0x6f,0x6e,0x31,0x06,0x3a,0x06,0x45,0x54,0x3a,0x0c,0x40,0x76,0x6f,0x6c,0x75,0x6d,0x65,0x69,0x69,0x3a,0x0b,0x40,0x70,0x69,0x74,0x63,0x68,0x69,0x69))
  222()
  PictureDisplay(5,"80_rest_st01",0,0,0,0,100,100,0,0)
  PictureMove(5,null,0,0,0,0,100,100,255,0,30,true)
  ShowMessageFace("rest_fc1",0,0,2,3)
  ShowMessage("\\n<Lest>")
  ShowMessage("ここは……牢か？")
  ShowMessageFace("",0,0,2,4)
  ShowMessage("僕は、こうなったいきさつを思い出していた。")
  ShowMessage("そう……グランドノア女王は、ミュゼットに洗脳されていたのだ。")
  ShowMessageFace("",0,0,2,5)
  ShowMessage("ターサはミュゼットに操られ、拉致された。")
  ShowMessage("そして僕は、淫魔と化したターサに何度も犯され――")
  ShowMessageFace("rest_fc1",0,0,2,6)
  ShowMessage("\\n<Lest>")
  ShowMessage("なんてことだ……")
  ShowMessage("ターサを、ノビッサの元に送り届けるはずだったのに……")
  ShowMessageFace("",0,0,2,7)
  ShowMessage("今やターサは、ミュゼットの手に落ちてしまった。")
  ShowMessage("敵は彼女の力を利用して、何かをやるつもりだ。")
  ShowMessageFace("",0,0,2,8)
  ShowMessage("なんとしても、阻止しなければならない。")
  ShowMessage("まずは、この牢から出ないと――")
  PictureClear(5)
  ChangeVariable(1207,1207,0,0,1)
  0()
 PAGE   2
  // condition: variable 1207 >= 1
  0()



EVENT   5
 PAGE   1
  ChangeSelfSwitch("A",0)
  ShowMessageFace("rest_fc1",0,0,2,1)
  ShowMessage("\\n<Lest>")
  ShowMessage("頑丈な合金で出来ている……")
  ShowMessage("しかも、魔術で補強してるな。")
  ShowMessageFace("",0,0,2,2)
  ShowMessage("この鉄格子を破って脱出するのは不可能。")
  ShowMessage("他の手を探すしかないか――")
  0()
 PAGE   2
  // condition: variable 1207 >= 3
  0()
 PAGE   3
  // condition: self-switch A is ON
  0()



EVENT   6
 PAGE   1
  ChangeSelfSwitch("A",0)
  ShowMessageFace("rest_fc1",0,0,2,1)
  ShowMessage("\\n<Lest>")
  ShowMessage("うっ、この臭い……！")
  ShowMessage("これはトイレか……")
  ShowMessageFace("",0,0,2,2)
  ShowMessage("いちおう、中を調べてみたが――")
  ShowMessage("脱出に使えそうなものはなかった。")
  0()
 PAGE   2
  // condition: variable 1207 >= 3
  0()
 PAGE   3
  // condition: self-switch A is ON
  0()



EVENT   7
 PAGE   1
  If(1,1207,0,1,0)
   ShowMessageFace("rest_fc1",0,0,2,1)
   ShowMessage("\\n<Lest>")
   ShowMessage("これは、飲み水か……")
   ShowMessageFace("",0,0,2,2)
   ShowMessage("タルの中には、使えそうなものはない。")
   ShowMessage("しかし、タルの下に数枚の紙片が挟まっていた！")
   ShowMessageFace("rest_fc1",0,0,2,3)
   ShowMessage("\\n<Lest>")
   ShowMessage("これは……日誌？")
   ShowMessageFace("",0,0,2,4)
   ShowMessage("「○月×日")
   ShowMessage("　俺は、脱獄の達人ホワイトストーン。")
   ShowMessage("　ここに収監されて、一ヶ月が過ぎた」")
   ShowMessageFace("",0,0,2,5)
   ShowMessage("「スプーンを使って、少しずつ壁を掘っている。")
   ShowMessage("　壁の向こう側は物品保管室、その点も抜かりはない」")
   ShowMessageFace("",0,0,2,6)
   ShowMessage("「○月×日")
   ShowMessage("　どうも、女王がおかしくなったらしい。")
   ShowMessage("　収監される連中が一気に増え、無実の奴も多い」")
   ShowMessageFace("",0,0,2,7)
   ShowMessage("「囚人が増えた分、監視に手が回らなくなった。")
   ShowMessage("　牢内チェックも甘く、こんなメモが残せるほどだ」")
   ShowMessageFace("",0,0,2,8)
   ShowMessage("「○月×日")
   ShowMessage("　壁は、もう一押しで破れそうだ。")
   ShowMessage("　だが俺は脱獄の達人、ここで別の手を思いついた」")
   ShowMessageFace("",0,0,2,9)
   ShowMessage("「関節を外して、通風口から脱出するのだ。")
   ShowMessage("　俺くらいしか出来ない荒技だが、安全度は格段に高い」")
   ShowMessageFace("",0,0,2,10)
   ShowMessage("「掘りかけの壁の穴は、そのままにしておく。")
   ShowMessage("　今の看守どもは、どうせ気付かないだろう」")
   ShowMessageFace("",0,0,2,11)
   ShowMessage("「それじゃあな、これを読んでる次の囚人。")
   ShowMessage("　壁の穴は、あんたが使ってくれ」")
   ShowMessageFace("rest_fc1",0,0,2,12)
   ShowMessage("\\n<Lest>")
   ShowMessage("壁に、穴が……？")
   ShowMessageFace("",0,0,2,13)
   ShowMessage("見たところ、どこか分からないが――")
   ShowMessage("綿密に調べてみれば、見つかるはずだ。")
   ChangeVariable(1207,1207,0,0,2)
   EndEventProcessing()
   0()
  EndIf()
  If(1,1207,0,2,0)
   ShowMessageFace("",0,0,2,14)
   ShowMessage("タルから発見した日誌によれば、壁に掘りかけの抜け穴があるという。")
   ShowMessageFace("",0,0,2,15)
   ShowMessage("見たところ、どこか分からないが――")
   ShowMessage("綿密に調べてみれば、見つかるはずだ。")
   EndEventProcessing()
   0()
  EndIf()
  0()
 PAGE   2
  // condition: variable 1207 >= 3
  0()



EVENT   8
 PAGE   1
  // condition: variable 1207 >= 2
  ShowMessageFace("rest_fc1",0,0,2,1)
  ShowMessage("\\n<Lest>")
  ShowMessage("ここの壁……土でカバーされてる？")
  ShowMessageFace("",0,0,2,2)
  ShowMessage("よく見れば、土が詰め込まれた部分がある。")
  ShowMessage("壁に、人が通れそうなほどの穴が開いているのだ。")
  ShowMessageFace("rest_fc1",0,0,2,3)
  ShowMessage("\\n<Lest>")
  ShowMessage("これが、脱獄の達人とやらが掘った穴か。")
  ShowMessage("ここを使えれば――")
  ShowMessageFace("",0,0,2,4)
  ShowMessage("土を取り除くと、壁に空いた穴が露わになった。")
  ShowMessage("予想以上に深く、隣の部屋まであと少しといったところか。")
  ShowMessageFace("rest_fc1",0,0,2,5)
  ShowMessage("\\n<Lest>")
  ShowMessage("これくらいなら、強引に破れるな。")
  ShowMessage("……えいっ！！")
  250(bytes(0x04,0x08,0x6f,0x3a,0x0c,0x52,0x50,0x47,0x3a,0x3a,0x53,0x45,0x08,0x3a,0x0a,0x40,0x6e,0x61,0x6d,0x65,0x49,0x22,0x0f,0x6d,0x6f,0x6e,0x5f,0x62,0x72,0x65,0x61,0x6b,0x32,0x06,0x3a,0x06,0x45,0x54,0x3a,0x0b,0x40,0x70,0x69,0x74,0x63,0x68,0x69,0x69,0x3a,0x0c,0x40,0x76,0x6f,0x6c,0x75,0x6d,0x65,0x69,0x55))
  ShowMessageFace("",0,0,2,6)
  ShowMessage("僕は穴に足を突っ込み、何度も蹴るように押した。")
  ShowMessage("そうすると、壁はがらがらと崩れ――")
  ShowMessageFace("rest_fc1",0,0,2,7)
  ShowMessage("\\n<Lest>")
  ShowMessage("よし、繋がったぞ！")
  ShowMessageFace("",0,0,2,8)
  ShowMessage("こうして、隣の部屋へのトンネルが開通した。")
  ShowMessage("脱獄の達人とやらに感謝だな――")
  205(-1,bytes(0x04,0x08,0x6f,0x3a,0x13,0x52,0x50,0x47,0x3a,0x3a,0x4d,0x6f,0x76,0x65,0x52,0x6f,0x75,0x74,0x65,0x09,0x3a,0x0c,0x40,0x72,0x65,0x70,0x65,0x61,0x74,0x46,0x3a,0x0f,0x40,0x73,0x6b,0x69,0x70,0x70,0x61,0x62,0x6c,0x65,0x46,0x3a,0x0a,0x40,0x77,0x61,0x69,0x74,0x54,0x3a,0x0a,0x40,0x6c,0x69,0x73,0x74,0x5b,0x0a,0x6f,0x3a,0x15,0x52,0x50,0x47,0x3a,0x3a,0x4d,0x6f,0x76,0x65,0x43,0x6f,0x6d,0x6d,0x61,0x6e,0x64,0x07,0x3a,0x0a,0x40,0x63,0x6f,0x64,0x65,0x69,0x2a,0x3a,0x10,0x40,0x70,0x61,0x72,0x61,0x6d,0x65,0x74,0x65,0x72,0x73,0x5b,0x00,0x6f,0x3b,0x0a,0x07,0x3b,0x0b,0x69,0x07,0x3b,0x0c,0x5b,0x00,0x6f,0x3b,0x0a,0x07,0x3b,0x0b,0x69,0x07,0x3b,0x0c,0x5b,0x00,0x6f,0x3b,0x0a,0x07,0x3b,0x0b,0x69,0x2b,0x3b,0x0c,0x5b,0x00,0x6f,0x3b,0x0a,0x07,0x3b,0x0b,0x69,0x00,0x3b,0x0c,0x5b,0x00))
  ShowMessageFace("rest_fc1",0,0,2,9)
  ShowMessage("\\n<Lest>")
  ShowMessage("ここは、物品保管室って言ってたな。")
  ShowMessage("もしかすると、ここに――")
  205(-1,bytes(0x04,0x08,0x6f,0x3a,0x13,0x52,0x50,0x47,0x3a,0x3a,0x4d,0x6f,0x76,0x65,0x52,0x6f,0x75,0x74,0x65,0x09,0x3a,0x0c,0x40,0x72,0x65,0x70,0x65,0x61,0x74,0x46,0x3a,0x0f,0x40,0x73,0x6b,0x69,0x70,0x70,0x61,0x62,0x6c,0x65,0x46,0x3a,0x0a,0x40,0x77,0x61,0x69,0x74,0x54,0x3a,0x0a,0x40,0x6c,0x69,0x73,0x74,0x5b,0x09,0x6f,0x3a,0x15,0x52,0x50,0x47,0x3a,0x3a,0x4d,0x6f,0x76,0x65,0x43,0x6f,0x6d,0x6d,0x61,0x6e,0x64,0x07,0x3a,0x0a,0x40,0x63,0x6f,0x64,0x65,0x69,0x07,0x3a,0x10,0x40,0x70,0x61,0x72,0x61,0x6d,0x65,0x74,0x65,0x72,0x73,0x5b,0x00,0x6f,0x3b,0x0a,0x07,0x3b,0x0b,0x69,0x07,0x3b,0x0c,0x5b,0x00,0x6f,0x3b,0x0a,0x07,0x3b,0x0b,0x69,0x15,0x3b,0x0c,0x5b,0x00,0x6f,0x3b,0x0a,0x07,0x3b,0x0b,0x69,0x00,0x3b,0x0c,0x5b,0x00))
  ShowMessageFace("rest_fc1",0,0,2,10)
  ShowMessage("\\n<Lest>")
  ShowMessage("……あった、僕の所持品だ。")
  249(bytes(0x04,0x08,0x6f,0x3a,0x0c,0x52,0x50,0x47,0x3a,0x3a,0x4d,0x45,0x08,0x3a,0x0a,0x40,0x6e,0x61,0x6d,0x65,0x49,0x22,0x11,0x6d,0x6f,0x6e,0x5f,0x66,0x61,0x6e,0x66,0x61,0x6c,0x65,0x32,0x06,0x3a,0x06,0x45,0x54,0x3a,0x0b,0x40,0x70,0x69,0x74,0x63,0x68,0x69,0x69,0x3a,0x0c,0x40,0x76,0x6f,0x6c,0x75,0x6d,0x65,0x69,0x69))
  ShowMessageFace("",0,0,2,11)
  ShowMessage("装備と所持アイテムを取り返した！")
  ShowMessageFace("rest_fc1",0,0,2,12)
  ShowMessage("\\n<Lest>")
  ShowMessage("さあ、ここから出よう。")
  ShowMessage("ターサを探して、救出するんだ……！")
  ShowMessageFace("",0,0,2,13)
  ShowMessage("なんとか、牢から出ることには成功した。")
  ShowMessage("警戒しながら、ここから脱出しよう――")
  ChangeVariable(1207,1207,0,0,3)
  EndEventProcessing()
  0()
 PAGE   2
  // condition: variable 1207 >= 3
  0()



EVENT   9
 PAGE   1
  ShowMessageFace("artm_fc1",0,0,2,1)
  ShowMessage("\\n<オートマータ娘>")
  ShowMessage("脱獄を確認しました。")
  ShowMessage("そこの者、止まりなさい……")
  ShowMessageFace("rest_fc1",0,0,2,2)
  ShowMessage("\\n<Lest>")
  ShowMessage("くっ、まずい……！")
  250(bytes(0x04,0x08,0x6f,0x3a,0x0c,0x52,0x50,0x47,0x3a,0x3a,0x53,0x45,0x08,0x3a,0x0a,0x40,0x6e,0x61,0x6d,0x65,0x49,0x22,0x10,0x6d,0x6f,0x6e,0x5f,0x61,0x73,0x69,0x6f,0x74,0x6f,0x34,0x06,0x3a,0x06,0x45,0x54,0x3a,0x0b,0x40,0x70,0x69,0x74,0x63,0x68,0x69,0x69,0x3a,0x0c,0x40,0x76,0x6f,0x6c,0x75,0x6d,0x65,0x69,0x69))
  221()
  Wait(60)
  TeleportPlayer(0,855,34,32,6,2)
  222()
  ShowMessageFace("rest_fc1",0,0,2,3)
  ShowMessage("\\n<Lest>")
  ShowMessage("なんとか逃げ切ったな。")
  ShowMessage("次は見つからないようにしないと……")
  EndEventProcessing()
  0()
 PAGE   2
  // condition: variable 1207 >= 5
  0()



EVENT   10
 PAGE   1
  // condition: variable 1207 >= 3
  PictureDisplay(5,"80_artm_st01",0,0,0,0,100,100,0,0)
  PictureMove(5,null,0,0,0,0,100,100,255,0,30,true)
  ShowMessageFace("artm_fc1",0,0,2,1)
  ShowMessage("\\n<オートマータ娘>")
  ShowMessage("現在、巡回中……")
  ShowMessageFace("rest_fc1",0,0,2,2)
  ShowMessage("\\n<Lest>")
  ShowMessage("あれが……看守？")
  ShowMessage("人形が看守をしているのか！？")
  ShowMessageFace("rest_fc1",0,0,2,3)
  ShowMessage("\\n<Lest>")
  ShowMessage("1体なら倒せないこともないけど……")
  ShowMessage("騒ぎになると、増援が出てきて面倒だな。")
  PictureClear(5)
  ShowMessageFace("",0,0,2,4)
  ShowMessage("隙を見て、通り抜けた方が良さそうだ。")
  ShowMessage("見つからないように先へ進もう――")
  ChangeVariable(1207,1207,0,0,4)
  EndEventProcessing()
  0()
 PAGE   2
  // condition: variable 1207 >= 4
  0()



EVENT   11
 PAGE   1
  If(1,1207,0,5,2)
   ShowMessageFace("",0,0,2,1)
   ShowMessage("扉は施錠されている……")
   EndEventProcessing()
   0()
  EndIf()
  If(1,1207,0,6,1)
   If(1,1207,0,7,2)
    ChangeVariable(1207,1207,0,0,7)
    ShowMessageFace("",0,0,2,2)
    ShowMessage("扉は施錠されている……")
    ShowMessageFace("rest_fc1",0,0,2,3)
    ShowMessage("\\n<Lest>")
    ShowMessage("……ダメだな、鍵が掛かってる。")
    ShowMessage("ここの鍵を持っている者を探さないと。")
    ShowMessageFace("nobissa_fc1",0,0,2,4)
    ShowMessage("\\n<Novissa>")
    ShowMessage("……………………")
    ShowMessageFace("rest_fc1",0,0,2,5)
    ShowMessage("\\n<Lest>")
    ShowMessage("ああ、ここで一番偉い看守が鍵を持ってるはずだ。")
    ShowMessage("危険だけど、仕方ないか……")
    ShowMessageFace("",0,0,2,6)
    ShowMessage("看守長から、鍵を奪うしか手はない。")
    ShowMessage("どこにいるか、探さなければ――")
    EndEventProcessing()
    0()
   EndIf()
   0()
  EndIf()
  If(1,1207,0,8,0)
   250(bytes(0x04,0x08,0x6f,0x3a,0x0c,0x52,0x50,0x47,0x3a,0x3a,0x53,0x45,0x08,0x3a,0x0a,0x40,0x6e,0x61,0x6d,0x65,0x49,0x22,0x0a,0x4f,0x70,0x65,0x6e,0x31,0x06,0x3a,0x06,0x45,0x54,0x3a,0x0b,0x40,0x70,0x69,0x74,0x63,0x68,0x69,0x69,0x3a,0x0c,0x40,0x76,0x6f,0x6c,0x75,0x6d,0x65,0x69,0x55))
   205(0,bytes(0x04,0x08,0x6f,0x3a,0x13,0x52,0x50,0x47,0x3a,0x3a,0x4d,0x6f,0x76,0x65,0x52,0x6f,0x75,0x74,0x65,0x09,0x3a,0x0c,0x40,0x72,0x65,0x70,0x65,0x61,0x74,0x46,0x3a,0x0f,0x40,0x73,0x6b,0x69,0x70,0x70,0x61,0x62,0x6c,0x65,0x46,0x3a,0x0a,0x40,0x77,0x61,0x69,0x74,0x54,0x3a,0x0a,0x40,0x6c,0x69,0x73,0x74,0x5b,0x0c,0x6f,0x3a,0x15,0x52,0x50,0x47,0x3a,0x3a,0x4d,0x6f,0x76,0x65,0x43,0x6f,0x6d,0x6d,0x61,0x6e,0x64,0x07,0x3a,0x0a,0x40,0x63,0x6f,0x64,0x65,0x69,0x16,0x3a,0x10,0x40,0x70,0x61,0x72,0x61,0x6d,0x65,0x74,0x65,0x72,0x73,0x5b,0x00,0x6f,0x3b,0x0a,0x07,0x3b,0x0b,0x69,0x14,0x3b,0x0c,0x5b,0x06,0x69,0x08,0x6f,0x3b,0x0a,0x07,0x3b,0x0b,0x69,0x17,0x3b,0x0c,0x5b,0x00,0x6f,0x3b,0x0a,0x07,0x3b,0x0b,0x69,0x14,0x3b,0x0c,0x5b,0x06,0x69,0x08,0x6f,0x3b,0x0a,0x07,0x3b,0x0b,0x69,0x18,0x3b,0x0c,0x5b,0x00,0x6f,0x3b,0x0a,0x07,0x3b,0x0b,0x69,0x2a,0x3b,0x0c,0x5b,0x00,0x6f,0x3b,0x0a,0x07,0x3b,0x0b,0x69,0x00,0x3b,0x0c,0x5b,0x00))
   ChangeSelfSwitch("A",0)
   EndEventProcessing()
   0()
  EndIf()
  0()
 PAGE   2
  // condition: self-switch A is ON
  0()



EVENT   14
 PAGE   1
  0()
 PAGE   2
  // condition: variable 1207 >= 5
  0()



EVENT   12
 PAGE   1
  0()
 PAGE   2
  // condition: variable 1207 >= 5
  0()



EVENT   13
 PAGE   1
  0()
 PAGE   2
  // condition: variable 1207 >= 5
  0()



EVENT   15
 PAGE   1
  // condition: variable 1207 >= 4
  241(bytes(0x04,0x08,0x6f,0x3a,0x0d,0x52,0x50,0x47,0x3a,0x3a,0x42,0x47,0x4d,0x08,0x3a,0x0a,0x40,0x6e,0x61,0x6d,0x65,0x49,0x22,0x0a,0x6b,0x69,0x6b,0x69,0x32,0x06,0x3a,0x06,0x45,0x54,0x3a,0x0c,0x40,0x76,0x6f,0x6c,0x75,0x6d,0x65,0x69,0x69,0x3a,0x0b,0x40,0x70,0x69,0x74,0x63,0x68,0x69,0x69))
  205(-1,bytes(0x04,0x08,0x6f,0x3a,0x13,0x52,0x50,0x47,0x3a,0x3a,0x4d,0x6f,0x76,0x65,0x52,0x6f,0x75,0x74,0x65,0x09,0x3a,0x0c,0x40,0x72,0x65,0x70,0x65,0x61,0x74,0x46,0x3a,0x0f,0x40,0x73,0x6b,0x69,0x70,0x70,0x61,0x62,0x6c,0x65,0x46,0x3a,0x0a,0x40,0x77,0x61,0x69,0x74,0x54,0x3a,0x0a,0x40,0x6c,0x69,0x73,0x74,0x5b,0x07,0x6f,0x3a,0x15,0x52,0x50,0x47,0x3a,0x3a,0x4d,0x6f,0x76,0x65,0x43,0x6f,0x6d,0x6d,0x61,0x6e,0x64,0x07,0x3a,0x0a,0x40,0x63,0x6f,0x64,0x65,0x69,0x18,0x3a,0x10,0x40,0x70,0x61,0x72,0x61,0x6d,0x65,0x74,0x65,0x72,0x73,0x5b,0x00,0x6f,0x3b,0x0a,0x07,0x3b,0x0b,0x69,0x00,0x3b,0x0c,0x5b,0x00))
  ShowSpeechBalloon(-1,1,true)
  PictureDisplay(5,"80_artm_st01",0,0,-200,0,100,100,0,0)
  PictureDisplay(6,"80_artm_st01",0,0,0,0,100,100,0,0)
  PictureDisplay(7,"80_artm_st01",0,0,200,0,100,100,0,0)
  PictureMove(5,null,0,0,-200,0,100,100,255,0,30,false)
  PictureMove(6,null,0,0,0,0,100,100,255,0,30,false)
  PictureMove(7,null,0,0,200,0,100,100,255,0,30,true)
  ShowMessageFace("artm_fc1",0,0,2,1)
  ShowMessage("\\n<オートマータ娘Ａ>")
  ShowMessage("脱獄を確認、捕縛を開始します――")
  ShowMessageFace("artm_fc1",0,0,2,2)
  ShowMessage("\\n<オートマータ娘Ｂ>")
  ShowMessage("抵抗をやめなさい。")
  ShowMessage("従わなければ、攻撃します――")
  ShowMessageFace("rest_fc1",0,0,2,3)
  ShowMessage("\\n<Lest>")
  ShowMessage("くっ、数が多いな……")
  ShowMessageFace("",0,0,2,4)
  ShowMessage("一人で対処するには、少し無理がある数だ。")
  ShowMessage("これは、まずいか――")
  PictureClear(5)
  PictureClear(6)
  PictureClear(7)
  Wait(30)
  241(bytes(0x04,0x08,0x6f,0x3a,0x0d,0x52,0x50,0x47,0x3a,0x3a,0x42,0x47,0x4d,0x08,0x3a,0x0a,0x40,0x6e,0x61,0x6d,0x65,0x49,0x22,0x0a,0x6b,0x69,0x6b,0x69,0x34,0x06,0x3a,0x06,0x45,0x54,0x3a,0x0c,0x40,0x76,0x6f,0x6c,0x75,0x6d,0x65,0x69,0x69,0x3a,0x0b,0x40,0x70,0x69,0x74,0x63,0x68,0x69,0x69))
  ChangeSwitch(31,31,0)
  205(16,bytes(0x04,0x08,0x6f,0x3a,0x13,0x52,0x50,0x47,0x3a,0x3a,0x4d,0x6f,0x76,0x65,0x52,0x6f,0x75,0x74,0x65,0x09,0x3a,0x0c,0x40,0x72,0x65,0x70,0x65,0x61,0x74,0x46,0x3a,0x0f,0x40,0x73,0x6b,0x69,0x70,0x70,0x61,0x62,0x6c,0x65,0x46,0x3a,0x0a,0x40,0x77,0x61,0x69,0x74,0x54,0x3a,0x0a,0x40,0x6c,0x69,0x73,0x74,0x5b,0x09,0x6f,0x3a,0x15,0x52,0x50,0x47,0x3a,0x3a,0x4d,0x6f,0x76,0x65,0x43,0x6f,0x6d,0x6d,0x61,0x6e,0x64,0x07,0x3a,0x0a,0x40,0x63,0x6f,0x64,0x65,0x69,0x06,0x3a,0x10,0x40,0x70,0x61,0x72,0x61,0x6d,0x65,0x74,0x65,0x72,0x73,0x5b,0x00,0x6f,0x3b,0x0a,0x07,0x3b,0x0b,0x69,0x06,0x3b,0x0c,0x5b,0x00,0x6f,0x3b,0x0a,0x07,0x3b,0x0b,0x69,0x06,0x3b,0x0c,0x5b,0x00,0x6f,0x3b,0x0a,0x07,0x3b,0x0b,0x69,0x00,0x3b,0x0c,0x5b,0x00))
  205(12,bytes(0x04,0x08,0x6f,0x3a,0x13,0x52,0x50,0x47,0x3a,0x3a,0x4d,0x6f,0x76,0x65,0x52,0x6f,0x75,0x74,0x65,0x09,0x3a,0x0c,0x40,0x72,0x65,0x70,0x65,0x61,0x74,0x46,0x3a,0x0f,0x40,0x73,0x6b,0x69,0x70,0x70,0x61,0x62,0x6c,0x65,0x46,0x3a,0x0a,0x40,0x77,0x61,0x69,0x74,0x54,0x3a,0x0a,0x40,0x6c,0x69,0x73,0x74,0x5b,0x07,0x6f,0x3a,0x15,0x52,0x50,0x47,0x3a,0x3a,0x4d,0x6f,0x76,0x65,0x43,0x6f,0x6d,0x6d,0x61,0x6e,0x64,0x07,0x3a,0x0a,0x40,0x63,0x6f,0x64,0x65,0x69,0x18,0x3a,0x10,0x40,0x70,0x61,0x72,0x61,0x6d,0x65,0x74,0x65,0x72,0x73,0x5b,0x00,0x6f,0x3b,0x0a,0x07,0x3b,0x0b,0x69,0x00,0x3b,0x0c,0x5b,0x00))
  PictureDisplay(5,"80_nobissa_st01",0,0,0,0,100,100,0,0)
  PictureMove(5,null,0,0,0,0,100,100,255,0,30,true)
  ShowMessageFace("nobissa_fc1",0,0,2,5)
  ShowMessage("\\n<謎の剣士>")
  ShowMessage("……………………")
  ShowMessageFace("rest_fc1",0,0,2,6)
  ShowMessage("\\n<Lest>")
  ShowMessage("看守の増援……！？　いや――")
  ShowMessageFace("",0,0,2,7)
  ShowMessage("あの剣士は、どう見ても看守には見えない。")
  ShowMessageFace("artm_fc1",0,0,2,8)
  ShowMessage("\\n<オートマータ娘Ａ>")
  ShowMessage("……収監者に登録無し。")
  ShowMessage("侵入者と判断します。")
  ShowMessageFace("artm_fc1",0,0,2,9)
  ShowMessage("\\n<オートマータ娘Ｂ>")
  ShowMessage("B1F、A12区画にて侵入者を確認。")
  ShowMessage("至急、捕縛開始――")
  ShowMessageFace("nobissa_fc1",0,0,2,10)
  ShowMessage("\\n<謎の剣士>")
  ShowMessage("…………！！")
  PictureClear(5)
  Wait(30)
  205(12,bytes(0x04,0x08,0x6f,0x3a,0x13,0x52,0x50,0x47,0x3a,0x3a,0x4d,0x6f,0x76,0x65,0x52,0x6f,0x75,0x74,0x65,0x09,0x3a,0x0c,0x40,0x72,0x65,0x70,0x65,0x61,0x74,0x46,0x3a,0x0f,0x40,0x73,0x6b,0x69,0x70,0x70,0x61,0x62,0x6c,0x65,0x46,0x3a,0x0a,0x40,0x77,0x61,0x69,0x74,0x54,0x3a,0x0a,0x40,0x6c,0x69,0x73,0x74,0x5b,0x09,0x6f,0x3a,0x15,0x52,0x50,0x47,0x3a,0x3a,0x4d,0x6f,0x76,0x65,0x43,0x6f,0x6d,0x6d,0x61,0x6e,0x64,0x07,0x3a,0x0a,0x40,0x63,0x6f,0x64,0x65,0x69,0x31,0x3a,0x10,0x40,0x70,0x61,0x72,0x61,0x6d,0x65,0x74,0x65,0x72,0x73,0x5b,0x06,0x6f,0x3a,0x0c,0x52,0x50,0x47,0x3a,0x3a,0x53,0x45,0x08,0x3a,0x0a,0x40,0x6e,0x61,0x6d,0x65,0x49,0x22,0x0e,0x6d,0x6f,0x6e,0x5f,0x73,0x6c,0x61,0x73,0x68,0x06,0x3a,0x06,0x45,0x54,0x3a,0x0b,0x40,0x70,0x69,0x74,0x63,0x68,0x69,0x69,0x3a,0x0c,0x40,0x76,0x6f,0x6c,0x75,0x6d,0x65,0x69,0x69,0x6f,0x3b,0x0a,0x07,0x3b,0x0b,0x69,0x14,0x3b,0x0c,0x5b,0x06,0x69,0x0f,0x6f,0x3b,0x0a,0x07,0x3b,0x0b,0x69,0x2c,0x3b,0x0c,0x5b,0x00,0x6f,0x3b,0x0a,0x07,0x3b,0x0b,0x69,0x00,0x3b,0x0c,0x5b,0x00))
  205(16,bytes(0x04,0x08,0x6f,0x3a,0x13,0x52,0x50,0x47,0x3a,0x3a,0x4d,0x6f,0x76,0x65,0x52,0x6f,0x75,0x74,0x65,0x09,0x3a,0x0c,0x40,0x72,0x65,0x70,0x65,0x61,0x74,0x46,0x3a,0x0f,0x40,0x73,0x6b,0x69,0x70,0x70,0x61,0x62,0x6c,0x65,0x46,0x3a,0x0a,0x40,0x77,0x61,0x69,0x74,0x54,0x3a,0x0a,0x40,0x6c,0x69,0x73,0x74,0x5b,0x07,0x6f,0x3a,0x15,0x52,0x50,0x47,0x3a,0x3a,0x4d,0x6f,0x76,0x65,0x43,0x6f,0x6d,0x6d,0x61,0x6e,0x64,0x07,0x3a,0x0a,0x40,0x63,0x6f,0x64,0x65,0x69,0x06,0x3a,0x10,0x40,0x70,0x61,0x72,0x61,0x6d,0x65,0x74,0x65,0x72,0x73,0x5b,0x00,0x6f,0x3b,0x0a,0x07,0x3b,0x0b,0x69,0x00,0x3b,0x0c,0x5b,0x00))
  205(17,bytes(0x04,0x08,0x6f,0x3a,0x13,0x52,0x50,0x47,0x3a,0x3a,0x4d,0x6f,0x76,0x65,0x52,0x6f,0x75,0x74,0x65,0x09,0x3a,0x0c,0x40,0x72,0x65,0x70,0x65,0x61,0x74,0x46,0x3a,0x0f,0x40,0x73,0x6b,0x69,0x70,0x70,0x61,0x62,0x6c,0x65,0x46,0x3a,0x0a,0x40,0x77,0x61,0x69,0x74,0x54,0x3a,0x0a,0x40,0x6c,0x69,0x73,0x74,0x5b,0x07,0x6f,0x3a,0x15,0x52,0x50,0x47,0x3a,0x3a,0x4d,0x6f,0x76,0x65,0x43,0x6f,0x6d,0x6d,0x61,0x6e,0x64,0x07,0x3a,0x0a,0x40,0x63,0x6f,0x64,0x65,0x69,0x18,0x3a,0x10,0x40,0x70,0x61,0x72,0x61,0x6d,0x65,0x74,0x65,0x72,0x73,0x5b,0x00,0x6f,0x3b,0x0a,0x07,0x3b,0x0b,0x69,0x00,0x3b,0x0c,0x5b,0x00))
  205(13,bytes(0x04,0x08,0x6f,0x3a,0x13,0x52,0x50,0x47,0x3a,0x3a,0x4d,0x6f,0x76,0x65,0x52,0x6f,0x75,0x74,0x65,0x09,0x3a,0x0c,0x40,0x72,0x65,0x70,0x65,0x61,0x74,0x46,0x3a,0x0f,0x40,0x73,0x6b,0x69,0x70,0x70,0x61,0x62,0x6c,0x65,0x46,0x3a,0x0a,0x40,0x77,0x61,0x69,0x74,0x46,0x3a,0x0a,0x40,0x6c,0x69,0x73,0x74,0x5b,0x07,0x6f,0x3a,0x15,0x52,0x50,0x47,0x3a,0x3a,0x4d,0x6f,0x76,0x65,0x43,0x6f,0x6d,0x6d,0x61,0x6e,0x64,0x07,0x3a,0x0a,0x40,0x63,0x6f,0x64,0x65,0x69,0x16,0x3a,0x10,0x40,0x70,0x61,0x72,0x61,0x6d,0x65,0x74,0x65,0x72,0x73,0x5b,0x00,0x6f,0x3b,0x0a,0x07,0x3b,0x0b,0x69,0x00,0x3b,0x0c,0x5b,0x00))
  205(18,bytes(0x04,0x08,0x6f,0x3a,0x13,0x52,0x50,0x47,0x3a,0x3a,0x4d,0x6f,0x76,0x65,0x52,0x6f,0x75,0x74,0x65,0x09,0x3a,0x0c,0x40,0x72,0x65,0x70,0x65,0x61,0x74,0x46,0x3a,0x0f,0x40,0x73,0x6b,0x69,0x70,0x70,0x61,0x62,0x6c,0x65,0x46,0x3a,0x0a,0x40,0x77,0x61,0x69,0x74,0x46,0x3a,0x0a,0x40,0x6c,0x69,0x73,0x74,0x5b,0x07,0x6f,0x3a,0x15,0x52,0x50,0x47,0x3a,0x3a,0x4d,0x6f,0x76,0x65,0x43,0x6f,0x6d,0x6d,0x61,0x6e,0x64,0x07,0x3a,0x0a,0x40,0x63,0x6f,0x64,0x65,0x69,0x16,0x3a,0x10,0x40,0x70,0x61,0x72,0x61,0x6d,0x65,0x74,0x65,0x72,0x73,0x5b,0x00,0x6f,0x3b,0x0a,0x07,0x3b,0x0b,0x69,0x00,0x3b,0x0c,0x5b,0x00))
  205(17,bytes(0x04,0x08,0x6f,0x3a,0x13,0x52,0x50,0x47,0x3a,0x3a,0x4d,0x6f,0x76,0x65,0x52,0x6f,0x75,0x74,0x65,0x09,0x3a,0x0c,0x40,0x72,0x65,0x70,0x65,0x61,0x74,0x46,0x3a,0x0f,0x40,0x73,0x6b,0x69,0x70,0x70,0x61,0x62,0x6c,0x65,0x46,0x3a,0x0a,0x40,0x77,0x61,0x69,0x74,0x46,0x3a,0x0a,0x40,0x6c,0x69,0x73,0x74,0x5b,0x09,0x6f,0x3a,0x15,0x52,0x50,0x47,0x3a,0x3a,0x4d,0x6f,0x76,0x65,0x43,0x6f,0x6d,0x6d,0x61,0x6e,0x64,0x07,0x3a,0x0a,0x40,0x63,0x6f,0x64,0x65,0x69,0x31,0x3a,0x10,0x40,0x70,0x61,0x72,0x61,0x6d,0x65,0x74,0x65,0x72,0x73,0x5b,0x06,0x6f,0x3a,0x0c,0x52,0x50,0x47,0x3a,0x3a,0x53,0x45,0x08,0x3a,0x0a,0x40,0x6e,0x61,0x6d,0x65,0x49,0x22,0x0f,0x6d,0x6f,0x6e,0x5f,0x73,0x6c,0x61,0x73,0x68,0x33,0x06,0x3a,0x06,0x45,0x54,0x3a,0x0b,0x40,0x70,0x69,0x74,0x63,0x68,0x69,0x69,0x3a,0x0c,0x40,0x76,0x6f,0x6c,0x75,0x6d,0x65,0x69,0x69,0x6f,0x3b,0x0a,0x07,0x3b,0x0b,0x69,0x14,0x3b,0x0c,0x5b,0x06,0x69,0x0f,0x6f,0x3b,0x0a,0x07,0x3b,0x0b,0x69,0x2c,0x3b,0x0c,0x5b,0x00,0x6f,0x3b,0x0a,0x07,0x3b,0x0b,0x69,0x00,0x3b,0x0c,0x5b,0x00))
  ShowMessageFace("",0,0,2,11)
  ShowMessage("オートマータ娘達が動くよりも先に、剣士の側が仕掛けた。")
  ShowMessage("手にした巨剣を自在に扱い、看守の人形達をねじ伏せていく。")
  205(-1,bytes(0x04,0x08,0x6f,0x3a,0x13,0x52,0x50,0x47,0x3a,0x3a,0x4d,0x6f,0x76,0x65,0x52,0x6f,0x75,0x74,0x65,0x09,0x3a,0x0c,0x40,0x72,0x65,0x70,0x65,0x61,0x74,0x46,0x3a,0x0f,0x40,0x73,0x6b,0x69,0x70,0x70,0x61,0x62,0x6c,0x65,0x46,0x3a,0x0a,0x40,0x77,0x61,0x69,0x74,0x54,0x3a,0x0a,0x40,0x6c,0x69,0x73,0x74,0x5b,0x09,0x6f,0x3a,0x15,0x52,0x50,0x47,0x3a,0x3a,0x4d,0x6f,0x76,0x65,0x43,0x6f,0x6d,0x6d,0x61,0x6e,0x64,0x07,0x3a,0x0a,0x40,0x63,0x6f,0x64,0x65,0x69,0x22,0x3a,0x10,0x40,0x70,0x61,0x72,0x61,0x6d,0x65,0x74,0x65,0x72,0x73,0x5b,0x06,0x69,0x0a,0x6f,0x3b,0x0a,0x07,0x3b,0x0b,0x69,0x09,0x3b,0x0c,0x5b,0x00,0x6f,0x3b,0x0a,0x07,0x3b,0x0b,0x69,0x22,0x3b,0x0c,0x5b,0x06,0x69,0x09,0x6f,0x3b,0x0a,0x07,0x3b,0x0b,0x69,0x00,0x3b,0x0c,0x5b,0x00))
  205(19,bytes(0x04,0x08,0x6f,0x3a,0x13,0x52,0x50,0x47,0x3a,0x3a,0x4d,0x6f,0x76,0x65,0x52,0x6f,0x75,0x74,0x65,0x09,0x3a,0x0c,0x40,0x72,0x65,0x70,0x65,0x61,0x74,0x46,0x3a,0x0f,0x40,0x73,0x6b,0x69,0x70,0x70,0x61,0x62,0x6c,0x65,0x46,0x3a,0x0a,0x40,0x77,0x61,0x69,0x74,0x46,0x3a,0x0a,0x40,0x6c,0x69,0x73,0x74,0x5b,0x09,0x6f,0x3a,0x15,0x52,0x50,0x47,0x3a,0x3a,0x4d,0x6f,0x76,0x65,0x43,0x6f,0x6d,0x6d,0x61,0x6e,0x64,0x07,0x3a,0x0a,0x40,0x63,0x6f,0x64,0x65,0x69,0x31,0x3a,0x10,0x40,0x70,0x61,0x72,0x61,0x6d,0x65,0x74,0x65,0x72,0x73,0x5b,0x06,0x6f,0x3a,0x0c,0x52,0x50,0x47,0x3a,0x3a,0x53,0x45,0x08,0x3a,0x0a,0x40,0x6e,0x61,0x6d,0x65,0x49,0x22,0x0f,0x6d,0x6f,0x6e,0x5f,0x73,0x6c,0x61,0x73,0x68,0x33,0x06,0x3a,0x06,0x45,0x54,0x3a,0x0b,0x40,0x70,0x69,0x74,0x63,0x68,0x69,0x69,0x3a,0x0c,0x40,0x76,0x6f,0x6c,0x75,0x6d,0x65,0x69,0x69,0x6f,0x3b,0x0a,0x07,0x3b,0x0b,0x69,0x14,0x3b,0x0c,0x5b,0x06,0x69,0x0f,0x6f,0x3b,0x0a,0x07,0x3b,0x0b,0x69,0x2c,0x3b,0x0c,0x5b,0x00,0x6f,0x3b,0x0a,0x07,0x3b,0x0b,0x69,0x00,0x3b,0x0c,0x5b,0x00))
  ShowMessageFace("",0,0,2,12)
  ShowMessage("そして僕も、攻めに転じていた。")
  ShowMessage("謎の剣士に加勢して、剣を振るい――")
  221()
  250(bytes(0x04,0x08,0x6f,0x3a,0x0c,0x52,0x50,0x47,0x3a,0x3a,0x53,0x45,0x08,0x3a,0x0a,0x40,0x6e,0x61,0x6d,0x65,0x49,0x22,0x0e,0x6d,0x6f,0x6e,0x5f,0x73,0x6c,0x61,0x73,0x68,0x06,0x3a,0x06,0x45,0x54,0x3a,0x0b,0x40,0x70,0x69,0x74,0x63,0x68,0x69,0x69,0x3a,0x0c,0x40,0x76,0x6f,0x6c,0x75,0x6d,0x65,0x69,0x69))
  Wait(30)
  250(bytes(0x04,0x08,0x6f,0x3a,0x0c,0x52,0x50,0x47,0x3a,0x3a,0x53,0x45,0x08,0x3a,0x0a,0x40,0x6e,0x61,0x6d,0x65,0x49,0x22,0x0e,0x6d,0x6f,0x6e,0x5f,0x73,0x6c,0x61,0x73,0x68,0x06,0x3a,0x06,0x45,0x54,0x3a,0x0b,0x40,0x70,0x69,0x74,0x63,0x68,0x69,0x69,0x3a,0x0c,0x40,0x76,0x6f,0x6c,0x75,0x6d,0x65,0x69,0x69))
  Wait(30)
  250(bytes(0x04,0x08,0x6f,0x3a,0x0c,0x52,0x50,0x47,0x3a,0x3a,0x53,0x45,0x08,0x3a,0x0a,0x40,0x6e,0x61,0x6d,0x65,0x49,0x22,0x0f,0x6d,0x6f,0x6e,0x5f,0x73,0x6c,0x61,0x73,0x68,0x33,0x06,0x3a,0x06,0x45,0x54,0x3a,0x0b,0x40,0x70,0x69,0x74,0x63,0x68,0x69,0x69,0x3a,0x0c,0x40,0x76,0x6f,0x6c,0x75,0x6d,0x65,0x69,0x69))
  Wait(90)
  242(1)
  Wait(60)
  ChangeVariable(1207,1207,0,0,5)
  TeleportEvent(16,0,56,38,4)
  205(-1,bytes(0x04,0x08,0x6f,0x3a,0x13,0x52,0x50,0x47,0x3a,0x3a,0x4d,0x6f,0x76,0x65,0x52,0x6f,0x75,0x74,0x65,0x09,0x3a,0x0c,0x40,0x72,0x65,0x70,0x65,0x61,0x74,0x46,0x3a,0x0f,0x40,0x73,0x6b,0x69,0x70,0x70,0x61,0x62,0x6c,0x65,0x46,0x3a,0x0a,0x40,0x77,0x61,0x69,0x74,0x54,0x3a,0x0a,0x40,0x6c,0x69,0x73,0x74,0x5b,0x07,0x6f,0x3a,0x15,0x52,0x50,0x47,0x3a,0x3a,0x4d,0x6f,0x76,0x65,0x43,0x6f,0x6d,0x6d,0x61,0x6e,0x64,0x07,0x3a,0x0a,0x40,0x63,0x6f,0x64,0x65,0x69,0x17,0x3a,0x10,0x40,0x70,0x61,0x72,0x61,0x6d,0x65,0x74,0x65,0x72,0x73,0x5b,0x00,0x6f,0x3b,0x0a,0x07,0x3b,0x0b,0x69,0x00,0x3b,0x0c,0x5b,0x00))
  217()
  PictureClear(5)
  222()
  241(bytes(0x04,0x08,0x6f,0x3a,0x0d,0x52,0x50,0x47,0x3a,0x3a,0x42,0x47,0x4d,0x08,0x3a,0x0a,0x40,0x6e,0x61,0x6d,0x65,0x49,0x22,0x14,0x73,0x63,0x65,0x6e,0x65,0x5f,0x65,0x70,0x69,0x6c,0x6f,0x67,0x75,0x65,0x32,0x06,0x3a,0x06,0x45,0x54,0x3a,0x0c,0x40,0x76,0x6f,0x6c,0x75,0x6d,0x65,0x69,0x69,0x3a,0x0b,0x40,0x70,0x69,0x74,0x63,0x68,0x69,0x69))
  ShowMessageFace("",0,0,2,13)
  ShowMessage("たちまちのうちに、看守達を沈黙させた。")
  ShowMessage("謎の剣士は、僕と対峙する。")
  ShowMessageFace("rest_fc1",0,0,2,14)
  ShowMessage("\\n<Lest>")
  ShowMessage("いったい、君は――")
  ShowMessageFace("nobissa_fc1",0,0,2,15)
  ShowMessage("\\n<謎の剣士>")
  ShowMessage("……………………")
  ShowMessageFace("",0,0,2,16)
  ShowMessage("そこで彼は、驚くべき言葉を口にした。")
  ShowMessage("「ターサという女性を知らないか」――と。")
  ShowMessageFace("rest_fc1",0,0,2,17)
  ShowMessage("\\n<Lest>")
  ShowMessage("なぜターサを……？")
  ShowMessage("もしかして、君が――ノビッサ！？")
  ShowMessageFace("",0,0,2,18)
  ShowMessage("ターサの探していた、恋人らしき男性。")
  ShowMessage("かなりの猛者で、おそらく七人の勇者の一人――")
  ShowSpeechBalloon(16,2,false)
  ShowMessageFace("",0,0,2,19)
  ShowMessage("なぜ、自分のことを知っているのか――")
  ShowMessage("首を傾げるノビッサに、僕は事情を説明した。")
  ShowMessageFace("rest_fc1",0,0,2,20)
  ShowMessage("\\n<Lest>")
  ShowMessage("そういうわけで……ターサは敵の手に落ちた。")
  ShowMessage("本当にすまない、僕がついていながら……")
  ShowMessageFace("",0,0,2,21)
  ShowMessage("気にするな、とノビッサは僕の肩を叩く。")
  ShowMessageFace("rest_fc1",0,0,2,22)
  ShowMessage("\\n<Lest>")
  ShowMessage("それだけじゃないんだ。")
  ShowMessage("淫魔と化したターサに、僕は何度も……")
  ShowMessageFace("rest_fc1",0,0,2,23)
  ShowMessage("\\n<Lest>")
  ShowMessage("君の恋人なのに、すまない……")
  ShowSpeechBalloon(16,8,false)
  Wait(60)
  ShowMessageFace("rest_fc1",0,0,2,24)
  ShowMessage("\\n<Lest>")
  ShowMessage("えっ……？")
  ShowMessage("気にしないって……？")
  ShowSpeechBalloon(16,8,false)
  Wait(60)
  ShowMessageFace("rest_fc1",0,0,2,25)
  ShowMessage("\\n<Lest>")
  ShowMessage("大勢の男が、ターサに犯されひどい目に合った！？")
  ShowMessage("むしろ迷惑を掛けた……って！？")
  ShowMessageFace("",0,0,2,26)
  ShowMessage("恋人が、そんなので大丈夫なのだろうか――")
  ShowMessage("などと、つい心配になってしまった。")
  ShowMessageFace("",0,0,2,27)
  ShowMessage("ともかく、ノビッサはターサを探してここまで来た。")
  ShowMessage("まさか牢獄にまで乗り込んでくるなんて、大した豪傑だ。")
  ShowMessageFace("rest_fc1",0,0,2,28)
  ShowMessage("\\n<Lest>")
  ShowMessage("ここからは、僕も一緒に行かせてくれ。")
  ShowMessage("力を合わせて、ターサを救出するんだ！")
  ShowMessageFace("nobissa_fc1",0,0,2,29)
  ShowMessage("\\n<Novissa>")
  ShowMessage("……………………")
  ShowMessageFace("",0,0,2,30)
  ShowMessage("ノビッサは、力強く頷いた。")
  ShowMessage("こうして、寡黙だが頼りになる仲間が加わったのである――")
  205(16,bytes(0x04,0x08,0x6f,0x3a,0x13,0x52,0x50,0x47,0x3a,0x3a,0x4d,0x6f,0x76,0x65,0x52,0x6f,0x75,0x74,0x65,0x09,0x3a,0x0c,0x40,0x72,0x65,0x70,0x65,0x61,0x74,0x46,0x3a,0x0f,0x40,0x73,0x6b,0x69,0x70,0x70,0x61,0x62,0x6c,0x65,0x46,0x3a,0x0a,0x40,0x77,0x61,0x69,0x74,0x54,0x3a,0x0a,0x40,0x6c,0x69,0x73,0x74,0x5b,0x09,0x6f,0x3a,0x15,0x52,0x50,0x47,0x3a,0x3a,0x4d,0x6f,0x76,0x65,0x43,0x6f,0x6d,0x6d,0x61,0x6e,0x64,0x07,0x3a,0x0a,0x40,0x63,0x6f,0x64,0x65,0x69,0x2a,0x3a,0x10,0x40,0x70,0x61,0x72,0x61,0x6d,0x65,0x74,0x65,0x72,0x73,0x5b,0x00,0x6f,0x3b,0x0a,0x07,0x3b,0x0b,0x69,0x0f,0x3b,0x0c,0x5b,0x00,0x6f,0x3b,0x0a,0x07,0x3b,0x0b,0x69,0x2c,0x3b,0x0c,0x5b,0x00,0x6f,0x3b,0x0a,0x07,0x3b,0x0b,0x69,0x00,0x3b,0x0c,0x5b,0x00))
  355("add_temp_actors(823)")
  249(bytes(0x04,0x08,0x6f,0x3a,0x0c,0x52,0x50,0x47,0x3a,0x3a,0x4d,0x45,0x08,0x3a,0x0a,0x40,0x6e,0x61,0x6d,0x65,0x49,0x22,0x0c,0x66,0x61,0x6e,0x66,0x61,0x6c,0x65,0x06,0x3a,0x06,0x45,0x54,0x3a,0x0b,0x40,0x70,0x69,0x74,0x63,0x68,0x69,0x69,0x3a,0x0c,0x40,0x76,0x6f,0x6c,0x75,0x6d,0x65,0x69,0x69))
  ShowMessageFace("",0,0,2,31)
  ShowMessage("ノビッサが仲間に加わった！")
  ChangeSwitch(31,31,1)
  Wait(60)
  ShowMessageFace("rest_fc1",0,0,2,32)
  ShowMessage("\\n<Lest>")
  ShowMessage("それで、ノビッサ……")
  ShowMessage("ターサの居場所は分かっているのかな？")
  ShowSpeechBalloon(-1,8,false)
  Wait(60)
  ShowMessageFace("",0,0,2,33)
  ShowMessage("異世界から来たと自称する少年剣士と踊り子が、")
  ShowMessage("女王に謁見したきり行方不明となっている――")
  ShowMessageFace("",0,0,2,34)
  ShowMessage("ノビッサの調べで、そこまでは明らかになった。")
  ShowMessage("だが、ターサの居場所までは分からないという。")
  ShowMessageFace("rest_fc1",0,0,2,35)
  ShowMessage("\\n<Lest>")
  ShowMessage("ターサの力で、何かを召喚するって言ってたんだ。")
  ShowMessage("そして、そのための儀式を行うって――")
  ShowMessageFace("",0,0,2,36)
  ShowMessage("その儀式を、大々的に行うことは考えにくい。")
  ShowMessage("どうせ陰謀の一環、どこかでこっそり行うはずだ。")
  ShowMessageFace("rest_fc1",0,0,2,37)
  ShowMessage("\\n<Lest>")
  ShowMessage("危険だけど、ここで情報を集めるしかないな。")
  ShowMessage("囚人ってのは、どこの世界でも事情通だろうし。")
  ShowMessageFace("",0,0,2,38)
  ShowMessage("とりあえず、牢内の囚人達にあたってみよう。")
  ShowMessage("何かを見聞きした者がいるかもしれない――")
  241(bytes(0x04,0x08,0x6f,0x3a,0x0d,0x52,0x50,0x47,0x3a,0x3a,0x42,0x47,0x4d,0x08,0x3a,0x0a,0x40,0x6e,0x61,0x6d,0x65,0x49,0x22,0x0d,0x64,0x75,0x6e,0x67,0x65,0x6f,0x6e,0x31,0x06,0x3a,0x06,0x45,0x54,0x3a,0x0c,0x40,0x76,0x6f,0x6c,0x75,0x6d,0x65,0x69,0x69,0x3a,0x0b,0x40,0x70,0x69,0x74,0x63,0x68,0x69,0x69))
  EndEventProcessing()
  0()
 PAGE   2
  // condition: variable 1207 >= 5
  0()



EVENT   16
 PAGE   1
  // condition: switch 31 is ON
  0()



EVENT   17
 PAGE   1
  0()
 PAGE   2
  // condition: variable 1207 >= 5
  0()



EVENT   18
 PAGE   1
  0()
 PAGE   2
  // condition: variable 1207 >= 5
  0()



EVENT   19
 PAGE   1
  0()
 PAGE   2
  // condition: variable 1207 >= 5
  0()



EVENT   20
 PAGE   1
  0()



EVENT   21
 PAGE   1
  If(1,1207,0,5,0)
   ShowMessageFace("",0,0,2,1)
   ShowMessage("\\n<囚人>")
   ShowMessage("ターサって、緑髪の踊り娘かい？")
   ShowMessage("それなら、確かに見たぜ。")
   ShowMessageFace("rest_fc1",0,0,2,2)
   ShowMessage("\\n<Lest>")
   ShowMessage("えっ……？")
   ShowMessage("詳しい話を聞かせてくれないか！")
   ShowMessageFace("",0,0,2,3)
   ShowMessage("\\n<囚人>")
   ShowMessage("でも、タダじゃなぁ～。")
   ShowMessage("そう言えば、少し小腹が空いてきたなぁ～。")
   ShowMessageFace("nobissa_fc1",0,0,2,4)
   ShowMessage("\\n<Novissa>")
   ShowMessage("……………………")
   ShowMessageFace("",0,0,2,5)
   ShowMessage("ノビッサは、鉄格子の隙間からビスケットを差し入れた。")
   ShowMessage("こんなものでも、囚人にとっては御馳走なのだ――")
   ShowMessageFace("",0,0,2,6)
   ShowMessage("\\n<囚人>")
   ShowMessage("おう、あんた達は話が分かるな！")
   ShowMessage("数日前に、その踊り子と数名の看守がこの前を通ったんだよ。")
   ShowMessageFace("",0,0,2,7)
   ShowMessage("\\n<囚人>")
   ShowMessage("そのまま、そいつらは地下へ降りていったんだ。")
   ShowMessage("B2Fは重罪人の牢獄だろうに、何をやらかしたんだか。")
   ShowMessageFace("rest_fc1",0,0,2,8)
   ShowMessage("\\n<Lest>")
   ShowMessage("ターサが……ここよりも地下に！？")
   ShowMessageFace("nobissa_fc1",0,0,2,9)
   ShowMessage("\\n<Novissa>")
   ShowMessage("…………！")
   ShowMessageFace("",0,0,2,10)
   ShowMessage("ターサは、地下階層に送られた――")
   ShowMessage("ただちに、僕達も行かなければならない。")
   ShowMessageFace("",0,0,2,11)
   ShowMessage("\\n<囚人>")
   ShowMessage("地下への階段は、この房のすぐ西だぜ。")
   ShowMessage("扉を抜けた先さ……俺の情報、役立ったかい？")
   ShowMessageFace("rest_fc1",0,0,2,12)
   ShowMessage("\\n<Lest>")
   ShowMessage("ありがとう、貴重な情報だ。")
   ShowMessage("さっそく階下に急ごう！")
   ChangeVariable(1207,1207,0,0,6)
   EndEventProcessing()
   0()
  EndIf()
  If(1,1207,0,6,1)
   ShowMessageFace("",0,0,2,13)
   ShowMessage("\\n<囚人>")
   ShowMessage("数日前に、その踊り子と数名の看守がこの前を通ったんだよ。")
   ShowMessage("そのまま、そいつらは地下へ降りていったんだ。")
   ShowMessageFace("",0,0,2,14)
   ShowMessage("\\n<囚人>")
   ShowMessage("地下への階段は、この房のすぐ西だぜ。")
   ShowMessage("扉を抜けた先さ……俺の情報、役立ったかい？")
   EndEventProcessing()
   0()
  EndIf()
  0()



EVENT   22
 PAGE   1
  If(1,1207,0,7,0)
   PictureDisplay(5,"80_mononohuyonbi_st01",0,0,0,0,100,100,0,0)
   PictureMove(5,null,0,0,0,0,100,100,255,0,30,true)
   ShowMessageFace("mononohuyonbi_fc1",0,0,2,1)
   ShowMessage("\\n<もののふ四尾>")
   ShowMessage("むっ、お前達は脱獄者か……！？")
   ShowMessage("そちらから挨拶に来るとは、殊勝な奴よ！")
   ShowMessageFace("rest_fc1",0,0,2,2)
   ShowMessage("\\n<Lest>")
   ShowMessage("悪いけど、地下への鍵を渡してもらう！")
   ShowMessageFace("mononohuyonbi_fc1",0,0,2,3)
   ShowMessage("\\n<もののふ四尾>")
   ShowMessage("ふん……欲しければ、力で奪うがいい！")
   Battle(0,1363,false,false)
   PictureDisplay(5,"80_mononohuyonbi_st03",0,0,0,0,100,100,255,0)
   ShowMessageFace("mononohuyonbi_fc1",2,0,2,4)
   ShowMessage("\\n<もののふ四尾>")
   ShowMessage("分かった、降参だ……")
   ShowMessage("鍵ならば持っていけ。")
   250(bytes(0x04,0x08,0x6f,0x3a,0x0c,0x52,0x50,0x47,0x3a,0x3a,0x53,0x45,0x08,0x3a,0x0a,0x40,0x6e,0x61,0x6d,0x65,0x49,0x22,0x0a,0x49,0x74,0x65,0x6d,0x31,0x06,0x3a,0x06,0x45,0x54,0x3a,0x0b,0x40,0x70,0x69,0x74,0x63,0x68,0x69,0x69,0x3a,0x0c,0x40,0x76,0x6f,0x6c,0x75,0x6d,0x65,0x69,0x55))
   ShowMessageFace("",0,0,2,5)
   ShowMessage("地下二階への鍵を手に入れた！")
   ShowMessageFace("rest_fc1",0,0,2,6)
   ShowMessage("\\n<Lest>")
   ShowMessage("いいのか？")
   ShowMessage("こんなに簡単に鍵を渡しても……")
   PictureDisplay(5,"80_mononohuyonbi_st01",0,0,0,0,100,100,255,0)
   ShowMessageFace("mononohuyonbi_fc1",0,0,2,7)
   ShowMessage("\\n<もののふ四尾>")
   ShowMessage("最近、女王がおかしいのは私にも分かる。")
   ShowMessage("罪のない人間が、毎日牢に送られてくるからな。")
   ShowMessageFace("mononohuyonbi_fc1",0,0,2,8)
   ShowMessage("\\n<もののふ四尾>")
   ShowMessage("もう、この仕事も潮時だ。")
   ShowMessage("暴政になど手を貸す気はない……")
   ShowMessageFace("nobissa_fc1",0,0,2,9)
   ShowMessage("\\n<Novissa>")
   ShowMessage("……………………")
   ShowMessageFace("rest_fc1",0,0,2,10)
   ShowMessage("\\n<Lest>")
   ShowMessage("この国、元に戻れば良いのだけど……")
   PictureClear(5)
   ShowMessageFace("",0,0,2,11)
   ShowMessage("ミュゼットを倒せば、女王の洗脳も解除されるはず。")
   ShowMessage("この国を解放するためにも、僕達は負けられない――")
   ShowMessageFace("",0,0,2,12)
   ShowMessage("ともかく、これで鍵は手に入れた。")
   ShowMessage("ターサが連れられたという、地下牢獄に急ごう。")
   ChangeVariable(1207,1207,0,0,8)
   EndEventProcessing()
   0()
  EndIf()
  If(1,1207,0,8,0)
   PictureDisplay(5,"80_mononohuyonbi_st01",0,0,0,0,100,100,0,0)
   PictureMove(5,null,0,0,0,0,100,100,255,0,30,true)
   ShowMessageFace("mononohuyonbi_fc1",0,0,2,13)
   ShowMessage("\\n<もののふ四尾>")
   ShowMessage("もう私に用はないはずだ……")
   ShowMessage("さあ、行くがいい。")
   PictureClear(5)
   EndEventProcessing()
   0()
  EndIf()
  0()



EVENT   23
 PAGE   1
  ShowMessageFace("rest_fc1",0,0,2,1)
  ShowMessage("\\n<Lest>")
  ShowMessage("先の部屋に、誰かいるな……")
  ShowMessageFace("mononohuyonbi_fc1",0,0,2,2)
  ShowMessage("\\n<もののふ四尾>")
  ShowMessage("……………………")
  ShowMessageFace("",0,0,2,3)
  ShowMessage("只者ではない雰囲気だ。")
  ShowMessage("追われる身なのに、わざわざ接触するべきではない。")
  205(-1,bytes(0x04,0x08,0x6f,0x3a,0x13,0x52,0x50,0x47,0x3a,0x3a,0x4d,0x6f,0x76,0x65,0x52,0x6f,0x75,0x74,0x65,0x09,0x3a,0x0c,0x40,0x72,0x65,0x70,0x65,0x61,0x74,0x46,0x3a,0x0f,0x40,0x73,0x6b,0x69,0x70,0x70,0x61,0x62,0x6c,0x65,0x46,0x3a,0x0a,0x40,0x77,0x61,0x69,0x74,0x54,0x3a,0x0a,0x40,0x6c,0x69,0x73,0x74,0x5b,0x07,0x6f,0x3a,0x15,0x52,0x50,0x47,0x3a,0x3a,0x4d,0x6f,0x76,0x65,0x43,0x6f,0x6d,0x6d,0x61,0x6e,0x64,0x07,0x3a,0x0a,0x40,0x63,0x6f,0x64,0x65,0x69,0x09,0x3a,0x10,0x40,0x70,0x61,0x72,0x61,0x6d,0x65,0x74,0x65,0x72,0x73,0x5b,0x00,0x6f,0x3b,0x0a,0x07,0x3b,0x0b,0x69,0x00,0x3b,0x0c,0x5b,0x00))
  0()
 PAGE   2
  // condition: variable 1207 >= 7
  0()



EVENT   24
 PAGE   1
  ShowMessageFace("",0,0,2,1)
  ShowMessage("上への階段だ……")
  ShowMessage("ターサを見付けていないのに、脱出することはできない！")
  205(-1,bytes(0x04,0x08,0x6f,0x3a,0x13,0x52,0x50,0x47,0x3a,0x3a,0x4d,0x6f,0x76,0x65,0x52,0x6f,0x75,0x74,0x65,0x09,0x3a,0x0c,0x40,0x72,0x65,0x70,0x65,0x61,0x74,0x46,0x3a,0x0f,0x40,0x73,0x6b,0x69,0x70,0x70,0x61,0x62,0x6c,0x65,0x46,0x3a,0x0a,0x40,0x77,0x61,0x69,0x74,0x54,0x3a,0x0a,0x40,0x6c,0x69,0x73,0x74,0x5b,0x07,0x6f,0x3a,0x15,0x52,0x50,0x47,0x3a,0x3a,0x4d,0x6f,0x76,0x65,0x43,0x6f,0x6d,0x6d,0x61,0x6e,0x64,0x07,0x3a,0x0a,0x40,0x63,0x6f,0x64,0x65,0x69,0x06,0x3a,0x10,0x40,0x70,0x61,0x72,0x61,0x6d,0x65,0x74,0x65,0x72,0x73,0x5b,0x00,0x6f,0x3b,0x0a,0x07,0x3b,0x0b,0x69,0x00,0x3b,0x0c,0x5b,0x00))
  0()



EVENT   25
 PAGE   1
  ShowMessageFace("",0,0,2,1)
  ShowMessage("上への階段だ……")
  ShowMessage("ターサを見付けていないのに、脱出することはできない！")
  205(-1,bytes(0x04,0x08,0x6f,0x3a,0x13,0x52,0x50,0x47,0x3a,0x3a,0x4d,0x6f,0x76,0x65,0x52,0x6f,0x75,0x74,0x65,0x09,0x3a,0x0c,0x40,0x72,0x65,0x70,0x65,0x61,0x74,0x46,0x3a,0x0f,0x40,0x73,0x6b,0x69,0x70,0x70,0x61,0x62,0x6c,0x65,0x46,0x3a,0x0a,0x40,0x77,0x61,0x69,0x74,0x54,0x3a,0x0a,0x40,0x6c,0x69,0x73,0x74,0x5b,0x07,0x6f,0x3a,0x15,0x52,0x50,0x47,0x3a,0x3a,0x4d,0x6f,0x76,0x65,0x43,0x6f,0x6d,0x6d,0x61,0x6e,0x64,0x07,0x3a,0x0a,0x40,0x63,0x6f,0x64,0x65,0x69,0x06,0x3a,0x10,0x40,0x70,0x61,0x72,0x61,0x6d,0x65,0x74,0x65,0x72,0x73,0x5b,0x00,0x6f,0x3b,0x0a,0x07,0x3b,0x0b,0x69,0x00,0x3b,0x0c,0x5b,0x00))
  0()



EVENT   26
 PAGE   1
  ShowMessageFace("",0,0,2,1)
  ShowMessage("上への階段だ……")
  ShowMessage("ターサを見付けていないのに、脱出することはできない！")
  205(-1,bytes(0x04,0x08,0x6f,0x3a,0x13,0x52,0x50,0x47,0x3a,0x3a,0x4d,0x6f,0x76,0x65,0x52,0x6f,0x75,0x74,0x65,0x09,0x3a,0x0c,0x40,0x72,0x65,0x70,0x65,0x61,0x74,0x46,0x3a,0x0f,0x40,0x73,0x6b,0x69,0x70,0x70,0x61,0x62,0x6c,0x65,0x46,0x3a,0x0a,0x40,0x77,0x61,0x69,0x74,0x54,0x3a,0x0a,0x40,0x6c,0x69,0x73,0x74,0x5b,0x07,0x6f,0x3a,0x15,0x52,0x50,0x47,0x3a,0x3a,0x4d,0x6f,0x76,0x65,0x43,0x6f,0x6d,0x6d,0x61,0x6e,0x64,0x07,0x3a,0x0a,0x40,0x63,0x6f,0x64,0x65,0x69,0x06,0x3a,0x10,0x40,0x70,0x61,0x72,0x61,0x6d,0x65,0x74,0x65,0x72,0x73,0x5b,0x00,0x6f,0x3b,0x0a,0x07,0x3b,0x0b,0x69,0x00,0x3b,0x0c,0x5b,0x00))
  0()



EVENT   27
 PAGE   1
  0()



EVENT   28
 PAGE   1
  ShowMessageFace("",0,0,2,1)
  ShowMessage("\\n<囚人>")
  ShowMessage("おおっ、なんで外に出てんだ！")
  ShowMessage("脱獄か、やりやがるぜ！")
  ShowMessageFace("",0,0,2,2)
  ShowMessage("\\n<囚人>")
  ShowMessage("自動人形には注意しなよ。")
  ShowMessage("グランゴルドから輸入した、看守仕様の特注品らしいぜ。")
  0()



EVENT   29
 PAGE   1
  ShowMessageFace("",0,0,2,1)
  ShowMessage("\\n<囚人>")
  ShowMessage("隣の房の奴が、昨日どこかに連れて行かれてな……")
  ShowMessage("戻ってこないんだけど、嫌な予感がするぜ。")
  0()



EVENT   30
 PAGE   1
  0()



EVENT   31
 PAGE   1
  ChangeSelfSwitch("A",0)
  205(-1,bytes(0x04,0x08,0x6f,0x3a,0x13,0x52,0x50,0x47,0x3a,0x3a,0x4d,0x6f,0x76,0x65,0x52,0x6f,0x75,0x74,0x65,0x09,0x3a,0x0c,0x40,0x72,0x65,0x70,0x65,0x61,0x74,0x46,0x3a,0x0f,0x40,0x73,0x6b,0x69,0x70,0x70,0x61,0x62,0x6c,0x65,0x46,0x3a,0x0a,0x40,0x77,0x61,0x69,0x74,0x54,0x3a,0x0a,0x40,0x6c,0x69,0x73,0x74,0x5b,0x07,0x6f,0x3a,0x15,0x52,0x50,0x47,0x3a,0x3a,0x4d,0x6f,0x76,0x65,0x43,0x6f,0x6d,0x6d,0x61,0x6e,0x64,0x07,0x3a,0x0a,0x40,0x63,0x6f,0x64,0x65,0x69,0x15,0x3a,0x10,0x40,0x70,0x61,0x72,0x61,0x6d,0x65,0x74,0x65,0x72,0x73,0x5b,0x00,0x6f,0x3b,0x0a,0x07,0x3b,0x0b,0x69,0x00,0x3b,0x0c,0x5b,0x00))
  ShowMessageFace("rest_fc1",0,0,2,1)
  ShowMessage("\\n<Lest>")
  ShowMessage("当たり前だけど、他にも囚人がいるんだな。")
  ShowMessage("もしかしたら、役に立つ話が聞けるかもしれない……")
  ShowMessageFace("",0,0,2,2)
  ShowMessage("囚人とは、鉄格子越しに話し掛けられるようだ。")
  ShowMessage("貴重な情報が得られるかもしれない――")
  EndEventProcessing()
  0()
 PAGE   2
  // condition: self-switch A is ON
  0()



EVENT   32
 PAGE   1
  ShowMessageFace("paizuridoll_fc1",0,0,2,1)
  ShowMessage("\\n<パイズリ人形>")
  ShowMessage("……………………")
  ShowMessageFace("",0,0,2,2)
  ShowMessage("パイズリ人形は、おっぱいをぷるぷる弾ませている……")
  ShowMessageFace("rest_fc1",0,0,2,3)
  ShowMessage("\\n<Lest>")
  ShowMessage("これも看守？")
  ShowMessage("変な世界だな……")
  0()



EVENT   33
 PAGE   1
  ShowMessageFace("artm_fc1",0,0,2,1)
  ShowMessage("\\n<オートマータ娘>")
  ShowMessage("現在、休憩中……")
  ShowMessage("……失礼、充電中です。")
  0()



EVENT   35
 PAGE   1
  ShowMessageFace("",0,0,2,1)
  ShowMessage("\\n<高貴そうな娘>")
  ShowMessage("ねぇ、ここから私を連れ出して！")
  ShowMessage("礼なら、たっぷりしてあげるから！")
  ShowMessageFace("",0,0,2,2)
  ShowMessage("\\n<高貴そうな娘>")
  ShowMessage("えっ、私の罪状……？")
  ShowMessage("……結婚サギ。")
  0()



EVENT   36
 PAGE   1
  ShowMessageFace("",0,0,2,1)
  ShowMessage("\\n<高貴そうな娘>")
  ShowMessage("ねぇ、ここから私を連れ出して！")
  ShowMessage("礼なら、たっぷりしてあげるから！")
  ShowMessageFace("",0,0,2,2)
  ShowMessage("\\n<高貴そうな娘>")
  ShowMessage("えっ、私の罪状……？")
  ShowMessage("……結婚サギ。")
  0()



EVENT   37
 PAGE   1
  If(2,"A",1)
   ChangeSelfSwitch("A",0)
   ShowMessageFace("",0,0,2,1)
   ShowMessage("\\n<冒険者Ａ>")
   ShowMessage("あっ……お前は！")
   ShowMessageFace("",0,0,2,2)
   ShowMessage("\\n<冒険者Ｂ>")
   ShowMessage("あの時の、淫魔の仲間じゃないか！")
   ShowMessageFace("rest_fc1",0,0,2,3)
   ShowMessage("\\n<Lest>")
   ShowMessage("き、君達は――")
   ShowMessage("あの洞窟で、親切？にしてくれた冒険者達！？")
   ShowMessageFace("",0,0,2,4)
   ShowMessage("食事や寝床まで提供してくれて――")
   ShowMessage("どこか不審だと思ったら、翌朝には姿を消していた二人だ。")
   ShowMessageFace("rest_fc1",0,0,2,5)
   ShowMessage("\\n<Lest>")
   ShowMessage("いったい、夜の間に何があったんだ……？")
   ShowMessageFace("",0,0,2,6)
   ShowMessage("\\n<冒険者Ａ>")
   ShowMessage("あんたの仲間に誘われて……")
   ShowMessage("ほら、無性にムラムラしちまってな。")
   ShowMessageFace("",0,0,2,7)
   ShowMessage("\\n<冒険者Ｂ>")
   ShowMessage("もちろん同意の上で、一発やったら――")
   ShowMessage("……後は分かるよな？")
   ShowMessageFace("rest_fc1",0,0,2,8)
   ShowMessage("\\n<Lest>")
   ShowMessage("うん……聞かなくても分かる。")
   ShowMessageFace("",0,0,2,9)
   ShowMessage("\\n<冒険者Ａ>")
   ShowMessage("こうして足腰が立たなくなった俺達は……")
   ShowMessage("そのまま、岩陰に押し込まれてな。")
   ShowMessageFace("",0,0,2,10)
   ShowMessage("\\n<冒険者Ｂ>")
   ShowMessage("数時間後、フラフラになって町まで戻って……")
   ShowMessage("衛兵に訴え出たら、ここにぶち込まれちまった。")
   ShowMessageFace("rest_fc1",0,0,2,11)
   ShowMessage("\\n<Lest>")
   ShowMessage("それは……気の毒だったね。")
   ShowMessageFace("",0,0,2,12)
   ShowMessage("同情すべきか、それとも自業自得か――")
   ShowMessageFace("",0,0,2,13)
   ShowMessage("\\n<冒険者Ａ>")
   ShowMessage("まあ……ひどい目には遭ったけど、天国も味わえたしな。")
   ShowMessage("ひどさと美味しさを比べたら、美味しさの方が勝るってもんよ。")
   ShowMessageFace("",0,0,2,14)
   ShowMessage("\\n<冒険者Ｂ>")
   ShowMessage("そういうわけで、あんた達を恨んじゃいないよ。")
   ShowMessage("あぁ……もう一発、あの淫魔とヤりたいなぁ……")
   ShowMessageFace("rest_fc1",0,0,2,15)
   ShowMessage("\\n<Lest>")
   ShowMessage("……………………")
   ShowMessageFace("",0,0,2,16)
   ShowMessage("恨んでいないのなら、それに越した事はない。")
   ShowMessage("そっとしておこう。")
   EndEventProcessing()
   0()
  Else()
   ShowMessageFace("",0,0,2,17)
   ShowMessage("\\n<冒険者Ａ>")
   ShowMessage("えっ、あの娘がここに囚われてるだって！？")
   ShowMessageFace("",0,0,2,18)
   ShowMessage("\\n<冒険者Ｂ>")
   ShowMessage("それは黙っちゃいられねぇ！")
   ShowMessage("俺達も手を貸すぜ、そしてご褒美をもらうんだ！")
   ShowMessageFace("",0,0,2,19)
   ShowMessage("二人は立ち上がろうとしたが、フラフラのようだ……")
   ShowMessageFace("",0,0,2,20)
   ShowMessage("\\n<冒険者Ａ>")
   ShowMessage("あ、うぅぅっ……")
   ShowMessage("実は、まだ足腰がガクガクで……")
   ShowMessageFace("",0,0,2,21)
   ShowMessage("\\n<冒険者Ｂ>")
   ShowMessage("なってこった……")
   ShowMessage("生まれたての子ヤギのようだ……")
   ShowMessageFace("rest_fc1",0,0,2,22)
   ShowMessage("\\n<Lest>")
   ShowMessage("き、気持ちだけ受け取っておくよ……")
   EndEventProcessing()
   0()
  EndIf()
  0()



EVENT   38
 PAGE   1
  ShowMessageFace("",0,0,2,1)
  ShowMessage("転職の書が開かれたまま放置されている……")
  355("SceneManager.call(Scene_JobChange)")
  314(0,0)
  EndEventProcessing()
  0()



EVENT   39
 PAGE   1
  250(bytes(0x04,0x08,0x6f,0x3a,0x0c,0x52,0x50,0x47,0x3a,0x3a,0x53,0x45,0x08,0x3a,0x0a,0x40,0x6e,0x61,0x6d,0x65,0x49,0x22,0x0a,0x43,0x68,0x65,0x73,0x74,0x06,0x3a,0x06,0x45,0x54,0x3a,0x0b,0x40,0x70,0x69,0x74,0x63,0x68,0x69,0x69,0x3a,0x0c,0x40,0x76,0x6f,0x6c,0x75,0x6d,0x65,0x69,0x55))
  205(0,bytes(0x04,0x08,0x6f,0x3a,0x13,0x52,0x50,0x47,0x3a,0x3a,0x4d,0x6f,0x76,0x65,0x52,0x6f,0x75,0x74,0x65,0x09,0x3a,0x0c,0x40,0x72,0x65,0x70,0x65,0x61,0x74,0x46,0x3a,0x0f,0x40,0x73,0x6b,0x69,0x70,0x70,0x61,0x62,0x6c,0x65,0x46,0x3a,0x0a,0x40,0x77,0x61,0x69,0x74,0x54,0x3a,0x0a,0x40,0x6c,0x69,0x73,0x74,0x5b,0x0b,0x6f,0x3a,0x15,0x52,0x50,0x47,0x3a,0x3a,0x4d,0x6f,0x76,0x65,0x43,0x6f,0x6d,0x6d,0x61,0x6e,0x64,0x07,0x3a,0x0a,0x40,0x63,0x6f,0x64,0x65,0x69,0x29,0x3a,0x10,0x40,0x70,0x61,0x72,0x61,0x6d,0x65,0x74,0x65,0x72,0x73,0x5b,0x00,0x6f,0x3b,0x0a,0x07,0x3b,0x0b,0x69,0x16,0x3b,0x0c,0x5b,0x00,0x6f,0x3b,0x0a,0x07,0x3b,0x0b,0x69,0x14,0x3b,0x0c,0x5b,0x06,0x69,0x08,0x6f,0x3b,0x0a,0x07,0x3b,0x0b,0x69,0x17,0x3b,0x0c,0x5b,0x00,0x6f,0x3b,0x0a,0x07,0x3b,0x0b,0x69,0x14,0x3b,0x0c,0x5b,0x06,0x69,0x08,0x6f,0x3b,0x0a,0x07,0x3b,0x0b,0x69,0x00,0x3b,0x0c,0x5b,0x00))
  ChangeSelfSwitch("A",0)
  ChangeInventoryArmor(216,0,0,1,false)
  0()
 PAGE   2
  // condition: self-switch A is ON
  0()



EVENT   40
 PAGE   1
  250(bytes(0x04,0x08,0x6f,0x3a,0x0c,0x52,0x50,0x47,0x3a,0x3a,0x53,0x45,0x08,0x3a,0x0a,0x40,0x6e,0x61,0x6d,0x65,0x49,0x22,0x0a,0x43,0x68,0x65,0x73,0x74,0x06,0x3a,0x06,0x45,0x54,0x3a,0x0b,0x40,0x70,0x69,0x74,0x63,0x68,0x69,0x69,0x3a,0x0c,0x40,0x76,0x6f,0x6c,0x75,0x6d,0x65,0x69,0x55))
  205(0,bytes(0x04,0x08,0x6f,0x3a,0x13,0x52,0x50,0x47,0x3a,0x3a,0x4d,0x6f,0x76,0x65,0x52,0x6f,0x75,0x74,0x65,0x09,0x3a,0x0c,0x40,0x72,0x65,0x70,0x65,0x61,0x74,0x46,0x3a,0x0f,0x40,0x73,0x6b,0x69,0x70,0x70,0x61,0x62,0x6c,0x65,0x46,0x3a,0x0a,0x40,0x77,0x61,0x69,0x74,0x54,0x3a,0x0a,0x40,0x6c,0x69,0x73,0x74,0x5b,0x0b,0x6f,0x3a,0x15,0x52,0x50,0x47,0x3a,0x3a,0x4d,0x6f,0x76,0x65,0x43,0x6f,0x6d,0x6d,0x61,0x6e,0x64,0x07,0x3a,0x0a,0x40,0x63,0x6f,0x64,0x65,0x69,0x29,0x3a,0x10,0x40,0x70,0x61,0x72,0x61,0x6d,0x65,0x74,0x65,0x72,0x73,0x5b,0x00,0x6f,0x3b,0x0a,0x07,0x3b,0x0b,0x69,0x16,0x3b,0x0c,0x5b,0x00,0x6f,0x3b,0x0a,0x07,0x3b,0x0b,0x69,0x14,0x3b,0x0c,0x5b,0x06,0x69,0x08,0x6f,0x3b,0x0a,0x07,0x3b,0x0b,0x69,0x17,0x3b,0x0c,0x5b,0x00,0x6f,0x3b,0x0a,0x07,0x3b,0x0b,0x69,0x14,0x3b,0x0c,0x5b,0x06,0x69,0x08,0x6f,0x3b,0x0a,0x07,0x3b,0x0b,0x69,0x00,0x3b,0x0c,0x5b,0x00))
  ChangeSelfSwitch("A",0)
  ChangeInventoryArmor(1286,0,0,1,false)
  0()
 PAGE   2
  // condition: self-switch A is ON
  0()



EVENT   41
 PAGE   1
  250(bytes(0x04,0x08,0x6f,0x3a,0x0c,0x52,0x50,0x47,0x3a,0x3a,0x53,0x45,0x08,0x3a,0x0a,0x40,0x6e,0x61,0x6d,0x65,0x49,0x22,0x0a,0x49,0x74,0x65,0x6d,0x31,0x06,0x3a,0x06,0x45,0x54,0x3a,0x0b,0x40,0x70,0x69,0x74,0x63,0x68,0x69,0x69,0x3a,0x0c,0x40,0x76,0x6f,0x6c,0x75,0x6d,0x65,0x69,0x55))
  ChangeSelfSwitch("A",0)
  ChangeInventory_Item(11,0,0,1)
  0()
 PAGE   2
  // condition: self-switch A is ON
  0()



EVENT   42
 PAGE   1
  250(bytes(0x04,0x08,0x6f,0x3a,0x0c,0x52,0x50,0x47,0x3a,0x3a,0x53,0x45,0x08,0x3a,0x0a,0x40,0x6e,0x61,0x6d,0x65,0x49,0x22,0x0a,0x49,0x74,0x65,0x6d,0x31,0x06,0x3a,0x06,0x45,0x54,0x3a,0x0b,0x40,0x70,0x69,0x74,0x63,0x68,0x69,0x69,0x3a,0x0c,0x40,0x76,0x6f,0x6c,0x75,0x6d,0x65,0x69,0x55))
  ChangeSelfSwitch("A",0)
  ChangeInventory_Item(32,0,0,1)
  0()
 PAGE   2
  // condition: self-switch A is ON
  0()



EVENT   43
 PAGE   1
  250(bytes(0x04,0x08,0x6f,0x3a,0x0c,0x52,0x50,0x47,0x3a,0x3a,0x53,0x45,0x08,0x3a,0x0a,0x40,0x6e,0x61,0x6d,0x65,0x49,0x22,0x0a,0x49,0x74,0x65,0x6d,0x31,0x06,0x3a,0x06,0x45,0x54,0x3a,0x0b,0x40,0x70,0x69,0x74,0x63,0x68,0x69,0x69,0x3a,0x0c,0x40,0x76,0x6f,0x6c,0x75,0x6d,0x65,0x69,0x55))
  ChangeSelfSwitch("A",0)
  ChangeInventory_Item(5,0,0,1)
  0()
 PAGE   2
  // condition: self-switch A is ON
  0()



EVENT   44
 PAGE   1
  250(bytes(0x04,0x08,0x6f,0x3a,0x0c,0x52,0x50,0x47,0x3a,0x3a,0x53,0x45,0x08,0x3a,0x0a,0x40,0x6e,0x61,0x6d,0x65,0x49,0x22,0x0a,0x49,0x74,0x65,0x6d,0x31,0x06,0x3a,0x06,0x45,0x54,0x3a,0x0b,0x40,0x70,0x69,0x74,0x63,0x68,0x69,0x69,0x3a,0x0c,0x40,0x76,0x6f,0x6c,0x75,0x6d,0x65,0x69,0x55))
  ChangeSelfSwitch("A",0)
  ChangeInventory_Item(302,0,0,1)
  0()
 PAGE   2
  // condition: self-switch A is ON
  0()



EVENT   45
 PAGE   1
  250(bytes(0x04,0x08,0x6f,0x3a,0x0c,0x52,0x50,0x47,0x3a,0x3a,0x53,0x45,0x08,0x3a,0x0a,0x40,0x6e,0x61,0x6d,0x65,0x49,0x22,0x0a,0x49,0x74,0x65,0x6d,0x31,0x06,0x3a,0x06,0x45,0x54,0x3a,0x0b,0x40,0x70,0x69,0x74,0x63,0x68,0x69,0x69,0x3a,0x0c,0x40,0x76,0x6f,0x6c,0x75,0x6d,0x65,0x69,0x55))
  ChangeSelfSwitch("A",0)
  ChangeInventory_Item(8,0,0,1)
  0()
 PAGE   2
  // condition: self-switch A is ON
  0()



EVENT   46
 PAGE   1
  250(bytes(0x04,0x08,0x6f,0x3a,0x0c,0x52,0x50,0x47,0x3a,0x3a,0x53,0x45,0x08,0x3a,0x0a,0x40,0x6e,0x61,0x6d,0x65,0x49,0x22,0x0a,0x49,0x74,0x65,0x6d,0x31,0x06,0x3a,0x06,0x45,0x54,0x3a,0x0b,0x40,0x70,0x69,0x74,0x63,0x68,0x69,0x69,0x3a,0x0c,0x40,0x76,0x6f,0x6c,0x75,0x6d,0x65,0x69,0x55))
  ChangeSelfSwitch("A",0)
  ChangeInventory_Item(69,0,0,1)
  0()
 PAGE   2
  // condition: self-switch A is ON
  0()



EVENT   47
 PAGE   1
  250(bytes(0x04,0x08,0x6f,0x3a,0x0c,0x52,0x50,0x47,0x3a,0x3a,0x53,0x45,0x08,0x3a,0x0a,0x40,0x6e,0x61,0x6d,0x65,0x49,0x22,0x0a,0x49,0x74,0x65,0x6d,0x31,0x06,0x3a,0x06,0x45,0x54,0x3a,0x0b,0x40,0x70,0x69,0x74,0x63,0x68,0x69,0x69,0x3a,0x0c,0x40,0x76,0x6f,0x6c,0x75,0x6d,0x65,0x69,0x55))
  ChangeSelfSwitch("A",0)
  ChangeInventory_Item(9,0,0,1)
  0()
 PAGE   2
  // condition: self-switch A is ON
  0()



EVENT   48
 PAGE   1
  250(bytes(0x04,0x08,0x6f,0x3a,0x0c,0x52,0x50,0x47,0x3a,0x3a,0x53,0x45,0x08,0x3a,0x0a,0x40,0x6e,0x61,0x6d,0x65,0x49,0x22,0x0a,0x49,0x74,0x65,0x6d,0x31,0x06,0x3a,0x06,0x45,0x54,0x3a,0x0b,0x40,0x70,0x69,0x74,0x63,0x68,0x69,0x69,0x3a,0x0c,0x40,0x76,0x6f,0x6c,0x75,0x6d,0x65,0x69,0x55))
  ChangeSelfSwitch("A",0)
  ChangeInventory_Item(344,0,0,1)
  0()
 PAGE   2
  // condition: self-switch A is ON
  0()



EVENT   34
 PAGE   1
  0()



EVENT   49
 PAGE   1
  0()



EVENT   50
 PAGE   1
  ShowMessageFace("",0,0,2,1)
  ShowMessage("タルの中には、たくさんの食料や薬草が詰まっていた……")
  250(bytes(0x04,0x08,0x6f,0x3a,0x0c,0x52,0x50,0x47,0x3a,0x3a,0x53,0x45,0x08,0x3a,0x0a,0x40,0x6e,0x61,0x6d,0x65,0x49,0x22,0x0a,0x48,0x65,0x61,0x6c,0x37,0x06,0x3a,0x06,0x45,0x54,0x3a,0x0b,0x40,0x70,0x69,0x74,0x63,0x68,0x69,0x69,0x3a,0x0c,0x40,0x76,0x6f,0x6c,0x75,0x6d,0x65,0x69,0x55))
  224(bytes(0x04,0x08,0x75,0x3a,0x0a,0x43,0x6f,0x6c,0x6f,0x72,0x25,0x00,0x00,0x00,0x00,0x00,0xe0,0x6f,0x40,0x00,0x00,0x00,0x00,0x00,0xe0,0x6f,0x40,0x00,0x00,0x00,0x00,0x00,0xe0,0x6f,0x40,0x00,0x00,0x00,0x00,0x00,0xe0,0x6f,0x40),30,true)
  314(0,0)
  ShowMessageFace("",0,0,2,2)
  ShowMessage("パーティのHPとMPが全快した！")
  If(2,"A",1)
   ChangeSelfSwitch("A",0)
   ShowMessageFace("",0,0,2,3)
   ShowMessage("僕もノビッサも、回復技は不得手だ。")
   ShowMessage("このような回復ポイントの場所は、よく覚えておかないと――")
   0()
  EndIf()
  0()
