
DisplayName "Casino"



EVENT   1
 PAGE   1
  0()



EVENT   2
 PAGE   1
  0()



EVENT   3
 PAGE   1
  0()



EVENT   4
 PAGE   1
  0()



EVENT   5
 PAGE   1
  0()



EVENT   6
 PAGE   1
  0()



EVENT   7
 PAGE   1
  0()



EVENT   8
 PAGE   1
  ShowMessageFace("",0,0,2,1)
  ShowMessage("\\n<Dealer>Would you like to play poker?")
  ShowChoices(strings("Yes","No"),2)
  IfPlayerPicksChoice(0,null)
   241(bytes(0x04,0x08,0x6f,0x3a,0x0d,0x52,0x50,0x47,0x3a,0x3a,0x42,0x47,0x4d,0x08,0x3a,0x0a,0x40,0x6e,0x61,0x6d,0x65,0x49,0x22,0x0c,0x63,0x61,0x73,0x69,0x6e,0x6f,0x32,0x06,0x3a,0x06,0x45,0x54,0x3a,0x0c,0x40,0x76,0x6f,0x6c,0x75,0x6d,0x65,0x69,0x69,0x3a,0x0b,0x40,0x70,0x69,0x74,0x63,0x68,0x69,0x69))
   355("start_poker(50, 5, 5)")
   241(bytes(0x04,0x08,0x6f,0x3a,0x0d,0x52,0x50,0x47,0x3a,0x3a,0x42,0x47,0x4d,0x08,0x3a,0x0a,0x40,0x6e,0x61,0x6d,0x65,0x49,0x22,0x0b,0x63,0x61,0x73,0x69,0x6e,0x6f,0x06,0x3a,0x06,0x45,0x54,0x3a,0x0c,0x40,0x76,0x6f,0x6c,0x75,0x6d,0x65,0x69,0x69,0x3a,0x0b,0x40,0x70,0x69,0x74,0x63,0x68,0x69,0x69))
   0()
  IfPlayerPicksChoice(1,null)
   0()
  404()
  0()



EVENT   9
 PAGE   1
  0()



EVENT   10
 PAGE   1
  0()



EVENT   11
 PAGE   1
  0()



EVENT   12
 PAGE   1
  0()



EVENT   13
 PAGE   1
  0()



EVENT   14
 PAGE   1
  0()



EVENT   15
 PAGE   1
  0()



EVENT   16
 PAGE   1
  0()



EVENT   17
 PAGE   1
  0()



EVENT   18
 PAGE   1
  0()



EVENT   19
 PAGE   1
  0()



EVENT   20
 PAGE   1
  0()



EVENT   21
 PAGE   1
  0()



EVENT   22
 PAGE   1
  0()



EVENT   23
 PAGE   1
  0()



EVENT   24
 PAGE   1
  0()



EVENT   25
 PAGE   1
  0()



EVENT   26
 PAGE   1
  0()



EVENT   27
 PAGE   1
  0()



EVENT   28
 PAGE   1
  250(bytes(0x04,0x08,0x6f,0x3a,0x0c,0x52,0x50,0x47,0x3a,0x3a,0x53,0x45,0x08,0x3a,0x0a,0x40,0x6e,0x61,0x6d,0x65,0x49,0x22,0x09,0x4d,0x6f,0x76,0x65,0x06,0x3a,0x06,0x45,0x54,0x3a,0x0b,0x40,0x70,0x69,0x74,0x63,0x68,0x69,0x69,0x3a,0x0c,0x40,0x76,0x6f,0x6c,0x75,0x6d,0x65,0x69,0x55))
  TeleportPlayer(0,624,6,16,0,0)
  If(1,1030,0,1,2)
   241(bytes(0x04,0x08,0x6f,0x3a,0x0d,0x52,0x50,0x47,0x3a,0x3a,0x42,0x47,0x4d,0x08,0x3a,0x0a,0x40,0x6e,0x61,0x6d,0x65,0x49,0x22,0x09,0x73,0x61,0x6b,0x69,0x06,0x3a,0x06,0x45,0x54,0x3a,0x0c,0x40,0x76,0x6f,0x6c,0x75,0x6d,0x65,0x69,0x69,0x3a,0x0b,0x40,0x70,0x69,0x74,0x63,0x68,0x69,0x69))
   0()
  EndIf()
  0()



EVENT   29
 PAGE   1
  250(bytes(0x04,0x08,0x6f,0x3a,0x0c,0x52,0x50,0x47,0x3a,0x3a,0x53,0x45,0x08,0x3a,0x0a,0x40,0x6e,0x61,0x6d,0x65,0x49,0x22,0x09,0x4d,0x6f,0x76,0x65,0x06,0x3a,0x06,0x45,0x54,0x3a,0x0b,0x40,0x70,0x69,0x74,0x63,0x68,0x69,0x69,0x3a,0x0c,0x40,0x76,0x6f,0x6c,0x75,0x6d,0x65,0x69,0x55))
  TeleportPlayer(0,624,6,16,0,0)
  If(1,1030,0,1,2)
   241(bytes(0x04,0x08,0x6f,0x3a,0x0d,0x52,0x50,0x47,0x3a,0x3a,0x42,0x47,0x4d,0x08,0x3a,0x0a,0x40,0x6e,0x61,0x6d,0x65,0x49,0x22,0x09,0x73,0x61,0x6b,0x69,0x06,0x3a,0x06,0x45,0x54,0x3a,0x0c,0x40,0x76,0x6f,0x6c,0x75,0x6d,0x65,0x69,0x69,0x3a,0x0b,0x40,0x70,0x69,0x74,0x63,0x68,0x69,0x69))
   0()
  EndIf()
  0()



EVENT   30
 PAGE   1
  250(bytes(0x04,0x08,0x6f,0x3a,0x0c,0x52,0x50,0x47,0x3a,0x3a,0x53,0x45,0x08,0x3a,0x0a,0x40,0x6e,0x61,0x6d,0x65,0x49,0x22,0x09,0x4d,0x6f,0x76,0x65,0x06,0x3a,0x06,0x45,0x54,0x3a,0x0b,0x40,0x70,0x69,0x74,0x63,0x68,0x69,0x69,0x3a,0x0c,0x40,0x76,0x6f,0x6c,0x75,0x6d,0x65,0x69,0x55))
  TeleportPlayer(0,624,6,16,0,0)
  If(1,1030,0,1,2)
   241(bytes(0x04,0x08,0x6f,0x3a,0x0d,0x52,0x50,0x47,0x3a,0x3a,0x42,0x47,0x4d,0x08,0x3a,0x0a,0x40,0x6e,0x61,0x6d,0x65,0x49,0x22,0x09,0x73,0x61,0x6b,0x69,0x06,0x3a,0x06,0x45,0x54,0x3a,0x0c,0x40,0x76,0x6f,0x6c,0x75,0x6d,0x65,0x69,0x69,0x3a,0x0b,0x40,0x70,0x69,0x74,0x63,0x68,0x69,0x69))
   0()
  EndIf()
  0()



EVENT   31
 PAGE   1
  ShowMessageFace("usagi_fc1",0,0,2,1)
  ShowMessage("\\n<Rabbit Girl>I'm an airhead rabbit. This job is my calling. ♪")
  355("actor_label_jump")
  EndEventProcessing()
  DefineLabel("54")
  ShowMessageFace("bunnyslime_fc1",0,0,2,2)
  ShowMessage("\\n<Bunni>I'm also a rabbiiit. ♪")
  ShowMessageFace("usagi_fc1",2,0,2,3)
  ShowMessage("\\n<Rabbit Girl>You... I wonder about that?")
  EndEventProcessing()
  DefineLabel("74")
  ShowMessageFace("usagi_fc1",0,0,2,4)
  ShowMessage("\\n<Barbun>Oh my, wonderful. Maybe I should work part time here as well?")
  EndEventProcessing()
  0()



EVENT   32
 PAGE   1
  If(6,-1,8)
   ShowMessageFace("",0,0,2,1)
   ShowMessage("This is a 5 Coins slot machine. Would you like to use it?")
   ShowChoices(strings("Yes","No"),2)
   IfPlayerPicksChoice(0,null)
    241(bytes(0x04,0x08,0x6f,0x3a,0x0d,0x52,0x50,0x47,0x3a,0x3a,0x42,0x47,0x4d,0x08,0x3a,0x0a,0x40,0x6e,0x61,0x6d,0x65,0x49,0x22,0x0c,0x63,0x61,0x73,0x69,0x6e,0x6f,0x32,0x06,0x3a,0x06,0x45,0x54,0x3a,0x0c,0x40,0x76,0x6f,0x6c,0x75,0x6d,0x65,0x69,0x69,0x3a,0x0b,0x40,0x70,0x69,0x74,0x63,0x68,0x69,0x69))
    355("call_slot_scene(5)")
    241(bytes(0x04,0x08,0x6f,0x3a,0x0d,0x52,0x50,0x47,0x3a,0x3a,0x42,0x47,0x4d,0x08,0x3a,0x0a,0x40,0x6e,0x61,0x6d,0x65,0x49,0x22,0x0b,0x63,0x61,0x73,0x69,0x6e,0x6f,0x06,0x3a,0x06,0x45,0x54,0x3a,0x0c,0x40,0x76,0x6f,0x6c,0x75,0x6d,0x65,0x69,0x69,0x3a,0x0b,0x40,0x70,0x69,0x74,0x63,0x68,0x69,0x69))
    0()
   IfPlayerPicksChoice(1,null)
    0()
   404()
   0()
  EndIf()
  0()



EVENT   33
 PAGE   1
  If(6,-1,8)
   ShowMessageFace("",0,0,2,1)
   ShowMessage("This is a 5 Coins slot machine. Would you like to use it?")
   ShowChoices(strings("Yes","No"),2)
   IfPlayerPicksChoice(0,null)
    241(bytes(0x04,0x08,0x6f,0x3a,0x0d,0x52,0x50,0x47,0x3a,0x3a,0x42,0x47,0x4d,0x08,0x3a,0x0a,0x40,0x6e,0x61,0x6d,0x65,0x49,0x22,0x0c,0x63,0x61,0x73,0x69,0x6e,0x6f,0x32,0x06,0x3a,0x06,0x45,0x54,0x3a,0x0c,0x40,0x76,0x6f,0x6c,0x75,0x6d,0x65,0x69,0x69,0x3a,0x0b,0x40,0x70,0x69,0x74,0x63,0x68,0x69,0x69))
    355("call_slot_scene(5)")
    241(bytes(0x04,0x08,0x6f,0x3a,0x0d,0x52,0x50,0x47,0x3a,0x3a,0x42,0x47,0x4d,0x08,0x3a,0x0a,0x40,0x6e,0x61,0x6d,0x65,0x49,0x22,0x0b,0x63,0x61,0x73,0x69,0x6e,0x6f,0x06,0x3a,0x06,0x45,0x54,0x3a,0x0c,0x40,0x76,0x6f,0x6c,0x75,0x6d,0x65,0x69,0x69,0x3a,0x0b,0x40,0x70,0x69,0x74,0x63,0x68,0x69,0x69))
    0()
   IfPlayerPicksChoice(1,null)
    0()
   404()
   0()
  EndIf()
  0()



EVENT   34
 PAGE   1
  0()



EVENT   35
 PAGE   1
  0()



EVENT   36
 PAGE   1
  0()



EVENT   37
 PAGE   1
  0()



EVENT   38
 PAGE   1
  0()



EVENT   39
 PAGE   1
  0()



EVENT   40
 PAGE   1
  0()



EVENT   41
 PAGE   1
  0()



EVENT   42
 PAGE   1
  0()



EVENT   43
 PAGE   1
  0()



EVENT   44
 PAGE   1
  0()



EVENT   45
 PAGE   1
  If(6,-1,8)
   ShowMessageFace("",0,0,2,1)
   ShowMessage("This is a 5 Coins slot machine. Would you like to use it?")
   ShowChoices(strings("Yes","No"),2)
   IfPlayerPicksChoice(0,null)
    241(bytes(0x04,0x08,0x6f,0x3a,0x0d,0x52,0x50,0x47,0x3a,0x3a,0x42,0x47,0x4d,0x08,0x3a,0x0a,0x40,0x6e,0x61,0x6d,0x65,0x49,0x22,0x0c,0x63,0x61,0x73,0x69,0x6e,0x6f,0x32,0x06,0x3a,0x06,0x45,0x54,0x3a,0x0c,0x40,0x76,0x6f,0x6c,0x75,0x6d,0x65,0x69,0x69,0x3a,0x0b,0x40,0x70,0x69,0x74,0x63,0x68,0x69,0x69))
    355("call_slot_scene(5)")
    241(bytes(0x04,0x08,0x6f,0x3a,0x0d,0x52,0x50,0x47,0x3a,0x3a,0x42,0x47,0x4d,0x08,0x3a,0x0a,0x40,0x6e,0x61,0x6d,0x65,0x49,0x22,0x0b,0x63,0x61,0x73,0x69,0x6e,0x6f,0x06,0x3a,0x06,0x45,0x54,0x3a,0x0c,0x40,0x76,0x6f,0x6c,0x75,0x6d,0x65,0x69,0x69,0x3a,0x0b,0x40,0x70,0x69,0x74,0x63,0x68,0x69,0x69))
    0()
   IfPlayerPicksChoice(1,null)
    0()
   404()
   0()
  EndIf()
  0()



EVENT   46
 PAGE   1
  If(6,-1,8)
   ShowMessageFace("",0,0,2,1)
   ShowMessage("This is a 10 Coins slot machine. Would you like to use it?")
   ShowChoices(strings("Yes","No"),2)
   IfPlayerPicksChoice(0,null)
    241(bytes(0x04,0x08,0x6f,0x3a,0x0d,0x52,0x50,0x47,0x3a,0x3a,0x42,0x47,0x4d,0x08,0x3a,0x0a,0x40,0x6e,0x61,0x6d,0x65,0x49,0x22,0x0c,0x63,0x61,0x73,0x69,0x6e,0x6f,0x32,0x06,0x3a,0x06,0x45,0x54,0x3a,0x0c,0x40,0x76,0x6f,0x6c,0x75,0x6d,0x65,0x69,0x69,0x3a,0x0b,0x40,0x70,0x69,0x74,0x63,0x68,0x69,0x69))
    355("call_slot_scene(10)")
    241(bytes(0x04,0x08,0x6f,0x3a,0x0d,0x52,0x50,0x47,0x3a,0x3a,0x42,0x47,0x4d,0x08,0x3a,0x0a,0x40,0x6e,0x61,0x6d,0x65,0x49,0x22,0x0b,0x63,0x61,0x73,0x69,0x6e,0x6f,0x06,0x3a,0x06,0x45,0x54,0x3a,0x0c,0x40,0x76,0x6f,0x6c,0x75,0x6d,0x65,0x69,0x69,0x3a,0x0b,0x40,0x70,0x69,0x74,0x63,0x68,0x69,0x69))
    0()
   IfPlayerPicksChoice(1,null)
    0()
   404()
   0()
  EndIf()
  0()



EVENT   47
 PAGE   1
  If(6,-1,8)
   ShowMessageFace("",0,0,2,1)
   ShowMessage("This is a 10 Coins slot machine. Would you like to use it?")
   ShowChoices(strings("Yes","No"),2)
   IfPlayerPicksChoice(0,null)
    241(bytes(0x04,0x08,0x6f,0x3a,0x0d,0x52,0x50,0x47,0x3a,0x3a,0x42,0x47,0x4d,0x08,0x3a,0x0a,0x40,0x6e,0x61,0x6d,0x65,0x49,0x22,0x0c,0x63,0x61,0x73,0x69,0x6e,0x6f,0x32,0x06,0x3a,0x06,0x45,0x54,0x3a,0x0c,0x40,0x76,0x6f,0x6c,0x75,0x6d,0x65,0x69,0x69,0x3a,0x0b,0x40,0x70,0x69,0x74,0x63,0x68,0x69,0x69))
    355("call_slot_scene(10)")
    241(bytes(0x04,0x08,0x6f,0x3a,0x0d,0x52,0x50,0x47,0x3a,0x3a,0x42,0x47,0x4d,0x08,0x3a,0x0a,0x40,0x6e,0x61,0x6d,0x65,0x49,0x22,0x0b,0x63,0x61,0x73,0x69,0x6e,0x6f,0x06,0x3a,0x06,0x45,0x54,0x3a,0x0c,0x40,0x76,0x6f,0x6c,0x75,0x6d,0x65,0x69,0x69,0x3a,0x0b,0x40,0x70,0x69,0x74,0x63,0x68,0x69,0x69))
    0()
   IfPlayerPicksChoice(1,null)
    0()
   404()
   0()
  EndIf()
  0()



EVENT   48
 PAGE   1
  If(6,-1,8)
   ShowMessageFace("",0,0,2,1)
   ShowMessage("This is a 10 Coins slot machine. Would you like to use it?")
   ShowChoices(strings("Yes","No"),2)
   IfPlayerPicksChoice(0,null)
    241(bytes(0x04,0x08,0x6f,0x3a,0x0d,0x52,0x50,0x47,0x3a,0x3a,0x42,0x47,0x4d,0x08,0x3a,0x0a,0x40,0x6e,0x61,0x6d,0x65,0x49,0x22,0x0c,0x63,0x61,0x73,0x69,0x6e,0x6f,0x32,0x06,0x3a,0x06,0x45,0x54,0x3a,0x0c,0x40,0x76,0x6f,0x6c,0x75,0x6d,0x65,0x69,0x69,0x3a,0x0b,0x40,0x70,0x69,0x74,0x63,0x68,0x69,0x69))
    355("call_slot_scene(10)")
    241(bytes(0x04,0x08,0x6f,0x3a,0x0d,0x52,0x50,0x47,0x3a,0x3a,0x42,0x47,0x4d,0x08,0x3a,0x0a,0x40,0x6e,0x61,0x6d,0x65,0x49,0x22,0x0b,0x63,0x61,0x73,0x69,0x6e,0x6f,0x06,0x3a,0x06,0x45,0x54,0x3a,0x0c,0x40,0x76,0x6f,0x6c,0x75,0x6d,0x65,0x69,0x69,0x3a,0x0b,0x40,0x70,0x69,0x74,0x63,0x68,0x69,0x69))
    0()
   IfPlayerPicksChoice(1,null)
    0()
   404()
   0()
  EndIf()
  0()



EVENT   49
 PAGE   1
  ShowMessageFace("",0,0,2,1)
  ShowMessage("\\n<Dealer>Would you like to play poker?")
  ShowChoices(strings("Yes","No"),2)
  IfPlayerPicksChoice(0,null)
   241(bytes(0x04,0x08,0x6f,0x3a,0x0d,0x52,0x50,0x47,0x3a,0x3a,0x42,0x47,0x4d,0x08,0x3a,0x0a,0x40,0x6e,0x61,0x6d,0x65,0x49,0x22,0x0c,0x63,0x61,0x73,0x69,0x6e,0x6f,0x32,0x06,0x3a,0x06,0x45,0x54,0x3a,0x0c,0x40,0x76,0x6f,0x6c,0x75,0x6d,0x65,0x69,0x69,0x3a,0x0b,0x40,0x70,0x69,0x74,0x63,0x68,0x69,0x69))
   355("start_poker(50, 5, 5)")
   241(bytes(0x04,0x08,0x6f,0x3a,0x0d,0x52,0x50,0x47,0x3a,0x3a,0x42,0x47,0x4d,0x08,0x3a,0x0a,0x40,0x6e,0x61,0x6d,0x65,0x49,0x22,0x0b,0x63,0x61,0x73,0x69,0x6e,0x6f,0x06,0x3a,0x06,0x45,0x54,0x3a,0x0c,0x40,0x76,0x6f,0x6c,0x75,0x6d,0x65,0x69,0x69,0x3a,0x0b,0x40,0x70,0x69,0x74,0x63,0x68,0x69,0x69))
   0()
  IfPlayerPicksChoice(1,null)
   0()
  404()
  0()



EVENT   50
 PAGE   1
  ShowMessageFace("",0,0,2,1)
  ShowMessage("\\n<Dealer>Please enjoy yourself to your fullest.")
  0()



EVENT   51
 PAGE   1
  ShowMessageFace("",0,0,2,1)
  ShowMessage("\\n<Soldier>AAaAaa! ...No good today either, eh.")
  0()



EVENT   52
 PAGE   1
  ShowMessageFace("",0,0,2,1)
  ShowMessage("\\n<Fortune Teller>I-I can't see the future!")
  0()



EVENT   53
 PAGE   1
  ShowMessageFace("",0,0,2,1)
  ShowMessage("\\n<Dealer>Now, will it be red or black...")
  0()



EVENT   54
 PAGE   1
  ShowMessageFace("",0,0,2,1)
  ShowMessage("\\n<Dealer>My apologies, there are no empty seats here.")
  0()



EVENT   55
 PAGE   1
  If(6,-1,8)
   ShowMessageFace("",0,0,2,1)
   ShowMessage("This is a 5 Coins slot machine. Would you like to use it?")
   ShowChoices(strings("Yes","No"),2)
   IfPlayerPicksChoice(0,null)
    241(bytes(0x04,0x08,0x6f,0x3a,0x0d,0x52,0x50,0x47,0x3a,0x3a,0x42,0x47,0x4d,0x08,0x3a,0x0a,0x40,0x6e,0x61,0x6d,0x65,0x49,0x22,0x0c,0x63,0x61,0x73,0x69,0x6e,0x6f,0x32,0x06,0x3a,0x06,0x45,0x54,0x3a,0x0c,0x40,0x76,0x6f,0x6c,0x75,0x6d,0x65,0x69,0x69,0x3a,0x0b,0x40,0x70,0x69,0x74,0x63,0x68,0x69,0x69))
    355("call_slot_scene(5)")
    241(bytes(0x04,0x08,0x6f,0x3a,0x0d,0x52,0x50,0x47,0x3a,0x3a,0x42,0x47,0x4d,0x08,0x3a,0x0a,0x40,0x6e,0x61,0x6d,0x65,0x49,0x22,0x0b,0x63,0x61,0x73,0x69,0x6e,0x6f,0x06,0x3a,0x06,0x45,0x54,0x3a,0x0c,0x40,0x76,0x6f,0x6c,0x75,0x6d,0x65,0x69,0x69,0x3a,0x0b,0x40,0x70,0x69,0x74,0x63,0x68,0x69,0x69))
    0()
   IfPlayerPicksChoice(1,null)
    0()
   404()
   0()
  EndIf()
  0()



EVENT   56
 PAGE   1
  If(6,-1,8)
   ShowMessageFace("",0,0,2,1)
   ShowMessage("This is a 5 Coins slot machine. Would you like to use it?")
   ShowChoices(strings("Yes","No"),2)
   IfPlayerPicksChoice(0,null)
    241(bytes(0x04,0x08,0x6f,0x3a,0x0d,0x52,0x50,0x47,0x3a,0x3a,0x42,0x47,0x4d,0x08,0x3a,0x0a,0x40,0x6e,0x61,0x6d,0x65,0x49,0x22,0x0c,0x63,0x61,0x73,0x69,0x6e,0x6f,0x32,0x06,0x3a,0x06,0x45,0x54,0x3a,0x0c,0x40,0x76,0x6f,0x6c,0x75,0x6d,0x65,0x69,0x69,0x3a,0x0b,0x40,0x70,0x69,0x74,0x63,0x68,0x69,0x69))
    355("call_slot_scene(5)")
    241(bytes(0x04,0x08,0x6f,0x3a,0x0d,0x52,0x50,0x47,0x3a,0x3a,0x42,0x47,0x4d,0x08,0x3a,0x0a,0x40,0x6e,0x61,0x6d,0x65,0x49,0x22,0x0b,0x63,0x61,0x73,0x69,0x6e,0x6f,0x06,0x3a,0x06,0x45,0x54,0x3a,0x0c,0x40,0x76,0x6f,0x6c,0x75,0x6d,0x65,0x69,0x69,0x3a,0x0b,0x40,0x70,0x69,0x74,0x63,0x68,0x69,0x69))
    0()
   IfPlayerPicksChoice(1,null)
    0()
   404()
   0()
  EndIf()
  0()



EVENT   57
 PAGE   1
  If(6,-1,8)
   ShowMessageFace("",0,0,2,1)
   ShowMessage("This is a 5 Coins slot machine. Would you like to use it?")
   ShowChoices(strings("Yes","No"),2)
   IfPlayerPicksChoice(0,null)
    241(bytes(0x04,0x08,0x6f,0x3a,0x0d,0x52,0x50,0x47,0x3a,0x3a,0x42,0x47,0x4d,0x08,0x3a,0x0a,0x40,0x6e,0x61,0x6d,0x65,0x49,0x22,0x0c,0x63,0x61,0x73,0x69,0x6e,0x6f,0x32,0x06,0x3a,0x06,0x45,0x54,0x3a,0x0c,0x40,0x76,0x6f,0x6c,0x75,0x6d,0x65,0x69,0x69,0x3a,0x0b,0x40,0x70,0x69,0x74,0x63,0x68,0x69,0x69))
    355("call_slot_scene(5)")
    241(bytes(0x04,0x08,0x6f,0x3a,0x0d,0x52,0x50,0x47,0x3a,0x3a,0x42,0x47,0x4d,0x08,0x3a,0x0a,0x40,0x6e,0x61,0x6d,0x65,0x49,0x22,0x0b,0x63,0x61,0x73,0x69,0x6e,0x6f,0x06,0x3a,0x06,0x45,0x54,0x3a,0x0c,0x40,0x76,0x6f,0x6c,0x75,0x6d,0x65,0x69,0x69,0x3a,0x0b,0x40,0x70,0x69,0x74,0x63,0x68,0x69,0x69))
    0()
   IfPlayerPicksChoice(1,null)
    0()
   404()
   0()
  EndIf()
  0()



EVENT   58
 PAGE   1
  If(6,-1,8)
   ShowMessageFace("",0,0,2,1)
   ShowMessage("This is a 5 Coins slot machine. Would you like to use it?")
   ShowChoices(strings("Yes","No"),2)
   IfPlayerPicksChoice(0,null)
    241(bytes(0x04,0x08,0x6f,0x3a,0x0d,0x52,0x50,0x47,0x3a,0x3a,0x42,0x47,0x4d,0x08,0x3a,0x0a,0x40,0x6e,0x61,0x6d,0x65,0x49,0x22,0x0c,0x63,0x61,0x73,0x69,0x6e,0x6f,0x32,0x06,0x3a,0x06,0x45,0x54,0x3a,0x0c,0x40,0x76,0x6f,0x6c,0x75,0x6d,0x65,0x69,0x69,0x3a,0x0b,0x40,0x70,0x69,0x74,0x63,0x68,0x69,0x69))
    355("call_slot_scene(5)")
    241(bytes(0x04,0x08,0x6f,0x3a,0x0d,0x52,0x50,0x47,0x3a,0x3a,0x42,0x47,0x4d,0x08,0x3a,0x0a,0x40,0x6e,0x61,0x6d,0x65,0x49,0x22,0x0b,0x63,0x61,0x73,0x69,0x6e,0x6f,0x06,0x3a,0x06,0x45,0x54,0x3a,0x0c,0x40,0x76,0x6f,0x6c,0x75,0x6d,0x65,0x69,0x69,0x3a,0x0b,0x40,0x70,0x69,0x74,0x63,0x68,0x69,0x69))
    0()
   IfPlayerPicksChoice(1,null)
    0()
   404()
   0()
  EndIf()
  0()



EVENT   59
 PAGE   1
  ShowMessageFace("",0,0,2,1)
  ShowMessage("\\n<Priest>Raise...")
  ShowMessageFace("",0,0,2,2)
  ShowMessage("His expression isn't budging at all... His poker face is like an iron mask.")
  0()



EVENT   60
 PAGE   1
  ShowMessageFace("",0,0,2,1)
  ShowMessage("\\n<Young Man>*mutter*...*mutter*...")
  355("actor_label_jump")
  EndEventProcessing()
  DefineLabel("53")
  ShowMessageFace("slime_fc1",0,0,2,2)
  ShowMessage("\\n<Lime>Gunyaaa.")
  EndEventProcessing()
  0()



EVENT   61
 PAGE   1
  If(6,-1,8)
   ShowMessageFace("",0,0,2,1)
   ShowMessage("This is a 10 Coins slot machine. Would you like to use it?")
   ShowChoices(strings("Yes","No"),2)
   IfPlayerPicksChoice(0,null)
    241(bytes(0x04,0x08,0x6f,0x3a,0x0d,0x52,0x50,0x47,0x3a,0x3a,0x42,0x47,0x4d,0x08,0x3a,0x0a,0x40,0x6e,0x61,0x6d,0x65,0x49,0x22,0x0c,0x63,0x61,0x73,0x69,0x6e,0x6f,0x32,0x06,0x3a,0x06,0x45,0x54,0x3a,0x0c,0x40,0x76,0x6f,0x6c,0x75,0x6d,0x65,0x69,0x69,0x3a,0x0b,0x40,0x70,0x69,0x74,0x63,0x68,0x69,0x69))
    355("call_slot_scene(10)")
    241(bytes(0x04,0x08,0x6f,0x3a,0x0d,0x52,0x50,0x47,0x3a,0x3a,0x42,0x47,0x4d,0x08,0x3a,0x0a,0x40,0x6e,0x61,0x6d,0x65,0x49,0x22,0x0b,0x63,0x61,0x73,0x69,0x6e,0x6f,0x06,0x3a,0x06,0x45,0x54,0x3a,0x0c,0x40,0x76,0x6f,0x6c,0x75,0x6d,0x65,0x69,0x69,0x3a,0x0b,0x40,0x70,0x69,0x74,0x63,0x68,0x69,0x69))
    0()
   IfPlayerPicksChoice(1,null)
    0()
   404()
   0()
  EndIf()
  0()



EVENT   62
 PAGE   1
  0()



EVENT   63
 PAGE   1
  0()



EVENT   64
 PAGE   1
  0()



EVENT   65
 PAGE   1
  0()



EVENT   66
 PAGE   1
  0()



EVENT   67
 PAGE   1
  0()



EVENT   68
 PAGE   1
  0()



EVENT   69
 PAGE   1
  0()



EVENT   70
 PAGE   1
  0()



EVENT   71
 PAGE   1
  0()



EVENT   72
 PAGE   1
  ShowMessageFace("",0,0,2,1)
  ShowMessage("\\n<Youth>Slot machines in this row are colored different, right? Y'see, that's because they're 10 Coin machines.")
  ShowMessageFace("",0,0,2,2)
  ShowMessage("\\n<Youth>I need to earn enough to be able to play plenty on these machines... As I thought, first I need to build up funds with poker!")
  0()



EVENT   73
 PAGE   1
  ShowMessageFace("",0,0,2,1)
  ShowMessage("\\n<Man>Slot machines are no good. You can't feel any human warmth when playing against a machine.")
  ShowMessageFace("",0,0,2,2)
  ShowMessage("\\n<Man>In other words, you can't plead or strike bargains with it... It's no good, so...")
  355("actor_label_jump")
  EndEventProcessing()
  DefineLabel("41")
  ShowMessageFace("stein_fc2",0,0,2,3)
  ShowMessage("\\n<Promestein>Human warmth, you say... That's just an illusion. Human bodies run on electricity, and even minds come from a chemical reaction.")
  If(0,6,0)
   ShowMessageFace("sonia_fc4",0,0,2,4)
   ShowMessage("\\n<Sonya>You have no dreams...")
   ShowMessageFace("stein_fc2",1,0,2,5)
   ShowMessage("\\n<Promestein>What are you saying, I have plenty of dreams! An accumulation of chemical reactions creating what you call a mind, isn't it wonderful?!")
   ShowMessageFace("ruka_fc1",0,0,2,6)
   ShowMessage("\\n<Luka>I can kinda understand that. The explanation that chemical reactions are behind a human mind is strangely interesting.")
   ShowMessageFace("stein_fc2",1,0,2,7)
   ShowMessage("\\n<Promestein>So you understand! You understand don't you?! Now, let's research it together!")
   ShowMessageFace("ruka_fc1",0,0,2,8)
   ShowMessage("\\n<Luka>M-maybe next time...")
   0()
  EndIf()
  EndEventProcessing()
  DefineLabel("185")
  ShowMessageFace("radio_fc1",0,0,2,9)
  ShowMessage("\\n<Radio>So you're saying that machiNes have no minDs...?")
  EndEventProcessing()
  0()



EVENT   74
 PAGE   1
  If(1,110,0,0,0)
   ShowMessageFace("",0,0,2,1)
   ShowMessage("\\n<Bunny>You currently have no coins. Would you like to buy coins? Or maybe you would like to see the prizes?")
   0()
  Else()
   ShowMessageFace("",0,0,2,2)
   ShowMessage("\\n<Bunny>You currently have \\V[110] coins. Would you like to buy coins? Or maybe would like to exchange coins for a prize?")
   0()
  EndIf()
  ShowChoices(strings("Buy Coins","Exchange for Prize","Nothing"),3)
  IfPlayerPicksChoice(0,null)
   ShowChoices(strings("60 Coins (1000G)","350 Coins (5000G)","1500 Coins (20000G)","I'll pass"),4)
   IfPlayerPicksChoice(0,null)
    If(7,1000,0)
     250(bytes(0x04,0x08,0x6f,0x3a,0x0c,0x52,0x50,0x47,0x3a,0x3a,0x53,0x45,0x08,0x3a,0x0a,0x40,0x6e,0x61,0x6d,0x65,0x49,0x22,0x09,0x43,0x6f,0x69,0x6e,0x06,0x3a,0x06,0x45,0x54,0x3a,0x0b,0x40,0x70,0x69,0x74,0x63,0x68,0x69,0x69,0x3a,0x0c,0x40,0x76,0x6f,0x6c,0x75,0x6d,0x65,0x69,0x55))
     355("gain_coin(60)")
     125(1,0,1000)
     355("$game_library.addition_purchase_gold(1000)")
     ShowMessageFace("",0,0,2,3)
     ShowMessage("Purchased 60 Coins! (Have:\\V[110])")
     0()
    Else()
     ShowMessageFace("",0,0,2,4)
     ShowMessage("\\n<Bunny>You don't have enough money.")
     0()
    EndIf()
    0()
   IfPlayerPicksChoice(1,null)
    If(7,5000,0)
     250(bytes(0x04,0x08,0x6f,0x3a,0x0c,0x52,0x50,0x47,0x3a,0x3a,0x53,0x45,0x08,0x3a,0x0a,0x40,0x6e,0x61,0x6d,0x65,0x49,0x22,0x09,0x43,0x6f,0x69,0x6e,0x06,0x3a,0x06,0x45,0x54,0x3a,0x0b,0x40,0x70,0x69,0x74,0x63,0x68,0x69,0x69,0x3a,0x0c,0x40,0x76,0x6f,0x6c,0x75,0x6d,0x65,0x69,0x55))
     355("gain_coin(350)")
     125(1,0,5000)
     355("$game_library.addition_purchase_gold(5000)")
     ShowMessageFace("",0,0,2,5)
     ShowMessage("Purchased 350 Coins! (Have:\\V[110])")
     0()
    Else()
     ShowMessageFace("",0,0,2,6)
     ShowMessage("\\n<Bunny>You don't have enough money.")
     0()
    EndIf()
    0()
   IfPlayerPicksChoice(2,null)
    If(7,20000,0)
     250(bytes(0x04,0x08,0x6f,0x3a,0x0c,0x52,0x50,0x47,0x3a,0x3a,0x53,0x45,0x08,0x3a,0x0a,0x40,0x6e,0x61,0x6d,0x65,0x49,0x22,0x09,0x43,0x6f,0x69,0x6e,0x06,0x3a,0x06,0x45,0x54,0x3a,0x0b,0x40,0x70,0x69,0x74,0x63,0x68,0x69,0x69,0x3a,0x0c,0x40,0x76,0x6f,0x6c,0x75,0x6d,0x65,0x69,0x55))
     355("gain_coin(1500)")
     125(1,0,20000)
     355("$game_library.addition_purchase_gold(20000)")
     ShowMessageFace("",0,0,2,7)
     ShowMessage("Purchased 1500 Coins! (Have:\\V[110])")
     0()
    Else()
     ShowMessageFace("",0,0,2,8)
     ShowMessage("\\n<Bunny>You don't have enough money.")
     0()
    EndIf()
    0()
   IfPlayerPicksChoice(3,null)
    0()
   404()
   0()
  IfPlayerPicksChoice(1,null)
   355("goods = []")
   655("goods.push [500, :I, 5]")
   655("goods.push [750, :I, 12]")
   655("goods.push [1000, :A, 264]")
   655("goods.push [1000, :A, 168]")
   655("goods.push [1500, :A, 1734]")
   655("goods.push [1500, :A, 1736]")
   655("goods.push [5000, :W, 128]")
   655("goods.push [7500, :A, 10]")
   655("goods.push [8000, :A, 1724]")
   655("goods.push [10000, :A, 1691]")
   655("call_casino_prize(goods)")
   0()
  IfPlayerPicksChoice(2,null)
   0()
  404()
  EndEventProcessing()
  0()

EVENT   129
 PAGE   1
  ShowMessageFace("",0,0,2,1)
  ShowMessage("\\n<Bunny>Please have fun and forget about time, okaay♪?")
  355("actor_label_jump")
  EndEventProcessing()
  DefineLabel("82")
  ShowMessageFace("suzume_fc1",2,0,2,2)
  ShowMessage("\\n<Chirp>Is that really all right? Isn't time important?")
  EndEventProcessing()
  DefineLabel("97")
  ShowMessageFace("fairy_fc1",0,0,2,3)
  ShowMessage("\\n<Fell>Yaay, let's play lots. ♪")
  EndEventProcessing()
  0()



EVENT   130
 PAGE   1
  If(1,110,0,0,0)
   ShowMessageFace("",0,0,2,1)
   ShowMessage("\\n<Bunny>You currently have no coins. Would you like to buy coins? Or maybe you would like to see the prizes?")
   0()
  Else()
   ShowMessageFace("",0,0,2,2)
   ShowMessage("\\n<Bunny>You currently have \\V[110] coins. Would you like to buy coins? Or maybe you would like to exchange coins for a prize?")
   0()
  EndIf()
  ShowChoices(strings("Buy Coins","Exchange for Prize","Nothing"),3)
  IfPlayerPicksChoice(0,null)
   ShowChoices(strings("60 Coins (1000G)","350 Coins (5000G)","1500 Coins (20000G)","I'll pass"),4)
   IfPlayerPicksChoice(0,null)
    If(7,1000,0)
     250(bytes(0x04,0x08,0x6f,0x3a,0x0c,0x52,0x50,0x47,0x3a,0x3a,0x53,0x45,0x08,0x3a,0x0a,0x40,0x6e,0x61,0x6d,0x65,0x49,0x22,0x09,0x43,0x6f,0x69,0x6e,0x06,0x3a,0x06,0x45,0x54,0x3a,0x0b,0x40,0x70,0x69,0x74,0x63,0x68,0x69,0x69,0x3a,0x0c,0x40,0x76,0x6f,0x6c,0x75,0x6d,0x65,0x69,0x55))
     355("gain_coin(60)")
     125(1,0,1000)
     ShowMessageFace("",0,0,2,3)
     ShowMessage("Purchased 60 Coins! (Have:\\V[110])")
     0()
    Else()
     ShowMessageFace("",0,0,2,4)
     ShowMessage("\\n<Bunny>You don't have enough money.")
     0()
    EndIf()
    0()
   IfPlayerPicksChoice(1,null)
    If(7,5000,0)
     250(bytes(0x04,0x08,0x6f,0x3a,0x0c,0x52,0x50,0x47,0x3a,0x3a,0x53,0x45,0x08,0x3a,0x0a,0x40,0x6e,0x61,0x6d,0x65,0x49,0x22,0x09,0x43,0x6f,0x69,0x6e,0x06,0x3a,0x06,0x45,0x54,0x3a,0x0b,0x40,0x70,0x69,0x74,0x63,0x68,0x69,0x69,0x3a,0x0c,0x40,0x76,0x6f,0x6c,0x75,0x6d,0x65,0x69,0x55))
     355("gain_coin(350)")
     125(1,0,5000)
     ShowMessageFace("",0,0,2,5)
     ShowMessage("Purchased 350 Coins! (Have:\\V[110])")
     0()
    Else()
     ShowMessageFace("",0,0,2,6)
     ShowMessage("\\n<Bunny>You don't have enough money.")
     0()
    EndIf()
    0()
   IfPlayerPicksChoice(2,null)
    If(7,20000,0)
     250(bytes(0x04,0x08,0x6f,0x3a,0x0c,0x52,0x50,0x47,0x3a,0x3a,0x53,0x45,0x08,0x3a,0x0a,0x40,0x6e,0x61,0x6d,0x65,0x49,0x22,0x09,0x43,0x6f,0x69,0x6e,0x06,0x3a,0x06,0x45,0x54,0x3a,0x0b,0x40,0x70,0x69,0x74,0x63,0x68,0x69,0x69,0x3a,0x0c,0x40,0x76,0x6f,0x6c,0x75,0x6d,0x65,0x69,0x55))
     355("gain_coin(1500)")
     125(1,0,20000)
     ShowMessageFace("",0,0,2,7)
     ShowMessage("Purchased 1500 Coins! (Have:\\V[110])")
     0()
    Else()
     ShowMessageFace("",0,0,2,8)
     ShowMessage("\\n<Bunny>You don't have enough money.")
     0()
    EndIf()
    0()
   IfPlayerPicksChoice(3,null)
    0()
   404()
   0()
  IfPlayerPicksChoice(1,null)
   355("goods = []")
   655("goods.push [500, :I, 5]")
   655("goods.push [750, :I, 12]")
   655("goods.push [1000, :A, 264]")
   655("goods.push [1000, :A, 168]")
   655("goods.push [1500, :A, 1734]")
   655("goods.push [1500, :A, 1736]")
   655("goods.push [5000, :W, 128]")
   655("goods.push [7500, :A, 10]")
   655("goods.push [8000, :A, 1724]")
   655("goods.push [10000, :A, 1691]")
   655("call_casino_prize(goods)")
   0()
  IfPlayerPicksChoice(2,null)
   0()
  404()
  EndEventProcessing()
  0()



EVENT   132
 PAGE   1
  ShowMessageFace("",0,0,2,1)
  ShowMessage("\\n<Clerk in Charge>Welcome. This casino uses the world's universal coins.")
  0()



EVENT   134
 PAGE   1
  ShowMessageFace("",0,0,2,1)
  ShowMessage("\\n<Dealer>When customers cheat, they are made to work off the trouble they caused, so be warned.")
  355("actor_label_jump")
  EndEventProcessing()
  DefineLabel("57")
  ShowMessageFace("inp_fc3",0,0,2,2)
  ShowMessage("\\n<Rumi>It's not cheating if they don't find out...")
  EndEventProcessing()
  DefineLabel("58")
  ShowMessageFace("inp_fc2",2,0,2,3)
  ShowMessage("\\n<Remi>*tremble**shiver*...")
  EndEventProcessing()
  0()



EVENT   135
 PAGE   1
  ShowMessageFace("",0,0,2,1)
  ShowMessage("\\n<Gruff Man>Ghaa! AAAaaa?!")
  0()



EVENT   139
 PAGE   1
  ShowMessageFace("",0,0,2,1)
  ShowMessage("\\n<Gruff Man>Life is a gamble!")
  0()



EVENT   140
 PAGE   1
  ShowMessageFace("",0,0,2,1)
  ShowMessage("\\n<Nun>O' Goddess... please make next one red...")
  0()



EVENT   141
 PAGE   1
  ShowMessageFace("",0,0,2,1)
  ShowMessage("\\n<Strong Man>Why is it always... ALWAYS...")
  0()



EVENT   142
 PAGE   1
  ShowMessageFace("",0,0,2,1)
  ShowMessage("\\n<Merchant>HOAAAaaa?!")
  0()



EVENT   143
 PAGE   1
  ShowMessageFace("",0,0,2,1)
  ShowMessage("\\n<Woman>I'm... getting fired up!")
  0()



EVENT   145
 PAGE   1
  ShowMessageFace("",0,0,2,1)
  ShowMessage("\\n<Man>This is... Luck's on my side! Now is the time to attack!!")
  0()



EVENT   146
 PAGE   1
  If(6,-1,8)
   ShowMessageFace("",0,0,2,1)
   ShowMessage("This is a 5 Coins slot machine. Would you like to use it?")
   ShowChoices(strings("Yes","No"),2)
   IfPlayerPicksChoice(0,null)
    241(bytes(0x04,0x08,0x6f,0x3a,0x0d,0x52,0x50,0x47,0x3a,0x3a,0x42,0x47,0x4d,0x08,0x3a,0x0a,0x40,0x6e,0x61,0x6d,0x65,0x49,0x22,0x0c,0x63,0x61,0x73,0x69,0x6e,0x6f,0x32,0x06,0x3a,0x06,0x45,0x54,0x3a,0x0c,0x40,0x76,0x6f,0x6c,0x75,0x6d,0x65,0x69,0x69,0x3a,0x0b,0x40,0x70,0x69,0x74,0x63,0x68,0x69,0x69))
    355("call_slot_scene(5)")
    241(bytes(0x04,0x08,0x6f,0x3a,0x0d,0x52,0x50,0x47,0x3a,0x3a,0x42,0x47,0x4d,0x08,0x3a,0x0a,0x40,0x6e,0x61,0x6d,0x65,0x49,0x22,0x0b,0x63,0x61,0x73,0x69,0x6e,0x6f,0x06,0x3a,0x06,0x45,0x54,0x3a,0x0c,0x40,0x76,0x6f,0x6c,0x75,0x6d,0x65,0x69,0x69,0x3a,0x0b,0x40,0x70,0x69,0x74,0x63,0x68,0x69,0x69))
    0()
   IfPlayerPicksChoice(1,null)
    0()
   404()
   0()
  EndIf()
  0()



EVENT   158
 PAGE   1
  ShowMessageFace("",0,0,2,1)
  ShowMessage("\\n<Man>OHHH... It's heeere!")
  0()



EVENT   160
 PAGE   1
  ShowMessageFace("",0,0,2,1)
  ShowMessage("\\n<Gruff Man>What the hell, I'm not getting any! Is it broken?!")
  355("actor_label_jump")
  EndEventProcessing()
  DefineLabel("128")
  ShowMessageFace("kaniloid_fc1",0,0,2,2)
  ShowMessage("\\n<Jillian>It's your head that's broken...")
  EndEventProcessing()
  0()



EVENT   161
 PAGE   1
  ShowMessageFace("",0,0,2,1)
  ShowMessage("\\n<Dealer>There are violent customers who hit the slot machines, but... those machines are more important than the customers' lives.")
  ShowMessageFace("",0,0,2,2)
  ShowMessage("\\n<Dealer>The customers who damage slot machines are taken into our custody. Please keep that in mind.")
  0()



EVENT   162
 PAGE   1
  ShowMessageFace("",0,0,2,1)
  ShowMessage("\\n<Nun>My life... is being sucked out...")
  355("actor_label_jump")
  EndEventProcessing()
  DefineLabel("123")
  ShowMessageFace("sisccubus_fc1",2,0,2,2)
  ShowMessage("\\n<Christie>I'm not dabbling in gambling. It's plain as a day I'd end up like she did...")
  EndEventProcessing()
  0()



EVENT   163
 PAGE   1
  ShowMessageFace("",0,0,2,1)
  ShowMessage("\\n<Maid>Once you pop... you can't stop...")
  355("actor_label_jump")
  EndEventProcessing()
  DefineLabel("76")
  ShowMessageFace("syuree_fc1",1,0,2,2)
  ShowMessage("\\n<Sully>...Pringles?")
  EndEventProcessing()
  0()



EVENT   164
 PAGE   1
  ShowMessageFace("",0,0,2,1)
  ShowMessage("\\n<Man>Niiice... That's what I call a gambling thrill!")
  0()



EVENT   166
 PAGE   1
  If(1,1001,0,25,2)
   ShowMessageFace("",0,0,2,1)
   ShowMessage("\\n<Thief>Well, don't get too fired up. It's just some relaxation in the middle of a journey.")
   355("actor_label_jump")
   EndEventProcessing()
   DefineLabel("111")
   ShowMessageFace("suika_fc1",0,0,2,2)
   ShowMessage("\\n<Melon>You can relax while eating a watermelon. ♪")
   EndEventProcessing()
   DefineLabel("121")
   ShowMessageFace("page65537_fc1",2,0,2,3)
   ShowMessage("\\n<Cornelia>No, this is a serious match.")
   EndEventProcessing()
   0()
  EndIf()
  If(1,1001,0,26,1)
   ShowMessageFace(binary"",0,0,2,4)
   ShowMessage("\\n<Thief>When I'm having such a good time here, I can forget all about what's happening in the outside world...")
   EndEventProcessing()
   0()
  EndIf()
  0()



EVENT   167
 PAGE   1
  ShowMessageFace("",0,0,2,1)
  ShowMessage("\\n<Thief>If you have a Gambler in your party, gambling will go in your favor. Maybe I should change my job...")
  355("actor_label_jump")
  EndEventProcessing()
  DefineLabel("540")
  ShowMessageFace("amira_fc1",0,0,2,2)
  ShowMessage("\\n<Amira>We should hurry to Ilias Temple as well!")
  EndEventProcessing()
  0()



EVENT   168
 PAGE   1
  If(1,1001,0,25,2)
   ShowMessageFace("",0,0,2,1)
   ShowMessage("\\n<Rich Man>Really, casinos are the best. Whenever I'm here, I feel so alive...")
   355("actor_label_jump")
   EndEventProcessing()
   DefineLabel("121")
   ShowMessageFace("page65537_fc1",1,0,2,2)
   ShowMessage("\\n<Cornelia>Yes, I can't get enough of it...")
   EndEventProcessing()
   0()
  EndIf()
  If(1,1001,0,26,1)
   ShowMessageFace(binary"",0,0,2,3)
   ShowMessage("\\n<Rich Man>Casinos truly are the best. This is where I come to forget all of my worries.")
   EndEventProcessing()
   0()
  EndIf()
  0()



EVENT   169
 PAGE   1
  ShowMessageFace("",0,0,2,1)
  ShowMessage("\\n<Rich Woman>Rather than gamble, I prefer to watch how those men ruin themselves. Just by being here, I can see how various lives play out...")
  355("actor_label_jump")
  EndEventProcessing()
  DefineLabel("96")
  ShowMessageFace("delh_b_fc1",0,0,2,2)
  ShowMessage("\\n<Marion>That's wonderful... Indeed, watching humans fall is truly joyous.")
  EndEventProcessing()
  0()


