


EVENT   1
 PAGE   1
  // condition: switch 31 is ON
  222()
  Wait(15)
  205(5,bytes(0x04,0x08,0x6f,0x3a,0x13,0x52,0x50,0x47,0x3a,0x3a,0x4d,0x6f,0x76,0x65,0x52,0x6f,0x75,0x74,0x65,0x09,0x3a,0x0c,0x40,0x72,0x65,0x70,0x65,0x61,0x74,0x46,0x3a,0x0f,0x40,0x73,0x6b,0x69,0x70,0x70,0x61,0x62,0x6c,0x65,0x46,0x3a,0x0a,0x40,0x77,0x61,0x69,0x74,0x54,0x3a,0x0a,0x40,0x6c,0x69,0x73,0x74,0x5b,0x08,0x6f,0x3a,0x15,0x52,0x50,0x47,0x3a,0x3a,0x4d,0x6f,0x76,0x65,0x43,0x6f,0x6d,0x6d,0x61,0x6e,0x64,0x07,0x3a,0x0a,0x40,0x63,0x6f,0x64,0x65,0x69,0x08,0x3a,0x10,0x40,0x70,0x61,0x72,0x61,0x6d,0x65,0x74,0x65,0x72,0x73,0x5b,0x00,0x6f,0x3b,0x0a,0x07,0x3b,0x0b,0x69,0x08,0x3b,0x0c,0x5b,0x00,0x6f,0x3b,0x0a,0x07,0x3b,0x0b,0x69,0x00,0x3b,0x0c,0x5b,0x00))
  205(2,bytes(0x04,0x08,0x6f,0x3a,0x13,0x52,0x50,0x47,0x3a,0x3a,0x4d,0x6f,0x76,0x65,0x52,0x6f,0x75,0x74,0x65,0x09,0x3a,0x0c,0x40,0x72,0x65,0x70,0x65,0x61,0x74,0x46,0x3a,0x0f,0x40,0x73,0x6b,0x69,0x70,0x70,0x61,0x62,0x6c,0x65,0x46,0x3a,0x0a,0x40,0x77,0x61,0x69,0x74,0x54,0x3a,0x0a,0x40,0x6c,0x69,0x73,0x74,0x5b,0x07,0x6f,0x3a,0x15,0x52,0x50,0x47,0x3a,0x3a,0x4d,0x6f,0x76,0x65,0x43,0x6f,0x6d,0x6d,0x61,0x6e,0x64,0x07,0x3a,0x0a,0x40,0x63,0x6f,0x64,0x65,0x69,0x16,0x3a,0x10,0x40,0x70,0x61,0x72,0x61,0x6d,0x65,0x74,0x65,0x72,0x73,0x5b,0x00,0x6f,0x3b,0x0a,0x07,0x3b,0x0b,0x69,0x00,0x3b,0x0c,0x5b,0x00))
  ShowMessageFace("",0,0,2,1)
  ShowMessage("\\n<Girl>You're Gnome, right?")
  ShowMessageFace("gnome_fc1",0,0,2,2)
  ShowMessage("\\n<Gnome>.........")
  ShowMessageFace("",0,0,2,3)
  ShowMessage("\\n<Girl>I saw you during the Gnome Festival, and I uhh... secretly followed you back here.")
  ShowMessageFace("gnome_fc1",0,0,2,4)
  ShowMessage("\\n<Gnome>.........")
  ShowMessageFace("",0,0,2,5)
  ShowMessage("\\n<Girl>I'll give you half of the chocolate cornet I got at the festival. So let's be friends!")
  ShowMessageFace("gnome_fc1",0,0,2,6)
  ShowMessage("\\n<Gnome>.........")
  ShowMessageFace("",0,0,2,7)
  ShowMessage("Gnome and the girl ate the chocolate cornet together... and became friends!")
  221()
  Wait(60)
  ChangeSwitch(31,31,1)
  ChangeSwitch(32,32,0)
  222()
  Wait(15)
  ShowMessageFace("",0,0,2,8)
  ShowMessage("\\n<Girl>Look, one of my baby teeth came out! They say that when you offer your baby teeth to the oasis, your adult teeth will grow strong!")
  ShowMessageFace("",0,0,2,9)
  ShowMessage("The girl threw her baby teeth into the oasis!")
  ShowMessageFace("gnome_fc1",0,0,2,10)
  ShowMessage("\\n<Gnome>.........")
  ShowMessageFace("",0,0,2,11)
  ShowMessage("\\n<Girl>Gnome... you don't get older, do you? Even though it's been a year since we became friends, you haven't gotten taller.")
  ShowMessageFace("",0,0,2,12)
  ShowMessage("\\n<Girl>I guess I'll become an adult before you do. And then I'll become a mommy, and a granny...")
  ShowMessageFace("gnome_fc1",0,0,2,13)
  ShowMessage("\\n<Gnome>.........")
  ShowMessageFace("",0,0,2,14)
  ShowMessage("\\n<Girl>Don't make such a sad face, Gnome. C'mon, let's play tag!")
  ShowMessageFace("gnome_fc1",0,0,2,15)
  ShowMessage("\\n<Gnome>......♪")
  221()
  Wait(60)
  ChangeSwitch(32,32,1)
  ChangeSwitch(33,33,0)
  TeleportEvent(5,0,7,6,0)
  222()
  Wait(15)
  205(5,bytes(0x04,0x08,0x6f,0x3a,0x13,0x52,0x50,0x47,0x3a,0x3a,0x4d,0x6f,0x76,0x65,0x52,0x6f,0x75,0x74,0x65,0x09,0x3a,0x0c,0x40,0x72,0x65,0x70,0x65,0x61,0x74,0x46,0x3a,0x0f,0x40,0x73,0x6b,0x69,0x70,0x70,0x61,0x62,0x6c,0x65,0x46,0x3a,0x0a,0x40,0x77,0x61,0x69,0x74,0x54,0x3a,0x0a,0x40,0x6c,0x69,0x73,0x74,0x5b,0x08,0x6f,0x3a,0x15,0x52,0x50,0x47,0x3a,0x3a,0x4d,0x6f,0x76,0x65,0x43,0x6f,0x6d,0x6d,0x61,0x6e,0x64,0x07,0x3a,0x0a,0x40,0x63,0x6f,0x64,0x65,0x69,0x08,0x3a,0x10,0x40,0x70,0x61,0x72,0x61,0x6d,0x65,0x74,0x65,0x72,0x73,0x5b,0x00,0x6f,0x3b,0x0a,0x07,0x3b,0x0b,0x69,0x08,0x3b,0x0c,0x5b,0x00,0x6f,0x3b,0x0a,0x07,0x3b,0x0b,0x69,0x00,0x3b,0x0c,0x5b,0x00))
  205(2,bytes(0x04,0x08,0x6f,0x3a,0x13,0x52,0x50,0x47,0x3a,0x3a,0x4d,0x6f,0x76,0x65,0x52,0x6f,0x75,0x74,0x65,0x09,0x3a,0x0c,0x40,0x72,0x65,0x70,0x65,0x61,0x74,0x46,0x3a,0x0f,0x40,0x73,0x6b,0x69,0x70,0x70,0x61,0x62,0x6c,0x65,0x46,0x3a,0x0a,0x40,0x77,0x61,0x69,0x74,0x54,0x3a,0x0a,0x40,0x6c,0x69,0x73,0x74,0x5b,0x07,0x6f,0x3a,0x15,0x52,0x50,0x47,0x3a,0x3a,0x4d,0x6f,0x76,0x65,0x43,0x6f,0x6d,0x6d,0x61,0x6e,0x64,0x07,0x3a,0x0a,0x40,0x63,0x6f,0x64,0x65,0x69,0x16,0x3a,0x10,0x40,0x70,0x61,0x72,0x61,0x6d,0x65,0x74,0x65,0x72,0x73,0x5b,0x00,0x6f,0x3b,0x0a,0x07,0x3b,0x0b,0x69,0x00,0x3b,0x0c,0x5b,0x00))
  ShowMessageFace("",0,0,2,16)
  ShowMessage("\\n<Woman>Hello, Gnome. So, I'm going to get married next week.")
  ShowMessageFace("gnome_fc1",0,0,2,17)
  ShowMessage("\\n<Gnome>......?!")
  ShowMessageFace("",0,0,2,18)
  ShowMessage("\\n<Woman>And I would like you to come to the ceremony. You're my best friend, after all.")
  ShowMessageFace("gnome_fc1",0,0,2,19)
  ShowMessage("\\n<Gnome>.........")
  ShowMessageFace("",0,0,2,20)
  ShowMessage("Gnome nodded repeatedly.")
  221()
  Wait(60)
  ChangeSwitch(33,33,1)
  ChangeSwitch(34,34,0)
  TeleportPlayer(0,636,11,13,0,2)
  0()



EVENT   2
 PAGE   1
  // condition: switch 31 is ON
  0()
 PAGE   2
  // condition: switch 33 is ON
  0()



EVENT   3
 PAGE   1
  // condition: switch 31 is ON
  0()



EVENT   4
 PAGE   1
  // condition: switch 31 is ON
  0()



EVENT   5
 PAGE   1
  // condition: switch 31 is ON
  0()
 PAGE   2
  // condition: switch 33 is ON
  0()



EVENT   6
 PAGE   1
  // condition: switch 32 is ON
  0()



EVENT   7
 PAGE   1
  // condition: switch 32 is ON
  0()



EVENT   8
 PAGE   1
  // condition: switch 32 is ON
  0()



EVENT   9
 PAGE   1
  // condition: switch 32 is ON
  0()



EVENT   10
 PAGE   1
  // condition: switch 33 is ON
  0()



EVENT   11
 PAGE   1
  // condition: switch 33 is ON
  0()
