﻿
DisplayName "San Ilia"



EVENT   1
 PAGE   1
  0()



EVENT   2
 PAGE   1
  0()



EVENT   3
 PAGE   1
  0()



EVENT   4
 PAGE   1
  0()



EVENT   5
 PAGE   1
  0()



EVENT   6
 PAGE   1
  0()



EVENT   7
 PAGE   1
  0()



EVENT   8
 PAGE   1
  0()



EVENT   9
 PAGE   1
  0()



EVENT   10
 PAGE   1
  0()



EVENT   11
 PAGE   1
  0()



EVENT   12
 PAGE   1
  0()



EVENT   13
 PAGE   1
  0()



EVENT   14
 PAGE   1
  0()



EVENT   15
 PAGE   1
  0()



EVENT   16
 PAGE   1
  0()



EVENT   17
 PAGE   1
  0()



EVENT   18
 PAGE   1
  0()



EVENT   19
 PAGE   1
  0()



EVENT   20
 PAGE   1
  0()



EVENT   21
 PAGE   1
  0()



EVENT   22
 PAGE   1
  0()



EVENT   23
 PAGE   1
  0()



EVENT   24
 PAGE   1
  0()



EVENT   25
 PAGE   1
  0()



EVENT   26
 PAGE   1
  0()



EVENT   27
 PAGE   1
  0()



EVENT   28
 PAGE   1
  0()



EVENT   29
 PAGE   1
  0()



EVENT   30
 PAGE   1
  0()



EVENT   31
 PAGE   1
  0()



EVENT   32
 PAGE   1
  0()



EVENT   33
 PAGE   1
  0()



EVENT   34
 PAGE   1
  0()



EVENT   35
 PAGE   1
  0()



EVENT   36
 PAGE   1
  0()



EVENT   37
 PAGE   1
  0()



EVENT   38
 PAGE   1
  0()



EVENT   39
 PAGE   1
  0()



EVENT   40
 PAGE   1
  0()



EVENT   41
 PAGE   1
  0()



EVENT   42
 PAGE   1
  0()



EVENT   43
 PAGE   1
  0()



EVENT   44
 PAGE   1
  0()



EVENT   45
 PAGE   1
  0()



EVENT   46
 PAGE   1
  0()



EVENT   47
 PAGE   1
  0()



EVENT   48
 PAGE   1
  0()



EVENT   49
 PAGE   1
  0()



EVENT   50
 PAGE   1
  0()



EVENT   51
 PAGE   1
  0()



EVENT   52
 PAGE   1
  0()



EVENT   53
 PAGE   1
  0()



EVENT   54
 PAGE   1
  0()



EVENT   55
 PAGE   1
  0()



EVENT   56
 PAGE   1
  0()



EVENT   57
 PAGE   1
  0()



EVENT   58
 PAGE   1
  0()



EVENT   59
 PAGE   1
  ChangeSwitch(31,31,1)
  If(2,"A",1)
   ChangeSelfSwitch("A",0)
   If(0,4,0)
    ShowMessageFace("alice_fc5",0,0,2,1)
    ShowMessage("\\n<Alice>So in the end, we didn't learn much in the city. Oh well, we'll just have to hope the King of San Ilia turns up something.")
    ShowMessageFace("alice_fc5",0,0,2,2)
    ShowMessage("\\n<Alice>There have to be some records of your father, though. He was a famous hero only a few decades ago, after all.")
    0()
   EndIf()
   If(0,5,0)
    ShowMessageFace("iriasu_fc4",2,0,2,3)
    ShowMessage("\\n<Ilias>So in the end, we were not able to learn much of import in the city. We shall have to trust the King of San Ilia's information network.")
    ShowMessageFace("iriasu_fc4",0,0,2,4)
    ShowMessage("\\n<Ilias>It is very likely that records of Marcellus do remain. He was a well-known hero, after all.")
    0()
   EndIf()
   0()
  EndIf()
  281(0)
  250(bytes(0x04,0x08,0x6f,0x3a,0x0c,0x52,0x50,0x47,0x3a,0x3a,0x53,0x45,0x08,0x3a,0x0a,0x40,0x6e,0x61,0x6d,0x65,0x49,0x22,0x0b,0x45,0x61,0x72,0x74,0x68,0x34,0x06,0x3a,0x06,0x45,0x54,0x3a,0x0b,0x40,0x70,0x69,0x74,0x63,0x68,0x69,0x69,0x3a,0x0c,0x40,0x76,0x6f,0x6c,0x75,0x6d,0x65,0x69,0x55))
  205(0,bytes(0x04,0x08,0x6f,0x3a,0x13,0x52,0x50,0x47,0x3a,0x3a,0x4d,0x6f,0x76,0x65,0x52,0x6f,0x75,0x74,0x65,0x09,0x3a,0x0c,0x40,0x72,0x65,0x70,0x65,0x61,0x74,0x46,0x3a,0x0f,0x40,0x73,0x6b,0x69,0x70,0x70,0x61,0x62,0x6c,0x65,0x46,0x3a,0x0a,0x40,0x77,0x61,0x69,0x74,0x54,0x3a,0x0a,0x40,0x6c,0x69,0x73,0x74,0x5b,0x0c,0x6f,0x3a,0x15,0x52,0x50,0x47,0x3a,0x3a,0x4d,0x6f,0x76,0x65,0x43,0x6f,0x6d,0x6d,0x61,0x6e,0x64,0x07,0x3a,0x0a,0x40,0x63,0x6f,0x64,0x65,0x69,0x16,0x3a,0x10,0x40,0x70,0x61,0x72,0x61,0x6d,0x65,0x74,0x65,0x72,0x73,0x5b,0x00,0x6f,0x3b,0x0a,0x07,0x3b,0x0b,0x69,0x14,0x3b,0x0c,0x5b,0x06,0x69,0x08,0x6f,0x3b,0x0a,0x07,0x3b,0x0b,0x69,0x17,0x3b,0x0c,0x5b,0x00,0x6f,0x3b,0x0a,0x07,0x3b,0x0b,0x69,0x14,0x3b,0x0c,0x5b,0x06,0x69,0x08,0x6f,0x3b,0x0a,0x07,0x3b,0x0b,0x69,0x18,0x3b,0x0c,0x5b,0x00,0x6f,0x3b,0x0a,0x07,0x3b,0x0b,0x69,0x2a,0x3b,0x0c,0x5b,0x00,0x6f,0x3b,0x0a,0x07,0x3b,0x0b,0x69,0x00,0x3b,0x0c,0x5b,0x00))
  205(-1,bytes(0x04,0x08,0x6f,0x3a,0x13,0x52,0x50,0x47,0x3a,0x3a,0x4d,0x6f,0x76,0x65,0x52,0x6f,0x75,0x74,0x65,0x09,0x3a,0x0c,0x40,0x72,0x65,0x70,0x65,0x61,0x74,0x46,0x3a,0x0f,0x40,0x73,0x6b,0x69,0x70,0x70,0x61,0x62,0x6c,0x65,0x54,0x3a,0x0a,0x40,0x77,0x61,0x69,0x74,0x54,0x3a,0x0a,0x40,0x6c,0x69,0x73,0x74,0x5b,0x07,0x6f,0x3a,0x15,0x52,0x50,0x47,0x3a,0x3a,0x4d,0x6f,0x76,0x65,0x43,0x6f,0x6d,0x6d,0x61,0x6e,0x64,0x07,0x3a,0x0a,0x40,0x63,0x6f,0x64,0x65,0x69,0x11,0x3a,0x10,0x40,0x70,0x61,0x72,0x61,0x6d,0x65,0x74,0x65,0x72,0x73,0x5b,0x00,0x6f,0x3b,0x0a,0x07,0x3b,0x0b,0x69,0x00,0x3b,0x0c,0x5b,0x00))
  250(bytes(0x04,0x08,0x6f,0x3a,0x0c,0x52,0x50,0x47,0x3a,0x3a,0x53,0x45,0x08,0x3a,0x0a,0x40,0x6e,0x61,0x6d,0x65,0x49,0x22,0x09,0x4d,0x6f,0x76,0x65,0x06,0x3a,0x06,0x45,0x54,0x3a,0x0b,0x40,0x70,0x69,0x74,0x63,0x68,0x69,0x69,0x3a,0x0c,0x40,0x76,0x6f,0x6c,0x75,0x6d,0x65,0x69,0x55))
  TeleportPlayer(0,355,22,58,0,0)
  0()



EVENT   60
 PAGE   1
  ShowMessageFace("",0,0,2,1)
  ShowMessage("Luka leaves his companions outside and enters the house alone...")
  216(1)
  250(bytes(0x04,0x08,0x6f,0x3a,0x0c,0x52,0x50,0x47,0x3a,0x3a,0x53,0x45,0x08,0x3a,0x0a,0x40,0x6e,0x61,0x6d,0x65,0x49,0x22,0x0a,0x4f,0x70,0x65,0x6e,0x31,0x06,0x3a,0x06,0x45,0x54,0x3a,0x0b,0x40,0x70,0x69,0x74,0x63,0x68,0x69,0x69,0x3a,0x0c,0x40,0x76,0x6f,0x6c,0x75,0x6d,0x65,0x69,0x55))
  205(0,bytes(0x04,0x08,0x6f,0x3a,0x13,0x52,0x50,0x47,0x3a,0x3a,0x4d,0x6f,0x76,0x65,0x52,0x6f,0x75,0x74,0x65,0x09,0x3a,0x0c,0x40,0x72,0x65,0x70,0x65,0x61,0x74,0x46,0x3a,0x0f,0x40,0x73,0x6b,0x69,0x70,0x70,0x61,0x62,0x6c,0x65,0x46,0x3a,0x0a,0x40,0x77,0x61,0x69,0x74,0x54,0x3a,0x0a,0x40,0x6c,0x69,0x73,0x74,0x5b,0x0c,0x6f,0x3a,0x15,0x52,0x50,0x47,0x3a,0x3a,0x4d,0x6f,0x76,0x65,0x43,0x6f,0x6d,0x6d,0x61,0x6e,0x64,0x07,0x3a,0x0a,0x40,0x63,0x6f,0x64,0x65,0x69,0x16,0x3a,0x10,0x40,0x70,0x61,0x72,0x61,0x6d,0x65,0x74,0x65,0x72,0x73,0x5b,0x00,0x6f,0x3b,0x0a,0x07,0x3b,0x0b,0x69,0x14,0x3b,0x0c,0x5b,0x06,0x69,0x08,0x6f,0x3b,0x0a,0x07,0x3b,0x0b,0x69,0x17,0x3b,0x0c,0x5b,0x00,0x6f,0x3b,0x0a,0x07,0x3b,0x0b,0x69,0x14,0x3b,0x0c,0x5b,0x06,0x69,0x08,0x6f,0x3b,0x0a,0x07,0x3b,0x0b,0x69,0x18,0x3b,0x0c,0x5b,0x00,0x6f,0x3b,0x0a,0x07,0x3b,0x0b,0x69,0x2a,0x3b,0x0c,0x5b,0x00,0x6f,0x3b,0x0a,0x07,0x3b,0x0b,0x69,0x00,0x3b,0x0c,0x5b,0x00))
  205(-1,bytes(0x04,0x08,0x6f,0x3a,0x13,0x52,0x50,0x47,0x3a,0x3a,0x4d,0x6f,0x76,0x65,0x52,0x6f,0x75,0x74,0x65,0x09,0x3a,0x0c,0x40,0x72,0x65,0x70,0x65,0x61,0x74,0x46,0x3a,0x0f,0x40,0x73,0x6b,0x69,0x70,0x70,0x61,0x62,0x6c,0x65,0x54,0x3a,0x0a,0x40,0x77,0x61,0x69,0x74,0x54,0x3a,0x0a,0x40,0x6c,0x69,0x73,0x74,0x5b,0x07,0x6f,0x3a,0x15,0x52,0x50,0x47,0x3a,0x3a,0x4d,0x6f,0x76,0x65,0x43,0x6f,0x6d,0x6d,0x61,0x6e,0x64,0x07,0x3a,0x0a,0x40,0x63,0x6f,0x64,0x65,0x69,0x11,0x3a,0x10,0x40,0x70,0x61,0x72,0x61,0x6d,0x65,0x74,0x65,0x72,0x73,0x5b,0x00,0x6f,0x3b,0x0a,0x07,0x3b,0x0b,0x69,0x00,0x3b,0x0c,0x5b,0x00))
  250(bytes(0x04,0x08,0x6f,0x3a,0x0c,0x52,0x50,0x47,0x3a,0x3a,0x53,0x45,0x08,0x3a,0x0a,0x40,0x6e,0x61,0x6d,0x65,0x49,0x22,0x09,0x4d,0x6f,0x76,0x65,0x06,0x3a,0x06,0x45,0x54,0x3a,0x0b,0x40,0x70,0x69,0x74,0x63,0x68,0x69,0x69,0x3a,0x0c,0x40,0x76,0x6f,0x6c,0x75,0x6d,0x65,0x69,0x55))
  TeleportPlayer(0,28,17,48,0,0)
  0()



EVENT   61
 PAGE   1
  ShowMessageFace("",0,0,2,1)
  ShowMessage("The door is firmly shut.")
  0()



EVENT   62
 PAGE   1
  ShowMessageFace("",0,0,2,1)
  ShowMessage("The door is firmly shut.")
  0()



EVENT   63
 PAGE   1
  250(bytes(0x04,0x08,0x6f,0x3a,0x0c,0x52,0x50,0x47,0x3a,0x3a,0x53,0x45,0x08,0x3a,0x0a,0x40,0x6e,0x61,0x6d,0x65,0x49,0x22,0x0a,0x4f,0x70,0x65,0x6e,0x31,0x06,0x3a,0x06,0x45,0x54,0x3a,0x0b,0x40,0x70,0x69,0x74,0x63,0x68,0x69,0x69,0x3a,0x0c,0x40,0x76,0x6f,0x6c,0x75,0x6d,0x65,0x69,0x55))
  205(0,bytes(0x04,0x08,0x6f,0x3a,0x13,0x52,0x50,0x47,0x3a,0x3a,0x4d,0x6f,0x76,0x65,0x52,0x6f,0x75,0x74,0x65,0x09,0x3a,0x0c,0x40,0x72,0x65,0x70,0x65,0x61,0x74,0x46,0x3a,0x0f,0x40,0x73,0x6b,0x69,0x70,0x70,0x61,0x62,0x6c,0x65,0x46,0x3a,0x0a,0x40,0x77,0x61,0x69,0x74,0x54,0x3a,0x0a,0x40,0x6c,0x69,0x73,0x74,0x5b,0x0c,0x6f,0x3a,0x15,0x52,0x50,0x47,0x3a,0x3a,0x4d,0x6f,0x76,0x65,0x43,0x6f,0x6d,0x6d,0x61,0x6e,0x64,0x07,0x3a,0x0a,0x40,0x63,0x6f,0x64,0x65,0x69,0x16,0x3a,0x10,0x40,0x70,0x61,0x72,0x61,0x6d,0x65,0x74,0x65,0x72,0x73,0x5b,0x00,0x6f,0x3b,0x0a,0x07,0x3b,0x0b,0x69,0x14,0x3b,0x0c,0x5b,0x06,0x69,0x08,0x6f,0x3b,0x0a,0x07,0x3b,0x0b,0x69,0x17,0x3b,0x0c,0x5b,0x00,0x6f,0x3b,0x0a,0x07,0x3b,0x0b,0x69,0x14,0x3b,0x0c,0x5b,0x06,0x69,0x08,0x6f,0x3b,0x0a,0x07,0x3b,0x0b,0x69,0x18,0x3b,0x0c,0x5b,0x00,0x6f,0x3b,0x0a,0x07,0x3b,0x0b,0x69,0x2a,0x3b,0x0c,0x5b,0x00,0x6f,0x3b,0x0a,0x07,0x3b,0x0b,0x69,0x00,0x3b,0x0c,0x5b,0x00))
  205(-1,bytes(0x04,0x08,0x6f,0x3a,0x13,0x52,0x50,0x47,0x3a,0x3a,0x4d,0x6f,0x76,0x65,0x52,0x6f,0x75,0x74,0x65,0x09,0x3a,0x0c,0x40,0x72,0x65,0x70,0x65,0x61,0x74,0x46,0x3a,0x0f,0x40,0x73,0x6b,0x69,0x70,0x70,0x61,0x62,0x6c,0x65,0x54,0x3a,0x0a,0x40,0x77,0x61,0x69,0x74,0x54,0x3a,0x0a,0x40,0x6c,0x69,0x73,0x74,0x5b,0x07,0x6f,0x3a,0x15,0x52,0x50,0x47,0x3a,0x3a,0x4d,0x6f,0x76,0x65,0x43,0x6f,0x6d,0x6d,0x61,0x6e,0x64,0x07,0x3a,0x0a,0x40,0x63,0x6f,0x64,0x65,0x69,0x11,0x3a,0x10,0x40,0x70,0x61,0x72,0x61,0x6d,0x65,0x74,0x65,0x72,0x73,0x5b,0x00,0x6f,0x3b,0x0a,0x07,0x3b,0x0b,0x69,0x00,0x3b,0x0c,0x5b,0x00))
  250(bytes(0x04,0x08,0x6f,0x3a,0x0c,0x52,0x50,0x47,0x3a,0x3a,0x53,0x45,0x08,0x3a,0x0a,0x40,0x6e,0x61,0x6d,0x65,0x49,0x22,0x09,0x4d,0x6f,0x76,0x65,0x06,0x3a,0x06,0x45,0x54,0x3a,0x0b,0x40,0x70,0x69,0x74,0x63,0x68,0x69,0x69,0x3a,0x0c,0x40,0x76,0x6f,0x6c,0x75,0x6d,0x65,0x69,0x55))
  TeleportPlayer(0,28,51,16,0,0)
  0()



EVENT   64
 PAGE   1
  250(bytes(0x04,0x08,0x6f,0x3a,0x0c,0x52,0x50,0x47,0x3a,0x3a,0x53,0x45,0x08,0x3a,0x0a,0x40,0x6e,0x61,0x6d,0x65,0x49,0x22,0x0a,0x4f,0x70,0x65,0x6e,0x31,0x06,0x3a,0x06,0x45,0x54,0x3a,0x0b,0x40,0x70,0x69,0x74,0x63,0x68,0x69,0x69,0x3a,0x0c,0x40,0x76,0x6f,0x6c,0x75,0x6d,0x65,0x69,0x55))
  205(0,bytes(0x04,0x08,0x6f,0x3a,0x13,0x52,0x50,0x47,0x3a,0x3a,0x4d,0x6f,0x76,0x65,0x52,0x6f,0x75,0x74,0x65,0x09,0x3a,0x0c,0x40,0x72,0x65,0x70,0x65,0x61,0x74,0x46,0x3a,0x0f,0x40,0x73,0x6b,0x69,0x70,0x70,0x61,0x62,0x6c,0x65,0x46,0x3a,0x0a,0x40,0x77,0x61,0x69,0x74,0x54,0x3a,0x0a,0x40,0x6c,0x69,0x73,0x74,0x5b,0x0c,0x6f,0x3a,0x15,0x52,0x50,0x47,0x3a,0x3a,0x4d,0x6f,0x76,0x65,0x43,0x6f,0x6d,0x6d,0x61,0x6e,0x64,0x07,0x3a,0x0a,0x40,0x63,0x6f,0x64,0x65,0x69,0x16,0x3a,0x10,0x40,0x70,0x61,0x72,0x61,0x6d,0x65,0x74,0x65,0x72,0x73,0x5b,0x00,0x6f,0x3b,0x0a,0x07,0x3b,0x0b,0x69,0x14,0x3b,0x0c,0x5b,0x06,0x69,0x08,0x6f,0x3b,0x0a,0x07,0x3b,0x0b,0x69,0x17,0x3b,0x0c,0x5b,0x00,0x6f,0x3b,0x0a,0x07,0x3b,0x0b,0x69,0x14,0x3b,0x0c,0x5b,0x06,0x69,0x08,0x6f,0x3b,0x0a,0x07,0x3b,0x0b,0x69,0x18,0x3b,0x0c,0x5b,0x00,0x6f,0x3b,0x0a,0x07,0x3b,0x0b,0x69,0x2a,0x3b,0x0c,0x5b,0x00,0x6f,0x3b,0x0a,0x07,0x3b,0x0b,0x69,0x00,0x3b,0x0c,0x5b,0x00))
  205(-1,bytes(0x04,0x08,0x6f,0x3a,0x13,0x52,0x50,0x47,0x3a,0x3a,0x4d,0x6f,0x76,0x65,0x52,0x6f,0x75,0x74,0x65,0x09,0x3a,0x0c,0x40,0x72,0x65,0x70,0x65,0x61,0x74,0x46,0x3a,0x0f,0x40,0x73,0x6b,0x69,0x70,0x70,0x61,0x62,0x6c,0x65,0x54,0x3a,0x0a,0x40,0x77,0x61,0x69,0x74,0x54,0x3a,0x0a,0x40,0x6c,0x69,0x73,0x74,0x5b,0x07,0x6f,0x3a,0x15,0x52,0x50,0x47,0x3a,0x3a,0x4d,0x6f,0x76,0x65,0x43,0x6f,0x6d,0x6d,0x61,0x6e,0x64,0x07,0x3a,0x0a,0x40,0x63,0x6f,0x64,0x65,0x69,0x11,0x3a,0x10,0x40,0x70,0x61,0x72,0x61,0x6d,0x65,0x74,0x65,0x72,0x73,0x5b,0x00,0x6f,0x3b,0x0a,0x07,0x3b,0x0b,0x69,0x00,0x3b,0x0c,0x5b,0x00))
  250(bytes(0x04,0x08,0x6f,0x3a,0x0c,0x52,0x50,0x47,0x3a,0x3a,0x53,0x45,0x08,0x3a,0x0a,0x40,0x6e,0x61,0x6d,0x65,0x49,0x22,0x09,0x4d,0x6f,0x76,0x65,0x06,0x3a,0x06,0x45,0x54,0x3a,0x0b,0x40,0x70,0x69,0x74,0x63,0x68,0x69,0x69,0x3a,0x0c,0x40,0x76,0x6f,0x6c,0x75,0x6d,0x65,0x69,0x55))
  TeleportPlayer(0,28,82,18,0,0)
  0()



EVENT   65
 PAGE   1
  ShowMessageFace("",0,0,2,1)
  ShowMessage("The door is firmly shut.")
  0()



EVENT   66
 PAGE   1
  ShowMessageFace("",0,0,2,1)
  ShowMessage("The door is firmly shut.")
  0()



EVENT   67
 PAGE   1
  ShowMessageFace("",0,0,2,1)
  ShowMessage("The door is firmly shut.")
  0()



EVENT   68
 PAGE   1
  250(bytes(0x04,0x08,0x6f,0x3a,0x0c,0x52,0x50,0x47,0x3a,0x3a,0x53,0x45,0x08,0x3a,0x0a,0x40,0x6e,0x61,0x6d,0x65,0x49,0x22,0x09,0x4d,0x6f,0x76,0x65,0x06,0x3a,0x06,0x45,0x54,0x3a,0x0b,0x40,0x70,0x69,0x74,0x63,0x68,0x69,0x69,0x3a,0x0c,0x40,0x76,0x6f,0x6c,0x75,0x6d,0x65,0x69,0x55))
  TeleportPlayer(0,2,236,260,2,0)
  0()



EVENT   69
 PAGE   1
  250(bytes(0x04,0x08,0x6f,0x3a,0x0c,0x52,0x50,0x47,0x3a,0x3a,0x53,0x45,0x08,0x3a,0x0a,0x40,0x6e,0x61,0x6d,0x65,0x49,0x22,0x09,0x4d,0x6f,0x76,0x65,0x06,0x3a,0x06,0x45,0x54,0x3a,0x0b,0x40,0x70,0x69,0x74,0x63,0x68,0x69,0x69,0x3a,0x0c,0x40,0x76,0x6f,0x6c,0x75,0x6d,0x65,0x69,0x55))
  TeleportPlayer(0,2,236,260,2,0)
  0()



EVENT   70
 PAGE   1
  250(bytes(0x04,0x08,0x6f,0x3a,0x0c,0x52,0x50,0x47,0x3a,0x3a,0x53,0x45,0x08,0x3a,0x0a,0x40,0x6e,0x61,0x6d,0x65,0x49,0x22,0x09,0x4d,0x6f,0x76,0x65,0x06,0x3a,0x06,0x45,0x54,0x3a,0x0b,0x40,0x70,0x69,0x74,0x63,0x68,0x69,0x69,0x3a,0x0c,0x40,0x76,0x6f,0x6c,0x75,0x6d,0x65,0x69,0x55))
  TeleportPlayer(0,2,236,260,2,0)
  0()



EVENT   71
 PAGE   1
  250(bytes(0x04,0x08,0x6f,0x3a,0x0c,0x52,0x50,0x47,0x3a,0x3a,0x53,0x45,0x08,0x3a,0x0a,0x40,0x6e,0x61,0x6d,0x65,0x49,0x22,0x09,0x4d,0x6f,0x76,0x65,0x06,0x3a,0x06,0x45,0x54,0x3a,0x0b,0x40,0x70,0x69,0x74,0x63,0x68,0x69,0x69,0x3a,0x0c,0x40,0x76,0x6f,0x6c,0x75,0x6d,0x65,0x69,0x55))
  TeleportPlayer(0,2,236,260,2,0)
  0()



EVENT   72
 PAGE   1
  250(bytes(0x04,0x08,0x6f,0x3a,0x0c,0x52,0x50,0x47,0x3a,0x3a,0x53,0x45,0x08,0x3a,0x0a,0x40,0x6e,0x61,0x6d,0x65,0x49,0x22,0x09,0x4d,0x6f,0x76,0x65,0x06,0x3a,0x06,0x45,0x54,0x3a,0x0b,0x40,0x70,0x69,0x74,0x63,0x68,0x69,0x69,0x3a,0x0c,0x40,0x76,0x6f,0x6c,0x75,0x6d,0x65,0x69,0x55))
  TeleportPlayer(0,2,236,260,2,0)
  0()



EVENT   73
 PAGE   1
  250(bytes(0x04,0x08,0x6f,0x3a,0x0c,0x52,0x50,0x47,0x3a,0x3a,0x53,0x45,0x08,0x3a,0x0a,0x40,0x6e,0x61,0x6d,0x65,0x49,0x22,0x09,0x4d,0x6f,0x76,0x65,0x06,0x3a,0x06,0x45,0x54,0x3a,0x0b,0x40,0x70,0x69,0x74,0x63,0x68,0x69,0x69,0x3a,0x0c,0x40,0x76,0x6f,0x6c,0x75,0x6d,0x65,0x69,0x55))
  TeleportPlayer(0,2,236,260,2,0)
  0()



EVENT   74
 PAGE   1
  250(bytes(0x04,0x08,0x6f,0x3a,0x0c,0x52,0x50,0x47,0x3a,0x3a,0x53,0x45,0x08,0x3a,0x0a,0x40,0x6e,0x61,0x6d,0x65,0x49,0x22,0x09,0x4d,0x6f,0x76,0x65,0x06,0x3a,0x06,0x45,0x54,0x3a,0x0b,0x40,0x70,0x69,0x74,0x63,0x68,0x69,0x69,0x3a,0x0c,0x40,0x76,0x6f,0x6c,0x75,0x6d,0x65,0x69,0x55))
  TeleportPlayer(0,28,22,26,0,0)
  0()



EVENT   75
 PAGE   1
  250(bytes(0x04,0x08,0x6f,0x3a,0x0c,0x52,0x50,0x47,0x3a,0x3a,0x53,0x45,0x08,0x3a,0x0a,0x40,0x6e,0x61,0x6d,0x65,0x49,0x22,0x09,0x4d,0x6f,0x76,0x65,0x06,0x3a,0x06,0x45,0x54,0x3a,0x0b,0x40,0x70,0x69,0x74,0x63,0x68,0x69,0x69,0x3a,0x0c,0x40,0x76,0x6f,0x6c,0x75,0x6d,0x65,0x69,0x55))
  TeleportPlayer(0,2,236,260,2,0)
  0()



EVENT   76
 PAGE   1
  250(bytes(0x04,0x08,0x6f,0x3a,0x0c,0x52,0x50,0x47,0x3a,0x3a,0x53,0x45,0x08,0x3a,0x0a,0x40,0x6e,0x61,0x6d,0x65,0x49,0x22,0x09,0x4d,0x6f,0x76,0x65,0x06,0x3a,0x06,0x45,0x54,0x3a,0x0b,0x40,0x70,0x69,0x74,0x63,0x68,0x69,0x69,0x3a,0x0c,0x40,0x76,0x6f,0x6c,0x75,0x6d,0x65,0x69,0x55))
  TeleportPlayer(0,2,236,260,2,0)
  0()



EVENT   77
 PAGE   1
  250(bytes(0x04,0x08,0x6f,0x3a,0x0c,0x52,0x50,0x47,0x3a,0x3a,0x53,0x45,0x08,0x3a,0x0a,0x40,0x6e,0x61,0x6d,0x65,0x49,0x22,0x09,0x4d,0x6f,0x76,0x65,0x06,0x3a,0x06,0x45,0x54,0x3a,0x0b,0x40,0x70,0x69,0x74,0x63,0x68,0x69,0x69,0x3a,0x0c,0x40,0x76,0x6f,0x6c,0x75,0x6d,0x65,0x69,0x55))
  TeleportPlayer(0,2,236,260,2,0)
  0()



EVENT   78
 PAGE   1
  250(bytes(0x04,0x08,0x6f,0x3a,0x0c,0x52,0x50,0x47,0x3a,0x3a,0x53,0x45,0x08,0x3a,0x0a,0x40,0x6e,0x61,0x6d,0x65,0x49,0x22,0x09,0x4d,0x6f,0x76,0x65,0x06,0x3a,0x06,0x45,0x54,0x3a,0x0b,0x40,0x70,0x69,0x74,0x63,0x68,0x69,0x69,0x3a,0x0c,0x40,0x76,0x6f,0x6c,0x75,0x6d,0x65,0x69,0x55))
  TeleportPlayer(0,2,236,260,2,0)
  0()



EVENT   79
 PAGE   1
  250(bytes(0x04,0x08,0x6f,0x3a,0x0c,0x52,0x50,0x47,0x3a,0x3a,0x53,0x45,0x08,0x3a,0x0a,0x40,0x6e,0x61,0x6d,0x65,0x49,0x22,0x09,0x4d,0x6f,0x76,0x65,0x06,0x3a,0x06,0x45,0x54,0x3a,0x0b,0x40,0x70,0x69,0x74,0x63,0x68,0x69,0x69,0x3a,0x0c,0x40,0x76,0x6f,0x6c,0x75,0x6d,0x65,0x69,0x55))
  TeleportPlayer(0,2,236,260,2,0)
  0()



EVENT   80
 PAGE   1
  250(bytes(0x04,0x08,0x6f,0x3a,0x0c,0x52,0x50,0x47,0x3a,0x3a,0x53,0x45,0x08,0x3a,0x0a,0x40,0x6e,0x61,0x6d,0x65,0x49,0x22,0x09,0x4d,0x6f,0x76,0x65,0x06,0x3a,0x06,0x45,0x54,0x3a,0x0b,0x40,0x70,0x69,0x74,0x63,0x68,0x69,0x69,0x3a,0x0c,0x40,0x76,0x6f,0x6c,0x75,0x6d,0x65,0x69,0x55))
  TeleportPlayer(0,2,236,260,2,0)
  0()



EVENT   81
 PAGE   1
  250(bytes(0x04,0x08,0x6f,0x3a,0x0c,0x52,0x50,0x47,0x3a,0x3a,0x53,0x45,0x08,0x3a,0x0a,0x40,0x6e,0x61,0x6d,0x65,0x49,0x22,0x09,0x4d,0x6f,0x76,0x65,0x06,0x3a,0x06,0x45,0x54,0x3a,0x0b,0x40,0x70,0x69,0x74,0x63,0x68,0x69,0x69,0x3a,0x0c,0x40,0x76,0x6f,0x6c,0x75,0x6d,0x65,0x69,0x55))
  TeleportPlayer(0,2,236,260,2,0)
  0()



EVENT   82
 PAGE   1
  ShowMessageFace("",0,0,2,1)
  ShowMessage("\\n<Priest>Oh Goddess...")
  If(4,531,0)
   ShowMessageFace("saniria_fc2",0,0,2,2)
   ShowMessage("\\n<King of San Ilia>Your life is not in danger.\nSorry, but you'll have to wait for assistance.")
   ShowMessageFace("",0,0,2,3)
   ShowMessage("\\n<Priest>Okay, please... help the others...")
   0()
  EndIf()
  0()



EVENT   83
 PAGE   1
  0()



EVENT   84
 PAGE   1
  ChangeSelfSwitch("A",0)
  If(0,4,0)
   ShowMessageFace("alice_fc5",2,0,2,1)
   ShowMessage("\\n<Alice>San Ilia is under attack by an army of mermaids!\nDamn you Queen Mermaid! Why did you lower yourself to obey my mother!")
   0()
  EndIf()
  If(0,5,0)
   ShowMessageFace("iriasu_fc4",7,0,2,2)
   ShowMessage("\\n<Ilias>San Ilia is under attack by an army of mermaids.\nQueen Mermaid is apparently just a pawn of the Monster Lord!")
   0()
  EndIf()
  If(4,118,0)
   ShowMessageFace("meia_fc1",3,0,2,3)
   ShowMessage("\\n<Meia>Oh no, this is horrible...")
   0()
  EndIf()
  ShowMessageFace("ruka_fc1",0,0,2,4)
  ShowMessage("\\n<Luka>So we should seek out their leader, Queen Mermaid?")
  If(0,4,0)
   ShowMessageFace("alice_fc5",2,0,2,5)
   ShowMessage("\\n<Alice>The queen isn't necessarily commanding the army herself, but they definitely have a leader here somewhere.")
   ShowMessageFace("alice_fc5",2,0,2,6)
   ShowMessage("\\n<Alice>Let's find out who that leader is and take her down!")
   0()
  EndIf()
  If(0,5,0)
   ShowMessageFace("iriasu_fc4",7,0,2,7)
   ShowMessage("\\n<Ilias>The queen is not necessarily commanding the army herself, but they definitely have a leader here somewhere.")
   ShowMessageFace("iriasu_fc4",7,0,2,8)
   ShowMessage("\\n<Ilias>Let's find whomever it is and end her life!")
   0()
  EndIf()
  If(4,45,0)
   ShowMessageFace("alicetromeria_fc1",4,0,2,9)
   ShowMessage("\\n<Alicetroemeria>Why would fish leap out of the water in desire for land? They've just leapt onto the chopping board.")
   0()
  EndIf()
  ShowMessageFace("ruka_fc1",0,0,2,10)
  ShowMessage("\\n<Luka>All right, let's move!")
  0()
 PAGE   2
  // condition: self-switch A is ON
  0()



EVENT   85
 PAGE   1
  0()
 PAGE   2
  // condition: switch 2227 is ON
  ShowMessageFace("g_marmaid_fc1",2,0,2,1)
  ShowMessage("\\n<Mermaid General>Princess El!?")
  0()



EVENT   86
 PAGE   1
  0()
 PAGE   2
  // condition: switch 2227 is ON
  ShowMessageFace("g_marmaid_fc1",2,0,2,1)
  ShowMessage("\\n<Mermaid General>Tch, I better take command here...")
  0()



EVENT   87
 PAGE   1
  ShowMessageFace("",2,0,2,1)
  ShowMessage("\\n<Knight>I won't give you an inch!")
  ShowMessageFace("knight_mermaid_fc1",0,0,2,2)
  ShowMessage("\\n<Mermaid Knight>For the queen!")
  0()



EVENT   88
 PAGE   1
  ShowMessageFace("",2,0,2,1)
  ShowMessage("\\n<Knight>I won't give you an inch!")
  ShowMessageFace("knight_mermaid_fc1",0,0,2,2)
  ShowMessage("\\n<Mermaid Knight>For the queen!")
  0()



EVENT   90
 PAGE   1
  ShowMessageFace("k_mermaid_fc1",0,0,2,1)
  ShowMessage("\\n<Mermaid Pirate>.........")
  ShowMessageFace("",0,0,2,2)
  ShowMessage("\\n<Young Boy>Waaaa!")
  ShowMessageFace("",0,0,2,3)
  ShowMessage("\\n<Young Girl>Mommy!")
  ShowMessageFace("ruka_fc1",0,0,2,4)
  ShowMessage("\\n<Luka>Get away from them!")
  ShowMessageFace("k_mermaid_fc1",0,0,2,5)
  ShowMessage("\\n<Mermaid Pirate>Don't shout!\nAre you trying to scare these little kids even more?")
  ShowMessageFace("k_mermaid_fc1",0,0,2,6)
  ShowMessage("\\n<Mermaid Pirate>Aww don't cry. Where's your family?\nDon't worry, I'll take you to the nearest shelter.")
  ShowMessageFace("ruka_fc1",0,0,2,7)
  ShowMessage("\\n<Luka>.........")
  355("actor_label_jump")
  EndEventProcessing()
  DefineLabel("99")
  ShowMessageFace("namazu_fc1",0,0,2,8)
  ShowMessage("\\n<Gigi>I guess we aren't needed here...")
  EndEventProcessing()
  0()



EVENT   91
 PAGE   1
  ShowMessageFace("k_mermaid_fc1",0,0,2,1)
  ShowMessage("\\n<Mermaid Pirate>.........")
  ShowMessageFace("",0,0,2,2)
  ShowMessage("\\n<Young Boy>Waaaa!")
  ShowMessageFace("",0,0,2,3)
  ShowMessage("\\n<Young Girl>Mommy!")
  ShowMessageFace("ruka_fc1",0,0,2,4)
  ShowMessage("\\n<Luka>Get away from them!")
  ShowMessageFace("k_mermaid_fc1",0,0,2,5)
  ShowMessage("\\n<Mermaid Pirate>Don't shout!\nAre you trying to scare these little kids even more?")
  ShowMessageFace("k_mermaid_fc1",0,0,2,6)
  ShowMessage("\\n<Mermaid Pirate>Aww don't cry. Where's your family?\nDon't worry, I'll take you to the nearest shelter.")
  ShowMessageFace("ruka_fc1",0,0,2,7)
  ShowMessage("\\n<Luka>.........")
  355("actor_label_jump")
  EndEventProcessing()
  DefineLabel("99")
  ShowMessageFace("namazu_fc1",0,0,2,8)
  ShowMessage("\\n<Gigi>I guess we aren't needed here...")
  EndEventProcessing()
  0()



EVENT   92
 PAGE   1
  If(0,2222,1)
   ShowMessageFace("mermaid_fc1",3,0,2,1)
   ShowMessage("\\n<Mermaid>Let me teach you why monsters are good...")
   ShowMessageFace("",0,0,2,2)
   ShowMessage("\\n<Priest>Aaah! N-no thanks!!")
   0()
  EndIf()
  If(0,2222,0)
   ShowMessageFace("",0,0,2,3)
   ShowMessage("\\n<Priest>I was moments away from committing a sin...")
   0()
  EndIf()
  0()



EVENT   93
 PAGE   1
  ShowMessageFace("knight_mermaid_fc1",0,0,2,1)
  ShowMessage("\\n<Mermaid Knight>.........")
  0()



EVENT   94
 PAGE   1
  ShowMessageFace("",0,0,2,1)
  ShowMessage("\\n<Knight>You'll pass only over my dead body!")
  ShowMessageFace("knight_mermaid_fc1",0,0,2,2)
  ShowMessage("\\n<Mermaid Knight>Out of my way!")
  0()



EVENT   95
 PAGE   1
  ShowMessageFace("knight_mermaid_fc1",0,0,2,1)
  ShowMessage("\\n<Mermaid Knight>.........")
  0()



EVENT   96
 PAGE   1
  ShowMessageFace("",0,0,2,1)
  ShowMessage("\\n<Youth>Go seahorse girls!")
  0()



EVENT   97
 PAGE   1
  ShowMessageFace("knight_mermaid_fc1",0,0,2,1)
  ShowMessage("\\n<Mermaid Knight>You're pretty strong for a human, but that doesn't mean you can win against a mermaid knight!")
  ShowMessageFace("",0,0,2,2)
  ShowMessage("\\n<Knight>Tch, she's strong!\nI need reinforcements!")
  ShowMessageFace("ruka_fc1",0,0,2,3)
  ShowMessage("\\n<Luka>I'll take over!")
  Battle(0,795,false,false)
  ChangeSwitch(2225,2225,0)
  ShowMessageFace("",0,0,2,4)
  ShowMessage("\\n<Knight>Thank you for your assistance.\nHere, take this.")
  250(bytes(0x04,0x08,0x6f,0x3a,0x0c,0x52,0x50,0x47,0x3a,0x3a,0x53,0x45,0x08,0x3a,0x0a,0x40,0x6e,0x61,0x6d,0x65,0x49,0x22,0x0a,0x49,0x74,0x65,0x6d,0x31,0x06,0x3a,0x06,0x45,0x54,0x3a,0x0b,0x40,0x70,0x69,0x74,0x63,0x68,0x69,0x69,0x3a,0x0c,0x40,0x76,0x6f,0x6c,0x75,0x6d,0x65,0x69,0x55))
  ChangeInventory_Item(404,0,0,1)
  EndEventProcessing()
  0()
 PAGE   2
  // condition: switch 2225 is ON
  0()



EVENT   98
 PAGE   1
  0()



EVENT   99
 PAGE   1
  0()



EVENT   100
 PAGE   1
  ShowMessageFace("",0,0,2,1)
  ShowMessage("\\n<Delinquent Youth>I swear I'll live a good life from now on...")
  0()



EVENT   101
 PAGE   1
  0()



EVENT   102
 PAGE   1
  ShowMessageFace("",0,0,2,1)
  ShowMessage("\\n<Middle-aged Man>How could the holy city of San Ilia be overrun with monsters...")
  0()



EVENT   103
 PAGE   1
  If(0,2225,1)
   ShowMessageFace("knight_mermaid_fc1",0,0,2,1)
  ShowMessage("\\n<Mermaid Knight>You're pretty strong for a human, but that doesn't mean you can win against a mermaid knight!")
  ShowMessageFace("",0,0,2,2)
  ShowMessage("\\n<Knight>Tch, she's strong!\nI need reinforcements!")
   0()
  EndIf()
  If(0,2225,0)
   ShowMessageFace("",0,0,2,3)
   ShowMessage("\\n<Knight>I'm badly hurt. I'll need to rest here for a time.")
   0()
  EndIf()
  0()



EVENT   104
 PAGE   1
  ShowMessageFace("",0,0,2,1)
  ShowMessage("\\n<Soldier>Stand firm!")
  0()



EVENT   105
 PAGE   1
  0()
 PAGE   2
  // condition: switch 2227 is ON
  0()



EVENT   106
 PAGE   1
  0()



EVENT   107
 PAGE   1
  ShowMessageFace("k_mermaid_fc1",0,0,2,1)
  ShowMessage("\\n<Mermaid Pirate>.........")
  ShowMessageFace("",0,0,2,2)
  ShowMessage("\\n<Young Boy>Waaaa!")
  ShowMessageFace("",0,0,2,3)
  ShowMessage("\\n<Young Girl>Mommy!")
  ShowMessageFace("ruka_fc1",0,0,2,4)
  ShowMessage("\\n<Luka>Get away from them!")
  ShowMessageFace("k_mermaid_fc1",0,0,2,5)
  ShowMessage("\\n<Mermaid Pirate>Don't shout!\nAre you trying to scare these little kids even more?")
  ShowMessageFace("k_mermaid_fc1",0,0,2,6)
  ShowMessage("\\n<Mermaid Pirate>Aww don't cry. Where's your family?\nDon't worry, I'll take you to the nearest shelter.")
  ShowMessageFace("ruka_fc1",0,0,2,7)
  ShowMessage("\\n<Luka>.........")
  355("actor_label_jump")
  EndEventProcessing()
  DefineLabel("99")
  ShowMessageFace("namazu_fc1",0,0,2,8)
  ShowMessage("\\n<Gigi>I guess we aren't needed here...")
  EndEventProcessing()
  0()



EVENT   108
 PAGE   1
  ShowMessageFace("",0,0,2,1)
  ShowMessage("\\n<Old Man>My grandson in Port Natalia told me never to marry a mermaid, or you'll be dominated for the rest of your life.")
  If(4,118,0)
   ShowMessageFace("meia_fc1",3,0,2,2)
   ShowMessage("\\n<Meia>That's not true...")
   0()
  EndIf()
  0()



EVENT   109
 PAGE   1
  ShowMessageFace("",0,0,2,1)
  ShowMessage("\\n<Soldier>We can't hold off this many...")
  0()



EVENT   110
 PAGE   1
  ShowMessageFace("",0,0,2,1)
  ShowMessage("\\n<Old Lady>Please be safe...")
  0()



EVENT   111
 PAGE   1
  ShowMessageFace("",2,0,2,1)
  ShowMessage("\\n<Knight>Damn you monster!\nGet out of our holy city!")
  ShowMessageFace("mermaid_fc1",3,0,2,2)
  ShowMessage("\\n<Mermaid>Any city by the water is ours for the taking!")
  0()



EVENT   112
 PAGE   1
  ShowMessageFace("",0,0,2,1)
  ShowMessage("\\n<Priest>My holy aura shall repel you!")
  ShowMessageFace("mermaid_fc1",3,0,2,2)
  ShowMessage("\\n<Mermaid>Ugh, how annoying...")
  0()



EVENT   113
 PAGE   1
  ShowMessageFace("",0,0,2,1)
  ShowMessage("\\n<Soldier>You shall not pass!!")
  0()



EVENT   114
 PAGE   1
  ShowMessageFace("",2,0,2,1)
  ShowMessage("\\n<Knight>Damn you monster!\nGet out of our holy city!")
  ShowMessageFace("mermaid_fc1",3,0,2,2)
  ShowMessage("\\n<Mermaid>Any city by the water is ours for the taking!")
  0()



EVENT   115
 PAGE   1
  ShowMessageFace("",0,0,2,1)
  ShowMessage("\\n<Thug>How could I be done in by a mermaid...")
  0()



EVENT   116
 PAGE   1
  ShowMessageFace("",0,0,2,1)
  ShowMessage("\\n<Knight>Ilias, grant me your blessing...")
  355("actor_label_jump")
  EndEventProcessing()
  DefineLabel("26")
  ShowMessageFace("iriasu_fc4",2,0,2,2)
  ShowMessage("\\n<Ilias>You just came a few times. You'll live.\nSheesh, talk about worthless...")
  EndEventProcessing()
  0()



EVENT   117
 PAGE   1
  ShowMessageFace("",0,0,2,1)
  ShowMessage("\\n<Soldier>I couldn't land a single blow...")
  0()



EVENT   118
 PAGE   1
  ShowMessageFace("mermaid_fc1",3,0,2,1)
  ShowMessage("\\n<Mermaid>...")
  0()



EVENT   119
 PAGE   1
  ShowMessageFace("",0,0,2,1)
  ShowMessage("\\n<Middle-aged Man>Even pirates are invading us now?\nAaah... It's all over...")
  0()



EVENT   120
 PAGE   1
  ShowMessageFace("",0,0,2,1)
  ShowMessage("\\n<White Mage>I kinda feel bad for the pirates...")
  0()



EVENT   121
 PAGE   1
  ShowMessageFace("",0,0,2,1)
  ShowMessage("\\n<Youth>Hauuu...")
  0()



EVENT   122
 PAGE   1
  ShowMessageFace("",0,0,2,1)
  ShowMessage("\\n<Knight>No... energy... left...")
  0()



EVENT   123
 PAGE   1
  0()



EVENT   124
 PAGE   1
  250(bytes(0x04,0x08,0x6f,0x3a,0x0c,0x52,0x50,0x47,0x3a,0x3a,0x53,0x45,0x08,0x3a,0x0a,0x40,0x6e,0x61,0x6d,0x65,0x49,0x22,0x0a,0x49,0x74,0x65,0x6d,0x31,0x06,0x3a,0x06,0x45,0x54,0x3a,0x0b,0x40,0x70,0x69,0x74,0x63,0x68,0x69,0x69,0x3a,0x0c,0x40,0x76,0x6f,0x6c,0x75,0x6d,0x65,0x69,0x55))
  ChangeSelfSwitch("A",0)
  ChangeInventory_Item(101,0,0,1)
  0()
 PAGE   2
  // condition: self-switch A is ON
  0()



EVENT   125
 PAGE   1
  250(bytes(0x04,0x08,0x6f,0x3a,0x0c,0x52,0x50,0x47,0x3a,0x3a,0x53,0x45,0x08,0x3a,0x0a,0x40,0x6e,0x61,0x6d,0x65,0x49,0x22,0x0a,0x49,0x74,0x65,0x6d,0x31,0x06,0x3a,0x06,0x45,0x54,0x3a,0x0b,0x40,0x70,0x69,0x74,0x63,0x68,0x69,0x69,0x3a,0x0c,0x40,0x76,0x6f,0x6c,0x75,0x6d,0x65,0x69,0x55))
  ChangeSelfSwitch("A",0)
  ChangeInventory_Item(109,0,0,1)
  0()
 PAGE   2
  // condition: self-switch A is ON
  0()



EVENT   126
 PAGE   1
  ShowMessageFace("mermaid_fc1",3,0,2,1)
  ShowMessage("\\n<Mermaid>We're both women... Is that okay with you?")
  ShowMessageFace("",0,0,2,2)
  ShowMessage("\\n<Bunny>Well... I don't...")
  ShowMessageFace("ruka_fc1",0,0,2,3)
  ShowMessage("\\n<Luka>Get away from her!")
  ShowMessageFace("",0,0,2,4)
  ShowMessage("\\n<Bunny>Hey, get lost, asshole!\nWe were just getting to the good part...")
  ShowMessageFace("ruka_fc1",0,0,2,5)
  ShowMessage("\\n<Luka>Oh, so you want to then...")
  If(4,529,0)
   ShowMessageFace("sara_fc1",4,0,2,6)
   ShowMessage("\\n<Sara>I'm kind of jealous.")
   0()
  EndIf()
  0()



EVENT   127
 PAGE   1
  ShowMessageFace("",0,0,2,1)
  ShowMessage("\\n<Old Man>Is this punishment for our waning faith in Ilias?")
  0()



EVENT   128
 PAGE   1
  ShowMessageFace("knight_mermaid_fc1",0,0,2,1)
  ShowMessage("\\n<Mermaid Knight>.........")
  0()



EVENT   129
 PAGE   1
  ShowMessageFace("",0,0,2,1)
  ShowMessage("\\n<Swordsman>Leave this one to me!")
  ShowMessageFace("knight_mermaid_fc1",0,0,2,2)
  ShowMessage("\\n<Mermaid Knight>The holy city is full of strong men, just as I expected!")
  0()



EVENT   130
 PAGE   1
  ShowMessageFace("tatunoko_k_fc1",1,0,2,1)
  ShowMessage("\\n<Sea Horse Marine>Marine secret strategy: strength in numbers!")
  ShowMessageFace("k_mermaid_fc1",0,0,2,2)
  ShowMessage("\\n<Mermaid Pirate>You cowards!")
  0()

EVENT   132
 PAGE   1
  ShowMessageFace("dog_fc1",0,0,2,1)
  ShowMessage("\\n<Dog Girl>Woof, woof!")
  ShowMessageFace("mermaid_fc1",3,0,2,2)
  ShowMessage("\\n<Mermaid>Oh, you're adorable...\nCan you shake hands?")
  ShowMessageFace("dog_fc1",4,0,2,3)
  ShowMessage("\\n<Dog Girl>Woof!")
  ShowMessageFace("mermaid_fc1",3,0,2,4)
  ShowMessage("\\n<Mermaid>Ufufu, good girl...\nHere, have a treat.")
  ShowMessageFace("dog_fc1",4,0,2,5)
  ShowMessage("\\n<Dog Girl>Woof! ♪")
  355("actor_label_jump")
  EndEventProcessing()
  DefineLabel("60")
  ShowMessageFace("dog_fc1",0,0,2,6)
  ShowMessage("\\n<Pochi>Can I have one too?")
  ShowMessageFace("mermaid_fc1",3,0,2,7)
  ShowMessage("\\n<Mermaid>Here you go.")
  ShowMessageFace("dog_fc1",4,0,2,8)
  ShowMessage("\\n<Pochi>Woof. ♪")
  EndEventProcessing()
  DefineLabel("222")
  ShowMessageFace("nekomata_fc1",2,0,2,9)
  ShowMessage("\\n<Tama>Nyaaaaan...")
  ShowMessageFace("mermaid_fc1",3,0,2,10)
  ShowMessage("\\n<Mermaid>Oh, do you want a treat too?\nHere you go.")
  ShowMessageFace("nekomata_fc1",2,0,2,11)
  ShowMessage("\\n<Tama>Nyaa. ♪")
  EndEventProcessing()
  0()



EVENT   134
 PAGE   1
  0()



EVENT   135
 PAGE   1
  0()



EVENT   136
 PAGE   1
  0()



EVENT   141
 PAGE   1
  0()



EVENT   142
 PAGE   1
  0()



EVENT   143
 PAGE   1
  ShowMessageFace("mermaid_fc1",3,0,2,1)
  ShowMessage("\\n<Mermaid>Let me teach you why monsters are good...")
  ShowMessageFace("",0,0,2,2)
  ShowMessage("\\n<Priest>Aaah! N-no thanks!!")
  ShowMessageFace("ruka_fc1",0,0,2,3)
  ShowMessage("\\n<Luka>Get away from him!")
  If(4,224,0)
   ShowMessageFace("kappa_fc1",0,0,2,4)
   ShowMessage("\\n<Kawako>Kappapa!\nI'll wrestle this mermaid!")
   0()
  EndIf()
  Battle(0,579,false,false)
  ChangeSwitch(2222,2222,0)
  ShowMessageFace("",0,0,2,5)
  ShowMessage("\\n<Priest>Thanks for s-saving me...\nHere, take this!")
  250(bytes(0x04,0x08,0x6f,0x3a,0x0c,0x52,0x50,0x47,0x3a,0x3a,0x53,0x45,0x08,0x3a,0x0a,0x40,0x6e,0x61,0x6d,0x65,0x49,0x22,0x0a,0x49,0x74,0x65,0x6d,0x31,0x06,0x3a,0x06,0x45,0x54,0x3a,0x0b,0x40,0x70,0x69,0x74,0x63,0x68,0x69,0x69,0x3a,0x0c,0x40,0x76,0x6f,0x6c,0x75,0x6d,0x65,0x69,0x55))
  ChangeInventory_Item(28,0,0,1)
  EndEventProcessing()
  0()
 PAGE   2
  // condition: switch 2222 is ON
  0()



EVENT   144
 PAGE   1
  0()



EVENT   145
 PAGE   1
  0()



EVENT   146
 PAGE   1
  0()



EVENT   147
 PAGE   1
  0()



EVENT   148
 PAGE   1
  0()



EVENT   149
 PAGE   1
  0()



EVENT   150
 PAGE   1
  0()



EVENT   151
 PAGE   1
  0()



EVENT   152
 PAGE   1
  0()



EVENT   153
 PAGE   1
  ShowMessageFace("",0,0,2,1)
  ShowMessage("\\n<Officer>I won't let you penetrate any deeper!")
  0()



EVENT   154
 PAGE   1
  ShowMessageFace("g_marmaid_fc1",0,0,2,1)
  ShowMessage("\\n<Mermaid General>.........")
  0()



EVENT   155
 PAGE   1
  ShowMessageFace("mermaid_fc1",3,0,2,1)
  ShowMessage("\\n<Mermaid>...")
  0()



EVENT   156
 PAGE   1
  ShowMessageFace("mermaid_fc1",3,0,2,1)
  ShowMessage("\\n<Mermaid>...")
  0()



EVENT   157
 PAGE   1
  ShowMessageFace("",3,0,2,1)
  ShowMessage("\\n<Mermaid>...")
  0()



EVENT   158
 PAGE   1
  ShowMessageFace("mermaid_fc1",3,0,2,1)
  ShowMessage("\\n<Mermaid>...")
  0()



EVENT   159
 PAGE   1
  ShowMessageFace("mermaid_fc1",3,0,2,1)
  ShowMessage("\\n<Mermaid>...")
  0()



EVENT   160
 PAGE   1
  ShowMessageFace("knight_mermaid_fc1",0,0,2,1)
  ShowMessage("\\n<Mermaid Knight>.........")
  0()



EVENT   161
 PAGE   1
  ShowMessageFace("knight_mermaid_fc1",0,0,2,1)
  ShowMessage("\\n<Mermaid Knight>.........")
  0()



EVENT   162
 PAGE   1
  ShowMessageFace("knight_mermaid_fc1",0,0,2,1)
  ShowMessage("\\n<Mermaid Knight>.........")
  0()



EVENT   163
 PAGE   1
  0()



EVENT   164
 PAGE   1
  0()



EVENT   165
 PAGE   1
  0()



EVENT   166
 PAGE   1
  ShowMessageFace("",0,0,2,1)
  ShowMessage("\\n<Knight>You'll pass only over my dead body!")
  ShowMessageFace("knight_mermaid_fc1",0,0,2,2)
  ShowMessage("\\n<Mermaid Knight>Out of my way!")
  0()



EVENT   167
 PAGE   1
  0()



EVENT   168
 PAGE   1
  ShowMessageFace("",0,0,2,1)
  ShowMessage("\\n<Knight>My body won't move after all that...")
  0()



EVENT   169
 PAGE   1
  If(0,2223,1)
   ShowMessageFace("knight_mermaid_fc1",0,0,2,1)
   ShowMessage("\\n<Mermaid Knight>Let me replenish my energy...")
   ShowMessageFace("",0,0,2,2)
   ShowMessage("\\n<Youth>Ah... Ah, aaaaah!!")
   0()
  EndIf()
  If(0,2223,0)
   ShowMessageFace("",0,0,2,3)
   ShowMessage("\\n<Youth>I'll never be able to forget that...")
   0()
  EndIf()
  0()



EVENT   170
 PAGE   1
  ShowMessageFace("knight_mermaid_fc1",0,0,2,1)
  ShowMessage("\\n<Mermaid Knight>Let me replenish my energy...")
  ShowMessageFace("",0,0,2,2)
  ShowMessage("\\n<Youth>Ah... Ah, aaaaah!!")
  ShowMessageFace("ruka_fc1",0,0,2,3)
  ShowMessage("\\n<Luka>Stop right there!")
  If(4,203,0)
   ShowMessageFace("tatunoko_k_fc1",0,0,2,4)
   ShowMessage("\\n<Tatsuko>Caught you red-handed raping that boy!")
   0()
  EndIf()
  Battle(0,795,false,false)
  ChangeSwitch(2223,2223,0)
  ShowMessageFace("",0,0,2,5)
  ShowMessage("\\n<Youth>Ugh...\nHere, take this...")
  250(bytes(0x04,0x08,0x6f,0x3a,0x0c,0x52,0x50,0x47,0x3a,0x3a,0x53,0x45,0x08,0x3a,0x0a,0x40,0x6e,0x61,0x6d,0x65,0x49,0x22,0x0a,0x49,0x74,0x65,0x6d,0x31,0x06,0x3a,0x06,0x45,0x54,0x3a,0x0b,0x40,0x70,0x69,0x74,0x63,0x68,0x69,0x69,0x3a,0x0c,0x40,0x76,0x6f,0x6c,0x75,0x6d,0x65,0x69,0x55))
  ChangeInventory_Item(342,0,0,1)
  EndEventProcessing()
  0()
 PAGE   2
  // condition: switch 2223 is ON
  0()



EVENT   171
 PAGE   1
  ShowMessageFace("s_mermaid_fc1",1,0,2,1)
  ShowMessage("\\n<Mermaid Merchant>Do you want to rent my breasts?\n1500G for as long as you'd like!")
  ShowMessageFace("",0,0,2,2)
  ShowMessage("\\n<Delinquent Youth>Whoa, you're one pushy saleswoman!")
  ShowMessageFace("ruka_fc1",0,0,2,3)
  ShowMessage("\\n<Luka>Back off!")
  If(4,300,0)
   ShowMessageFace("youki_fc1",0,0,2,4)
   ShowMessage("\\n<Kureha>I'll pay as much as you want for a fight!")
   0()
  EndIf()
  Battle(0,580,false,false)
  ChangeSwitch(2224,2224,0)
  ShowMessageFace("",0,0,2,5)
  ShowMessage("\\n<Delinquent Youth>Merchants can be super scary...\nHere, take this with you.")
  250(bytes(0x04,0x08,0x6f,0x3a,0x0c,0x52,0x50,0x47,0x3a,0x3a,0x53,0x45,0x08,0x3a,0x0a,0x40,0x6e,0x61,0x6d,0x65,0x49,0x22,0x0a,0x49,0x74,0x65,0x6d,0x31,0x06,0x3a,0x06,0x45,0x54,0x3a,0x0b,0x40,0x70,0x69,0x74,0x63,0x68,0x69,0x69,0x3a,0x0c,0x40,0x76,0x6f,0x6c,0x75,0x6d,0x65,0x69,0x55))
  ChangeInventory_Item(32,0,0,1)
  EndEventProcessing()
  0()
 PAGE   2
  // condition: switch 2224 is ON
  0()



EVENT   173
 PAGE   1
  ShowMessageFace("k_mermaid_fc1",0,0,2,1)
  ShowMessage("\\n<Mermaid Pirate>...")
  0()



EVENT   174
 PAGE   1
  ShowMessageFace("tatunoko_k_fc1",1,0,2,1)
  ShowMessage("\\n<Sea Horse Marine>The navy is here to offer aid!\nStopping pirates is our job!")
  ShowMessageFace("k_mermaid_fc1",0,0,2,2)
  ShowMessage("\\n<Mermaid Pirate>You marines are always getting in our way!\nWe'll put an end to that now!")
  0()



EVENT   175
 PAGE   1
  ShowMessageFace("k_mermaid_fc1",0,0,2,1)
  ShowMessage("\\n<Mermaid Pirate>...")
  0()



EVENT   176
 PAGE   1
  ShowMessageFace("tatunoko_k_fc1",1,0,2,1)
  ShowMessage("\\n<Sea Horse Marine>The navy is here to offer aid!\nStopping pirates is our job!")
  ShowMessageFace("k_mermaid_fc1",0,0,2,2)
  ShowMessage("\\n<Mermaid Pirate>You marines are always getting in our way!\nWe'll put an end to that now!")
  0()



EVENT   177
 PAGE   1
  ShowMessageFace("tatunoko_k_fc1",1,0,2,1)
  ShowMessage("\\n<Sea Horse Marine>The navy is here to offer aid!\nStopping pirates is our job!")
  ShowMessageFace("k_mermaid_fc1",0,0,2,2)
  ShowMessage("\\n<Mermaid Pirate>You marines are always getting in our way!\nWe'll put an end to that now!")
  0()



EVENT   178
 PAGE   1
  0()



EVENT   179
 PAGE   1
  ShowMessageFace("tatunoko_k_fc1",1,0,2,1)
  ShowMessage("\\n<Sea Horse Marine>The navy is here to offer aid!\nStopping pirates is our job!")
  ShowMessageFace("k_mermaid_fc1",0,0,2,2)
  ShowMessage("\\n<Mermaid Pirate>You marines are always getting in our way!\nWe'll put an end to that now!")
  0()



EVENT   180
 PAGE   1
  ShowMessageFace("tatunoko_k_fc1",1,0,2,1)
  ShowMessage("\\n<Sea Horse Marine>The navy is here to offer aid!\nStopping pirates is our job!")
  ShowMessageFace("k_mermaid_fc1",0,0,2,2)
  ShowMessage("\\n<Mermaid Pirate>You marines are always getting in our way!\nWe'll put an end to that now!")
  0()



EVENT   181
 PAGE   1
  ShowMessageFace("tatunoko_k_fc1",1,0,2,1)
  ShowMessage("\\n<Sea Horse Marine>The navy is here to offer aid!\nStopping pirates is our job!")
  ShowMessageFace("k_mermaid_fc1",0,0,2,2)
  ShowMessage("\\n<Mermaid Pirate>You marines are always getting in our way!\nWe'll put an end to that now!")
  0()



EVENT   182
 PAGE   1
  ShowMessageFace("tatunoko_k_fc1",1,0,2,1)
  ShowMessage("\\n<Sea Horse Marine>The navy is here to offer aid!\nStopping pirates is our job!")
  ShowMessageFace("k_mermaid_fc1",0,0,2,2)
  ShowMessage("\\n<Mermaid Pirate>You marines are always getting in our way!\nWe'll put an end to that now!")
  0()



EVENT   183
 PAGE   1
  ShowMessageFace("k_mermaid_fc1",0,0,2,1)
  ShowMessage("\\n<Mermaid Pirate>...")
  0()



EVENT   184
 PAGE   1
  ShowMessageFace("tatunoko_k_fc1",1,0,2,1)
  ShowMessage("\\n<Sea Horse Marine>The navy is here to offer aid!\nStopping pirates is our job!")
  ShowMessageFace("k_mermaid_fc1",0,0,2,2)
  ShowMessage("\\n<Mermaid Pirate>You marines are always getting in our way!\nWe'll put an end to that now!")
  0()



EVENT   185
 PAGE   1
  ShowMessageFace("tatunoko_k_fc1",1,0,2,1)
  ShowMessage("\\n<Sea Horse Marine>Marine secret strategy: strength in numbers!")
  ShowMessageFace("k_mermaid_fc1",0,0,2,2)
  ShowMessage("\\n<Mermaid Pirate>You cowards!")
  0()



EVENT   186
 PAGE   1
  ShowMessageFace("tatunoko_k_fc1",1,0,2,1)
  ShowMessage("\\n<Sea Horse Marine>Marine secret strategy: strength in numbers!")
  ShowMessageFace("k_mermaid_fc1",0,0,2,2)
  ShowMessage("\\n<Mermaid Pirate>You cowards!")
  0()



EVENT   187
 PAGE   1
  ShowMessageFace("tatunoko_k_fc1",1,0,2,1)
  ShowMessage("\\n<Sea Horse Marine>The navy is here to offer aid!\nStopping pirates is our job!")
  ShowMessageFace("k_mermaid_fc1",0,0,2,2)
  ShowMessage("\\n<Mermaid Pirate>You marines are always getting in our way!\nWe'll put an end to that now!")
  0()



EVENT   188
 PAGE   1
  ShowMessageFace("tatunoko_k_fc1",1,0,2,1)
  ShowMessage("\\n<Sea Horse Marine>Marine secret strategy: strength in numbers!")
  ShowMessageFace("k_mermaid_fc1",0,0,2,2)
  ShowMessage("\\n<Mermaid Pirate>You cowards!")
  0()



EVENT   189
 PAGE   1
  ShowMessageFace("tatunoko_k_fc1",1,0,2,1)
  ShowMessage("\\n<Sea Horse Marine>The navy is here to offer aid!\nStopping pirates is our job!")
  ShowMessageFace("k_mermaid_fc1",0,0,2,2)
  ShowMessage("\\n<Mermaid Pirate>You marines are always getting in our way!\nWe'll put an end to that now!")
  0()



EVENT   190
 PAGE   1
  ShowMessageFace("tatunoko_k_fc1",1,0,2,1)
  ShowMessage("\\n<Sea Horse Marine>The navy is here to offer aid!\nStopping pirates is our job!")
  ShowMessageFace("k_mermaid_fc1",0,0,2,2)
  ShowMessage("\\n<Mermaid Pirate>You marines are always getting in our way!\nWe'll put an end to that now!")
  0()



EVENT   191
 PAGE   1
  ShowMessageFace("tatunoko_k_fc1",1,0,2,1)
  ShowMessage("\\n<Sea Horse Marine>The navy is here to offer aid!\nStopping pirates is our job!")
  ShowMessageFace("k_mermaid_fc1",0,0,2,2)
  ShowMessage("\\n<Mermaid Pirate>You marines are always getting in our way!\nWe'll put an end to that now!")
  0()



EVENT   192
 PAGE   1
  ShowMessageFace("tatunoko_k_fc1",1,0,2,1)
  ShowMessage("\\n<Sea Horse Marine>The navy is here to offer aid!\nStopping pirates is our job!")
  ShowMessageFace("k_mermaid_fc1",0,0,2,2)
  ShowMessage("\\n<Mermaid Pirate>You marines are always getting in our way!\nWe'll put an end to that now!")
  0()



EVENT   193
 PAGE   1
  ShowMessageFace("tatunoko_k_fc1",1,0,2,1)
  ShowMessage("\\n<Sea Horse Marine>Marine secret strategy: strength in numbers!")
  ShowMessageFace("k_mermaid_fc1",0,0,2,2)
  ShowMessage("\\n<Mermaid Pirate>You cowards!")
  0()



EVENT   194
 PAGE   1
  ShowMessageFace("tatunoko_k_fc1",1,0,2,1)
  ShowMessage("\\n<Sea Horse Marine>Marine secret strategy: strength in numbers!")
  ShowMessageFace("k_mermaid_fc1",0,0,2,2)
  ShowMessage("\\n<Mermaid Pirate>You cowards!")
  0()



EVENT   195
 PAGE   1
  ShowMessageFace("tatunoko_k_fc1",1,0,2,1)
  ShowMessage("\\n<Sea Horse Marine>Marine secret strategy: strength in numbers!")
  ShowMessageFace("k_mermaid_fc1",0,0,2,2)
  ShowMessage("\\n<Mermaid Pirate>You cowards!")
  0()



EVENT   196
 PAGE   1
  ShowMessageFace("knight_mermaid_fc1",0,0,2,1)
  ShowMessage("\\n<Mermaid Knight>.........")
  0()



EVENT   197
 PAGE   1
  ShowMessageFace("dog_fc1",0,0,2,1)
  ShowMessage("\\n<Dog Girl>Woof, woof!")
  ShowMessageFace("mermaid_fc1",3,0,2,2)
  ShowMessage("\\n<Mermaid>Oh, you're adorable...\nCan you shake hands?")
  ShowMessageFace("dog_fc1",4,0,2,3)
  ShowMessage("\\n<Dog Girl>Woof!")
  ShowMessageFace("mermaid_fc1",3,0,2,4)
  ShowMessage("\\n<Mermaid>Ufufu, good girl...\nHere, have a treat.")
  ShowMessageFace("dog_fc1",4,0,2,5)
  ShowMessage("\\n<Dog Girl>Woof! ♪")
  355("actor_label_jump")
  EndEventProcessing()
  DefineLabel("60")
  ShowMessageFace("dog_fc1",0,0,2,6)
  ShowMessage("\\n<Pochi>Can I have one too?")
  ShowMessageFace("mermaid_fc1",3,0,2,7)
  ShowMessage("\\n<Mermaid>Here you go.")
  ShowMessageFace("dog_fc1",4,0,2,8)
  ShowMessage("\\n<Pochi>Woof. ♪")
  EndEventProcessing()
  DefineLabel("222")
  ShowMessageFace("nekomata_fc1",2,0,2,9)
  ShowMessage("\\n<Tama>Meeeeoooow...")
  ShowMessageFace("mermaid_fc1",3,0,2,10)
  ShowMessage("\\n<Mermaid>Oh, do you want a treat too?\nHere you go.")
  ShowMessageFace("nekomata_fc1",2,0,2,11)
  ShowMessage("\\n<Tama>Purrrr... ♪")
  EndEventProcessing()
  0()



EVENT   198
 PAGE   1
  ShowMessageFace("knight_mermaid_fc1",0,0,2,1)
  ShowMessage("\\n<Mermaid Knight>Stay out of my way! I'm coming through!")
  If(4,220,0)
   ShowMessageFace("samuraielf_fc1",0,0,2,2)
   ShowMessage("\\n<Gekka>Come then!")
   0()
  EndIf()
  Battle(0,795,false,false)
  TemporaryRemoveEvent()
  0()



EVENT   199
 PAGE   1
  ShowMessageFace("mermaid_fc1",3,0,2,1)
  ShowMessage("\\n<Mermaid>I bet your semen is delicious...\nLet's do something fun together. ♪")
  If(4,215,0)
   ShowMessageFace("h_mino_fc1",0,0,2,2)
   ShowMessage("\\n<Carol>It's your lucky day!\nI'm going to do something even more fun to you!")
   0()
  EndIf()
  Battle(0,594,false,false)
  TemporaryRemoveEvent()
  0()



EVENT   200
 PAGE   1
  ShowMessageFace("",0,0,2,1)
  ShowMessage("\\n<Swordsman>Leave this one to me!")
  ShowMessageFace("knight_mermaid_fc1",0,0,2,2)
  ShowMessage("\\n<Mermaid Knight>The holy city is full of strong men, just as I expected!")
  0()



EVENT   201
 PAGE   1
  ShowMessageFace("g_marmaid_fc1",0,0,2,1)
  ShowMessage("\\n<Mermaid General>The men here are no challenge.\nDo you think you can fare better?")
  If(4,212,0)
   ShowMessageFace("durahan_fc1",0,0,2,2)
   ShowMessage("\\n<Arthur>You're one of the queen's elites?\nA worthy foe!")
   0()
  EndIf()
  Battle(0,796,false,false)
  TemporaryRemoveEvent()
  0()



EVENT   202
 PAGE   1
  ShowMessageFace("",0,0,2,1)
  ShowMessage("\\n<Knight>The queen's elites are so strong...")
  0()



EVENT   203
 PAGE   1
  ShowMessageFace("",0,0,2,1)
  ShowMessage("\\n<Soldier>S-so strong...")
  0()



EVENT   204
 PAGE   1
  ShowMessageFace("g_marmaid_fc1",0,0,2,1)
  ShowMessage("\\n<Mermaid General>Is this all you've got, humans?")
  ShowMessageFace("",0,0,2,2)
  ShowMessage("\\n<Knight A>I can't believe she's holding back all three of us!")
  ShowMessageFace("",0,0,2,3)
  ShowMessage("\\n<Knight B>For the honor of the knighthood, we must prevail!")
  0()



EVENT   205
 PAGE   1
  ShowMessageFace("g_marmaid_fc1",0,0,2,1)
  ShowMessage("\\n<Mermaid General>Is this all you've got, humans?")
  ShowMessageFace("",0,0,2,2)
  ShowMessage("\\n<Knight A>I can't believe she's holding back all three of us!")
  ShowMessageFace("",0,0,2,3)
  ShowMessage("\\n<Knight B>For the honor of the knighthood, we must prevail!")
  0()



EVENT   206
 PAGE   1
  ShowMessageFace("g_marmaid_fc1",0,0,2,1)
  ShowMessage("\\n<Mermaid General>Is this all you've got, humans?")
  ShowMessageFace("",0,0,2,2)
  ShowMessage("\\n<Knight A>I can't believe she's holding back all three of us!")
  ShowMessageFace("",0,0,2,3)
  ShowMessage("\\n<Knight B>For the honor of the knighthood, we must prevail!")
  0()



EVENT   207
 PAGE   1
  ShowMessageFace("g_marmaid_fc1",0,0,2,1)
  ShowMessage("\\n<Mermaid General>Is this all you've got, humans?")
  ShowMessageFace("",0,0,2,2)
  ShowMessage("\\n<Knight A>I can't believe she's holding back all three of us!")
  ShowMessageFace("",0,0,2,3)
  ShowMessage("\\n<Knight B>For the honor of the knighthood, we must prevail!")
  0()



EVENT   208
 PAGE   1
  ShowMessageFace("",0,0,2,1)
  ShowMessage("\\n<Soldier>Ugh... Gah...")
  0()



EVENT   209
 PAGE   1
  0()



EVENT   210
 PAGE   1
  ShowMessageFace("",0,0,2,1)
  ShowMessage("\\n<Soldier>Ugh... Gah...")
  0()



EVENT   211
 PAGE   1
  ShowMessageFace("",0,0,2,1)
  ShowMessage("\\n<Priest>Please save us...")
  0()



EVENT   212
 PAGE   1
  ShowMessageFace("",2,0,2,1)
  ShowMessage("\\n<Knight>I will not allow any more violence!")
  ShowMessageFace("mermaid_fc1",3,0,2,2)
  ShowMessage("\\n<Mermaid>You're a lively human... I'll be sure to violate you plenty afterwards.")
  0()



EVENT   213
 PAGE   1
  ShowMessageFace("",2,0,2,1)
  ShowMessage("\\n<Knight>I will not allow any more violence!")
  ShowMessageFace("mermaid_fc1",3,0,2,2)
  ShowMessage("\\n<Mermaid>You're a lively human... I'll be sure to violate you plenty afterwards.")
  0()



EVENT   214
 PAGE   1
  ShowMessageFace("",0,0,2,1)
  ShowMessage("\\n<Priest>Oh, Goddess...")
  0()



EVENT   215
 PAGE   1
  ShowMessageFace("",0,0,2,1)
  ShowMessage("\\n<Priest>My holy aura shall repel you!")
  ShowMessageFace("mermaid_fc1",3,0,2,2)
  ShowMessage("\\n<Mermaid>Ugh, how annoying...")
  0()



EVENT   216
 PAGE   1
  ShowMessageFace("",0,0,2,1)
  ShowMessage("\\n<Priest>My holy aura shall repel you!")
  ShowMessageFace("mermaid_fc1",3,0,2,2)
  ShowMessage("\\n<Mermaid>Ugh, how annoying...")
  0()



EVENT   217
 PAGE   1
  ShowMessageFace("",0,0,2,1)
  ShowMessage("\\n<Priest>My holy aura shall repel you!")
  ShowMessageFace("mermaid_fc1",3,0,2,2)
  ShowMessage("\\n<Mermaid>Ugh, how annoying...")
  0()



EVENT   218
 PAGE   1
  ShowMessageFace("",0,0,2,1)
  ShowMessage("\\n<Priest>My faith was not sufficient...")
  0()



EVENT   219
 PAGE   1
  ShowMessageFace("",0,0,2,1)
  ShowMessage("\\n<Priest>Goddess...")
  0()



EVENT   220
 PAGE   1
  ShowMessageFace("knight_mermaid_fc1",0,0,2,1)
  ShowMessage("\\n<Mermaid Knight>You look rather capable...\nLet's fight fair and square!")
  If(4,267,0)
   ShowMessageFace("mononohuyonbi_fc1",0,0,2,2)
   ShowMessage("\\n<Izuna>Then let us battle!")
   0()
  EndIf()
  Battle(0,795,false,false)
  TemporaryRemoveEvent()
  0()



EVENT   221
 PAGE   1
  0()



EVENT   222
 PAGE   1
  0()



EVENT   223
 PAGE   1
  0()



EVENT   224
 PAGE   1
  0()



EVENT   225
 PAGE   1
  0()



EVENT   226
 PAGE   1
  0()



EVENT   227
 PAGE   1
  0()



EVENT   228
 PAGE   1
  0()



EVENT   229
 PAGE   1
  0()



EVENT   230
 PAGE   1
  0()



EVENT   231
 PAGE   1
  0()



EVENT   232
 PAGE   1
  0()



EVENT   233
 PAGE   1
  0()



EVENT   234
 PAGE   1
  0()



EVENT   235
 PAGE   1
  0()



EVENT   236
 PAGE   1
  ShowMessageFace("knight_mermaid_fc1",0,0,2,1)
  ShowMessage("\\n<Mermaid Knight>.........")
  0()



EVENT   237
 PAGE   1
  ShowMessageFace("",0,0,2,1)
  ShowMessage("There's a fierce battle being waged in front of the castle!")
  0()



EVENT   238
 PAGE   1
  ShowMessageFace("",0,0,2,1)
  ShowMessage("There's a fierce battle being waged in front of the castle!")
  0()



EVENT   239
 PAGE   1
  0()



EVENT   240
 PAGE   1
  0()



EVENT   241
 PAGE   1
  ShowMessageFace("",0,0,2,1)
  ShowMessage("There's a fierce battle being waged in front of the castle!")
  0()



EVENT   242
 PAGE   1
  ShowMessageFace("",0,0,2,1)
  ShowMessage("\\n<Soldier>Can't fight... any more...")
  0()



EVENT   243
 PAGE   1
  ShowMessageFace("",0,0,2,1)
  ShowMessage("There's a fierce battle being waged in front of the castle!")
  0()



EVENT   244
 PAGE   1
  ShowMessageFace("",0,0,2,1)
  ShowMessage("There's a fierce battle being waged in front of the castle!")
  0()



EVENT   245
 PAGE   1
  ShowMessageFace("",0,0,2,1)
  ShowMessage("\\n<Knight>I'm ashamed... of myself...")
  0()



EVENT   246
 PAGE   1
  PictureDisplay(5,"80_loreley_st01",0,0,0,0,100,100,0,0)
  PictureMove(5,null,0,0,0,0,100,100,255,0,30,true)
  ShowMessageFace("loreley_fc1",0,0,2,1)
  ShowMessage("\\n<Lorelei>.........")
  ShowMessageFace("",0,0,2,2)
  ShowMessage("\\n<Soldier>Ugh, ngh...")
  ShowMessageFace("",0,0,2,3)
  ShowMessage("\\n<Knight>This mermaid is unstoppable...")
  ShowMessageFace("loreley_fc1",0,0,2,4)
  ShowMessage("\\n<Lorelei>I won't let you near Princess El...")
  ShowMessageFace("ruka_fc1",0,0,2,5)
  ShowMessage("\\n<Luka>Then we'll have to go through you!")
  If(4,15,0)
   ShowMessageFace("salamander_fc1",2,0,2,6)
   ShowMessage("\\n<Salamander>Burn to cinders!")
   0()
  EndIf()
  PictureClear(5)
  Battle(0,798,false,false)
  ShowMessageFace("loreley_fc1",0,0,2,7)
  ShowMessage("\\n<Lorelei>Princess...")
  ChangeSwitch(2226,2226,0)
  205(-1,bytes(0x04,0x08,0x6f,0x3a,0x13,0x52,0x50,0x47,0x3a,0x3a,0x4d,0x6f,0x76,0x65,0x52,0x6f,0x75,0x74,0x65,0x09,0x3a,0x0c,0x40,0x72,0x65,0x70,0x65,0x61,0x74,0x46,0x3a,0x0f,0x40,0x73,0x6b,0x69,0x70,0x70,0x61,0x62,0x6c,0x65,0x46,0x3a,0x0a,0x40,0x77,0x61,0x69,0x74,0x54,0x3a,0x0a,0x40,0x6c,0x69,0x73,0x74,0x5b,0x07,0x6f,0x3a,0x15,0x52,0x50,0x47,0x3a,0x3a,0x4d,0x6f,0x76,0x65,0x43,0x6f,0x6d,0x6d,0x61,0x6e,0x64,0x07,0x3a,0x0a,0x40,0x63,0x6f,0x64,0x65,0x69,0x18,0x3a,0x10,0x40,0x70,0x61,0x72,0x61,0x6d,0x65,0x74,0x65,0x72,0x73,0x5b,0x00,0x6f,0x3b,0x0a,0x07,0x3b,0x0b,0x69,0x00,0x3b,0x0c,0x5b,0x00))
  ScrollMap(8,5,5)
  Wait(60)
  205(105,bytes(0x04,0x08,0x6f,0x3a,0x13,0x52,0x50,0x47,0x3a,0x3a,0x4d,0x6f,0x76,0x65,0x52,0x6f,0x75,0x74,0x65,0x09,0x3a,0x0c,0x40,0x72,0x65,0x70,0x65,0x61,0x74,0x46,0x3a,0x0f,0x40,0x73,0x6b,0x69,0x70,0x70,0x61,0x62,0x6c,0x65,0x46,0x3a,0x0a,0x40,0x77,0x61,0x69,0x74,0x54,0x3a,0x0a,0x40,0x6c,0x69,0x73,0x74,0x5b,0x08,0x6f,0x3a,0x15,0x52,0x50,0x47,0x3a,0x3a,0x4d,0x6f,0x76,0x65,0x43,0x6f,0x6d,0x6d,0x61,0x6e,0x64,0x07,0x3a,0x0a,0x40,0x63,0x6f,0x64,0x65,0x69,0x13,0x3a,0x10,0x40,0x70,0x61,0x72,0x61,0x6d,0x65,0x74,0x65,0x72,0x73,0x5b,0x07,0x69,0x00,0x69,0x00,0x6f,0x3b,0x0a,0x07,0x3b,0x0b,0x69,0x13,0x3b,0x0c,0x5b,0x07,0x69,0x00,0x69,0x00,0x6f,0x3b,0x0a,0x07,0x3b,0x0b,0x69,0x00,0x3b,0x0c,0x5b,0x00))
  PictureDisplay(5,"80_ningyohime_st05",0,0,0,0,100,100,0,0)
  PictureMove(5,null,0,0,0,0,100,100,255,0,30,true)
  ShowMessageFace("ningyohime_fc1",4,0,2,8)
  ShowMessage("\\n<El>Go go! Get 'em!")
  If(0,4,0)
   ShowMessageFace("alice_fc5",2,0,2,9)
   ShowMessage("\\n<Alice>Is that Queen Mermaid's daughter?\nIt looks like the princess is leading the army.")
   0()
  EndIf()
  If(0,5,0)
   ShowMessageFace("iriasu_fc4",7,0,2,10)
   ShowMessage("\\n<Ilias>That's Queen Mermaid's daughter, the mermaid princess. She appears to be leading the army.")
   0()
  EndIf()
  PictureDisplay(5,"80_ningyohime_st07",0,0,0,0,100,100,255,0)
  ShowMessageFace("ningyohime_fc1",6,0,2,11)
  ShowMessage("\\n<El>Go go!\n...Umm, what's that?")
  If(0,6,0)
   ShowMessageFace("sonia_fc3",7,0,2,12)
   ShowMessage("\\n<Sonya>Look up there!\nThey've got a giant cannon on top of the walls!")
   0()
  Else()
   ShowMessageFace("ruka_fc1",0,0,2,13)
   ShowMessage("\\n<Luka>They've got a giant cannon on top of the walls!")
   0()
  EndIf()
  If(4,531,0)
   ShowMessageFace("saniria_fc2",0,0,2,14)
   ShowMessage("\\n<King of San Ilia>Oh? Will it be too little, too late?")
   0()
  EndIf()
  PictureClear(5)
  ShowMessageFace("",0,0,2,15)
  ShowMessage("\\n<San Ilia Engineer A>Firing preparations complete!")
  ShowMessageFace("",0,0,2,16)
  ShowMessage("\\n<San Ilia Engineer B>8.8cm Anti-monster Holy Cannon... FIRE!")
  212(105,785,true)
  205(105,bytes(0x04,0x08,0x6f,0x3a,0x13,0x52,0x50,0x47,0x3a,0x3a,0x4d,0x6f,0x76,0x65,0x52,0x6f,0x75,0x74,0x65,0x09,0x3a,0x0c,0x40,0x72,0x65,0x70,0x65,0x61,0x74,0x46,0x3a,0x0f,0x40,0x73,0x6b,0x69,0x70,0x70,0x61,0x62,0x6c,0x65,0x46,0x3a,0x0a,0x40,0x77,0x61,0x69,0x74,0x54,0x3a,0x0a,0x40,0x6c,0x69,0x73,0x74,0x5b,0x07,0x6f,0x3a,0x15,0x52,0x50,0x47,0x3a,0x3a,0x4d,0x6f,0x76,0x65,0x43,0x6f,0x6d,0x6d,0x61,0x6e,0x64,0x07,0x3a,0x0a,0x40,0x63,0x6f,0x64,0x65,0x69,0x13,0x3a,0x10,0x40,0x70,0x61,0x72,0x61,0x6d,0x65,0x74,0x65,0x72,0x73,0x5b,0x07,0x69,0x00,0x69,0x00,0x6f,0x3b,0x0a,0x07,0x3b,0x0b,0x69,0x00,0x3b,0x0c,0x5b,0x00))
  ShowMessageFace("ningyohime_fc2",0,0,2,17)
  ShowMessage("\\n<El>Whoaaaaa!")
  205(-1,bytes(0x04,0x08,0x6f,0x3a,0x13,0x52,0x50,0x47,0x3a,0x3a,0x4d,0x6f,0x76,0x65,0x52,0x6f,0x75,0x74,0x65,0x09,0x3a,0x0c,0x40,0x72,0x65,0x70,0x65,0x61,0x74,0x46,0x3a,0x0f,0x40,0x73,0x6b,0x69,0x70,0x70,0x61,0x62,0x6c,0x65,0x46,0x3a,0x0a,0x40,0x77,0x61,0x69,0x74,0x54,0x3a,0x0a,0x40,0x6c,0x69,0x73,0x74,0x5b,0x07,0x6f,0x3a,0x15,0x52,0x50,0x47,0x3a,0x3a,0x4d,0x6f,0x76,0x65,0x43,0x6f,0x6d,0x6d,0x61,0x6e,0x64,0x07,0x3a,0x0a,0x40,0x63,0x6f,0x64,0x65,0x69,0x15,0x3a,0x10,0x40,0x70,0x61,0x72,0x61,0x6d,0x65,0x74,0x65,0x72,0x73,0x5b,0x00,0x6f,0x3b,0x0a,0x07,0x3b,0x0b,0x69,0x00,0x3b,0x0c,0x5b,0x00))
  205(105,bytes(0x04,0x08,0x6f,0x3a,0x13,0x52,0x50,0x47,0x3a,0x3a,0x4d,0x6f,0x76,0x65,0x52,0x6f,0x75,0x74,0x65,0x09,0x3a,0x0c,0x40,0x72,0x65,0x70,0x65,0x61,0x74,0x46,0x3a,0x0f,0x40,0x73,0x6b,0x69,0x70,0x70,0x61,0x62,0x6c,0x65,0x46,0x3a,0x0a,0x40,0x77,0x61,0x69,0x74,0x54,0x3a,0x0a,0x40,0x6c,0x69,0x73,0x74,0x5b,0x19,0x6f,0x3a,0x15,0x52,0x50,0x47,0x3a,0x3a,0x4d,0x6f,0x76,0x65,0x43,0x6f,0x6d,0x6d,0x61,0x6e,0x64,0x07,0x3a,0x0a,0x40,0x63,0x6f,0x64,0x65,0x69,0x29,0x3a,0x10,0x40,0x70,0x61,0x72,0x61,0x6d,0x65,0x74,0x65,0x72,0x73,0x5b,0x00,0x6f,0x3b,0x0a,0x07,0x3b,0x0b,0x69,0x2a,0x3b,0x0c,0x5b,0x00,0x6f,0x3b,0x0a,0x07,0x3b,0x0b,0x69,0x22,0x3b,0x0c,0x5b,0x06,0x69,0x0b,0x6f,0x3b,0x0a,0x07,0x3b,0x0b,0x69,0x23,0x3b,0x0c,0x5b,0x06,0x69,0x0a,0x6f,0x3b,0x0a,0x07,0x3b,0x0b,0x69,0x06,0x3b,0x0c,0x5b,0x00,0x6f,0x3b,0x0a,0x07,0x3b,0x0b,0x69,0x06,0x3b,0x0c,0x5b,0x00,0x6f,0x3b,0x0a,0x07,0x3b,0x0b,0x69,0x06,0x3b,0x0c,0x5b,0x00,0x6f,0x3b,0x0a,0x07,0x3b,0x0b,0x69,0x06,0x3b,0x0c,0x5b,0x00,0x6f,0x3b,0x0a,0x07,0x3b,0x0b,0x69,0x06,0x3b,0x0c,0x5b,0x00,0x6f,0x3b,0x0a,0x07,0x3b,0x0b,0x69,0x06,0x3b,0x0c,0x5b,0x00,0x6f,0x3b,0x0a,0x07,0x3b,0x0b,0x69,0x06,0x3b,0x0c,0x5b,0x00,0x6f,0x3b,0x0a,0x07,0x3b,0x0b,0x69,0x06,0x3b,0x0c,0x5b,0x00,0x6f,0x3b,0x0a,0x07,0x3b,0x0b,0x69,0x06,0x3b,0x0c,0x5b,0x00,0x6f,0x3b,0x0a,0x07,0x3b,0x0b,0x69,0x06,0x3b,0x0c,0x5b,0x00,0x6f,0x3b,0x0a,0x07,0x3b,0x0b,0x69,0x06,0x3b,0x0c,0x5b,0x00,0x6f,0x3b,0x0a,0x07,0x3b,0x0b,0x69,0x06,0x3b,0x0c,0x5b,0x00,0x6f,0x3b,0x0a,0x07,0x3b,0x0b,0x69,0x06,0x3b,0x0c,0x5b,0x00,0x6f,0x3b,0x0a,0x07,0x3b,0x0b,0x69,0x06,0x3b,0x0c,0x5b,0x00,0x6f,0x3b,0x0a,0x07,0x3b,0x0b,0x69,0x06,0x3b,0x0c,0x5b,0x00,0x6f,0x3b,0x0a,0x07,0x3b,0x0b,0x69,0x00,0x3b,0x0c,0x5b,0x00))
  ScrollMap(2,5,6)
  Wait(60)
  ChangeSwitch(2227,2227,0)
  EndEventProcessing()
  0()
 PAGE   2
  // condition: switch 2226 is ON
  0()



EVENT   247
 PAGE   1
  ShowMessageFace("",0,0,2,1)
  ShowMessage("\\n<Knight>.........")
  0()



EVENT   248
 PAGE   1
  ShowMessageFace("",0,0,2,1)
  ShowMessage("\\n<Soldier>.........")
  0()



EVENT   249
 PAGE   1
  ShowMessageFace("",0,0,2,1)
  ShowMessage("\\n<Knight>.........")
  0()



EVENT   250
 PAGE   1
  ShowMessageFace("",0,0,2,1)
  ShowMessage("\\n<Soldier>.........")
  0()



EVENT   251
 PAGE   1
  ShowMessageFace("",0,0,2,1)
  ShowMessage("\\n<Soldier>.........")
  0()



EVENT   252
 PAGE   1
  ShowMessageFace("",0,0,2,1)
  ShowMessage("\\n<Knight>.........")
  0()



EVENT   253
 PAGE   1
  ShowMessageFace("",0,0,2,1)
  ShowMessage("\\n<Soldier>.........")
  0()



EVENT   254
 PAGE   1
  ShowMessageFace("",0,0,2,1)
  ShowMessage("\\n<Soldier>.........")
  0()



EVENT   255
 PAGE   1
  ShowMessageFace("",0,0,2,1)
  ShowMessage("\\n<Soldier>.........")
  0()



EVENT   256
 PAGE   1
  ShowMessageFace("",0,0,2,1)
  ShowMessage("\\n<Soldier>.........")
  0()



EVENT   257
 PAGE   1
  ShowMessageFace("g_marmaid_fc1",0,0,2,1)
  ShowMessage("\\n<Mermaid General>What are you in such a hurry for?\nStay awhile and keep me company!")
  If(4,297,0)
   ShowMessageFace("basilisk_fc1",0,0,2,2)
   ShowMessage("\\n<Basilin>Hmph... I'll turn you to stone!")
   0()
  EndIf()
  Battle(0,796,false,false)
  TemporaryRemoveEvent()
  0()



EVENT   258
 PAGE   1
  ShowMessageFace("",0,0,2,1)
  ShowMessage("\\n<Priest>I beg you, please protect San Ilia.")
  0()



EVENT   259
 PAGE   1
  ShowMessageFace("",0,0,2,1)
  ShowMessage("\\n<Priest>Is that you, hero...?")
  0()



EVENT   260
 PAGE   1
  ShowMessageFace("",0,0,2,1)
  ShowMessage("\\n<Young Girl>I hate fish...")
  If(4,118,0)
   ShowMessageFace("meia_fc1",3,0,2,2)
   ShowMessage("\\n<Meia>Don't say that...")
   0()
  EndIf()
  0()



EVENT   261
 PAGE   1
  ShowMessageFace("loreley_fc1",0,0,2,1)
  ShowMessage("\\n<Lorelei>You may not pass...")
  205(-1,bytes(0x04,0x08,0x6f,0x3a,0x13,0x52,0x50,0x47,0x3a,0x3a,0x4d,0x6f,0x76,0x65,0x52,0x6f,0x75,0x74,0x65,0x09,0x3a,0x0c,0x40,0x72,0x65,0x70,0x65,0x61,0x74,0x46,0x3a,0x0f,0x40,0x73,0x6b,0x69,0x70,0x70,0x61,0x62,0x6c,0x65,0x46,0x3a,0x0a,0x40,0x77,0x61,0x69,0x74,0x54,0x3a,0x0a,0x40,0x6c,0x69,0x73,0x74,0x5b,0x07,0x6f,0x3a,0x15,0x52,0x50,0x47,0x3a,0x3a,0x4d,0x6f,0x76,0x65,0x43,0x6f,0x6d,0x6d,0x61,0x6e,0x64,0x07,0x3a,0x0a,0x40,0x63,0x6f,0x64,0x65,0x69,0x06,0x3a,0x10,0x40,0x70,0x61,0x72,0x61,0x6d,0x65,0x74,0x65,0x72,0x73,0x5b,0x00,0x6f,0x3b,0x0a,0x07,0x3b,0x0b,0x69,0x00,0x3b,0x0c,0x5b,0x00))
  0()
 PAGE   2
  // condition: switch 2227 is ON
  0()



EVENT   262
 PAGE   1
  ShowMessageFace("loreley_fc1",0,0,2,1)
  ShowMessage("\\n<Lorelei>You may not pass...")
  205(-1,bytes(0x04,0x08,0x6f,0x3a,0x13,0x52,0x50,0x47,0x3a,0x3a,0x4d,0x6f,0x76,0x65,0x52,0x6f,0x75,0x74,0x65,0x09,0x3a,0x0c,0x40,0x72,0x65,0x70,0x65,0x61,0x74,0x46,0x3a,0x0f,0x40,0x73,0x6b,0x69,0x70,0x70,0x61,0x62,0x6c,0x65,0x46,0x3a,0x0a,0x40,0x77,0x61,0x69,0x74,0x54,0x3a,0x0a,0x40,0x6c,0x69,0x73,0x74,0x5b,0x07,0x6f,0x3a,0x15,0x52,0x50,0x47,0x3a,0x3a,0x4d,0x6f,0x76,0x65,0x43,0x6f,0x6d,0x6d,0x61,0x6e,0x64,0x07,0x3a,0x0a,0x40,0x63,0x6f,0x64,0x65,0x69,0x06,0x3a,0x10,0x40,0x70,0x61,0x72,0x61,0x6d,0x65,0x74,0x65,0x72,0x73,0x5b,0x00,0x6f,0x3b,0x0a,0x07,0x3b,0x0b,0x69,0x00,0x3b,0x0c,0x5b,0x00))
  0()
 PAGE   2
  // condition: switch 2227 is ON
  0()



EVENT   263
 PAGE   1
  0()
 PAGE   2
  // condition: switch 2227 is ON
  241(bytes(0x04,0x08,0x6f,0x3a,0x0d,0x52,0x50,0x47,0x3a,0x3a,0x42,0x47,0x4d,0x08,0x3a,0x0a,0x40,0x6e,0x61,0x6d,0x65,0x49,0x22,0x0a,0x62,0x6f,0x73,0x73,0x30,0x06,0x3a,0x06,0x45,0x54,0x3a,0x0c,0x40,0x76,0x6f,0x6c,0x75,0x6d,0x65,0x69,0x69,0x3a,0x0b,0x40,0x70,0x69,0x74,0x63,0x68,0x69,0x69))
  PictureDisplay(5,"80_ningyohime_st09",0,0,0,0,100,100,0,0)
  PictureMove(5,null,0,0,0,0,100,100,255,0,60,true)
  ShowMessageFace("ningyohime_fc2",0,0,2,1)
  ShowMessage("\\n<El>Waaaa, that hurt!\nYou big meanies!")
  If(0,4,0)
   ShowMessageFace("alice_fc6",1,0,2,2)
   ShowMessage("\\n<Alice>What a stupid thing to say!\nDo you realize how many people here are hurt far worse than you?!")
   0()
  EndIf()
  If(0,5,0)
   ShowMessageFace("iriasu_fc4",7,0,2,3)
   ShowMessage("\\n<Ilias>What are you babbling about!\nYou've caused far more harm to this city!")
   0()
  EndIf()
  PictureDisplay(5,"80_ningyohime_st03",0,0,0,0,100,100,255,0)
  ShowMessageFace("ningyohime_fc1",2,0,2,4)
  ShowMessage("\\n<El>Because humans are the bad guys!\nMom said that humans can't help being evil!")
  If(0,4,0)
   ShowMessageFace("alice_fc5",2,0,2,5)
   ShowMessage("\\n<Alice>So your mother indoctrinated you into leading this atrocity? What a foolish parent, forcing her daughter to follow in her own hatred.")
   0()
  EndIf()
  If(0,5,0)
   ShowMessageFace("iriasu_fc4",7,0,2,6)
   ShowMessage("\\n<Ilias>So your wretched mother fostered a hatred of humans in you? The fact that it resulted in this atrocity is the pinnacle of stupidity!")
   0()
  EndIf()
  ShowMessageFace("ningyohime_fc1",2,0,2,7)
  ShowMessage("\\n<El>Don't insult my mom!\nYou're making me really angry!")
  If(4,14,0)
   ShowMessageFace("undine_fc1",2,0,2,8)
   ShowMessage("\\n<Undine>Great, she's throwing a tantrum...")
   0()
  EndIf()
  ShowMessageFace("ruka_fc1",0,0,2,9)
  ShowMessage("\\n<Luka>This is not a game!\nWill you call off your army?\nIf you won't, we'll have no choice but to fight...")
  ShowMessageFace("ningyohime_fc1",2,0,2,10)
  ShowMessage("\\n<El>I'm not playing around either!\nAs the future queen, it's my job to command the army!")
  If(0,4,0)
   ShowMessageFace("alice_fc5",2,0,2,11)
   ShowMessage("\\n<Alice>Hmph, spoken like a child...\nThere are things you should learn before commanding an army.")
   0()
  EndIf()
  If(0,5,0)
   ShowMessageFace("iriasu_fc4",2,0,2,12)
   ShowMessage("\\n<Ilias>Could you be any less experienced?\nThere are things you should learn before commanding an army.")
   0()
  EndIf()
  ShowMessageFace("ningyohime_fc1",2,0,2,13)
  ShowMessage("\\n<El>The future queen will NOT back down!\nI'm going to do away with all your human allies!")
  If(4,327,0)
   ShowMessageFace("ningyohime_fc1",2,0,2,14)
   ShowMessage("\\n<El'>Don't do it!\nYou're going to be the one regretting this!")
   ShowMessageFace("ningyohime_fc1",2,0,2,15)
   ShowMessage("\\n<El>There's no point copying my appearance!\nI won't fall for your human tricks!")
   0()
  EndIf()
  If(4,45,0)
   ShowMessageFace("alicetromeria_fc1",4,0,2,16)
   ShowMessage("\\n<Alicetroemeria>Aww, what a poor little mermaid princess.\nShall we pop her bubble?")
   0()
  EndIf()
  PictureClear(5)
  SetBattleBGM(bytes(0x04,0x08,0x6f,0x3a,0x0d,0x52,0x50,0x47,0x3a,0x3a,0x42,0x47,0x4d,0x08,0x3a,0x0a,0x40,0x6e,0x61,0x6d,0x65,0x49,0x22,0x0a,0x62,0x6f,0x73,0x73,0x31,0x06,0x3a,0x06,0x45,0x54,0x3a,0x0c,0x40,0x76,0x6f,0x6c,0x75,0x6d,0x65,0x69,0x69,0x3a,0x0b,0x40,0x70,0x69,0x74,0x63,0x68,0x69,0x69))
  ChangeSwitch(22,22,0)
  Battle(0,801,false,false)
  ChangeSwitch(22,22,1)
  SetBattleBGM(bytes(0x04,0x08,0x6f,0x3a,0x0d,0x52,0x50,0x47,0x3a,0x3a,0x42,0x47,0x4d,0x08,0x3a,0x0a,0x40,0x6e,0x61,0x6d,0x65,0x49,0x22,0x0b,0x62,0x61,0x74,0x74,0x6c,0x65,0x06,0x3a,0x06,0x45,0x54,0x3a,0x0c,0x40,0x76,0x6f,0x6c,0x75,0x6d,0x65,0x69,0x69,0x3a,0x0b,0x40,0x70,0x69,0x74,0x63,0x68,0x69,0x69))
  241(bytes(0x04,0x08,0x6f,0x3a,0x0d,0x52,0x50,0x47,0x3a,0x3a,0x42,0x47,0x4d,0x08,0x3a,0x0a,0x40,0x6e,0x61,0x6d,0x65,0x49,0x22,0x14,0x73,0x63,0x65,0x6e,0x65,0x5f,0x65,0x70,0x69,0x6c,0x6f,0x67,0x75,0x65,0x32,0x06,0x3a,0x06,0x45,0x54,0x3a,0x0c,0x40,0x76,0x6f,0x6c,0x75,0x6d,0x65,0x69,0x69,0x3a,0x0b,0x40,0x70,0x69,0x74,0x63,0x68,0x69,0x69))
  PictureDisplay(5,"80_ningyohime_st08",0,0,0,0,100,100,0,0)
  PictureMove(5,null,0,0,0,0,100,100,255,0,30,true)
  ShowMessageFace("ningyohime_fc1",7,0,2,17)
  ShowMessage("\\n<El>No way...\nHow could the future queen be defeated...")
  ShowMessageFace("ningyohime_fc2",0,0,2,18)
  ShowMessage("\\n<El>Moooooom!!")
  PictureClear(5)
  Wait(60)
  205(0,bytes(0x04,0x08,0x6f,0x3a,0x13,0x52,0x50,0x47,0x3a,0x3a,0x4d,0x6f,0x76,0x65,0x52,0x6f,0x75,0x74,0x65,0x09,0x3a,0x0c,0x40,0x72,0x65,0x70,0x65,0x61,0x74,0x46,0x3a,0x0f,0x40,0x73,0x6b,0x69,0x70,0x70,0x61,0x62,0x6c,0x65,0x46,0x3a,0x0a,0x40,0x77,0x61,0x69,0x74,0x54,0x3a,0x0a,0x40,0x6c,0x69,0x73,0x74,0x5b,0x18,0x6f,0x3a,0x15,0x52,0x50,0x47,0x3a,0x3a,0x4d,0x6f,0x76,0x65,0x43,0x6f,0x6d,0x6d,0x61,0x6e,0x64,0x07,0x3a,0x0a,0x40,0x63,0x6f,0x64,0x65,0x69,0x2a,0x3a,0x10,0x40,0x70,0x61,0x72,0x61,0x6d,0x65,0x74,0x65,0x72,0x73,0x5b,0x00,0x6f,0x3b,0x0a,0x07,0x3b,0x0b,0x69,0x22,0x3b,0x0c,0x5b,0x06,0x69,0x0a,0x6f,0x3b,0x0a,0x07,0x3b,0x0b,0x69,0x23,0x3b,0x0c,0x5b,0x06,0x69,0x09,0x6f,0x3b,0x0a,0x07,0x3b,0x0b,0x69,0x06,0x3b,0x0c,0x5b,0x00,0x6f,0x3b,0x0a,0x07,0x3b,0x0b,0x69,0x06,0x3b,0x0c,0x5b,0x00,0x6f,0x3b,0x0a,0x07,0x3b,0x0b,0x69,0x06,0x3b,0x0c,0x5b,0x00,0x6f,0x3b,0x0a,0x07,0x3b,0x0b,0x69,0x06,0x3b,0x0c,0x5b,0x00,0x6f,0x3b,0x0a,0x07,0x3b,0x0b,0x69,0x06,0x3b,0x0c,0x5b,0x00,0x6f,0x3b,0x0a,0x07,0x3b,0x0b,0x69,0x06,0x3b,0x0c,0x5b,0x00,0x6f,0x3b,0x0a,0x07,0x3b,0x0b,0x69,0x06,0x3b,0x0c,0x5b,0x00,0x6f,0x3b,0x0a,0x07,0x3b,0x0b,0x69,0x06,0x3b,0x0c,0x5b,0x00,0x6f,0x3b,0x0a,0x07,0x3b,0x0b,0x69,0x06,0x3b,0x0c,0x5b,0x00,0x6f,0x3b,0x0a,0x07,0x3b,0x0b,0x69,0x06,0x3b,0x0c,0x5b,0x00,0x6f,0x3b,0x0a,0x07,0x3b,0x0b,0x69,0x06,0x3b,0x0c,0x5b,0x00,0x6f,0x3b,0x0a,0x07,0x3b,0x0b,0x69,0x06,0x3b,0x0c,0x5b,0x00,0x6f,0x3b,0x0a,0x07,0x3b,0x0b,0x69,0x06,0x3b,0x0c,0x5b,0x00,0x6f,0x3b,0x0a,0x07,0x3b,0x0b,0x69,0x06,0x3b,0x0c,0x5b,0x00,0x6f,0x3b,0x0a,0x07,0x3b,0x0b,0x69,0x06,0x3b,0x0c,0x5b,0x00,0x6f,0x3b,0x0a,0x07,0x3b,0x0b,0x69,0x00,0x3b,0x0c,0x5b,0x00))
  If(0,6,0)
   ShowMessageFace("sonia_fc4",0,0,2,19)
   ShowMessage("\\n<Sonya>I actually do feel like the bad guy now...")
   0()
  Else()
   ShowMessageFace("ruka_fc1",0,0,2,20)
   ShowMessage("\\n<Luka>I actually do feel like the bad guy now...")
   0()
  EndIf()
  If(4,15,0)
   ShowMessageFace("salamander_fc1",2,0,2,21)
   ShowMessage("\\n<Salamander>Pffft, we let her off easy.")
   0()
  EndIf()
  If(0,4,0)
   ShowMessageFace("alice_fc5",0,0,2,22)
   ShowMessage("\\n<Alice>Future queen this, future queen that...\nHer status has completely gone to her head.")
   ShowMessageFace("alice_fc5",2,0,2,23)
   ShowMessage("\\n<Alice>Her mother is truly to blame for filling her daughter's mind with hatred towards humans.\nAnyway, at least the mermaid army should retreat for now.")
   0()
  EndIf()
  If(0,5,0)
   ShowMessageFace("iriasu_fc4",2,0,2,24)
   ShowMessage("\\n<Ilias>Future queen this, future queen that...\nHer status has completely gone to her head.")
   ShowMessageFace("iriasu_fc4",0,0,2,25)
   ShowMessage("\\n<Ilias>We need to beat the hell out of the mother who fostered her hatred towards humans.\nAnyway, at least the mermaid army should retreat for now.")
   0()
  EndIf()
  If(4,531,0)
   ShowMessageFace("saniria_fc2",0,0,2,26)
   ShowMessage("\\n<King of San Ilia>That mermaid princess needs proper guidance.")
   0()
  EndIf()
  If(4,118,0)
   ShowMessageFace("meia_fc1",3,0,2,27)
   ShowMessage("\\n<Meia>But what a tragedy...\nHow could my sisters cause such terrible destruction...")
   0()
  EndIf()
  If(4,201,0)
   ShowMessageFace("ashel_fc1",0,0,2,28)
   ShowMessage("\\n<Ashel>The damage done to the image of mermaids will last a long time... Damn, this is going to make my job even harder.")
   0()
  EndIf()
  ChangeSwitch(2162,2162,0)
  314(0,0)
  RunCommonEvent(328)
  If(0,2273,0)
   EndEventProcessing()
   0()
  EndIf()
  ShowMessageFace("ruka_fc1",0,0,2,29)
  ShowMessage("\\n<Luka>This is no time to rest!\nThere are still other countries under attack!")
  221()
  ShowMessageFace("",0,0,2,30)
  ShowMessage("Thus, we repelled the mermaid army. However, there's no time to celebrate as we leave San Ilia behind.")
  ShowMessageFace("",0,0,2,31)
  ShowMessage("The Monster Lord's grand offensive is against all four major powers. It will take everything we've got to defend them all.")
  Wait(60)
  TeleportPlayer(0,2,236,261,2,0)
  222()
  EndEventProcessing()
  0()


