﻿


EVENT   1
 PAGE   1
  281(1)
  250(bytes(0x04,0x08,0x6f,0x3a,0x0c,0x52,0x50,0x47,0x3a,0x3a,0x53,0x45,0x08,0x3a,0x0a,0x40,0x6e,0x61,0x6d,0x65,0x49,0x22,0x09,0x4d,0x6f,0x76,0x65,0x06,0x3a,0x06,0x45,0x54,0x3a,0x0b,0x40,0x70,0x69,0x74,0x63,0x68,0x69,0x69,0x3a,0x0c,0x40,0x76,0x6f,0x6c,0x75,0x6d,0x65,0x69,0x55))
  TeleportPlayer(0,852,23,7,0,0)
  0()



EVENT   3
 PAGE   1
  0()



EVENT   4
 PAGE   1
  0()



EVENT   6
 PAGE   1
  0()



EVENT   7
 PAGE   1
  0()



EVENT   14
 PAGE   1
  0()



EVENT   15
 PAGE   1
  0()



EVENT   17
 PAGE   1
  0()



EVENT   2
 PAGE   1
  281(1)
  250(bytes(0x04,0x08,0x6f,0x3a,0x0c,0x52,0x50,0x47,0x3a,0x3a,0x53,0x45,0x08,0x3a,0x0a,0x40,0x6e,0x61,0x6d,0x65,0x49,0x22,0x09,0x4d,0x6f,0x76,0x65,0x06,0x3a,0x06,0x45,0x54,0x3a,0x0b,0x40,0x70,0x69,0x74,0x63,0x68,0x69,0x69,0x3a,0x0c,0x40,0x76,0x6f,0x6c,0x75,0x6d,0x65,0x69,0x55))
  TeleportPlayer(0,852,44,23,0,0)
  0()



EVENT   5
 PAGE   1
  281(1)
  250(bytes(0x04,0x08,0x6f,0x3a,0x0c,0x52,0x50,0x47,0x3a,0x3a,0x53,0x45,0x08,0x3a,0x0a,0x40,0x6e,0x61,0x6d,0x65,0x49,0x22,0x09,0x4d,0x6f,0x76,0x65,0x06,0x3a,0x06,0x45,0x54,0x3a,0x0b,0x40,0x70,0x69,0x74,0x63,0x68,0x69,0x69,0x3a,0x0c,0x40,0x76,0x6f,0x6c,0x75,0x6d,0x65,0x69,0x55))
  TeleportPlayer(0,852,6,39,0,0)
  0()



EVENT   12
 PAGE   1
  281(1)
  250(bytes(0x04,0x08,0x6f,0x3a,0x0c,0x52,0x50,0x47,0x3a,0x3a,0x53,0x45,0x08,0x3a,0x0a,0x40,0x6e,0x61,0x6d,0x65,0x49,0x22,0x09,0x4d,0x6f,0x76,0x65,0x06,0x3a,0x06,0x45,0x54,0x3a,0x0b,0x40,0x70,0x69,0x74,0x63,0x68,0x69,0x69,0x3a,0x0c,0x40,0x76,0x6f,0x6c,0x75,0x6d,0x65,0x69,0x55))
  TeleportPlayer(0,852,26,42,0,0)
  0()



EVENT   13
 PAGE   1
  281(1)
  250(bytes(0x04,0x08,0x6f,0x3a,0x0c,0x52,0x50,0x47,0x3a,0x3a,0x53,0x45,0x08,0x3a,0x0a,0x40,0x6e,0x61,0x6d,0x65,0x49,0x22,0x09,0x4d,0x6f,0x76,0x65,0x06,0x3a,0x06,0x45,0x54,0x3a,0x0b,0x40,0x70,0x69,0x74,0x63,0x68,0x69,0x69,0x3a,0x0c,0x40,0x76,0x6f,0x6c,0x75,0x6d,0x65,0x69,0x55))
  TeleportPlayer(0,852,35,45,0,0)
  0()



EVENT   16
 PAGE   1
  281(1)
  250(bytes(0x04,0x08,0x6f,0x3a,0x0c,0x52,0x50,0x47,0x3a,0x3a,0x53,0x45,0x08,0x3a,0x0a,0x40,0x6e,0x61,0x6d,0x65,0x49,0x22,0x09,0x4d,0x6f,0x76,0x65,0x06,0x3a,0x06,0x45,0x54,0x3a,0x0b,0x40,0x70,0x69,0x74,0x63,0x68,0x69,0x69,0x3a,0x0c,0x40,0x76,0x6f,0x6c,0x75,0x6d,0x65,0x69,0x55))
  TeleportPlayer(0,852,24,52,0,0)
  0()



EVENT   18
 PAGE   1
  281(1)
  250(bytes(0x04,0x08,0x6f,0x3a,0x0c,0x52,0x50,0x47,0x3a,0x3a,0x53,0x45,0x08,0x3a,0x0a,0x40,0x6e,0x61,0x6d,0x65,0x49,0x22,0x09,0x4d,0x6f,0x76,0x65,0x06,0x3a,0x06,0x45,0x54,0x3a,0x0b,0x40,0x70,0x69,0x74,0x63,0x68,0x69,0x69,0x3a,0x0c,0x40,0x76,0x6f,0x6c,0x75,0x6d,0x65,0x69,0x55))
  TeleportPlayer(0,852,45,51,0,0)
  0()



EVENT   10
 PAGE   1
  250(bytes(0x04,0x08,0x6f,0x3a,0x0c,0x52,0x50,0x47,0x3a,0x3a,0x53,0x45,0x08,0x3a,0x0a,0x40,0x6e,0x61,0x6d,0x65,0x49,0x22,0x09,0x4d,0x6f,0x76,0x65,0x06,0x3a,0x06,0x45,0x54,0x3a,0x0b,0x40,0x70,0x69,0x74,0x63,0x68,0x69,0x69,0x3a,0x0c,0x40,0x76,0x6f,0x6c,0x75,0x6d,0x65,0x69,0x55))
  TeleportPlayer(0,853,28,5,0,0)
  0()



EVENT   23
 PAGE   1
  0()



EVENT   24
 PAGE   1
  0()



EVENT   25
 PAGE   1
  0()



EVENT   26
 PAGE   1
  0()



EVENT   27
 PAGE   1
  0()



EVENT   28
 PAGE   1
  108("明かり設定3300300")
  0()



EVENT   32
 PAGE   1
  108("明かり設定3300300")
  0()



EVENT   31
 PAGE   1
  108("明かり設定1243070015")
  0()



EVENT   33
 PAGE   1
  108("明かり設定3300200")
  0()



EVENT   38
 PAGE   1
  0()



EVENT   37
 PAGE   1
  0()



EVENT   39
 PAGE   1
  0()



EVENT   40
 PAGE   1
  0()



EVENT   41
 PAGE   1
  0()



EVENT   46
 PAGE   1
  0()



EVENT   47
 PAGE   1
  0()



EVENT   48
 PAGE   1
  0()



EVENT   49
 PAGE   1
  0()



EVENT   50
 PAGE   1
  0()



EVENT   51
 PAGE   1
  0()



EVENT   52
 PAGE   1
  0()



EVENT   53
 PAGE   1
  0()



EVENT   54
 PAGE   1
  0()



EVENT   55
 PAGE   1
  0()



EVENT   56
 PAGE   1
  0()



EVENT   57
 PAGE   1
  0()



EVENT   58
 PAGE   1
  0()



EVENT   59
 PAGE   1
  281(1)
  250(bytes(0x04,0x08,0x6f,0x3a,0x0c,0x52,0x50,0x47,0x3a,0x3a,0x53,0x45,0x08,0x3a,0x0a,0x40,0x6e,0x61,0x6d,0x65,0x49,0x22,0x09,0x4d,0x6f,0x76,0x65,0x06,0x3a,0x06,0x45,0x54,0x3a,0x0b,0x40,0x70,0x69,0x74,0x63,0x68,0x69,0x69,0x3a,0x0c,0x40,0x76,0x6f,0x6c,0x75,0x6d,0x65,0x69,0x55))
  TeleportPlayer(0,852,39,11,0,0)
  0()



EVENT   42
 PAGE   1
  250(bytes(0x04,0x08,0x6f,0x3a,0x0c,0x52,0x50,0x47,0x3a,0x3a,0x53,0x45,0x08,0x3a,0x0a,0x40,0x6e,0x61,0x6d,0x65,0x49,0x22,0x09,0x4d,0x6f,0x76,0x65,0x06,0x3a,0x06,0x45,0x54,0x3a,0x0b,0x40,0x70,0x69,0x74,0x63,0x68,0x69,0x69,0x3a,0x0c,0x40,0x76,0x6f,0x6c,0x75,0x6d,0x65,0x69,0x55))
  TeleportPlayer(0,853,66,97,8,0)
  0()



EVENT   65
 PAGE   1
  ShowMessageFace("mob_ozyou_fc1",0,0,2,1)
  ShowMessage("\\n<アレリア>")
  ShowMessage("あら、お客様ですわね。")
  ShowMessage("私はバトルファッカーのアレリアと申します。")
  ShowMessageFace("mob_ozyou_fc1",0,0,2,2)
  ShowMessage("\\n<アレリア>")
  ShowMessage("……あなた方、かなりの手練と見ました。")
  ShowMessage("その殿方、お相手をお願いできますかしら？")
  ShowMessageFace("lawrat_fc1",0,0,2,3)
  ShowMessage("\\n<Lauratt>")
  ShowMessage("……………………")
  ShowMessageFace("",0,0,2,4)
  ShowMessage("ロウラットは、バトルファックの誘いを断った……")
  ShowMessageFace("mob_ozyou_fc1",0,0,2,5)
  ShowMessage("\\n<アレリア>")
  ShowMessage("それは残念……では、またの機会に。")
  0()
 PAGE   2
  // condition: party contains actor #580
  0()



EVENT   67
 PAGE   1
  If(1,1205,0,2,0)
   PictureDisplay(5,"80_succubus_st01",0,0,0,0,100,100,0,0)
   PictureMove(5,null,0,0,0,0,100,100,255,0,30,true)
   217()
   ShowMessageFace("succubus_fc1",0,0,2,1)
   ShowMessage("\\n<サキュバス>")
   ShowMessage("あら、サキュバスの村にようこそ。")
   ShowMessage("何かご用かしら？")
   ShowMessageFace("rejeo_fc1",0,0,2,2)
   ShowMessage("\\n<Rigeo>")
   ShowMessage("あの、私達は旅人なんだけど――")
   ShowMessageFace("",0,0,2,3)
   ShowMessage("異世界の事は伏せつつ、リジェオは事情を説明した。")
   ShowMessageFace("",0,0,2,4)
   ShowMessage("遠いところから来て、苦労していること――")
   ShowMessage("ルーンが使えなくなり、頭を悩ませていること――")
   ShowMessageFace("succubus_fc1",0,0,2,5)
   ShowMessage("\\n<サキュバス>")
   ShowMessage("なるほど……ずいぶん苦労しているようね。")
   ShowMessage("出来る限り、力になってあげるわ。")
   ShowMessageFace("succubus_fc1",0,0,2,6)
   ShowMessage("\\n<サキュバス>")
   ShowMessage("ルーンの事だけど……")
   ShowMessage("私じゃ、詳しいことは分からないわね。")
   ShowMessageFace("rejeo_fc1",0,0,2,7)
   ShowMessage("\\n<Rigeo>")
   ShowMessage("そう、ですか……")
   ShowMessageFace("succubus_fc1",0,0,2,8)
   ShowMessage("\\n<サキュバス>")
   ShowMessage("でも、運が良いわね。")
   ShowMessage("今日は、魔術の専門家が村に戻っているのよ。")
   ShowMessageFace("succubus_fc1",0,0,2,9)
   ShowMessage("\\n<サキュバス>")
   ShowMessage("ウィッチ、聞いていたわよね？")
   ShowMessage("あなたの力を貸してあげなさい――")
   PictureClear(5)
   Wait(30)
   250(bytes(0x04,0x08,0x6f,0x3a,0x0c,0x52,0x50,0x47,0x3a,0x3a,0x53,0x45,0x08,0x3a,0x0a,0x40,0x6e,0x61,0x6d,0x65,0x49,0x22,0x0d,0x6d,0x6f,0x6e,0x5f,0x77,0x61,0x72,0x70,0x06,0x3a,0x06,0x45,0x54,0x3a,0x0b,0x40,0x70,0x69,0x74,0x63,0x68,0x69,0x69,0x3a,0x0c,0x40,0x76,0x6f,0x6c,0x75,0x6d,0x65,0x69,0x69))
   ChangeSwitch(31,31,0)
   ShowMessageFace("",0,0,2,10)
   ShowMessage("サキュバスが、手を叩くと――")
   ShowMessage("その場に、いかにも魔導師風の女性が現れた。")
   PictureDisplay(5,"80_witchs_st11",0,0,0,0,100,100,0,0)
   PictureMove(5,null,0,0,0,0,100,100,255,0,30,true)
   ShowMessageFace("witchs_fc1",0,0,2,11)
   ShowMessage("\\n<ウィッチ>")
   ShowMessage("ふふっ、話は聞かせてもらったわ。")
   PictureDisplay(5,"80_witchs_st12",0,0,0,0,100,100,255,0)
   ShowMessageFace("witchs_fc1",1,0,2,12)
   ShowMessage("\\n<ウィッチ>")
   ShowMessage("ルーンなんて、古文書でしか見たことがないの……")
   ShowMessage("まさか、現物を扱う人が現れるなんて。")
   ShowMessageFace("",0,0,2,13)
   ShowMessage("ウィッチはロウラットの手を取り、まじまじと眺めた。")
   PictureDisplay(5,"80_witchs_st11",0,0,0,0,100,100,255,0)
   ShowMessageFace("witchs_fc1",0,0,2,14)
   ShowMessage("\\n<ウィッチ>")
   ShowMessage("生きたルーン使いなんて、初めて見るわ……")
   ShowMessage("もちろん、死んだルーン使いだって見たことないけどね。")
   ShowMessageFace("witchs_fc1",0,0,2,15)
   ShowMessage("\\n<ウィッチ>")
   ShowMessage("これが、ルーン……魔術回路が動いてないわね。")
   ShowMessage("魔素の供給が過剰なのかしら？　術式を最適化すれば……")
   ShowMessageFace("",0,0,2,16)
   ShowMessage("ウィッチはロウラットの手を離し、にっこり微笑んだ。")
   ShowMessageFace("witchs_fc1",0,0,2,17)
   ShowMessage("\\n<ウィッチ>")
   ShowMessage("……もしかしたら、何とか出来るかもしれないわ。")
   ShowMessage("でも、数日は掛かるわね。")
   ShowMessageFace("lawrat_fc1",0,0,2,18)
   ShowMessage("\\n<Lauratt>")
   ShowMessage("……………………")
   ShowMessageFace("",0,0,2,19)
   ShowMessage("今のままで激しい戦いに身を投じるなど、命に関わる。")
   ShowMessage("戦うための力を得られるなら、数日でも待った方が良い。")
   ShowMessageFace("witchs_fc1",0,0,2,20)
   ShowMessage("\\n<ウィッチ>")
   ShowMessage("異論はないようね……")
   ShowMessage("それじゃあ、魔術回路の書き換えと最適化を行うわ。")
   PictureDisplay(5,"80_witchs_st12",0,0,0,0,100,100,255,0)
   ShowMessageFace("witchs_fc1",1,0,2,21)
   ShowMessage("\\n<ウィッチ>")
   ShowMessage("ロウラット君は、私の部屋にいらっしゃい……")
   ShowMessage("……うふふふふっ。")
   ShowMessageFace("rejeo_fc1",0,0,2,22)
   ShowMessage("\\n<Rigeo>")
   ShowMessage("……………………")
   PictureDisplay(5,"80_witchs_st11",0,0,0,0,100,100,255,0)
   ShowMessageFace("witchs_fc1",0,0,2,23)
   ShowMessage("\\n<ウィッチ>")
   ShowMessage("安心しなさい、ルーンの調整をするだけよ。")
   ShowMessage("あなたの恋人に、手を出したりはしないわ。")
   ShowMessageFace("rejeo_fc1",1,0,2,24)
   ShowMessage("\\n<Rigeo>")
   ShowMessage("べっ、別に恋人とかじゃ……っ！")
   ShowMessageFace("magatu_fc1",1,0,2,25)
   ShowMessage("\\n<Magatsu>")
   ShowMessage("ふむ、初々しいのう……")
   Wait(30)
   242(1)
   221()
   PictureClear(5)
   ShowMessageFace("",0,0,2,26)
   ShowMessage("こうして、数日はサキュバスの村に落ち着く事になった。")
   ShowMessage("「夢の主」を倒すため、戦う力を身につけるのだ――")
   Wait(60)
   ChangeVariable(1205,1205,0,0,3)
   ChangeSwitch(31,31,1)
   216(1)
   TeleportPlayer(0,853,32,94,8,2)
   205(66,bytes(0x04,0x08,0x6f,0x3a,0x13,0x52,0x50,0x47,0x3a,0x3a,0x4d,0x6f,0x76,0x65,0x52,0x6f,0x75,0x74,0x65,0x09,0x3a,0x0c,0x40,0x72,0x65,0x70,0x65,0x61,0x74,0x46,0x3a,0x0f,0x40,0x73,0x6b,0x69,0x70,0x70,0x61,0x62,0x6c,0x65,0x46,0x3a,0x0a,0x40,0x77,0x61,0x69,0x74,0x54,0x3a,0x0a,0x40,0x6c,0x69,0x73,0x74,0x5b,0x07,0x6f,0x3a,0x15,0x52,0x50,0x47,0x3a,0x3a,0x4d,0x6f,0x76,0x65,0x43,0x6f,0x6d,0x6d,0x61,0x6e,0x64,0x07,0x3a,0x0a,0x40,0x63,0x6f,0x64,0x65,0x69,0x15,0x3a,0x10,0x40,0x70,0x61,0x72,0x61,0x6d,0x65,0x74,0x65,0x72,0x73,0x5b,0x00,0x6f,0x3b,0x0a,0x07,0x3b,0x0b,0x69,0x00,0x3b,0x0c,0x5b,0x00))
   222()
   241(bytes(0x04,0x08,0x6f,0x3a,0x0d,0x52,0x50,0x47,0x3a,0x3a,0x42,0x47,0x4d,0x08,0x3a,0x0a,0x40,0x6e,0x61,0x6d,0x65,0x49,0x22,0x12,0x64,0x75,0x6e,0x67,0x65,0x6f,0x6e,0x5f,0x6d,0x61,0x64,0x6f,0x75,0x06,0x3a,0x06,0x45,0x54,0x3a,0x0c,0x40,0x76,0x6f,0x6c,0x75,0x6d,0x65,0x69,0x69,0x3a,0x0b,0x40,0x70,0x69,0x74,0x63,0x68,0x69,0x69))
   PictureDisplay(5,"80_witchs_st11",0,0,0,0,100,100,0,0)
   PictureMove(5,null,0,0,0,0,100,100,255,0,30,true)
   ShowMessageFace("witchs_fc1",0,0,2,27)
   ShowMessage("\\n<ウィッチ>")
   ShowMessage("炎術式、ルーン最適化完了……")
   ShowMessageFace("witchs_fc1",0,0,2,28)
   ShowMessage("\\n<ウィッチ>")
   ShowMessage("それにしても君のルーン、かなり高度なものね。")
   ShowMessage("ちゃんと起動すれば、すごい力を発揮したはずよ。")
   ShowMessageFace("witchs_fc1",0,0,2,29)
   ShowMessage("\\n<ウィッチ>")
   ShowMessage("それに、破棄だけなら身体に影響も無いみたい……")
   ShowMessage("こんな高度な術式……いったい、どこで学んだの？")
   ShowMessageFace("lawrat_fc1",0,0,2,30)
   ShowMessage("\\n<Lauratt>")
   ShowMessage("……………………")
   ShowMessageFace("",0,0,2,31)
   ShowMessage("違う世界から来た事は、まだ伏せている。")
   ShowMessage("喋ってしまえば、この親切な人達に迷惑が掛かるかもしれない。")
   ShowMessageFace("witchs_fc1",0,0,2,32)
   ShowMessage("\\n<ウィッチ>")
   ShowMessage("ルーンは、女神イリアスによって禁じられた秘術なの。")
   ShowMessage("その性質上、精霊や地母神信仰に繋がる恐れがあるってね。")
   ShowMessageFace("witchs_fc1",0,0,2,33)
   ShowMessage("\\n<ウィッチ>")
   ShowMessage("だから、現物のルーンをいじれるなんて貴重な経験よ。")
   ShowMessage("書物でしか見られない絶滅術だと思っていたわ……")
   ShowMessageFace("witchs_fc1",0,0,2,34)
   ShowMessage("\\n<ウィッチ>")
   ShowMessage("炎の術式は、出力が安定してるわね。")
   ShowMessage("次は氷だけど……魔触氷の精製に少し時間が掛かるわね。")
   ShowMessageFace("witchs_fc1",0,0,2,35)
   ShowMessage("\\n<ウィッチ>")
   ShowMessage("その間、ちょっと休んでもいいわよ。")
   ShowMessage("せっかくだし、村の中を見回ってみればどう？")
   ShowMessageFace("lawrat_fc1",0,0,2,36)
   ShowMessage("\\n<Lauratt>")
   ShowMessage("……………………")
   PictureClear(5)
   ShowMessageFace("",0,0,2,37)
   ShowMessage("リジェオやマガツは、ここで何をしているのだろうか。")
   ShowMessage("息抜きに、様子を見に行ってみよう――")
   205(66,bytes(0x04,0x08,0x6f,0x3a,0x13,0x52,0x50,0x47,0x3a,0x3a,0x4d,0x6f,0x76,0x65,0x52,0x6f,0x75,0x74,0x65,0x09,0x3a,0x0c,0x40,0x72,0x65,0x70,0x65,0x61,0x74,0x46,0x3a,0x0f,0x40,0x73,0x6b,0x69,0x70,0x70,0x61,0x62,0x6c,0x65,0x46,0x3a,0x0a,0x40,0x77,0x61,0x69,0x74,0x54,0x3a,0x0a,0x40,0x6c,0x69,0x73,0x74,0x5b,0x07,0x6f,0x3a,0x15,0x52,0x50,0x47,0x3a,0x3a,0x4d,0x6f,0x76,0x65,0x43,0x6f,0x6d,0x6d,0x61,0x6e,0x64,0x07,0x3a,0x0a,0x40,0x63,0x6f,0x64,0x65,0x69,0x16,0x3a,0x10,0x40,0x70,0x61,0x72,0x61,0x6d,0x65,0x74,0x65,0x72,0x73,0x5b,0x00,0x6f,0x3b,0x0a,0x07,0x3b,0x0b,0x69,0x00,0x3b,0x0c,0x5b,0x00))
   241(bytes(0x04,0x08,0x6f,0x3a,0x0d,0x52,0x50,0x47,0x3a,0x3a,0x42,0x47,0x4d,0x08,0x3a,0x0a,0x40,0x6e,0x61,0x6d,0x65,0x49,0x22,0x0a,0x6d,0x75,0x72,0x61,0x32,0x06,0x3a,0x06,0x45,0x54,0x3a,0x0c,0x40,0x76,0x6f,0x6c,0x75,0x6d,0x65,0x69,0x69,0x3a,0x0b,0x40,0x70,0x69,0x74,0x63,0x68,0x69,0x69))
   EndEventProcessing()
   0()
  EndIf()
  If(1,1205,0,3,0)
   ShowMessageFace("succubus_fc1",1,0,2,38)
   ShowMessage("\\n<サキュバス>")
   ShowMessage("ふふっ、ずいぶん頑張ってるみたいね。")
   ShowMessage("これをどうぞ……♪")
   250(bytes(0x04,0x08,0x6f,0x3a,0x0c,0x52,0x50,0x47,0x3a,0x3a,0x53,0x45,0x08,0x3a,0x0a,0x40,0x6e,0x61,0x6d,0x65,0x49,0x22,0x0a,0x49,0x74,0x65,0x6d,0x31,0x06,0x3a,0x06,0x45,0x54,0x3a,0x0b,0x40,0x70,0x69,0x74,0x63,0x68,0x69,0x69,0x3a,0x0c,0x40,0x76,0x6f,0x6c,0x75,0x6d,0x65,0x69,0x55))
   ChangeInventory_Item(319,0,0,1)
   ShowMessageFace("succubus_fc1",0,0,2,39)
   ShowMessage("\\n<サキュバス>")
   ShowMessage("あら、仲間を探しているの？")
   ShowMessage("リジェオは村内を散歩、マガツは酒場じゃないかしら。")
   EndEventProcessing()
   0()
  EndIf()
  If(1,1205,0,4,1)
   ShowMessageFace("succubus_fc1",0,0,2,40)
   ShowMessage("\\n<サキュバス>")
   ShowMessage("ゴルド火山に行くみたいね……")
   ShowMessage("気をつけなさい、危険な場所だから。")
   250(bytes(0x04,0x08,0x6f,0x3a,0x0c,0x52,0x50,0x47,0x3a,0x3a,0x53,0x45,0x08,0x3a,0x0a,0x40,0x6e,0x61,0x6d,0x65,0x49,0x22,0x0a,0x49,0x74,0x65,0x6d,0x31,0x06,0x3a,0x06,0x45,0x54,0x3a,0x0b,0x40,0x70,0x69,0x74,0x63,0x68,0x69,0x69,0x3a,0x0c,0x40,0x76,0x6f,0x6c,0x75,0x6d,0x65,0x69,0x55))
   ChangeInventory_Item(319,0,0,1)
   EndEventProcessing()
   0()
  EndIf()
  0()



EVENT   68
 PAGE   1
  ShowMessageFace("",0,0,2,1)
  ShowMessage("\\n<メイド>")
  ShowMessage("いらっしゃいませ。")
  ShowMessage("村長は、客人を歓迎致します。")
  0()



EVENT   69
 PAGE   1
  ShowMessageFace("",0,0,2,1)
  ShowMessage("\\n<メイド>")
  ShowMessage("今日は何のイモ料理にしましょうか……")
  0()



EVENT   70
 PAGE   1
  ShowMessageFace("",0,0,2,1)
  ShowMessage("\\n<メイド>")
  ShowMessage("村長様は非常に素晴らしい方です。")
  ShowMessage("ただ一点、イモの事を除いては……")
  If(1,1205,0,3,0)
   EndEventProcessing()
   0()
  EndIf()
  ShowMessageFace("magatu_fc1",2,0,2,2)
  ShowMessage("\\n<Magatsu>")
  ShowMessage("なぜ、この村の者達はイモを恐れる……？")
  0()



EVENT   71
 PAGE   1
  ShowMessageFace("",0,0,2,1)
  ShowMessage("\\n<メイド>")
  ShowMessage("ウィッチ様が戻っていらしたので、極上の料理を出さなくては。")
  ShowMessage("コロシアム優勝歴もある戦士の精液を、ふんだんに用いて……")
  ShowMessageFace("lawrat_fc1",0,0,2,2)
  ShowMessage("\\n<Lauratt>")
  ShowMessage("……………………")
  ShowMessageFace("",0,0,2,3)
  ShowMessage("食べたくない料理だ……")
  0()



EVENT   74
 PAGE   1
  ShowMessageFace("",0,0,2,1)
  ShowMessage("\\n<メイド>")
  ShowMessage("アレリア様は、村長の遠縁の令嬢であられます。")
  ShowMessage("サキュバスの遺伝子は持たず、純粋な人間でおられるとの事。")
  ShowMessageFace("",0,0,2,2)
  ShowMessage("\\n<メイド>")
  ShowMessage("しかし魔導の心得もあり、バトルファッカーとしてもご活躍されています。")
  ShowMessage("並のサキュバスより、よほど素質のある方なのです。")
  If(1,1205,0,3,0)
   EndEventProcessing()
   0()
  EndIf()
  ShowMessageFace("rejeo_fc1",0,0,2,3)
  ShowMessage("\\n<Rigeo>")
  ShowMessage("バトルファッカー？")
  ShowMessage("これも聞き慣れない言葉ね……")
  ShowMessageFace("magatu_fc1",0,0,2,4)
  ShowMessage("\\n<Magatsu>")
  ShowMessage("性技を競う種目ではないのか？")
  ShowMessage("リジェオ達も、元いた世界でやっていよう……")
  ShowMessageFace("rejeo_fc1",0,0,2,5)
  ShowMessage("\\n<Rigeo>")
  ShowMessage("私達は、競ってるわけじゃないけどね。")
  0()



EVENT   76
 PAGE   1
  ShowMessageFace("",0,0,2,1)
  ShowMessage("\\n<メイド>")
  ShowMessage("ここは、儀式の間……")
  ShowMessage("かつて、伝説の淫魔を召喚しようという計画もあったようです。")
  ShowMessageFace("",0,0,2,2)
  ShowMessage("\\n<メイド>")
  ShowMessage("とはいえ大異変以来、魔物に対する世間の風当たりも弱まりました。")
  ShowMessage("この村も、そのような救い主は必要とされなくなったのです。")
  If(1,1205,0,3,0)
   EndEventProcessing()
   0()
  EndIf()
  ShowMessageFace("magatu_fc1",0,0,2,3)
  ShowMessage("\\n<Magatsu>")
  ShowMessage("大異変というのは良く分からんが……")
  ShowMessage("ここでは、人とあやかしの共存が実現できているのか。")
  ShowMessageFace("rejeo_fc1",0,0,2,4)
  ShowMessage("\\n<Rigeo>")
  ShowMessage("人間がエサに寄りすぎな感じもするけど……")
  0()



EVENT   77
 PAGE   1
  ShowMessageFace("",0,0,2,1)
  ShowMessage("\\n<やつれきった鍛冶屋>")
  ShowMessage("ぉぉぉぉ……")
  0()



EVENT   19
 PAGE   1
  ShowMessageFace("",0,0,2,1)
  ShowMessage("\\n<やつれた武器屋>")
  ShowMessage("おや、お客さんかい？")
  ShowMessage("どうぞ、買っていってくれ。")
  Shop(1,268,0,0,false)
  605(1,526,0,0)
  605(1,736,0,0)
  605(2,135,0,0)
  605(2,168,0,0)
  605(2,247,0,0)
  605(2,264,0,0)
  605(2,274,0,0)
  0()



EVENT   80
 PAGE   1
  ShowMessageFace("",0,0,2,1)
  ShowMessage("\\n<ごろつき>")
  ShowMessage("はぅぅぅ……")
  0()



EVENT   81
 PAGE   1
  ShowMessageFace("",0,0,2,1)
  ShowMessage("\\n<青年>")
  ShowMessage("す、吸い尽くされた……")
  0()



EVENT   82
 PAGE   1
  ShowMessageFace("",0,0,2,1)
  ShowMessage("\\n<少年>")
  ShowMessage("もう、だめぇ……")
  0()



EVENT   83
 PAGE   1
  ShowMessageFace("",0,0,2,1)
  ShowMessage("\\n<男>")
  ShowMessage("全部……吸われた……")
  0()



EVENT   84
 PAGE   1
  ShowMessageFace("",0,0,2,1)
  ShowMessage("\\n<おじさん>")
  ShowMessage("ふぁぁぁ……")
  0()



EVENT   85
 PAGE   1
  ShowMessageFace("",0,0,2,1)
  ShowMessage("\\n<青年>")
  ShowMessage("あぅぅぅぅ……")
  0()



EVENT   86
 PAGE   1
  ShowMessageFace("",0,0,2,1)
  ShowMessage("\\n<宿屋のサキュバス>")
  ShowMessage("淫夢を見られると評判の宿……")
  ShowMessage("50Gになるけど、泊まっていくかしら？\\$")
  ShowChoices(strings("はい","いいえ"),2)
  IfPlayerPicksChoice(0,null)
   If(7,50,0)
    125(1,0,50)
    221()
    249(bytes(0x04,0x08,0x6f,0x3a,0x0c,0x52,0x50,0x47,0x3a,0x3a,0x4d,0x45,0x08,0x3a,0x0a,0x40,0x6e,0x61,0x6d,0x65,0x49,0x22,0x08,0x49,0x6e,0x6e,0x06,0x3a,0x06,0x45,0x54,0x3a,0x0b,0x40,0x70,0x69,0x74,0x63,0x68,0x69,0x69,0x3a,0x0c,0x40,0x76,0x6f,0x6c,0x75,0x6d,0x65,0x69,0x69))
    Wait(150)
    314(0,0)
    222()
    0()
   Else()
    ShowMessageFace("",0,0,2,2)
    ShowMessage("\\n<宿屋のサキュバス>")
    ShowMessage("あらあら、お金がないわよ。")
    0()
   EndIf()
   0()
  IfPlayerPicksChoice(1,null)
   0()
  404()
  EndEventProcessing()
  0()



EVENT   21
 PAGE   1
  ShowMessageFace("",0,0,2,1)
  ShowMessage("\\n<店主のサキュバス>")
  ShowMessage("ちょっと散らかってるけど、気にしないでね。")
  ShowMessage("さて、注文は何にする……？")
  Shop(0,428,0,0,false)
  605(0,429,0,0)
  605(0,430,0,0)
  605(0,431,0,0)
  0()



EVENT   20
 PAGE   1
  ShowMessageFace("",0,0,2,1)
  ShowMessage("\\n<やつれた道具屋>")
  ShowMessage("あぁぁ……最高だったよ……")
  ShowMessage("……んっ、客かい？")
  Shop(0,2,0,0,false)
  605(0,11,0,0)
  605(0,13,0,0)
  605(0,14,0,0)
  605(0,15,0,0)
  605(0,16,0,0)
  605(0,17,0,0)
  605(0,18,0,0)
  605(0,19,0,0)
  605(0,20,0,0)
  605(0,21,0,0)
  0()



EVENT   88
 PAGE   1
  ShowMessageFace("",0,0,2,1)
  ShowMessage("\\n<兵士>")
  ShowMessage("はぅぅぅぅ……")
  0()



EVENT   91
 PAGE   1
  ShowMessageFace("",0,0,2,1)
  ShowMessage("\\n<剣士>")
  ShowMessage("なんてテクニックだ……")
  0()



EVENT   92
 PAGE   1
  ShowMessageFace("",0,0,2,1)
  ShowMessage("\\n<戦士>")
  ShowMessage("あ、あぅぅぅ……")
  0()



EVENT   94
 PAGE   1
  ShowMessageFace("",0,0,2,1)
  ShowMessage("\\n<屈強そうな男>")
  ShowMessage("あぁぁ……天国が……")
  0()



EVENT   96
 PAGE   1
  ShowMessageFace("",0,0,2,1)
  ShowMessage("\\n<戦士>")
  ShowMessage("もう出ない……はぅぅぅ……")
  0()



EVENT   98
 PAGE   1
  ShowMessageFace("",0,0,2,1)
  ShowMessage("\\n<青年>")
  ShowMessage("天国が見える……はぅぅ……")
  0()



EVENT   99
 PAGE   1
  ShowMessageFace("",0,0,2,1)
  ShowMessage("\\n<男>")
  ShowMessage("は、激しすぎる……")
  0()



EVENT   100
 PAGE   1
  ShowMessageFace("",0,0,2,1)
  ShowMessage("\\n<黒魔導師>")
  ShowMessage("あたし、女なのに……あぁぁぁ……")
  ShowMessageFace("",0,0,2,2)
  ShowMessage("\\n<サキュバス>")
  ShowMessage("あはっ、敏感な子……♪")
  0()



EVENT   101
 PAGE   1
  ShowMessageFace("",0,0,2,1)
  ShowMessage("\\n<サキュバス>")
  ShowMessage("うふふふっ……♪")
  ShowMessageFace("",0,0,2,2)
  ShowMessage("\\n<剣士>")
  ShowMessage("あぁぁ……こ、こんな……")
  0()



EVENT   102
 PAGE   1
  ShowMessageFace("",0,0,2,1)
  ShowMessage("\\n<男>")
  ShowMessage("昇天しそうだ……")
  ShowMessageFace("",0,0,2,2)
  ShowMessage("\\n<サキュバス>")
  ShowMessage("そのまま、何度でもイっちゃえ♪")
  0()



EVENT   105
 PAGE   1
  ShowMessageFace("",0,0,2,1)
  ShowMessage("\\n<黒魔導師>")
  ShowMessage("あたし、女なのに……あぁぁぁ……")
  ShowMessageFace("",0,0,2,2)
  ShowMessage("\\n<サキュバス>")
  ShowMessage("あはっ、敏感な子……♪")
  0()



EVENT   106
 PAGE   1
  ShowMessageFace("",0,0,2,1)
  ShowMessage("\\n<男>")
  ShowMessage("昇天しそうだ……")
  ShowMessageFace("",0,0,2,2)
  ShowMessage("\\n<サキュバス>")
  ShowMessage("そのまま、何度でもイっちゃえ♪")
  0()



EVENT   107
 PAGE   1
  ShowMessageFace("",0,0,2,1)
  ShowMessage("\\n<サキュバス>")
  ShowMessage("うふふふっ……♪")
  ShowMessageFace("",0,0,2,2)
  ShowMessage("\\n<剣士>")
  ShowMessage("あぁぁ……こ、こんな……")
  0()



EVENT   110
 PAGE   1
  ShowMessageFace("",0,0,2,1)
  ShowMessage("\\n<ごろつき>")
  ShowMessage("体が……もたない……")
  0()



EVENT   111
 PAGE   1
  ShowMessageFace("",0,0,2,1)
  ShowMessage("\\n<男>")
  ShowMessage("ぐったり……")
  If(1,1205,0,3,0)
   EndEventProcessing()
   0()
  EndIf()
  ShowMessageFace("rejeo_fc1",0,0,2,2)
  ShowMessage("\\n<Rigeo>")
  ShowMessage("やけに人がゴロゴロしてる宿屋ね……")
  0()



EVENT   112
 PAGE   1
  ShowMessageFace("",0,0,2,1)
  ShowMessage("\\n<旅の戦士>")
  ShowMessage("ここは……最高の宿だ……")
  0()



EVENT   113
 PAGE   1
  ShowMessageFace("",0,0,2,1)
  ShowMessage("\\n<兵士>")
  ShowMessage("あぅぅぅぅ……")
  0()



EVENT   103
 PAGE   1
  ShowMessageFace("",0,0,2,1)
  ShowMessage("\\n<戦士>")
  ShowMessage("おぉぉ……吸い取られる……")
  ShowMessageFace("",0,0,2,2)
  ShowMessage("\\n<サキュバス>")
  ShowMessage("休めると思ったぁ？　うふふっ……♪")
  0()



EVENT   104
 PAGE   1
  ShowMessageFace("",0,0,2,1)
  ShowMessage("\\n<戦士>")
  ShowMessage("おぉぉ……吸い取られる……")
  ShowMessageFace("",0,0,2,2)
  ShowMessage("\\n<サキュバス>")
  ShowMessage("休めると思ったぁ？　うふふっ……♪")
  0()



EVENT   108
 PAGE   1
  ShowMessageFace("",0,0,2,1)
  ShowMessage("\\n<サキュバス>")
  ShowMessage("泊まっていくわよね、お客さん……♪")
  ShowMessage("たっぷりサービスするわよ♪")
  If(1,1205,0,3,0)
   EndEventProcessing()
   0()
  EndIf()
  ShowMessageFace("rejeo_fc1",1,0,2,2)
  ShowMessage("\\n<Rigeo>")
  ShowMessage("ロウラット、ダメ……")
  0()



EVENT   109
 PAGE   1
  ShowMessageFace("",0,0,2,1)
  ShowMessage("\\n<サキュバス>")
  ShowMessage("たくましい体なのに、ヘナチョコねぇ。")
  ShowMessage("……ごめんなさい、鍛冶屋はしばらく閉店よ。")
  0()



EVENT   114
 PAGE   1
  ShowMessageFace("",0,0,2,1)
  ShowMessage("\\n<サキュバス>")
  ShowMessage("ノア地方で、あちこちの村や町がサキュバスに襲われてると聞くわ。")
  ShowMessage("道を踏み外した同胞でもいるのかしら……")
  0()



EVENT   115
 PAGE   1
  ShowMessageFace("",0,0,2,1)
  ShowMessage("\\n<サキュバス>")
  ShowMessage("さすがに、お腹いっぱいよ♪")
  0()



EVENT   116
 PAGE   1
  ShowMessageFace("",0,0,2,1)
  ShowMessage("\\n<サキュバス>")
  ShowMessage("運動したあとの一杯は、最高よね……♪")
  0()



EVENT   118
 PAGE   1
  ShowMessageFace("",0,0,2,1)
  ShowMessage("\\n<騎士>")
  ShowMessage("脱淫薬がいる……たくさんいる……")
  0()



EVENT   119
 PAGE   1
  ShowMessageFace("",0,0,2,1)
  ShowMessage("\\n<サキュバス>")
  ShowMessage("さすがに一家四人サキュバスだと、食事がかさむわよね……")
  0()



EVENT   120
 PAGE   1
  ShowMessageFace("",0,0,2,1)
  ShowMessage("\\n<サキュバス>")
  ShowMessage("男の方だって、大喜びなんだから……")
  ShowMessage("ちょっとくらい食べ散らかしても、いいわよね♪")
  If(1,1205,0,3,0)
   EndEventProcessing()
   0()
  EndIf()
  ShowMessageFace("magatu_fc1",2,0,2,2)
  ShowMessage("\\n<Magatsu>")
  ShowMessage("どこぞの狐どもと思考がそっくりじゃのう。")
  0()



EVENT   121
 PAGE   1
  ShowMessageFace("",0,0,2,1)
  ShowMessage("\\n<サキュバス>")
  ShowMessage("みんな、食べ散らかしすぎよ……")
  ShowMessage("後で帰ってもらうの、結構大変なのに。")
  0()



EVENT   122
 PAGE   1
  ShowMessageFace("",0,0,2,1)
  ShowMessage("\\n<サキュバス>")
  ShowMessage("誤解しないでよね……")
  ShowMessage("ちゃんと同意した人からしか搾ってないんだから。")
  If(1,1205,0,3,0)
   EndEventProcessing()
   0()
  EndIf()
  ShowMessageFace("rejeo_fc1",1,0,2,2)
  ShowMessage("\\n<Rigeo>")
  ShowMessage("だからといって、あれは……")
  ShowMessage("まあ、私が口を出す筋合いじゃないけど。")
  0()



EVENT   123
 PAGE   1
  ShowMessageFace("",0,0,2,1)
  ShowMessage("\\n<ごろつき>")
  ShowMessage("はぅぅぅ……")
  0()



EVENT   124
 PAGE   1
  ShowMessageFace("",0,0,2,1)
  ShowMessage("\\n<ごろつき>")
  ShowMessage("はぅぅぅ……")
  0()



EVENT   127
 PAGE   1
  ShowMessageFace("",0,0,2,1)
  ShowMessage("\\n<ごろつき>")
  ShowMessage("はぅぅぅ……")
  0()



EVENT   128
 PAGE   1
  ShowMessageFace("",0,0,2,1)
  ShowMessage("\\n<おじさん>")
  ShowMessage("うぁぁぁぁ……")
  0()



EVENT   129
 PAGE   1
  ShowMessageFace("",0,0,2,1)
  ShowMessage("\\n<ごろつき>")
  ShowMessage("はぅぅぅ……")
  0()



EVENT   132
 PAGE   1
  ShowMessageFace("",0,0,2,1)
  ShowMessage("\\n<ごろつき>")
  ShowMessage("はぅぅぅ……")
  0()



EVENT   133
 PAGE   1
  ShowMessageFace("",0,0,2,1)
  ShowMessage("\\n<ごろつき>")
  ShowMessage("はぅぅぅ……")
  0()



EVENT   134
 PAGE   1
  ShowMessageFace("",0,0,2,1)
  ShowMessage("\\n<ごろつき>")
  ShowMessage("はぅぅぅ……")
  0()



EVENT   126
 PAGE   1
  ShowMessageFace("",0,0,2,1)
  ShowMessage("\\n<ごろつき>")
  ShowMessage("はぅぅぅ……")
  0()



EVENT   125
 PAGE   1
  ShowMessageFace("",0,0,2,1)
  ShowMessage("\\n<ごろつき>")
  ShowMessage("はぅぅぅ……")
  0()



EVENT   130
 PAGE   1
  ShowMessageFace("",0,0,2,1)
  ShowMessage("\\n<ごろつき>")
  ShowMessage("はぅぅぅ……")
  0()



EVENT   131
 PAGE   1
  ShowMessageFace("",0,0,2,1)
  ShowMessage("\\n<ごろつき>")
  ShowMessage("はぅぅぅ……")
  0()



EVENT   135
 PAGE   1
  ShowMessageFace("",0,0,2,1)
  ShowMessage("\\n<青年>")
  ShowMessage("あぅぅぅぅ……")
  0()



EVENT   137
 PAGE   1
  250(bytes(0x04,0x08,0x6f,0x3a,0x0c,0x52,0x50,0x47,0x3a,0x3a,0x53,0x45,0x08,0x3a,0x0a,0x40,0x6e,0x61,0x6d,0x65,0x49,0x22,0x0a,0x49,0x74,0x65,0x6d,0x31,0x06,0x3a,0x06,0x45,0x54,0x3a,0x0b,0x40,0x70,0x69,0x74,0x63,0x68,0x69,0x69,0x3a,0x0c,0x40,0x76,0x6f,0x6c,0x75,0x6d,0x65,0x69,0x55))
  ChangeSelfSwitch("A",0)
  ChangeInventory_Item(222,0,0,1)
  0()
 PAGE   2
  // condition: self-switch A is ON
  0()



EVENT   138
 PAGE   1
  250(bytes(0x04,0x08,0x6f,0x3a,0x0c,0x52,0x50,0x47,0x3a,0x3a,0x53,0x45,0x08,0x3a,0x0a,0x40,0x6e,0x61,0x6d,0x65,0x49,0x22,0x0a,0x49,0x74,0x65,0x6d,0x31,0x06,0x3a,0x06,0x45,0x54,0x3a,0x0b,0x40,0x70,0x69,0x74,0x63,0x68,0x69,0x69,0x3a,0x0c,0x40,0x76,0x6f,0x6c,0x75,0x6d,0x65,0x69,0x55))
  ChangeSelfSwitch("A",0)
  ChangeInventory_Item(342,0,0,1)
  0()
 PAGE   2
  // condition: self-switch A is ON
  0()



EVENT   140
 PAGE   1
  250(bytes(0x04,0x08,0x6f,0x3a,0x0c,0x52,0x50,0x47,0x3a,0x3a,0x53,0x45,0x08,0x3a,0x0a,0x40,0x6e,0x61,0x6d,0x65,0x49,0x22,0x0a,0x49,0x74,0x65,0x6d,0x31,0x06,0x3a,0x06,0x45,0x54,0x3a,0x0b,0x40,0x70,0x69,0x74,0x63,0x68,0x69,0x69,0x3a,0x0c,0x40,0x76,0x6f,0x6c,0x75,0x6d,0x65,0x69,0x55))
  ChangeSelfSwitch("A",0)
  ChangeInventory_Item(319,0,0,1)
  0()
 PAGE   2
  // condition: self-switch A is ON
  0()



EVENT   141
 PAGE   1
  250(bytes(0x04,0x08,0x6f,0x3a,0x0c,0x52,0x50,0x47,0x3a,0x3a,0x53,0x45,0x08,0x3a,0x0a,0x40,0x6e,0x61,0x6d,0x65,0x49,0x22,0x0a,0x49,0x74,0x65,0x6d,0x31,0x06,0x3a,0x06,0x45,0x54,0x3a,0x0b,0x40,0x70,0x69,0x74,0x63,0x68,0x69,0x69,0x3a,0x0c,0x40,0x76,0x6f,0x6c,0x75,0x6d,0x65,0x69,0x55))
  ChangeSelfSwitch("A",0)
  ChangeInventory_Item(319,0,0,1)
  0()
 PAGE   2
  // condition: self-switch A is ON
  0()



EVENT   142
 PAGE   1
  250(bytes(0x04,0x08,0x6f,0x3a,0x0c,0x52,0x50,0x47,0x3a,0x3a,0x53,0x45,0x08,0x3a,0x0a,0x40,0x6e,0x61,0x6d,0x65,0x49,0x22,0x0a,0x49,0x74,0x65,0x6d,0x31,0x06,0x3a,0x06,0x45,0x54,0x3a,0x0b,0x40,0x70,0x69,0x74,0x63,0x68,0x69,0x69,0x3a,0x0c,0x40,0x76,0x6f,0x6c,0x75,0x6d,0x65,0x69,0x55))
  ChangeSelfSwitch("A",0)
  ChangeInventory_Item(319,0,0,1)
  0()
 PAGE   2
  // condition: self-switch A is ON
  0()



EVENT   143
 PAGE   1
  250(bytes(0x04,0x08,0x6f,0x3a,0x0c,0x52,0x50,0x47,0x3a,0x3a,0x53,0x45,0x08,0x3a,0x0a,0x40,0x6e,0x61,0x6d,0x65,0x49,0x22,0x0a,0x49,0x74,0x65,0x6d,0x31,0x06,0x3a,0x06,0x45,0x54,0x3a,0x0b,0x40,0x70,0x69,0x74,0x63,0x68,0x69,0x69,0x3a,0x0c,0x40,0x76,0x6f,0x6c,0x75,0x6d,0x65,0x69,0x55))
  ChangeSelfSwitch("A",0)
  ChangeInventory_Item(319,0,0,1)
  0()
 PAGE   2
  // condition: self-switch A is ON
  0()



EVENT   144
 PAGE   1
  250(bytes(0x04,0x08,0x6f,0x3a,0x0c,0x52,0x50,0x47,0x3a,0x3a,0x53,0x45,0x08,0x3a,0x0a,0x40,0x6e,0x61,0x6d,0x65,0x49,0x22,0x0a,0x49,0x74,0x65,0x6d,0x31,0x06,0x3a,0x06,0x45,0x54,0x3a,0x0b,0x40,0x70,0x69,0x74,0x63,0x68,0x69,0x69,0x3a,0x0c,0x40,0x76,0x6f,0x6c,0x75,0x6d,0x65,0x69,0x55))
  ChangeSelfSwitch("A",0)
  ChangeInventory_Item(319,0,0,1)
  0()
 PAGE   2
  // condition: self-switch A is ON
  0()



EVENT   145
 PAGE   1
  250(bytes(0x04,0x08,0x6f,0x3a,0x0c,0x52,0x50,0x47,0x3a,0x3a,0x53,0x45,0x08,0x3a,0x0a,0x40,0x6e,0x61,0x6d,0x65,0x49,0x22,0x0a,0x49,0x74,0x65,0x6d,0x31,0x06,0x3a,0x06,0x45,0x54,0x3a,0x0b,0x40,0x70,0x69,0x74,0x63,0x68,0x69,0x69,0x3a,0x0c,0x40,0x76,0x6f,0x6c,0x75,0x6d,0x65,0x69,0x55))
  ChangeSelfSwitch("A",0)
  ChangeInventory_Item(319,0,0,1)
  0()
 PAGE   2
  // condition: self-switch A is ON
  0()



EVENT   146
 PAGE   1
  250(bytes(0x04,0x08,0x6f,0x3a,0x0c,0x52,0x50,0x47,0x3a,0x3a,0x53,0x45,0x08,0x3a,0x0a,0x40,0x6e,0x61,0x6d,0x65,0x49,0x22,0x0a,0x49,0x74,0x65,0x6d,0x31,0x06,0x3a,0x06,0x45,0x54,0x3a,0x0b,0x40,0x70,0x69,0x74,0x63,0x68,0x69,0x69,0x3a,0x0c,0x40,0x76,0x6f,0x6c,0x75,0x6d,0x65,0x69,0x55))
  ChangeSelfSwitch("A",0)
  ChangeInventory_Item(319,0,0,1)
  0()
 PAGE   2
  // condition: self-switch A is ON
  0()



EVENT   147
 PAGE   1
  250(bytes(0x04,0x08,0x6f,0x3a,0x0c,0x52,0x50,0x47,0x3a,0x3a,0x53,0x45,0x08,0x3a,0x0a,0x40,0x6e,0x61,0x6d,0x65,0x49,0x22,0x0a,0x49,0x74,0x65,0x6d,0x31,0x06,0x3a,0x06,0x45,0x54,0x3a,0x0b,0x40,0x70,0x69,0x74,0x63,0x68,0x69,0x69,0x3a,0x0c,0x40,0x76,0x6f,0x6c,0x75,0x6d,0x65,0x69,0x55))
  ChangeSelfSwitch("A",0)
  ChangeInventory_Item(319,0,0,1)
  If(1,1205,0,3,0)
   EndEventProcessing()
   0()
  EndIf()
  ShowMessageFace("rejeo_fc1",0,0,2,1)
  ShowMessage("\\n<Rigeo>")
  ShowMessage("なんで、洋服タンスの中にじゃがいもが……？")
  0()
 PAGE   2
  // condition: self-switch A is ON
  0()



EVENT   22
 PAGE   1
  281(1)
  250(bytes(0x04,0x08,0x6f,0x3a,0x0c,0x52,0x50,0x47,0x3a,0x3a,0x53,0x45,0x08,0x3a,0x0a,0x40,0x6e,0x61,0x6d,0x65,0x49,0x22,0x09,0x4d,0x6f,0x76,0x65,0x06,0x3a,0x06,0x45,0x54,0x3a,0x0b,0x40,0x70,0x69,0x74,0x63,0x68,0x69,0x69,0x3a,0x0c,0x40,0x76,0x6f,0x6c,0x75,0x6d,0x65,0x69,0x55))
  TeleportPlayer(0,852,39,11,0,0)
  0()



EVENT   60
 PAGE   1
  281(1)
  250(bytes(0x04,0x08,0x6f,0x3a,0x0c,0x52,0x50,0x47,0x3a,0x3a,0x53,0x45,0x08,0x3a,0x0a,0x40,0x6e,0x61,0x6d,0x65,0x49,0x22,0x09,0x4d,0x6f,0x76,0x65,0x06,0x3a,0x06,0x45,0x54,0x3a,0x0b,0x40,0x70,0x69,0x74,0x63,0x68,0x69,0x69,0x3a,0x0c,0x40,0x76,0x6f,0x6c,0x75,0x6d,0x65,0x69,0x55))
  TeleportPlayer(0,852,39,11,0,0)
  0()



EVENT   61
 PAGE   1
  281(1)
  250(bytes(0x04,0x08,0x6f,0x3a,0x0c,0x52,0x50,0x47,0x3a,0x3a,0x53,0x45,0x08,0x3a,0x0a,0x40,0x6e,0x61,0x6d,0x65,0x49,0x22,0x09,0x4d,0x6f,0x76,0x65,0x06,0x3a,0x06,0x45,0x54,0x3a,0x0b,0x40,0x70,0x69,0x74,0x63,0x68,0x69,0x69,0x3a,0x0c,0x40,0x76,0x6f,0x6c,0x75,0x6d,0x65,0x69,0x55))
  TeleportPlayer(0,852,39,11,0,0)
  0()



EVENT   11
 PAGE   1
  250(bytes(0x04,0x08,0x6f,0x3a,0x0c,0x52,0x50,0x47,0x3a,0x3a,0x53,0x45,0x08,0x3a,0x0a,0x40,0x6e,0x61,0x6d,0x65,0x49,0x22,0x09,0x4d,0x6f,0x76,0x65,0x06,0x3a,0x06,0x45,0x54,0x3a,0x0b,0x40,0x70,0x69,0x74,0x63,0x68,0x69,0x69,0x3a,0x0c,0x40,0x76,0x6f,0x6c,0x75,0x6d,0x65,0x69,0x55))
  TeleportPlayer(0,853,29,5,0,0)
  0()



EVENT   8
 PAGE   1
  250(bytes(0x04,0x08,0x6f,0x3a,0x0c,0x52,0x50,0x47,0x3a,0x3a,0x53,0x45,0x08,0x3a,0x0a,0x40,0x6e,0x61,0x6d,0x65,0x49,0x22,0x09,0x4d,0x6f,0x76,0x65,0x06,0x3a,0x06,0x45,0x54,0x3a,0x0b,0x40,0x70,0x69,0x74,0x63,0x68,0x69,0x69,0x3a,0x0c,0x40,0x76,0x6f,0x6c,0x75,0x6d,0x65,0x69,0x55))
  TeleportPlayer(0,853,28,30,0,0)
  0()



EVENT   9
 PAGE   1
  250(bytes(0x04,0x08,0x6f,0x3a,0x0c,0x52,0x50,0x47,0x3a,0x3a,0x53,0x45,0x08,0x3a,0x0a,0x40,0x6e,0x61,0x6d,0x65,0x49,0x22,0x09,0x4d,0x6f,0x76,0x65,0x06,0x3a,0x06,0x45,0x54,0x3a,0x0b,0x40,0x70,0x69,0x74,0x63,0x68,0x69,0x69,0x3a,0x0c,0x40,0x76,0x6f,0x6c,0x75,0x6d,0x65,0x69,0x55))
  TeleportPlayer(0,853,29,30,0,0)
  0()



EVENT   43
 PAGE   1
  250(bytes(0x04,0x08,0x6f,0x3a,0x0c,0x52,0x50,0x47,0x3a,0x3a,0x53,0x45,0x08,0x3a,0x0a,0x40,0x6e,0x61,0x6d,0x65,0x49,0x22,0x09,0x4d,0x6f,0x76,0x65,0x06,0x3a,0x06,0x45,0x54,0x3a,0x0b,0x40,0x70,0x69,0x74,0x63,0x68,0x69,0x69,0x3a,0x0c,0x40,0x76,0x6f,0x6c,0x75,0x6d,0x65,0x69,0x55))
  TeleportPlayer(0,853,66,97,8,0)
  0()



EVENT   44
 PAGE   1
  250(bytes(0x04,0x08,0x6f,0x3a,0x0c,0x52,0x50,0x47,0x3a,0x3a,0x53,0x45,0x08,0x3a,0x0a,0x40,0x6e,0x61,0x6d,0x65,0x49,0x22,0x09,0x4d,0x6f,0x76,0x65,0x06,0x3a,0x06,0x45,0x54,0x3a,0x0b,0x40,0x70,0x69,0x74,0x63,0x68,0x69,0x69,0x3a,0x0c,0x40,0x76,0x6f,0x6c,0x75,0x6d,0x65,0x69,0x55))
  TeleportPlayer(0,853,66,97,8,0)
  0()



EVENT   45
 PAGE   1
  250(bytes(0x04,0x08,0x6f,0x3a,0x0c,0x52,0x50,0x47,0x3a,0x3a,0x53,0x45,0x08,0x3a,0x0a,0x40,0x6e,0x61,0x6d,0x65,0x49,0x22,0x09,0x4d,0x6f,0x76,0x65,0x06,0x3a,0x06,0x45,0x54,0x3a,0x0b,0x40,0x70,0x69,0x74,0x63,0x68,0x69,0x69,0x3a,0x0c,0x40,0x76,0x6f,0x6c,0x75,0x6d,0x65,0x69,0x55))
  TeleportPlayer(0,853,66,67,2,0)
  0()



EVENT   62
 PAGE   1
  250(bytes(0x04,0x08,0x6f,0x3a,0x0c,0x52,0x50,0x47,0x3a,0x3a,0x53,0x45,0x08,0x3a,0x0a,0x40,0x6e,0x61,0x6d,0x65,0x49,0x22,0x09,0x4d,0x6f,0x76,0x65,0x06,0x3a,0x06,0x45,0x54,0x3a,0x0b,0x40,0x70,0x69,0x74,0x63,0x68,0x69,0x69,0x3a,0x0c,0x40,0x76,0x6f,0x6c,0x75,0x6d,0x65,0x69,0x55))
  TeleportPlayer(0,853,66,67,2,0)
  0()



EVENT   63
 PAGE   1
  250(bytes(0x04,0x08,0x6f,0x3a,0x0c,0x52,0x50,0x47,0x3a,0x3a,0x53,0x45,0x08,0x3a,0x0a,0x40,0x6e,0x61,0x6d,0x65,0x49,0x22,0x09,0x4d,0x6f,0x76,0x65,0x06,0x3a,0x06,0x45,0x54,0x3a,0x0b,0x40,0x70,0x69,0x74,0x63,0x68,0x69,0x69,0x3a,0x0c,0x40,0x76,0x6f,0x6c,0x75,0x6d,0x65,0x69,0x55))
  TeleportPlayer(0,853,66,67,2,0)
  0()



EVENT   29
 PAGE   1
  250(bytes(0x04,0x08,0x6f,0x3a,0x0c,0x52,0x50,0x47,0x3a,0x3a,0x53,0x45,0x08,0x3a,0x0a,0x40,0x6e,0x61,0x6d,0x65,0x49,0x22,0x09,0x4d,0x6f,0x76,0x65,0x06,0x3a,0x06,0x45,0x54,0x3a,0x0b,0x40,0x70,0x69,0x74,0x63,0x68,0x69,0x69,0x3a,0x0c,0x40,0x76,0x6f,0x6c,0x75,0x6d,0x65,0x69,0x55))
  TeleportPlayer(0,853,20,92,2,0)
  0()



EVENT   34
 PAGE   1
  250(bytes(0x04,0x08,0x6f,0x3a,0x0c,0x52,0x50,0x47,0x3a,0x3a,0x53,0x45,0x08,0x3a,0x0a,0x40,0x6e,0x61,0x6d,0x65,0x49,0x22,0x09,0x4d,0x6f,0x76,0x65,0x06,0x3a,0x06,0x45,0x54,0x3a,0x0b,0x40,0x70,0x69,0x74,0x63,0x68,0x69,0x69,0x3a,0x0c,0x40,0x76,0x6f,0x6c,0x75,0x6d,0x65,0x69,0x55))
  TeleportPlayer(0,853,20,92,2,0)
  0()



EVENT   35
 PAGE   1
  250(bytes(0x04,0x08,0x6f,0x3a,0x0c,0x52,0x50,0x47,0x3a,0x3a,0x53,0x45,0x08,0x3a,0x0a,0x40,0x6e,0x61,0x6d,0x65,0x49,0x22,0x09,0x4d,0x6f,0x76,0x65,0x06,0x3a,0x06,0x45,0x54,0x3a,0x0b,0x40,0x70,0x69,0x74,0x63,0x68,0x69,0x69,0x3a,0x0c,0x40,0x76,0x6f,0x6c,0x75,0x6d,0x65,0x69,0x55))
  TeleportPlayer(0,853,20,92,2,0)
  0()



EVENT   30
 PAGE   1
  250(bytes(0x04,0x08,0x6f,0x3a,0x0c,0x52,0x50,0x47,0x3a,0x3a,0x53,0x45,0x08,0x3a,0x0a,0x40,0x6e,0x61,0x6d,0x65,0x49,0x22,0x09,0x4d,0x6f,0x76,0x65,0x06,0x3a,0x06,0x45,0x54,0x3a,0x0b,0x40,0x70,0x69,0x74,0x63,0x68,0x69,0x69,0x3a,0x0c,0x40,0x76,0x6f,0x6c,0x75,0x6d,0x65,0x69,0x55))
  TeleportPlayer(0,853,66,62,8,0)
  0()



EVENT   36
 PAGE   1
  250(bytes(0x04,0x08,0x6f,0x3a,0x0c,0x52,0x50,0x47,0x3a,0x3a,0x53,0x45,0x08,0x3a,0x0a,0x40,0x6e,0x61,0x6d,0x65,0x49,0x22,0x09,0x4d,0x6f,0x76,0x65,0x06,0x3a,0x06,0x45,0x54,0x3a,0x0b,0x40,0x70,0x69,0x74,0x63,0x68,0x69,0x69,0x3a,0x0c,0x40,0x76,0x6f,0x6c,0x75,0x6d,0x65,0x69,0x55))
  TeleportPlayer(0,853,66,62,8,0)
  0()



EVENT   64
 PAGE   1
  // condition: switch 31 is ON
  0()



EVENT   66
 PAGE   1
  // condition: variable 1205 >= 3
  If(1,1205,0,2,0)
   ShowMessageFace("witchs_fc1",0,0,2,1)
   ShowMessage("\\n<ウィッチ>")
   ShowMessage("しばらくは休憩よ。")
   ShowMessage("仲間の様子でも見に行ってあげたら……？")
   0()
  EndIf()
  If(1,1205,0,3,0)
   If(0,2907,0)
    If(0,2908,0)
     ChangeSwitch(31,31,1)
     ShowMessageFace("witchs_fc1",0,0,2,2)
     ShowMessage("\\n<ウィッチ>")
     ShowMessage("それじゃあ、続きをしましょう。")
     ShowMessage("ここからは、かなり魔力を消費するわよ……")
     242(1)
     221()
     ShowMessageFace("",0,0,2,3)
     ShowMessage("こうして、三日が経過した。")
     ShowMessage("当初の予定よりも早く、ルーンの最適化は終了したようだ――")
     222()
     241(bytes(0x04,0x08,0x6f,0x3a,0x0d,0x52,0x50,0x47,0x3a,0x3a,0x42,0x47,0x4d,0x08,0x3a,0x0a,0x40,0x6e,0x61,0x6d,0x65,0x49,0x22,0x12,0x64,0x75,0x6e,0x67,0x65,0x6f,0x6e,0x5f,0x6d,0x61,0x64,0x6f,0x75,0x06,0x3a,0x06,0x45,0x54,0x3a,0x0c,0x40,0x76,0x6f,0x6c,0x75,0x6d,0x65,0x69,0x69,0x3a,0x0b,0x40,0x70,0x69,0x74,0x63,0x68,0x69,0x69))
     PictureDisplay(5,"80_witchs_st11",0,0,0,0,100,100,0,0)
     PictureMove(5,null,0,0,0,0,100,100,255,0,30,true)
     ShowMessageFace("witchs_fc1",0,0,2,4)
     ShowMessage("\\n<ウィッチ>")
     ShowMessage("これで、ルーンが使えるようになったわよ。")
     ShowMessage("といっても、本来の技能がそのまま使えるわけじゃないわ。")
     ShowMessageFace("witchs_fc1",0,0,2,5)
     ShowMessage("\\n<ウィッチ>")
     ShowMessage("つまり……ルーンを媒介にして、")
     ShowMessage("初歩の白魔法や黒魔法を発動できるようになったのよ。")
     249(bytes(0x04,0x08,0x6f,0x3a,0x0c,0x52,0x50,0x47,0x3a,0x3a,0x4d,0x45,0x08,0x3a,0x0a,0x40,0x6e,0x61,0x6d,0x65,0x49,0x22,0x11,0x6d,0x6f,0x6e,0x5f,0x66,0x61,0x6e,0x66,0x61,0x6c,0x65,0x33,0x06,0x3a,0x06,0x45,0x54,0x3a,0x0b,0x40,0x70,0x69,0x74,0x63,0x68,0x69,0x69,0x3a,0x0c,0x40,0x76,0x6f,0x6c,0x75,0x6d,0x65,0x69,0x69))
     If(0,1927,1)
      355("set_class_level(807, 33, 10, false, true)")
      655("set_class_level(807, 44, 10, false, false)")
      655("set_class_level(807, 151, 10, false, true)")
      0()
     Else()
      355("set_class_level(807, 33, 10, false, false)")
      655("set_class_level(807, 44, 10, false, false)")
      655("set_class_level(807, 151, 10, false, false)")
      0()
     EndIf()
     318(0,807,0,278)
     318(0,807,0,5633)
     ShowMessageFace("",0,0,2,6)
     ShowMessage("ロウラットは職業「魔法使い」をマスターした！")
     ShowMessage("ロウラットは職業「僧侶」をマスターした！")
     Wait(30)
     ShowMessageFace("witchs_fc1",0,0,2,7)
     ShowMessage("\\n<ウィッチ>")
     ShowMessage("魔法使いや僧侶レベルを、数日で全習得するなんて……")
     ShowMessage("あなた、実は素晴らしい才能を持ってるんじゃない？")
     ShowMessageFace("lawrat_fc1",0,0,2,8)
     ShowMessage("\\n<Lauratt>")
     ShowMessage("……………………")
     ShowMessageFace("",0,0,2,9)
     ShowMessage("これまでも、師匠の元で「魔法」というものは学んできた。")
     ShowMessage("体系が異なるとはいえ、共通する点も多いのだ。")
     ShowMessageFace("witchs_fc1",0,0,2,10)
     ShowMessage("\\n<ウィッチ>")
     ShowMessage("でも、そのくらいの力じゃまだ不足じゃないかしら？")
     ShowMessage("もっともっと、より強い力を得る手段があるわよ。")
     ShowMessageFace("lawrat_fc1",0,0,2,11)
     ShowMessage("\\n<Lauratt>")
     ShowMessage("…………？")
     ShowMessageFace("witchs_fc1",0,0,2,12)
     ShowMessage("\\n<ウィッチ>")
     ShowMessage("四大精霊と契約し、その力をルーンに宿すのよ。")
     ShowMessage("四人のうち一人でいいわ、それでルーンの力は増すはず。")
     ShowMessageFace("witchs_fc1",0,0,2,13)
     ShowMessage("\\n<ウィッチ>")
     ShowMessage("そうすれば、上級職の魔法もルーンを介して使用できるわ。")
     ShowMessageFace("",0,0,2,14)
     ShowMessage("そうなれば、実に心強い。")
     ShowMessage("なにせ、「夢の主」という強敵との戦いを控えているのだ――")
     ShowMessageFace("witchs_fc1",0,0,2,15)
     ShowMessage("\\n<ウィッチ>")
     ShowMessage("ここから一番近いのは……")
     ShowMessage("サラマンダーのいる、ゴルド火山洞窟かしら。")
     ShowMessageFace("witchs_fc1",0,0,2,16)
     ShowMessage("\\n<ウィッチ>")
     ShowMessage("近いといっても、陸路で結構な距離になるわね。")
     ShowMessage("まあ、あなた達なら踏破できるはずよ。")
     ShowMessageFace("lawrat_fc1",0,0,2,17)
     ShowMessage("\\n<Lauratt>")
     ShowMessage("……………………")
     ShowMessageFace("",0,0,2,18)
     ShowMessage("ロウラットは、力強く頷いた。")
     ShowMessage("さらなる力を得るため、その火山洞窟へ行くしかない――")
     PictureClear(5)
     242(1)
     221()
     Wait(60)
     TeleportPlayer(0,852,28,55,8,2)
     ChangeVariable(1205,1205,0,0,4)
     222()
     EndEventProcessing()
     0()
    EndIf()
    0()
   EndIf()
   ShowMessageFace("witchs_fc1",0,0,2,19)
   ShowMessage("\\n<ウィッチ>")
   ShowMessage("素材精製に時間が掛かるから、しばらく休んでもいいわよ。")
   ShowMessage("仲間の様子でも見てきたらどうかしら……？")
   EndEventProcessing()
   0()
  EndIf()
  0()
 PAGE   2
  // condition: variable 1205 >= 4
  0()



EVENT   75
 PAGE   1
  // condition: variable 1205 >= 3
  PictureDisplay(5,"80_magatu_st01",0,0,0,0,100,100,0,0)
  PictureMove(5,null,0,0,0,0,100,100,255,0,30,true)
  ShowMessageFace("magatu_fc1",2,0,2,1)
  ShowMessage("\\n<Magatsu>")
  ShowMessage("お主やリジェオが、骨を折って研鑽しているのに……")
  ShowMessage("儂だけここで飲んでいるのも、どうかと思ったのだがな。")
  ShowMessageFace("magatu_fc1",2,0,2,2)
  ShowMessage("\\n<Magatsu>")
  ShowMessage("儂の術は、己の力を媒介とし――")
  ShowMessage("大地に働きかけ、効力を発揮するものだという。")
  ShowMessageFace("magatu_fc1",2,0,2,3)
  ShowMessage("\\n<Magatsu>")
  ShowMessage("この種の術は、この世界でも問題なく使えるようじゃ。")
  ShowMessage("お主は、とんだ不運だったのう。")
  ShowMessageFace("magatu_fc1",2,0,2,4)
  ShowMessage("\\n<Magatsu>")
  ShowMessage("白念は……")
  ShowMessage("儂の弟子は、どこで何をしているのやら。")
  ShowMessageFace("lawrat_fc1",0,0,2,5)
  ShowMessage("\\n<Lauratt>")
  ShowMessage("……………………")
  ShowMessageFace("",0,0,2,6)
  ShowMessage("マガツの弟子も、この世界に来ているという。")
  ShowMessage("あまり口にはしないが、相当に心配しているようだ――")
  ShowMessageFace("magatu_fc1",0,0,2,7)
  ShowMessage("\\n<Magatsu>")
  ShowMessage("さて……村長の好意に甘えてばかりもおれぬ。")
  ShowMessage("イモの運搬作業でも、手伝ってくるか。")
  PictureClear(5)
  ShowMessageFace("",0,0,2,8)
  ShowMessage("酒を飲み終え、マガツは席を立った――")
  205(-1,bytes(0x04,0x08,0x6f,0x3a,0x13,0x52,0x50,0x47,0x3a,0x3a,0x4d,0x6f,0x76,0x65,0x52,0x6f,0x75,0x74,0x65,0x09,0x3a,0x0c,0x40,0x72,0x65,0x70,0x65,0x61,0x74,0x46,0x3a,0x0f,0x40,0x73,0x6b,0x69,0x70,0x70,0x61,0x62,0x6c,0x65,0x46,0x3a,0x0a,0x40,0x77,0x61,0x69,0x74,0x54,0x3a,0x0a,0x40,0x6c,0x69,0x73,0x74,0x5b,0x07,0x6f,0x3a,0x15,0x52,0x50,0x47,0x3a,0x3a,0x4d,0x6f,0x76,0x65,0x43,0x6f,0x6d,0x6d,0x61,0x6e,0x64,0x07,0x3a,0x0a,0x40,0x63,0x6f,0x64,0x65,0x69,0x15,0x3a,0x10,0x40,0x70,0x61,0x72,0x61,0x6d,0x65,0x74,0x65,0x72,0x73,0x5b,0x00,0x6f,0x3b,0x0a,0x07,0x3b,0x0b,0x69,0x00,0x3b,0x0c,0x5b,0x00))
  205(0,bytes(0x04,0x08,0x6f,0x3a,0x13,0x52,0x50,0x47,0x3a,0x3a,0x4d,0x6f,0x76,0x65,0x52,0x6f,0x75,0x74,0x65,0x09,0x3a,0x0c,0x40,0x72,0x65,0x70,0x65,0x61,0x74,0x46,0x3a,0x0f,0x40,0x73,0x6b,0x69,0x70,0x70,0x61,0x62,0x6c,0x65,0x46,0x3a,0x0a,0x40,0x77,0x61,0x69,0x74,0x54,0x3a,0x0a,0x40,0x6c,0x69,0x73,0x74,0x5b,0x0f,0x6f,0x3a,0x15,0x52,0x50,0x47,0x3a,0x3a,0x4d,0x6f,0x76,0x65,0x43,0x6f,0x6d,0x6d,0x61,0x6e,0x64,0x07,0x3a,0x0a,0x40,0x63,0x6f,0x64,0x65,0x69,0x2a,0x3a,0x10,0x40,0x70,0x61,0x72,0x61,0x6d,0x65,0x74,0x65,0x72,0x73,0x5b,0x00,0x6f,0x3b,0x0a,0x07,0x3b,0x0b,0x69,0x06,0x3b,0x0c,0x5b,0x00,0x6f,0x3b,0x0a,0x07,0x3b,0x0b,0x69,0x06,0x3b,0x0c,0x5b,0x00,0x6f,0x3b,0x0a,0x07,0x3b,0x0b,0x69,0x06,0x3b,0x0c,0x5b,0x00,0x6f,0x3b,0x0a,0x07,0x3b,0x0b,0x69,0x07,0x3b,0x0c,0x5b,0x00,0x6f,0x3b,0x0a,0x07,0x3b,0x0b,0x69,0x06,0x3b,0x0c,0x5b,0x00,0x6f,0x3b,0x0a,0x07,0x3b,0x0b,0x69,0x06,0x3b,0x0c,0x5b,0x00,0x6f,0x3b,0x0a,0x07,0x3b,0x0b,0x69,0x06,0x3b,0x0c,0x5b,0x00,0x6f,0x3b,0x0a,0x07,0x3b,0x0b,0x69,0x20,0x3b,0x0c,0x5b,0x06,0x69,0x02,0x5c,0x0b,0x6f,0x3b,0x0a,0x07,0x3b,0x0b,0x69,0x00,0x3b,0x0c,0x5b,0x00))
  If(0,2907,0)
   ShowMessageFace("",0,0,2,9)
   ShowMessage("仲間達も元気にやっているようだ。")
   ShowMessage("そろそろ、ウィッチの研究室に戻ろうか――")
   0()
  Else()
   ShowMessageFace("",0,0,2,10)
   ShowMessage("マガツは弟子を心配しているようだ。")
   ShowMessage("さて、リジェオは何をしているのだろうか――")
   0()
  EndIf()
  0()
 PAGE   2
  // condition: switch 2908 is ON
  0()



EVENT   79
 PAGE   1
  ShowMessageFace("mob_mahousyouzyo_fc1",0,0,2,1)
  ShowMessage("\\n<マジカルまりんちゃん>")
  ShowMessage("ここでしか扱ってない、魔法の薬を買いに来たの。")
  ShowMessage("なんだか、北の町で襲撃があったみたいだね。")
  ShowMessageFace("mob_mahousyouzyo_fc1",0,0,2,2)
  ShowMessage("\\n<マジカルまりんちゃん>")
  ShowMessage("ノア地方も、村の襲撃が多発してるみたいだし……")
  ShowMessage("今こそ、魔法少女の力が求められているのかも。")
  If(1,1205,0,2,0)
   ShowMessageFace("rejeo_fc1",0,0,2,3)
   ShowMessage("\\n<Rigeo>")
   ShowMessage("魔法少女……？")
   ShowMessageFace("mob_mahousyouzyo_fc1",0,0,2,4)
   ShowMessage("\\n<マジカルまりんちゃん>")
   ShowMessage("キミ……すごいね。")
   ShowMessage("もう見た目からして、すでに80%くらい魔法少女って感じ。")
   ShowMessageFace("mob_mahousyouzyo_fc1",0,0,2,5)
   ShowMessage("\\n<マジカルまりんちゃん>")
   ShowMessage("私と契約して、魔法少女にならない？")
   ShowMessageFace("rejeo_fc1",0,0,2,6)
   ShowMessage("\\n<Rigeo>")
   ShowMessage("よく分からないけど、お断り。")
   0()
  EndIf()
  0()
 PAGE   2
  // condition: variable 1205 >= 3
  0()



EVENT   72
 PAGE   1
  250(bytes(0x04,0x08,0x6f,0x3a,0x0c,0x52,0x50,0x47,0x3a,0x3a,0x53,0x45,0x08,0x3a,0x0a,0x40,0x6e,0x61,0x6d,0x65,0x49,0x22,0x0a,0x49,0x74,0x65,0x6d,0x31,0x06,0x3a,0x06,0x45,0x54,0x3a,0x0b,0x40,0x70,0x69,0x74,0x63,0x68,0x69,0x69,0x3a,0x0c,0x40,0x76,0x6f,0x6c,0x75,0x6d,0x65,0x69,0x55))
  ChangeSelfSwitch("A",0)
  ChangeInventory_Item(7,0,0,1)
  0()
 PAGE   2
  // condition: self-switch A is ON
  0()



EVENT   73
 PAGE   1
  250(bytes(0x04,0x08,0x6f,0x3a,0x0c,0x52,0x50,0x47,0x3a,0x3a,0x53,0x45,0x08,0x3a,0x0a,0x40,0x6e,0x61,0x6d,0x65,0x49,0x22,0x0a,0x49,0x74,0x65,0x6d,0x31,0x06,0x3a,0x06,0x45,0x54,0x3a,0x0b,0x40,0x70,0x69,0x74,0x63,0x68,0x69,0x69,0x3a,0x0c,0x40,0x76,0x6f,0x6c,0x75,0x6d,0x65,0x69,0x55))
  ChangeSelfSwitch("A",0)
  ChangeInventory_Item(7,0,0,1)
  0()
 PAGE   2
  // condition: self-switch A is ON
  0()
