﻿
DisplayName "魔城トゥーロマンサ"



EVENT   2
 PAGE   1
  If(1,1228,0,0,0)
   ChangeVariable(1228,1228,0,0,1)
   0()
  EndIf()
  250(bytes(0x04,0x08,0x6f,0x3a,0x0c,0x52,0x50,0x47,0x3a,0x3a,0x53,0x45,0x08,0x3a,0x0a,0x40,0x6e,0x61,0x6d,0x65,0x49,0x22,0x09,0x4d,0x6f,0x76,0x65,0x06,0x3a,0x06,0x45,0x54,0x3a,0x0b,0x40,0x70,0x69,0x74,0x63,0x68,0x69,0x69,0x3a,0x0c,0x40,0x76,0x6f,0x6c,0x75,0x6d,0x65,0x69,0x55))
  TeleportPlayer(0,922,50,116,0,0)
  0()



EVENT   4
 PAGE   1
  If(1,1216,0,1,1)
   ChangeSwitch(100,100,1)
   250(bytes(0x04,0x08,0x6f,0x3a,0x0c,0x52,0x50,0x47,0x3a,0x3a,0x53,0x45,0x08,0x3a,0x0a,0x40,0x6e,0x61,0x6d,0x65,0x49,0x22,0x0b,0x4d,0x61,0x67,0x69,0x63,0x31,0x06,0x3a,0x06,0x45,0x54,0x3a,0x0b,0x40,0x70,0x69,0x74,0x63,0x68,0x69,0x69,0x3a,0x0c,0x40,0x76,0x6f,0x6c,0x75,0x6d,0x65,0x69,0x55))
   TeleportPlayer(0,21,61,3,2,1)
   0()
  Else()
   ChangeSwitch(100,100,1)
   250(bytes(0x04,0x08,0x6f,0x3a,0x0c,0x52,0x50,0x47,0x3a,0x3a,0x53,0x45,0x08,0x3a,0x0a,0x40,0x6e,0x61,0x6d,0x65,0x49,0x22,0x0b,0x4d,0x61,0x67,0x69,0x63,0x31,0x06,0x3a,0x06,0x45,0x54,0x3a,0x0b,0x40,0x70,0x69,0x74,0x63,0x68,0x69,0x69,0x3a,0x0c,0x40,0x76,0x6f,0x6c,0x75,0x6d,0x65,0x69,0x55))
   TeleportPlayer(0,2,328,187,2,1)
   0()
  EndIf()
  0()



EVENT   1
 PAGE   1
  If(1,1228,0,0,0)
   ChangeVariable(1228,1228,0,0,1)
   0()
  EndIf()
  250(bytes(0x04,0x08,0x6f,0x3a,0x0c,0x52,0x50,0x47,0x3a,0x3a,0x53,0x45,0x08,0x3a,0x0a,0x40,0x6e,0x61,0x6d,0x65,0x49,0x22,0x09,0x4d,0x6f,0x76,0x65,0x06,0x3a,0x06,0x45,0x54,0x3a,0x0b,0x40,0x70,0x69,0x74,0x63,0x68,0x69,0x69,0x3a,0x0c,0x40,0x76,0x6f,0x6c,0x75,0x6d,0x65,0x69,0x55))
  TeleportPlayer(0,922,50,116,0,0)
  0()



EVENT   3
 PAGE   1
  If(1,1228,0,0,0)
   ChangeVariable(1228,1228,0,0,1)
   0()
  EndIf()
  250(bytes(0x04,0x08,0x6f,0x3a,0x0c,0x52,0x50,0x47,0x3a,0x3a,0x53,0x45,0x08,0x3a,0x0a,0x40,0x6e,0x61,0x6d,0x65,0x49,0x22,0x09,0x4d,0x6f,0x76,0x65,0x06,0x3a,0x06,0x45,0x54,0x3a,0x0b,0x40,0x70,0x69,0x74,0x63,0x68,0x69,0x69,0x3a,0x0c,0x40,0x76,0x6f,0x6c,0x75,0x6d,0x65,0x69,0x55))
  TeleportPlayer(0,922,50,116,0,0)
  0()



EVENT   5
 PAGE   1
  222()
  Wait(60)
  ShowMessageFace("rejeo_fc1",0,0,2,1)
  ShowMessage("\\n<Rigeo>")
  ShowMessage("中が壊れてるのは分かるけど……")
  ShowMessage("なんだか、床や壁がおかしくない？")
  If(0,4,0)
   ShowMessageFace("alice_fc6",0,0,2,2)
   ShowMessage("\\n<Alice>")
   ShowMessage("空間侵蝕が起きている……")
   ShowMessage("きっと、ゲートの影響だな。")
   0()
  EndIf()
  If(0,5,0)
   ShowMessageFace("iriasu_fc4",7,0,2,3)
   ShowMessage("\\n<Ilias>")
   ShowMessage("空間侵蝕が起きていますね……")
   ShowMessage("おそらく、ゲートの影響でしょう。")
   0()
  EndIf()
  ShowMessageFace("kazuya_fc2",2,0,2,4)
  ShowMessage("\\n<Kazuya>")
  ShowMessage("「夜の国」が、魔城自体をも蝕んでいるのか……")
  ChangeSwitch(31,31,0)
  205(6,bytes(0x04,0x08,0x6f,0x3a,0x13,0x52,0x50,0x47,0x3a,0x3a,0x4d,0x6f,0x76,0x65,0x52,0x6f,0x75,0x74,0x65,0x09,0x3a,0x0c,0x40,0x72,0x65,0x70,0x65,0x61,0x74,0x46,0x3a,0x0f,0x40,0x73,0x6b,0x69,0x70,0x70,0x61,0x62,0x6c,0x65,0x46,0x3a,0x0a,0x40,0x77,0x61,0x69,0x74,0x54,0x3a,0x0a,0x40,0x6c,0x69,0x73,0x74,0x5b,0x0b,0x6f,0x3a,0x15,0x52,0x50,0x47,0x3a,0x3a,0x4d,0x6f,0x76,0x65,0x43,0x6f,0x6d,0x6d,0x61,0x6e,0x64,0x07,0x3a,0x0a,0x40,0x63,0x6f,0x64,0x65,0x69,0x06,0x3a,0x10,0x40,0x70,0x61,0x72,0x61,0x6d,0x65,0x74,0x65,0x72,0x73,0x5b,0x00,0x6f,0x3b,0x0a,0x07,0x3b,0x0b,0x69,0x06,0x3b,0x0c,0x5b,0x00,0x6f,0x3b,0x0a,0x07,0x3b,0x0b,0x69,0x06,0x3b,0x0c,0x5b,0x00,0x6f,0x3b,0x0a,0x07,0x3b,0x0b,0x69,0x06,0x3b,0x0c,0x5b,0x00,0x6f,0x3b,0x0a,0x07,0x3b,0x0b,0x69,0x06,0x3b,0x0c,0x5b,0x00,0x6f,0x3b,0x0a,0x07,0x3b,0x0b,0x69,0x00,0x3b,0x0c,0x5b,0x00))
  PictureDisplay(5,"80_syesta_st01",0,0,0,0,100,100,0,0)
  PictureMove(5,null,0,0,0,0,100,100,255,0,30,true)
  ShowMessageFace("",0,0,2,5)
  ShowMessage("僕達が、異空間と化した魔城に足を踏み入れた時だった。")
  ShowMessage("その眼前に、異様な存在が立ちはだかる――")
  ShowMessageFace("syesta_fc1",0,0,2,6)
  ShowMessage("\\n<シェスタ>")
  ShowMessage("特定断界反応、検出……")
  ShowMessage("空間自壊プロセスを実行開始……")
  ShowMessageFace("magatu_fc1",3,0,2,7)
  ShowMessage("\\n<Magatsu>")
  ShowMessage("なんなのだ、この薄ら寒い怪物は……？")
  ShowMessageFace("ruka_fc1",0,0,2,8)
  ShowMessage("\\n<Luka>")
  ShowMessage("まさか……アポトーシス！？")
  If(0,4,0)
   ShowMessageFace("alice_fc6",0,0,2,9)
   ShowMessage("\\n<Alice>")
   ShowMessage("なぜここに、アポトーシスが発生している……？")
   ShowMessage("とにかく、倒すぞ！！")
   0()
  EndIf()
  If(0,5,0)
   ShowMessageFace("iriasu_fc4",5,0,2,10)
   ShowMessage("\\n<Ilias>")
   ShowMessage("なぜここに、アポトーシスが発生しているのです……？")
   ShowMessage("とにかく、駆除しましょう！！")
   0()
  EndIf()
  PictureClear(5)
  Battle(0,1403,false,false)
  ChangeSwitch(31,31,1)
  ChangeVariable(1212,1212,0,0,1)
  If(0,4,0)
   ShowMessageFace("alice_fc6",0,0,2,11)
   ShowMessage("\\n<Alice>")
   ShowMessage("どういう事だ……")
   ShowMessage("なぜ、アポトーシスがここに？")
   0()
  EndIf()
  If(0,5,0)
   ShowMessageFace("iriasu_fc4",7,0,2,12)
   ShowMessage("\\n<Ilias>")
   ShowMessage("いったい、なぜここにアポトーシスか……")
   0()
  EndIf()
  ShowMessageFace("stein_fc2",0,0,2,13)
  ShowMessage("\\n<Promestein>")
  ShowMessage("この城そのものが、大規模な時空干渉行為だと考えれば……")
  ShowMessage("対処システムが発動するのは道理かもしれません。")
  ShowMessageFace("",0,0,2,14)
  ShowMessage("とにかく、この魔城内にはアポトーシスも出没するようだ。")
  ShowMessage("進撃の障害にならなければいいのだが――")
  ShowMessageFace("rovissa_fc1",0,0,2,15)
  ShowMessage("\\n<Rovissa>")
  ShowMessage("なんだか、ひどく不気味なモンスターね。")
  ShowMessage("この世界、こんなのがゴロゴロしてるの……？")
  If(0,4,0)
   ShowMessageFace("alice_fc5",0,0,2,16)
   ShowMessage("\\n<Alice>")
   ShowMessage("ゴロゴロはしていないが……")
   ShowMessage("まあ、割としょっちゅう見るな。")
   0()
  EndIf()
  If(0,5,0)
   ShowMessageFace("iriasu_fc4",2,0,2,17)
   ShowMessage("\\n<Ilias>")
   ShowMessage("ゴロゴロはしていませんが……")
   ShowMessage("悲しいかな、割と見る機会は多いですね。")
   0()
  EndIf()
  ShowMessageFace("rest_fc1",0,0,2,18)
  ShowMessage("\\n<Lest>")
  ShowMessage("でも、物怖じしてはいられない。")
  ShowMessage("さあ、奥へ進もう！")
  ShowMessageFace("",0,0,2,19)
  ShowMessage("目指す先は、白兎の眠る魔力供給室だ。")
  ShowMessage("そこで白兎を起こし、ゲートを破壊すれば僕達の勝利。")
  ShowMessageFace("",0,0,2,20)
  ShowMessage("しかし、敵が黙って見ているはずもない。")
  ShowMessage("夢魔や同盟者、アポトーシスまでが立ち塞がってくるだろう。")
  ShowMessageFace("",0,0,2,21)
  ShowMessage("さらに、避けようのない「夢の主」との決戦――")
  ShowMessage("乗り越えるべき壁は大きいが、勝たねば未来はないのだ。")
  EndEventProcessing()
  0()
 PAGE   2
  // condition: variable 1212 >= 1
  0()



EVENT   6
 PAGE   1
  // condition: switch 31 is ON
  0()
 PAGE   2
  // condition: variable 1212 >= 1
  0()
