﻿


EVENT   1
 PAGE   1
  0()



EVENT   2
 PAGE   1
  0()



EVENT   3
 PAGE   1
  0()



EVENT   4
 PAGE   1
  0()



EVENT   5
 PAGE   1
  0()



EVENT   6
 PAGE   1
  0()



EVENT   7
 PAGE   1
  0()



EVENT   8
 PAGE   1
  0()



EVENT   9
 PAGE   1
  0()



EVENT   10
 PAGE   1
  250(bytes(0x04,0x08,0x6f,0x3a,0x0c,0x52,0x50,0x47,0x3a,0x3a,0x53,0x45,0x08,0x3a,0x0a,0x40,0x6e,0x61,0x6d,0x65,0x49,0x22,0x0a,0x4f,0x70,0x65,0x6e,0x31,0x06,0x3a,0x06,0x45,0x54,0x3a,0x0b,0x40,0x70,0x69,0x74,0x63,0x68,0x69,0x69,0x3a,0x0c,0x40,0x76,0x6f,0x6c,0x75,0x6d,0x65,0x69,0x55))
  205(0,bytes(0x04,0x08,0x6f,0x3a,0x13,0x52,0x50,0x47,0x3a,0x3a,0x4d,0x6f,0x76,0x65,0x52,0x6f,0x75,0x74,0x65,0x09,0x3a,0x0c,0x40,0x72,0x65,0x70,0x65,0x61,0x74,0x46,0x3a,0x0f,0x40,0x73,0x6b,0x69,0x70,0x70,0x61,0x62,0x6c,0x65,0x46,0x3a,0x0a,0x40,0x77,0x61,0x69,0x74,0x54,0x3a,0x0a,0x40,0x6c,0x69,0x73,0x74,0x5b,0x0c,0x6f,0x3a,0x15,0x52,0x50,0x47,0x3a,0x3a,0x4d,0x6f,0x76,0x65,0x43,0x6f,0x6d,0x6d,0x61,0x6e,0x64,0x07,0x3a,0x0a,0x40,0x63,0x6f,0x64,0x65,0x69,0x16,0x3a,0x10,0x40,0x70,0x61,0x72,0x61,0x6d,0x65,0x74,0x65,0x72,0x73,0x5b,0x00,0x6f,0x3b,0x0a,0x07,0x3b,0x0b,0x69,0x14,0x3b,0x0c,0x5b,0x06,0x69,0x08,0x6f,0x3b,0x0a,0x07,0x3b,0x0b,0x69,0x17,0x3b,0x0c,0x5b,0x00,0x6f,0x3b,0x0a,0x07,0x3b,0x0b,0x69,0x14,0x3b,0x0c,0x5b,0x06,0x69,0x08,0x6f,0x3b,0x0a,0x07,0x3b,0x0b,0x69,0x18,0x3b,0x0c,0x5b,0x00,0x6f,0x3b,0x0a,0x07,0x3b,0x0b,0x69,0x2a,0x3b,0x0c,0x5b,0x00,0x6f,0x3b,0x0a,0x07,0x3b,0x0b,0x69,0x00,0x3b,0x0c,0x5b,0x00))
  205(-1,bytes(0x04,0x08,0x6f,0x3a,0x13,0x52,0x50,0x47,0x3a,0x3a,0x4d,0x6f,0x76,0x65,0x52,0x6f,0x75,0x74,0x65,0x09,0x3a,0x0c,0x40,0x72,0x65,0x70,0x65,0x61,0x74,0x46,0x3a,0x0f,0x40,0x73,0x6b,0x69,0x70,0x70,0x61,0x62,0x6c,0x65,0x54,0x3a,0x0a,0x40,0x77,0x61,0x69,0x74,0x54,0x3a,0x0a,0x40,0x6c,0x69,0x73,0x74,0x5b,0x07,0x6f,0x3a,0x15,0x52,0x50,0x47,0x3a,0x3a,0x4d,0x6f,0x76,0x65,0x43,0x6f,0x6d,0x6d,0x61,0x6e,0x64,0x07,0x3a,0x0a,0x40,0x63,0x6f,0x64,0x65,0x69,0x11,0x3a,0x10,0x40,0x70,0x61,0x72,0x61,0x6d,0x65,0x74,0x65,0x72,0x73,0x5b,0x00,0x6f,0x3b,0x0a,0x07,0x3b,0x0b,0x69,0x00,0x3b,0x0c,0x5b,0x00))
  250(bytes(0x04,0x08,0x6f,0x3a,0x0c,0x52,0x50,0x47,0x3a,0x3a,0x53,0x45,0x08,0x3a,0x0a,0x40,0x6e,0x61,0x6d,0x65,0x49,0x22,0x09,0x4d,0x6f,0x76,0x65,0x06,0x3a,0x06,0x45,0x54,0x3a,0x0b,0x40,0x70,0x69,0x74,0x63,0x68,0x69,0x69,0x3a,0x0c,0x40,0x76,0x6f,0x6c,0x75,0x6d,0x65,0x69,0x55))
  TeleportPlayer(0,847,9,15,0,0)
  0()



EVENT   13
 PAGE   1
  ShowMessageFace("kazuya_fc2",2,0,2,1)
  ShowMessage("\\n<Kazuya>")
  ShowMessage("戻るべきじゃないな……")
  ShowMessage("まだネメアがいるかもしれない。")
  205(-1,bytes(0x04,0x08,0x6f,0x3a,0x13,0x52,0x50,0x47,0x3a,0x3a,0x4d,0x6f,0x76,0x65,0x52,0x6f,0x75,0x74,0x65,0x09,0x3a,0x0c,0x40,0x72,0x65,0x70,0x65,0x61,0x74,0x46,0x3a,0x0f,0x40,0x73,0x6b,0x69,0x70,0x70,0x61,0x62,0x6c,0x65,0x46,0x3a,0x0a,0x40,0x77,0x61,0x69,0x74,0x54,0x3a,0x0a,0x40,0x6c,0x69,0x73,0x74,0x5b,0x07,0x6f,0x3a,0x15,0x52,0x50,0x47,0x3a,0x3a,0x4d,0x6f,0x76,0x65,0x43,0x6f,0x6d,0x6d,0x61,0x6e,0x64,0x07,0x3a,0x0a,0x40,0x63,0x6f,0x64,0x65,0x69,0x06,0x3a,0x10,0x40,0x70,0x61,0x72,0x61,0x6d,0x65,0x74,0x65,0x72,0x73,0x5b,0x00,0x6f,0x3b,0x0a,0x07,0x3b,0x0b,0x69,0x00,0x3b,0x0c,0x5b,0x00))
  0()



EVENT   14
 PAGE   1
  250(bytes(0x04,0x08,0x6f,0x3a,0x0c,0x52,0x50,0x47,0x3a,0x3a,0x53,0x45,0x08,0x3a,0x0a,0x40,0x6e,0x61,0x6d,0x65,0x49,0x22,0x0a,0x4f,0x70,0x65,0x6e,0x31,0x06,0x3a,0x06,0x45,0x54,0x3a,0x0b,0x40,0x70,0x69,0x74,0x63,0x68,0x69,0x69,0x3a,0x0c,0x40,0x76,0x6f,0x6c,0x75,0x6d,0x65,0x69,0x55))
  205(0,bytes(0x04,0x08,0x6f,0x3a,0x13,0x52,0x50,0x47,0x3a,0x3a,0x4d,0x6f,0x76,0x65,0x52,0x6f,0x75,0x74,0x65,0x09,0x3a,0x0c,0x40,0x72,0x65,0x70,0x65,0x61,0x74,0x46,0x3a,0x0f,0x40,0x73,0x6b,0x69,0x70,0x70,0x61,0x62,0x6c,0x65,0x46,0x3a,0x0a,0x40,0x77,0x61,0x69,0x74,0x54,0x3a,0x0a,0x40,0x6c,0x69,0x73,0x74,0x5b,0x0c,0x6f,0x3a,0x15,0x52,0x50,0x47,0x3a,0x3a,0x4d,0x6f,0x76,0x65,0x43,0x6f,0x6d,0x6d,0x61,0x6e,0x64,0x07,0x3a,0x0a,0x40,0x63,0x6f,0x64,0x65,0x69,0x16,0x3a,0x10,0x40,0x70,0x61,0x72,0x61,0x6d,0x65,0x74,0x65,0x72,0x73,0x5b,0x00,0x6f,0x3b,0x0a,0x07,0x3b,0x0b,0x69,0x14,0x3b,0x0c,0x5b,0x06,0x69,0x08,0x6f,0x3b,0x0a,0x07,0x3b,0x0b,0x69,0x17,0x3b,0x0c,0x5b,0x00,0x6f,0x3b,0x0a,0x07,0x3b,0x0b,0x69,0x14,0x3b,0x0c,0x5b,0x06,0x69,0x08,0x6f,0x3b,0x0a,0x07,0x3b,0x0b,0x69,0x18,0x3b,0x0c,0x5b,0x00,0x6f,0x3b,0x0a,0x07,0x3b,0x0b,0x69,0x2a,0x3b,0x0c,0x5b,0x00,0x6f,0x3b,0x0a,0x07,0x3b,0x0b,0x69,0x00,0x3b,0x0c,0x5b,0x00))
  205(-1,bytes(0x04,0x08,0x6f,0x3a,0x13,0x52,0x50,0x47,0x3a,0x3a,0x4d,0x6f,0x76,0x65,0x52,0x6f,0x75,0x74,0x65,0x09,0x3a,0x0c,0x40,0x72,0x65,0x70,0x65,0x61,0x74,0x46,0x3a,0x0f,0x40,0x73,0x6b,0x69,0x70,0x70,0x61,0x62,0x6c,0x65,0x54,0x3a,0x0a,0x40,0x77,0x61,0x69,0x74,0x54,0x3a,0x0a,0x40,0x6c,0x69,0x73,0x74,0x5b,0x07,0x6f,0x3a,0x15,0x52,0x50,0x47,0x3a,0x3a,0x4d,0x6f,0x76,0x65,0x43,0x6f,0x6d,0x6d,0x61,0x6e,0x64,0x07,0x3a,0x0a,0x40,0x63,0x6f,0x64,0x65,0x69,0x11,0x3a,0x10,0x40,0x70,0x61,0x72,0x61,0x6d,0x65,0x74,0x65,0x72,0x73,0x5b,0x00,0x6f,0x3b,0x0a,0x07,0x3b,0x0b,0x69,0x00,0x3b,0x0c,0x5b,0x00))
  250(bytes(0x04,0x08,0x6f,0x3a,0x0c,0x52,0x50,0x47,0x3a,0x3a,0x53,0x45,0x08,0x3a,0x0a,0x40,0x6e,0x61,0x6d,0x65,0x49,0x22,0x09,0x4d,0x6f,0x76,0x65,0x06,0x3a,0x06,0x45,0x54,0x3a,0x0b,0x40,0x70,0x69,0x74,0x63,0x68,0x69,0x69,0x3a,0x0c,0x40,0x76,0x6f,0x6c,0x75,0x6d,0x65,0x69,0x55))
  TeleportPlayer(0,847,65,35,0,0)
  0()



EVENT   15
 PAGE   1
  ChangeSwitch(31,31,1)
  250(bytes(0x04,0x08,0x6f,0x3a,0x0c,0x52,0x50,0x47,0x3a,0x3a,0x53,0x45,0x08,0x3a,0x0a,0x40,0x6e,0x61,0x6d,0x65,0x49,0x22,0x0a,0x4f,0x70,0x65,0x6e,0x31,0x06,0x3a,0x06,0x45,0x54,0x3a,0x0b,0x40,0x70,0x69,0x74,0x63,0x68,0x69,0x69,0x3a,0x0c,0x40,0x76,0x6f,0x6c,0x75,0x6d,0x65,0x69,0x55))
  205(0,bytes(0x04,0x08,0x6f,0x3a,0x13,0x52,0x50,0x47,0x3a,0x3a,0x4d,0x6f,0x76,0x65,0x52,0x6f,0x75,0x74,0x65,0x09,0x3a,0x0c,0x40,0x72,0x65,0x70,0x65,0x61,0x74,0x46,0x3a,0x0f,0x40,0x73,0x6b,0x69,0x70,0x70,0x61,0x62,0x6c,0x65,0x46,0x3a,0x0a,0x40,0x77,0x61,0x69,0x74,0x54,0x3a,0x0a,0x40,0x6c,0x69,0x73,0x74,0x5b,0x0c,0x6f,0x3a,0x15,0x52,0x50,0x47,0x3a,0x3a,0x4d,0x6f,0x76,0x65,0x43,0x6f,0x6d,0x6d,0x61,0x6e,0x64,0x07,0x3a,0x0a,0x40,0x63,0x6f,0x64,0x65,0x69,0x16,0x3a,0x10,0x40,0x70,0x61,0x72,0x61,0x6d,0x65,0x74,0x65,0x72,0x73,0x5b,0x00,0x6f,0x3b,0x0a,0x07,0x3b,0x0b,0x69,0x14,0x3b,0x0c,0x5b,0x06,0x69,0x08,0x6f,0x3b,0x0a,0x07,0x3b,0x0b,0x69,0x17,0x3b,0x0c,0x5b,0x00,0x6f,0x3b,0x0a,0x07,0x3b,0x0b,0x69,0x14,0x3b,0x0c,0x5b,0x06,0x69,0x08,0x6f,0x3b,0x0a,0x07,0x3b,0x0b,0x69,0x18,0x3b,0x0c,0x5b,0x00,0x6f,0x3b,0x0a,0x07,0x3b,0x0b,0x69,0x2a,0x3b,0x0c,0x5b,0x00,0x6f,0x3b,0x0a,0x07,0x3b,0x0b,0x69,0x00,0x3b,0x0c,0x5b,0x00))
  205(-1,bytes(0x04,0x08,0x6f,0x3a,0x13,0x52,0x50,0x47,0x3a,0x3a,0x4d,0x6f,0x76,0x65,0x52,0x6f,0x75,0x74,0x65,0x09,0x3a,0x0c,0x40,0x72,0x65,0x70,0x65,0x61,0x74,0x46,0x3a,0x0f,0x40,0x73,0x6b,0x69,0x70,0x70,0x61,0x62,0x6c,0x65,0x54,0x3a,0x0a,0x40,0x77,0x61,0x69,0x74,0x54,0x3a,0x0a,0x40,0x6c,0x69,0x73,0x74,0x5b,0x07,0x6f,0x3a,0x15,0x52,0x50,0x47,0x3a,0x3a,0x4d,0x6f,0x76,0x65,0x43,0x6f,0x6d,0x6d,0x61,0x6e,0x64,0x07,0x3a,0x0a,0x40,0x63,0x6f,0x64,0x65,0x69,0x11,0x3a,0x10,0x40,0x70,0x61,0x72,0x61,0x6d,0x65,0x74,0x65,0x72,0x73,0x5b,0x00,0x6f,0x3b,0x0a,0x07,0x3b,0x0b,0x69,0x00,0x3b,0x0c,0x5b,0x00))
  250(bytes(0x04,0x08,0x6f,0x3a,0x0c,0x52,0x50,0x47,0x3a,0x3a,0x53,0x45,0x08,0x3a,0x0a,0x40,0x6e,0x61,0x6d,0x65,0x49,0x22,0x09,0x4d,0x6f,0x76,0x65,0x06,0x3a,0x06,0x45,0x54,0x3a,0x0b,0x40,0x70,0x69,0x74,0x63,0x68,0x69,0x69,0x3a,0x0c,0x40,0x76,0x6f,0x6c,0x75,0x6d,0x65,0x69,0x55))
  TeleportPlayer(0,847,55,115,0,0)
  0()



EVENT   17
 PAGE   1
  250(bytes(0x04,0x08,0x6f,0x3a,0x0c,0x52,0x50,0x47,0x3a,0x3a,0x53,0x45,0x08,0x3a,0x0a,0x40,0x6e,0x61,0x6d,0x65,0x49,0x22,0x09,0x4d,0x6f,0x76,0x65,0x06,0x3a,0x06,0x45,0x54,0x3a,0x0b,0x40,0x70,0x69,0x74,0x63,0x68,0x69,0x69,0x3a,0x0c,0x40,0x76,0x6f,0x6c,0x75,0x6d,0x65,0x69,0x55))
  TeleportPlayer(0,2,330,208,0,0)
  0()



EVENT   18
 PAGE   1
  250(bytes(0x04,0x08,0x6f,0x3a,0x0c,0x52,0x50,0x47,0x3a,0x3a,0x53,0x45,0x08,0x3a,0x0a,0x40,0x6e,0x61,0x6d,0x65,0x49,0x22,0x09,0x4d,0x6f,0x76,0x65,0x06,0x3a,0x06,0x45,0x54,0x3a,0x0b,0x40,0x70,0x69,0x74,0x63,0x68,0x69,0x69,0x3a,0x0c,0x40,0x76,0x6f,0x6c,0x75,0x6d,0x65,0x69,0x55))
  TeleportPlayer(0,2,330,208,0,0)
  0()



EVENT   19
 PAGE   1
  250(bytes(0x04,0x08,0x6f,0x3a,0x0c,0x52,0x50,0x47,0x3a,0x3a,0x53,0x45,0x08,0x3a,0x0a,0x40,0x6e,0x61,0x6d,0x65,0x49,0x22,0x09,0x4d,0x6f,0x76,0x65,0x06,0x3a,0x06,0x45,0x54,0x3a,0x0b,0x40,0x70,0x69,0x74,0x63,0x68,0x69,0x69,0x3a,0x0c,0x40,0x76,0x6f,0x6c,0x75,0x6d,0x65,0x69,0x55))
  TeleportPlayer(0,2,330,208,0,0)
  0()



EVENT   20
 PAGE   1
  250(bytes(0x04,0x08,0x6f,0x3a,0x0c,0x52,0x50,0x47,0x3a,0x3a,0x53,0x45,0x08,0x3a,0x0a,0x40,0x6e,0x61,0x6d,0x65,0x49,0x22,0x09,0x4d,0x6f,0x76,0x65,0x06,0x3a,0x06,0x45,0x54,0x3a,0x0b,0x40,0x70,0x69,0x74,0x63,0x68,0x69,0x69,0x3a,0x0c,0x40,0x76,0x6f,0x6c,0x75,0x6d,0x65,0x69,0x55))
  TeleportPlayer(0,2,331,208,0,0)
  0()



EVENT   21
 PAGE   1
  250(bytes(0x04,0x08,0x6f,0x3a,0x0c,0x52,0x50,0x47,0x3a,0x3a,0x53,0x45,0x08,0x3a,0x0a,0x40,0x6e,0x61,0x6d,0x65,0x49,0x22,0x09,0x4d,0x6f,0x76,0x65,0x06,0x3a,0x06,0x45,0x54,0x3a,0x0b,0x40,0x70,0x69,0x74,0x63,0x68,0x69,0x69,0x3a,0x0c,0x40,0x76,0x6f,0x6c,0x75,0x6d,0x65,0x69,0x55))
  TeleportPlayer(0,2,331,208,0,0)
  0()



EVENT   22
 PAGE   1
  250(bytes(0x04,0x08,0x6f,0x3a,0x0c,0x52,0x50,0x47,0x3a,0x3a,0x53,0x45,0x08,0x3a,0x0a,0x40,0x6e,0x61,0x6d,0x65,0x49,0x22,0x09,0x4d,0x6f,0x76,0x65,0x06,0x3a,0x06,0x45,0x54,0x3a,0x0b,0x40,0x70,0x69,0x74,0x63,0x68,0x69,0x69,0x3a,0x0c,0x40,0x76,0x6f,0x6c,0x75,0x6d,0x65,0x69,0x55))
  TeleportPlayer(0,2,331,208,0,0)
  0()



EVENT   11
 PAGE   1
  250(bytes(0x04,0x08,0x6f,0x3a,0x0c,0x52,0x50,0x47,0x3a,0x3a,0x53,0x45,0x08,0x3a,0x0a,0x40,0x6e,0x61,0x6d,0x65,0x49,0x22,0x0a,0x4f,0x70,0x65,0x6e,0x31,0x06,0x3a,0x06,0x45,0x54,0x3a,0x0b,0x40,0x70,0x69,0x74,0x63,0x68,0x69,0x69,0x3a,0x0c,0x40,0x76,0x6f,0x6c,0x75,0x6d,0x65,0x69,0x55))
  205(0,bytes(0x04,0x08,0x6f,0x3a,0x13,0x52,0x50,0x47,0x3a,0x3a,0x4d,0x6f,0x76,0x65,0x52,0x6f,0x75,0x74,0x65,0x09,0x3a,0x0c,0x40,0x72,0x65,0x70,0x65,0x61,0x74,0x46,0x3a,0x0f,0x40,0x73,0x6b,0x69,0x70,0x70,0x61,0x62,0x6c,0x65,0x46,0x3a,0x0a,0x40,0x77,0x61,0x69,0x74,0x54,0x3a,0x0a,0x40,0x6c,0x69,0x73,0x74,0x5b,0x0c,0x6f,0x3a,0x15,0x52,0x50,0x47,0x3a,0x3a,0x4d,0x6f,0x76,0x65,0x43,0x6f,0x6d,0x6d,0x61,0x6e,0x64,0x07,0x3a,0x0a,0x40,0x63,0x6f,0x64,0x65,0x69,0x16,0x3a,0x10,0x40,0x70,0x61,0x72,0x61,0x6d,0x65,0x74,0x65,0x72,0x73,0x5b,0x00,0x6f,0x3b,0x0a,0x07,0x3b,0x0b,0x69,0x14,0x3b,0x0c,0x5b,0x06,0x69,0x08,0x6f,0x3b,0x0a,0x07,0x3b,0x0b,0x69,0x17,0x3b,0x0c,0x5b,0x00,0x6f,0x3b,0x0a,0x07,0x3b,0x0b,0x69,0x14,0x3b,0x0c,0x5b,0x06,0x69,0x08,0x6f,0x3b,0x0a,0x07,0x3b,0x0b,0x69,0x18,0x3b,0x0c,0x5b,0x00,0x6f,0x3b,0x0a,0x07,0x3b,0x0b,0x69,0x2a,0x3b,0x0c,0x5b,0x00,0x6f,0x3b,0x0a,0x07,0x3b,0x0b,0x69,0x00,0x3b,0x0c,0x5b,0x00))
  205(-1,bytes(0x04,0x08,0x6f,0x3a,0x13,0x52,0x50,0x47,0x3a,0x3a,0x4d,0x6f,0x76,0x65,0x52,0x6f,0x75,0x74,0x65,0x09,0x3a,0x0c,0x40,0x72,0x65,0x70,0x65,0x61,0x74,0x46,0x3a,0x0f,0x40,0x73,0x6b,0x69,0x70,0x70,0x61,0x62,0x6c,0x65,0x54,0x3a,0x0a,0x40,0x77,0x61,0x69,0x74,0x54,0x3a,0x0a,0x40,0x6c,0x69,0x73,0x74,0x5b,0x07,0x6f,0x3a,0x15,0x52,0x50,0x47,0x3a,0x3a,0x4d,0x6f,0x76,0x65,0x43,0x6f,0x6d,0x6d,0x61,0x6e,0x64,0x07,0x3a,0x0a,0x40,0x63,0x6f,0x64,0x65,0x69,0x11,0x3a,0x10,0x40,0x70,0x61,0x72,0x61,0x6d,0x65,0x74,0x65,0x72,0x73,0x5b,0x00,0x6f,0x3b,0x0a,0x07,0x3b,0x0b,0x69,0x00,0x3b,0x0c,0x5b,0x00))
  250(bytes(0x04,0x08,0x6f,0x3a,0x0c,0x52,0x50,0x47,0x3a,0x3a,0x53,0x45,0x08,0x3a,0x0a,0x40,0x6e,0x61,0x6d,0x65,0x49,0x22,0x09,0x4d,0x6f,0x76,0x65,0x06,0x3a,0x06,0x45,0x54,0x3a,0x0b,0x40,0x70,0x69,0x74,0x63,0x68,0x69,0x69,0x3a,0x0c,0x40,0x76,0x6f,0x6c,0x75,0x6d,0x65,0x69,0x55))
  TeleportPlayer(0,847,35,56,0,0)
  0()



EVENT   50
 PAGE   1
  250(bytes(0x04,0x08,0x6f,0x3a,0x0c,0x52,0x50,0x47,0x3a,0x3a,0x53,0x45,0x08,0x3a,0x0a,0x40,0x6e,0x61,0x6d,0x65,0x49,0x22,0x0a,0x49,0x74,0x65,0x6d,0x31,0x06,0x3a,0x06,0x45,0x54,0x3a,0x0b,0x40,0x70,0x69,0x74,0x63,0x68,0x69,0x69,0x3a,0x0c,0x40,0x76,0x6f,0x6c,0x75,0x6d,0x65,0x69,0x55))
  ChangeSelfSwitch("A",0)
  ChangeInventory_Item(13,0,0,1)
  0()
 PAGE   2
  // condition: self-switch A is ON
  0()



EVENT   51
 PAGE   1
  250(bytes(0x04,0x08,0x6f,0x3a,0x0c,0x52,0x50,0x47,0x3a,0x3a,0x53,0x45,0x08,0x3a,0x0a,0x40,0x6e,0x61,0x6d,0x65,0x49,0x22,0x0a,0x49,0x74,0x65,0x6d,0x31,0x06,0x3a,0x06,0x45,0x54,0x3a,0x0b,0x40,0x70,0x69,0x74,0x63,0x68,0x69,0x69,0x3a,0x0c,0x40,0x76,0x6f,0x6c,0x75,0x6d,0x65,0x69,0x55))
  ChangeSelfSwitch("A",0)
  ChangeInventory_Item(3,0,0,1)
  0()
 PAGE   2
  // condition: self-switch A is ON
  0()



EVENT   56
 PAGE   1
  250(bytes(0x04,0x08,0x6f,0x3a,0x0c,0x52,0x50,0x47,0x3a,0x3a,0x53,0x45,0x08,0x3a,0x0a,0x40,0x6e,0x61,0x6d,0x65,0x49,0x22,0x0a,0x4f,0x70,0x65,0x6e,0x31,0x06,0x3a,0x06,0x45,0x54,0x3a,0x0b,0x40,0x70,0x69,0x74,0x63,0x68,0x69,0x69,0x3a,0x0c,0x40,0x76,0x6f,0x6c,0x75,0x6d,0x65,0x69,0x55))
  205(0,bytes(0x04,0x08,0x6f,0x3a,0x13,0x52,0x50,0x47,0x3a,0x3a,0x4d,0x6f,0x76,0x65,0x52,0x6f,0x75,0x74,0x65,0x09,0x3a,0x0c,0x40,0x72,0x65,0x70,0x65,0x61,0x74,0x46,0x3a,0x0f,0x40,0x73,0x6b,0x69,0x70,0x70,0x61,0x62,0x6c,0x65,0x46,0x3a,0x0a,0x40,0x77,0x61,0x69,0x74,0x54,0x3a,0x0a,0x40,0x6c,0x69,0x73,0x74,0x5b,0x0c,0x6f,0x3a,0x15,0x52,0x50,0x47,0x3a,0x3a,0x4d,0x6f,0x76,0x65,0x43,0x6f,0x6d,0x6d,0x61,0x6e,0x64,0x07,0x3a,0x0a,0x40,0x63,0x6f,0x64,0x65,0x69,0x16,0x3a,0x10,0x40,0x70,0x61,0x72,0x61,0x6d,0x65,0x74,0x65,0x72,0x73,0x5b,0x00,0x6f,0x3b,0x0a,0x07,0x3b,0x0b,0x69,0x14,0x3b,0x0c,0x5b,0x06,0x69,0x08,0x6f,0x3b,0x0a,0x07,0x3b,0x0b,0x69,0x17,0x3b,0x0c,0x5b,0x00,0x6f,0x3b,0x0a,0x07,0x3b,0x0b,0x69,0x14,0x3b,0x0c,0x5b,0x06,0x69,0x08,0x6f,0x3b,0x0a,0x07,0x3b,0x0b,0x69,0x18,0x3b,0x0c,0x5b,0x00,0x6f,0x3b,0x0a,0x07,0x3b,0x0b,0x69,0x2a,0x3b,0x0c,0x5b,0x00,0x6f,0x3b,0x0a,0x07,0x3b,0x0b,0x69,0x00,0x3b,0x0c,0x5b,0x00))
  205(-1,bytes(0x04,0x08,0x6f,0x3a,0x13,0x52,0x50,0x47,0x3a,0x3a,0x4d,0x6f,0x76,0x65,0x52,0x6f,0x75,0x74,0x65,0x09,0x3a,0x0c,0x40,0x72,0x65,0x70,0x65,0x61,0x74,0x46,0x3a,0x0f,0x40,0x73,0x6b,0x69,0x70,0x70,0x61,0x62,0x6c,0x65,0x54,0x3a,0x0a,0x40,0x77,0x61,0x69,0x74,0x54,0x3a,0x0a,0x40,0x6c,0x69,0x73,0x74,0x5b,0x07,0x6f,0x3a,0x15,0x52,0x50,0x47,0x3a,0x3a,0x4d,0x6f,0x76,0x65,0x43,0x6f,0x6d,0x6d,0x61,0x6e,0x64,0x07,0x3a,0x0a,0x40,0x63,0x6f,0x64,0x65,0x69,0x11,0x3a,0x10,0x40,0x70,0x61,0x72,0x61,0x6d,0x65,0x74,0x65,0x72,0x73,0x5b,0x00,0x6f,0x3b,0x0a,0x07,0x3b,0x0b,0x69,0x00,0x3b,0x0c,0x5b,0x00))
  250(bytes(0x04,0x08,0x6f,0x3a,0x0c,0x52,0x50,0x47,0x3a,0x3a,0x53,0x45,0x08,0x3a,0x0a,0x40,0x6e,0x61,0x6d,0x65,0x49,0x22,0x09,0x4d,0x6f,0x76,0x65,0x06,0x3a,0x06,0x45,0x54,0x3a,0x0b,0x40,0x70,0x69,0x74,0x63,0x68,0x69,0x69,0x3a,0x0c,0x40,0x76,0x6f,0x6c,0x75,0x6d,0x65,0x69,0x55))
  TeleportPlayer(0,847,35,16,0,0)
  0()



EVENT   16
 PAGE   1
  250(bytes(0x04,0x08,0x6f,0x3a,0x0c,0x52,0x50,0x47,0x3a,0x3a,0x53,0x45,0x08,0x3a,0x0a,0x40,0x6e,0x61,0x6d,0x65,0x49,0x22,0x0a,0x4f,0x70,0x65,0x6e,0x31,0x06,0x3a,0x06,0x45,0x54,0x3a,0x0b,0x40,0x70,0x69,0x74,0x63,0x68,0x69,0x69,0x3a,0x0c,0x40,0x76,0x6f,0x6c,0x75,0x6d,0x65,0x69,0x55))
  205(0,bytes(0x04,0x08,0x6f,0x3a,0x13,0x52,0x50,0x47,0x3a,0x3a,0x4d,0x6f,0x76,0x65,0x52,0x6f,0x75,0x74,0x65,0x09,0x3a,0x0c,0x40,0x72,0x65,0x70,0x65,0x61,0x74,0x46,0x3a,0x0f,0x40,0x73,0x6b,0x69,0x70,0x70,0x61,0x62,0x6c,0x65,0x46,0x3a,0x0a,0x40,0x77,0x61,0x69,0x74,0x54,0x3a,0x0a,0x40,0x6c,0x69,0x73,0x74,0x5b,0x0c,0x6f,0x3a,0x15,0x52,0x50,0x47,0x3a,0x3a,0x4d,0x6f,0x76,0x65,0x43,0x6f,0x6d,0x6d,0x61,0x6e,0x64,0x07,0x3a,0x0a,0x40,0x63,0x6f,0x64,0x65,0x69,0x16,0x3a,0x10,0x40,0x70,0x61,0x72,0x61,0x6d,0x65,0x74,0x65,0x72,0x73,0x5b,0x00,0x6f,0x3b,0x0a,0x07,0x3b,0x0b,0x69,0x14,0x3b,0x0c,0x5b,0x06,0x69,0x08,0x6f,0x3b,0x0a,0x07,0x3b,0x0b,0x69,0x17,0x3b,0x0c,0x5b,0x00,0x6f,0x3b,0x0a,0x07,0x3b,0x0b,0x69,0x14,0x3b,0x0c,0x5b,0x06,0x69,0x08,0x6f,0x3b,0x0a,0x07,0x3b,0x0b,0x69,0x18,0x3b,0x0c,0x5b,0x00,0x6f,0x3b,0x0a,0x07,0x3b,0x0b,0x69,0x2a,0x3b,0x0c,0x5b,0x00,0x6f,0x3b,0x0a,0x07,0x3b,0x0b,0x69,0x00,0x3b,0x0c,0x5b,0x00))
  205(-1,bytes(0x04,0x08,0x6f,0x3a,0x13,0x52,0x50,0x47,0x3a,0x3a,0x4d,0x6f,0x76,0x65,0x52,0x6f,0x75,0x74,0x65,0x09,0x3a,0x0c,0x40,0x72,0x65,0x70,0x65,0x61,0x74,0x46,0x3a,0x0f,0x40,0x73,0x6b,0x69,0x70,0x70,0x61,0x62,0x6c,0x65,0x54,0x3a,0x0a,0x40,0x77,0x61,0x69,0x74,0x54,0x3a,0x0a,0x40,0x6c,0x69,0x73,0x74,0x5b,0x07,0x6f,0x3a,0x15,0x52,0x50,0x47,0x3a,0x3a,0x4d,0x6f,0x76,0x65,0x43,0x6f,0x6d,0x6d,0x61,0x6e,0x64,0x07,0x3a,0x0a,0x40,0x63,0x6f,0x64,0x65,0x69,0x11,0x3a,0x10,0x40,0x70,0x61,0x72,0x61,0x6d,0x65,0x74,0x65,0x72,0x73,0x5b,0x00,0x6f,0x3b,0x0a,0x07,0x3b,0x0b,0x69,0x00,0x3b,0x0c,0x5b,0x00))
  250(bytes(0x04,0x08,0x6f,0x3a,0x0c,0x52,0x50,0x47,0x3a,0x3a,0x53,0x45,0x08,0x3a,0x0a,0x40,0x6e,0x61,0x6d,0x65,0x49,0x22,0x09,0x4d,0x6f,0x76,0x65,0x06,0x3a,0x06,0x45,0x54,0x3a,0x0b,0x40,0x70,0x69,0x74,0x63,0x68,0x69,0x69,0x3a,0x0c,0x40,0x76,0x6f,0x6c,0x75,0x6d,0x65,0x69,0x55))
  TeleportPlayer(0,847,58,15,0,0)
  0()



EVENT   43
 PAGE   1
  250(bytes(0x04,0x08,0x6f,0x3a,0x0c,0x52,0x50,0x47,0x3a,0x3a,0x53,0x45,0x08,0x3a,0x0a,0x40,0x6e,0x61,0x6d,0x65,0x49,0x22,0x0a,0x49,0x74,0x65,0x6d,0x31,0x06,0x3a,0x06,0x45,0x54,0x3a,0x0b,0x40,0x70,0x69,0x74,0x63,0x68,0x69,0x69,0x3a,0x0c,0x40,0x76,0x6f,0x6c,0x75,0x6d,0x65,0x69,0x55))
  ChangeSelfSwitch("A",0)
  ChangeInventory_Item(32,0,0,1)
  0()
 PAGE   2
  // condition: self-switch A is ON
  0()



EVENT   39
 PAGE   1
  250(bytes(0x04,0x08,0x6f,0x3a,0x0c,0x52,0x50,0x47,0x3a,0x3a,0x53,0x45,0x08,0x3a,0x0a,0x40,0x6e,0x61,0x6d,0x65,0x49,0x22,0x09,0x4d,0x6f,0x76,0x65,0x06,0x3a,0x06,0x45,0x54,0x3a,0x0b,0x40,0x70,0x69,0x74,0x63,0x68,0x69,0x69,0x3a,0x0c,0x40,0x76,0x6f,0x6c,0x75,0x6d,0x65,0x69,0x55))
  TeleportPlayer(0,847,4,146,6,0)
  0()



EVENT   23
 PAGE   1
  ShowMessageFace("kazuya_fc1",0,0,2,1)
  ShowMessage("\\n<Kazuya>")
  ShowMessage("せっかく、ここから出たんだ。")
  ShowMessage("また戻る気はないな……")
  EndEventProcessing()
  0()



EVENT   12
 PAGE   1
  0()
 PAGE   2
  // condition: variable 1206 >= 1
  0()



EVENT   24
 PAGE   1
  0()
 PAGE   2
  // condition: variable 1206 >= 1
  0()
 PAGE   3
  // condition: variable 1206 >= 10
  0()
 PAGE   4
  // condition: variable 1206 >= 11
  0()



EVENT   25
 PAGE   1
  0()



EVENT   26
 PAGE   1
  0()



EVENT   27
 PAGE   1
  0()



EVENT   28
 PAGE   1
  0()



EVENT   29
 PAGE   1
  0()



EVENT   30
 PAGE   1
  // condition: variable 1205 >= 6
  355("keep_all_equip")
  355("set_temp_actors(815,811,816,813)")
  314(0,0)
  241(bytes(0x04,0x08,0x6f,0x3a,0x0d,0x52,0x50,0x47,0x3a,0x3a,0x42,0x47,0x4d,0x08,0x3a,0x0a,0x40,0x6e,0x61,0x6d,0x65,0x49,0x22,0x0c,0x62,0x6f,0x73,0x73,0x30,0x2d,0x34,0x06,0x3a,0x06,0x45,0x54,0x3a,0x0c,0x40,0x76,0x6f,0x6c,0x75,0x6d,0x65,0x69,0x69,0x3a,0x0b,0x40,0x70,0x69,0x74,0x63,0x68,0x69,0x69))
  222()
  205(12,bytes(0x04,0x08,0x6f,0x3a,0x13,0x52,0x50,0x47,0x3a,0x3a,0x4d,0x6f,0x76,0x65,0x52,0x6f,0x75,0x74,0x65,0x09,0x3a,0x0c,0x40,0x72,0x65,0x70,0x65,0x61,0x74,0x46,0x3a,0x0f,0x40,0x73,0x6b,0x69,0x70,0x70,0x61,0x62,0x6c,0x65,0x46,0x3a,0x0a,0x40,0x77,0x61,0x69,0x74,0x54,0x3a,0x0a,0x40,0x6c,0x69,0x73,0x74,0x5b,0x07,0x6f,0x3a,0x15,0x52,0x50,0x47,0x3a,0x3a,0x4d,0x6f,0x76,0x65,0x43,0x6f,0x6d,0x6d,0x61,0x6e,0x64,0x07,0x3a,0x0a,0x40,0x63,0x6f,0x64,0x65,0x69,0x18,0x3a,0x10,0x40,0x70,0x61,0x72,0x61,0x6d,0x65,0x74,0x65,0x72,0x73,0x5b,0x00,0x6f,0x3b,0x0a,0x07,0x3b,0x0b,0x69,0x00,0x3b,0x0c,0x5b,0x00))
  205(24,bytes(0x04,0x08,0x6f,0x3a,0x13,0x52,0x50,0x47,0x3a,0x3a,0x4d,0x6f,0x76,0x65,0x52,0x6f,0x75,0x74,0x65,0x09,0x3a,0x0c,0x40,0x72,0x65,0x70,0x65,0x61,0x74,0x46,0x3a,0x0f,0x40,0x73,0x6b,0x69,0x70,0x70,0x61,0x62,0x6c,0x65,0x46,0x3a,0x0a,0x40,0x77,0x61,0x69,0x74,0x54,0x3a,0x0a,0x40,0x6c,0x69,0x73,0x74,0x5b,0x07,0x6f,0x3a,0x15,0x52,0x50,0x47,0x3a,0x3a,0x4d,0x6f,0x76,0x65,0x43,0x6f,0x6d,0x6d,0x61,0x6e,0x64,0x07,0x3a,0x0a,0x40,0x63,0x6f,0x64,0x65,0x69,0x18,0x3a,0x10,0x40,0x70,0x61,0x72,0x61,0x6d,0x65,0x74,0x65,0x72,0x73,0x5b,0x00,0x6f,0x3b,0x0a,0x07,0x3b,0x0b,0x69,0x00,0x3b,0x0c,0x5b,0x00))
  Wait(60)
  PictureDisplay(5,"80_nemea_st01",0,0,0,0,100,100,0,0)
  PictureMove(5,null,0,0,0,0,100,100,255,0,30,true)
  ShowMessageFace("nemea_fc1",0,0,2,1)
  ShowMessage("\\n<Nemea>")
  ShowMessage("あらあら。")
  ShowMessage("ミュスカの領域から抜け出た人達がいるなんて……")
  PictureDisplay(5,"80_nemea_st01",0,0,-150,0,100,100,255,0)
  PictureDisplay(6,"80_vinum_st01",0,0,150,0,100,100,255,0)
  ShowMessageFace("vinum_fc1",0,0,2,2)
  ShowMessage("\\n<Vinum>")
  ShowMessage("ほう……？")
  ShowMessage("少しは面白くなってきたようじゃのう……")
  ShowMessageFace("kazuya_fc2",2,0,2,3)
  ShowMessage("\\n<Kazuya>")
  ShowMessage("こんな、まさか……")
  ShowMessageFace("byakunen_fc1",3,0,2,4)
  ShowMessage("\\n<Hakunen>")
  ShowMessage("ああ、こんな事って……")
  ShowMessageFace("",0,0,2,5)
  ShowMessage("家から脱出した僕達が目にしたのは、占拠された村。")
  ShowMessage("悪夢の脱出ゲームは、まだ終わってはいなかった――")
  PictureClear(6)
  PictureDisplay(5,"80_nemea_st01",0,0,0,0,100,100,255,0)
  ShowMessageFace("nemea_fc1",0,0,2,6)
  ShowMessage("\\n<Nemea>")
  ShowMessage("ルールは知っているわね、二人とも。")
  ShowMessage("ただ、この村から生きて出れば良いだけ……")
  ShowMessageFace("",0,0,2,7)
  ShowMessage("この淫魔も、あのミュスカと同格。")
  ShowMessage("その恐ろしさは、対峙しているだけでも分かる。")
  ShowMessageFace("",0,0,2,8)
  ShowMessage("だが、それ以上に――")
  PictureDisplay(5,"80_vinum_st04",0,0,0,0,100,100,255,0)
  ShowMessageFace("vinum_fc1",3,0,2,9)
  ShowMessage("\\n<Vinum>")
  ShowMessage("さて、儂も少し愉しませてもらおうかのう。")
  ShowMessage("つまらない罠で、果てるでないぞ……？")
  ShowMessageFace("",0,0,2,10)
  ShowMessage("……こっちは、もう絶対に無理だ。")
  ShowMessage("まともに戦えるような相手じゃない――")
  PictureDisplay(5,"80_nemea_st01",0,0,-150,0,100,100,0,0)
  PictureDisplay(6,"80_vinum_st01",0,0,150,0,100,100,0,0)
  PictureMove(5,null,0,0,-150,0,100,100,255,0,30,false)
  PictureMove(6,null,0,0,150,0,100,100,255,0,30,true)
  ShowMessageFace("byakunen_fc1",3,0,2,11)
  ShowMessage("\\n<Hakunen>")
  ShowMessage("あ、あなた達は――")
  PictureDisplay(5,"80_nemea_st04",0,0,-150,0,100,100,255,0)
  ShowMessageFace("nemea_fc1",3,0,2,12)
  ShowMessage("\\n<Nemea>")
  ShowMessage("あら、どうしたの……？")
  ShowMessageFace("byakunen_fc2",4,0,2,13)
  ShowMessage("\\n<Hakunen>")
  ShowMessage("あなた達は、いったい何なんです！？")
  ShowMessage("人を玩具みたいに扱って！　簡単に殺して！")
  PictureDisplay(5,"80_nemea_st01",0,0,-150,0,100,100,255,0)
  ShowMessageFace("kazuya_fc2",2,0,2,14)
  ShowMessage("\\n<Kazuya>")
  ShowMessage("よせ、白念くん……")
  ShowMessage("こいつらは、ヒトと同じ価値観を持っていない。")
  ShowMessageFace("kazuya_fc2",2,0,2,15)
  ShowMessage("\\n<Kazuya>")
  ShowMessage("この悪魔達にとって、ヒトは「そういう存在」……")
  ShowMessage("ただ、それだけのことさ。")
  ShowMessageFace("vinum_fc1",0,0,2,16)
  ShowMessage("\\n<Vinum>")
  ShowMessage("くふふ……小僧、心得ておるではないか。")
  ShowMessage("儂等のような者の相手をしたのも、一度や二度ではなかろう。")
  PictureDisplay(6,"80_vinum_st05",0,0,150,0,100,100,255,0)
  ShowMessageFace("vinum_fc1",4,0,2,17)
  ShowMessage("\\n<Vinum>")
  ShowMessage("いや……小僧も、こちら側か？")
  ShowMessage("ずいぶん危うく見えるぞ、くくっ……")
  ShowMessageFace("kazuya_fc2",0,0,2,18)
  ShowMessage("\\n<Kazuya>")
  ShowMessage("…………余計なお世話だ。")
  ShowMessage("僕は\\C[10]『あれ』\\C[0]には頼らない。")
  ShowMessageFace("",0,0,2,19)
  ShowMessage("やはり、このヴィヌムとやらは底知れない。")
  ShowMessage("絶対に戦闘は避けた方が良さそうだ――")
  PictureDisplay(5,"80_nemea_st02",0,0,-150,0,100,100,255,0)
  ShowMessageFace("nemea_fc1",1,0,2,20)
  ShowMessage("\\n<Nemea>")
  ShowMessage("それじゃあ、また会いましょう。")
  ShowMessage("私達が用意したゲーム、楽しんでね……")
  ShowMessageFace("vinum_fc1",4,0,2,21)
  ShowMessage("\\n<Vinum>")
  ShowMessage("儂は、骨のある人間の方が好みでのう……")
  ShowMessage("小僧ども……死ぬ気で足掻くのじゃぞ？　くふふっ……")
  PictureClear(5)
  PictureClear(6)
  Wait(30)
  212(12,542,false)
  Wait(60)
  205(12,bytes(0x04,0x08,0x6f,0x3a,0x13,0x52,0x50,0x47,0x3a,0x3a,0x4d,0x6f,0x76,0x65,0x52,0x6f,0x75,0x74,0x65,0x09,0x3a,0x0c,0x40,0x72,0x65,0x70,0x65,0x61,0x74,0x46,0x3a,0x0f,0x40,0x73,0x6b,0x69,0x70,0x70,0x61,0x62,0x6c,0x65,0x46,0x3a,0x0a,0x40,0x77,0x61,0x69,0x74,0x54,0x3a,0x0a,0x40,0x6c,0x69,0x73,0x74,0x5b,0x07,0x6f,0x3a,0x15,0x52,0x50,0x47,0x3a,0x3a,0x4d,0x6f,0x76,0x65,0x43,0x6f,0x6d,0x6d,0x61,0x6e,0x64,0x07,0x3a,0x0a,0x40,0x63,0x6f,0x64,0x65,0x69,0x2c,0x3a,0x10,0x40,0x70,0x61,0x72,0x61,0x6d,0x65,0x74,0x65,0x72,0x73,0x5b,0x00,0x6f,0x3b,0x0a,0x07,0x3b,0x0b,0x69,0x00,0x3b,0x0c,0x5b,0x00))
  212(24,542,false)
  Wait(60)
  205(24,bytes(0x04,0x08,0x6f,0x3a,0x13,0x52,0x50,0x47,0x3a,0x3a,0x4d,0x6f,0x76,0x65,0x52,0x6f,0x75,0x74,0x65,0x09,0x3a,0x0c,0x40,0x72,0x65,0x70,0x65,0x61,0x74,0x46,0x3a,0x0f,0x40,0x73,0x6b,0x69,0x70,0x70,0x61,0x62,0x6c,0x65,0x46,0x3a,0x0a,0x40,0x77,0x61,0x69,0x74,0x54,0x3a,0x0a,0x40,0x6c,0x69,0x73,0x74,0x5b,0x07,0x6f,0x3a,0x15,0x52,0x50,0x47,0x3a,0x3a,0x4d,0x6f,0x76,0x65,0x43,0x6f,0x6d,0x6d,0x61,0x6e,0x64,0x07,0x3a,0x0a,0x40,0x63,0x6f,0x64,0x65,0x69,0x2c,0x3a,0x10,0x40,0x70,0x61,0x72,0x61,0x6d,0x65,0x74,0x65,0x72,0x73,0x5b,0x00,0x6f,0x3b,0x0a,0x07,0x3b,0x0b,0x69,0x00,0x3b,0x0c,0x5b,0x00))
  Wait(60)
  ShowMessageFace("",0,0,2,22)
  ShowMessage("ネメアとヴィヌムは、その場から姿を消した――")
  241(bytes(0x04,0x08,0x6f,0x3a,0x0d,0x52,0x50,0x47,0x3a,0x3a,0x42,0x47,0x4d,0x08,0x3a,0x0a,0x40,0x6e,0x61,0x6d,0x65,0x49,0x22,0x16,0x64,0x75,0x6e,0x67,0x65,0x6f,0x6e,0x5f,0x74,0x61,0x72,0x75,0x74,0x61,0x72,0x6f,0x31,0x06,0x3a,0x06,0x45,0x54,0x3a,0x0c,0x40,0x76,0x6f,0x6c,0x75,0x6d,0x65,0x69,0x69,0x3a,0x0b,0x40,0x70,0x69,0x74,0x63,0x68,0x69,0x69))
  ChangeVariable(1206,1206,0,0,1)
  PictureDisplay(5,"80_byakunen_st01",0,0,0,0,100,100,0,0)
  PictureMove(5,null,0,0,0,0,100,100,255,0,30,true)
  ShowMessageFace("byakunen_fc1",2,0,2,23)
  ShowMessage("\\n<Hakunen>")
  ShowMessage("行ってしまいましたね……")
  ShowMessage("うわ、手汗がすごいです……")
  ShowMessageFace("kazuya_fc2",2,0,2,24)
  ShowMessage("\\n<Kazuya>")
  ShowMessage("あんな怪物と対峙したなら、仕方ないさ。")
  ShowMessage("なるべく、戦わずに済ませたいな……")
  ShowMessageFace("",0,0,2,25)
  ShowMessage("ミュスカの時のようなラッキーが、そう何度も起こるとは思えない。")
  ShowMessage("やはり、捕まったら終わりだと考えた方が良いだろう。")
  ShowMessageFace("kazuya_fc2",0,0,2,26)
  ShowMessage("\\n<Kazuya>")
  ShowMessage("それじゃあ、あらためてゲームに乗ってやるか。")
  ShowMessage("さっさと、ここから出よう。")
  ShowMessageFace("byakunen_fc1",0,0,2,27)
  ShowMessage("\\n<Hakunen>")
  ShowMessage("はい、みんなの力で脱出しましょう！")
  PictureDisplay(5,"80_lanpass_st01",0,0,-150,0,100,100,255,0)
  PictureDisplay(6,"80_youkosan_st01",0,0,150,0,100,100,255,0)
  ShowMessageFace("lanpass_fc2",3,0,2,28)
  ShowMessage("\\n<Lampas>")
  ShowMessage("がんばってね～♪")
  ShowMessage("私は、後ろで応援してるから。")
  ShowMessageFace("youkosan_fc1",0,0,2,29)
  ShowMessage("\\n<Dream Fox>")
  ShowMessage("ウチも、応援なら任せてくれよな！")
  ShowMessageFace("kazuya_fc2",3,0,2,30)
  ShowMessage("\\n<Kazuya>")
  ShowMessage("お前達も戦うんだよ！")
  PictureClear(5)
  PictureClear(6)
  EndEventProcessing()
  0()
 PAGE   2
  // condition: variable 1206 >= 1
  0()



EVENT   31
 PAGE   1
  // condition: variable 1206 >= 10
  205(-1,bytes(0x04,0x08,0x6f,0x3a,0x13,0x52,0x50,0x47,0x3a,0x3a,0x4d,0x6f,0x76,0x65,0x52,0x6f,0x75,0x74,0x65,0x09,0x3a,0x0c,0x40,0x72,0x65,0x70,0x65,0x61,0x74,0x46,0x3a,0x0f,0x40,0x73,0x6b,0x69,0x70,0x70,0x61,0x62,0x6c,0x65,0x46,0x3a,0x0a,0x40,0x77,0x61,0x69,0x74,0x54,0x3a,0x0a,0x40,0x6c,0x69,0x73,0x74,0x5b,0x09,0x6f,0x3a,0x15,0x52,0x50,0x47,0x3a,0x3a,0x4d,0x6f,0x76,0x65,0x43,0x6f,0x6d,0x6d,0x61,0x6e,0x64,0x07,0x3a,0x0a,0x40,0x63,0x6f,0x64,0x65,0x69,0x06,0x3a,0x10,0x40,0x70,0x61,0x72,0x61,0x6d,0x65,0x74,0x65,0x72,0x73,0x5b,0x00,0x6f,0x3b,0x0a,0x07,0x3b,0x0b,0x69,0x06,0x3b,0x0c,0x5b,0x00,0x6f,0x3b,0x0a,0x07,0x3b,0x0b,0x69,0x06,0x3b,0x0c,0x5b,0x00,0x6f,0x3b,0x0a,0x07,0x3b,0x0b,0x69,0x00,0x3b,0x0c,0x5b,0x00))
  217()
  216(0)
  241(bytes(0x04,0x08,0x6f,0x3a,0x0d,0x52,0x50,0x47,0x3a,0x3a,0x42,0x47,0x4d,0x08,0x3a,0x0a,0x40,0x6e,0x61,0x6d,0x65,0x49,0x22,0x0c,0x62,0x6f,0x73,0x73,0x30,0x2d,0x34,0x06,0x3a,0x06,0x45,0x54,0x3a,0x0c,0x40,0x76,0x6f,0x6c,0x75,0x6d,0x65,0x69,0x69,0x3a,0x0b,0x40,0x70,0x69,0x74,0x63,0x68,0x69,0x69))
  PictureDisplay(5,"80_nemea_st02",0,0,0,0,100,100,0,0)
  PictureMove(5,null,0,0,0,0,100,100,255,0,30,true)
  ShowMessageFace("nemea_fc1",1,0,2,1)
  ShowMessage("\\n<Nemea>")
  ShowMessage("はい、残念でした……♡")
  ShowMessage("あなた達のゲームも、ここで終わりよ。")
  ShowMessageFace("kazuya_fc2",2,0,2,2)
  ShowMessage("\\n<Kazuya>")
  ShowMessage("くっ、待ち伏せされていたのか……！")
  ShowMessageFace("",0,0,2,3)
  ShowMessage("予想はしていたが、ミュスカの時と同じ展開だ。")
  ShowMessage("出口に居座られていては、逃げる事は出来ない――")
  ShowMessageFace("",0,0,2,4)
  ShowMessage("しかも今回は、ヴィヌムが追ってきている。")
  ShowMessage("時間をかければ、挟み撃ちだ――")
  ShowMessageFace("byakunen_fc2",4,0,2,5)
  ShowMessage("\\n<Hakunen>")
  ShowMessage("どうしますか、カズヤさん……？")
  ShowMessageFace("kazuya_fc2",2,0,2,6)
  ShowMessage("\\n<Kazuya>")
  ShowMessage("やるしかないけど、勝つ事は考えるな！")
  ShowMessage("なんとかネメアの隙を作って、逃げるんだ！")
  PictureDisplay(5,"80_nemea_st06",0,0,0,0,100,100,255,0)
  ShowMessageFace("nemea_fc1",5,0,2,7)
  ShowMessage("\\n<Nemea>")
  ShowMessage("あらあら、私と遊んでくれるの？")
  ShowMessage("でも……そう上手くいくかしら……？")
  ShowMessageFace("kazuya_fc2",2,0,2,8)
  ShowMessage("\\n<Kazuya>")
  ShowMessage("……………………")
  ShowMessageFace("",0,0,2,9)
  ShowMessage("ネメアと対峙し、僕は息を呑んだ。")
  ShowMessage("ミュスカの時のような奇跡は、もう期待できない。")
  ShowMessageFace("",0,0,2,10)
  ShowMessage("この怪物が相手では、隙を作り出す事さえ困難だろう。")
  ShowMessage("だが、覚悟を決めるしかない――")
  ShowMessageFace("kazuya_fc2",2,0,2,11)
  ShowMessage("\\n<Kazuya>")
  ShowMessage("ここが正念場か……行くぞ！")
  ShowMessageFace("byakunen_fc3",0,0,2,12)
  ShowMessage("\\n<Hakunen>")
  ShowMessage("はい！　お供します！")
  ShowMessageFace("nemea_fc1",5,0,2,13)
  ShowMessage("\\n<Nemea>")
  ShowMessage("うふふ、元気が良いわね。")
  ShowMessage("さあ、お姉さんを愉しませて……♡")
  SetBattleBGM(bytes(0x04,0x08,0x6f,0x3a,0x0d,0x52,0x50,0x47,0x3a,0x3a,0x42,0x47,0x4d,0x08,0x3a,0x0a,0x40,0x6e,0x61,0x6d,0x65,0x49,0x22,0x0a,0x62,0x6f,0x73,0x73,0x32,0x06,0x3a,0x06,0x45,0x54,0x3a,0x0c,0x40,0x76,0x6f,0x6c,0x75,0x6d,0x65,0x69,0x69,0x3a,0x0b,0x40,0x70,0x69,0x74,0x63,0x68,0x69,0x69))
  Battle(0,1356,false,false)
  SetBattleBGM(bytes(0x04,0x08,0x6f,0x3a,0x0d,0x52,0x50,0x47,0x3a,0x3a,0x42,0x47,0x4d,0x08,0x3a,0x0a,0x40,0x6e,0x61,0x6d,0x65,0x49,0x22,0x0b,0x62,0x61,0x74,0x74,0x6c,0x65,0x06,0x3a,0x06,0x45,0x54,0x3a,0x0c,0x40,0x76,0x6f,0x6c,0x75,0x6d,0x65,0x69,0x69,0x3a,0x0b,0x40,0x70,0x69,0x74,0x63,0x68,0x69,0x69))
  241(bytes(0x04,0x08,0x6f,0x3a,0x0d,0x52,0x50,0x47,0x3a,0x3a,0x42,0x47,0x4d,0x08,0x3a,0x0a,0x40,0x6e,0x61,0x6d,0x65,0x49,0x22,0x0a,0x6b,0x69,0x6b,0x69,0x32,0x06,0x3a,0x06,0x45,0x54,0x3a,0x0c,0x40,0x76,0x6f,0x6c,0x75,0x6d,0x65,0x69,0x69,0x3a,0x0b,0x40,0x70,0x69,0x74,0x63,0x68,0x69,0x69))
  ShowMessageFace("nemea_fc1",5,0,2,14)
  ShowMessage("\\n<Nemea>")
  ShowMessage("うふふっ、ずいぶん頑張るのね。")
  ShowMessage("ますます、あなた達を食べたくなっちゃったわぁ……♡")
  ShowMessageFace("kazuya_fc2",2,0,2,15)
  ShowMessage("\\n<Kazuya>")
  ShowMessage("やっぱり、強い……！")
  ShowMessageFace("byakunen_fc3",3,0,2,16)
  ShowMessage("\\n<Hakunen>")
  ShowMessage("もう、私達には余力が……")
  ShowMessageFace("",0,0,2,17)
  ShowMessage("一瞬だけ、ネメアをたじろがせたものの――")
  ShowMessage("逃げられるほどの隙を作ることは出来なかった。")
  ShowMessageFace("nemea_fc1",5,0,2,18)
  ShowMessage("\\n<Nemea>")
  ShowMessage("こんなに焦らされて……もう我慢できない……♡")
  ShowMessage("さあ、誰から食べてほしいの……？")
  ShowMessageFace("lanpass_fc2",6,0,2,19)
  ShowMessage("\\n<Lampas>")
  ShowMessage("白念君の方が、おいしそうじゃないかな？")
  ShowMessageFace("youkosan_fc1",3,0,2,20)
  ShowMessage("\\n<Dream Fox>")
  ShowMessage("カズヤ君の方が、あっさり塩味でおいしいよ！")
  PictureDisplay(5,"80_nemea_st02",0,0,0,0,100,100,255,0)
  ShowMessageFace("nemea_fc1",1,0,2,21)
  ShowMessage("\\n<Nemea>")
  ShowMessage("そっちのお花とキツネちゃんは……")
  ShowMessage("デザートってところかしら？")
  ShowMessageFace("lanpass_fc2",6,0,2,22)
  ShowMessage("\\n<Lampas>")
  ShowMessage("い、いやいやいや！")
  ShowMessage("私は性格最悪のクソ上司が元だし、不味いって！")
  ShowMessageFace("youkosan_fc1",3,0,2,23)
  ShowMessage("\\n<Dream Fox>")
  ShowMessage("ウチだって安酒の味しかしないよ！")
  ShowMessage("だから、おたすけー！！")
  PictureClear(5)
  Wait(30)
  205(-1,bytes(0x04,0x08,0x6f,0x3a,0x13,0x52,0x50,0x47,0x3a,0x3a,0x4d,0x6f,0x76,0x65,0x52,0x6f,0x75,0x74,0x65,0x09,0x3a,0x0c,0x40,0x72,0x65,0x70,0x65,0x61,0x74,0x46,0x3a,0x0f,0x40,0x73,0x6b,0x69,0x70,0x70,0x61,0x62,0x6c,0x65,0x46,0x3a,0x0a,0x40,0x77,0x61,0x69,0x74,0x54,0x3a,0x0a,0x40,0x6c,0x69,0x73,0x74,0x5b,0x07,0x6f,0x3a,0x15,0x52,0x50,0x47,0x3a,0x3a,0x4d,0x6f,0x76,0x65,0x43,0x6f,0x6d,0x6d,0x61,0x6e,0x64,0x07,0x3a,0x0a,0x40,0x63,0x6f,0x64,0x65,0x69,0x18,0x3a,0x10,0x40,0x70,0x61,0x72,0x61,0x6d,0x65,0x74,0x65,0x72,0x73,0x5b,0x00,0x6f,0x3b,0x0a,0x07,0x3b,0x0b,0x69,0x00,0x3b,0x0c,0x5b,0x00))
  ShowMessageFace("kazuya_fc2",3,0,2,24)
  ShowMessage("\\n<Kazuya>")
  ShowMessage("ここは、いったん引き返すぞ！")
  ShowMessage("別ルートを見つけて、脱出を――")
  241(bytes(0x04,0x08,0x6f,0x3a,0x0d,0x52,0x50,0x47,0x3a,0x3a,0x42,0x47,0x4d,0x08,0x3a,0x0a,0x40,0x6e,0x61,0x6d,0x65,0x49,0x22,0x0c,0x62,0x6f,0x73,0x73,0x30,0x2d,0x34,0x06,0x3a,0x06,0x45,0x54,0x3a,0x0c,0x40,0x76,0x6f,0x6c,0x75,0x6d,0x65,0x69,0x69,0x3a,0x0b,0x40,0x70,0x69,0x74,0x63,0x68,0x69,0x69))
  250(bytes(0x04,0x08,0x6f,0x3a,0x0c,0x52,0x50,0x47,0x3a,0x3a,0x53,0x45,0x08,0x3a,0x0a,0x40,0x6e,0x61,0x6d,0x65,0x49,0x22,0x09,0x4d,0x6f,0x76,0x65,0x06,0x3a,0x06,0x45,0x54,0x3a,0x0b,0x40,0x70,0x69,0x74,0x63,0x68,0x69,0x69,0x3a,0x0c,0x40,0x76,0x6f,0x6c,0x75,0x6d,0x65,0x69,0x55))
  TeleportEvent(24,0,18,28,2)
  205(24,bytes(0x04,0x08,0x6f,0x3a,0x13,0x52,0x50,0x47,0x3a,0x3a,0x4d,0x6f,0x76,0x65,0x52,0x6f,0x75,0x74,0x65,0x09,0x3a,0x0c,0x40,0x72,0x65,0x70,0x65,0x61,0x74,0x46,0x3a,0x0f,0x40,0x73,0x6b,0x69,0x70,0x70,0x61,0x62,0x6c,0x65,0x46,0x3a,0x0a,0x40,0x77,0x61,0x69,0x74,0x54,0x3a,0x0a,0x40,0x6c,0x69,0x73,0x74,0x5b,0x07,0x6f,0x3a,0x15,0x52,0x50,0x47,0x3a,0x3a,0x4d,0x6f,0x76,0x65,0x43,0x6f,0x6d,0x6d,0x61,0x6e,0x64,0x07,0x3a,0x0a,0x40,0x63,0x6f,0x64,0x65,0x69,0x06,0x3a,0x10,0x40,0x70,0x61,0x72,0x61,0x6d,0x65,0x74,0x65,0x72,0x73,0x5b,0x00,0x6f,0x3b,0x0a,0x07,0x3b,0x0b,0x69,0x00,0x3b,0x0c,0x5b,0x00))
  PictureDisplay(5,"80_vinum_st05",0,0,0,0,100,100,0,0)
  PictureMove(5,null,0,0,0,0,100,100,255,0,30,true)
  ShowMessageFace("vinum_fc1",4,0,2,25)
  ShowMessage("\\n<Vinum>")
  ShowMessage("……残念じゃが、こちらは通行止めじゃぞ？")
  ShowMessage("くふふっ……前門後門、共に塞がれたのう……")
  ShowMessageFace("byakunen_fc1",3,0,2,26)
  ShowMessage("\\n<Hakunen>")
  ShowMessage("う、後ろにも……！！")
  ShowMessageFace("",0,0,2,27)
  ShowMessage("挟み撃ちという、最悪の展開。")
  ShowMessage("いや、さらに最悪なことに――")
  PictureClear(5)
  Wait(30)
  205(-1,bytes(0x04,0x08,0x6f,0x3a,0x13,0x52,0x50,0x47,0x3a,0x3a,0x4d,0x6f,0x76,0x65,0x52,0x6f,0x75,0x74,0x65,0x09,0x3a,0x0c,0x40,0x72,0x65,0x70,0x65,0x61,0x74,0x46,0x3a,0x0f,0x40,0x73,0x6b,0x69,0x70,0x70,0x61,0x62,0x6c,0x65,0x46,0x3a,0x0a,0x40,0x77,0x61,0x69,0x74,0x54,0x3a,0x0a,0x40,0x6c,0x69,0x73,0x74,0x5b,0x07,0x6f,0x3a,0x15,0x52,0x50,0x47,0x3a,0x3a,0x4d,0x6f,0x76,0x65,0x43,0x6f,0x6d,0x6d,0x61,0x6e,0x64,0x07,0x3a,0x0a,0x40,0x63,0x6f,0x64,0x65,0x69,0x16,0x3a,0x10,0x40,0x70,0x61,0x72,0x61,0x6d,0x65,0x74,0x65,0x72,0x73,0x5b,0x00,0x6f,0x3b,0x0a,0x07,0x3b,0x0b,0x69,0x00,0x3b,0x0c,0x5b,0x00))
  212(33,542,false)
  Wait(60)
  ChangeSwitch(31,31,0)
  Wait(60)
  PictureDisplay(5,"80_myuska_st11",0,0,0,0,100,100,0,0)
  PictureMove(5,null,0,0,0,0,100,100,255,0,30,true)
  ShowMessageFace("myuska_fc1",5,0,2,28)
  ShowMessage("\\n<Myusca>")
  ShowMessage("ちょっと、元々はあたしの獲物だよぉ？")
  ShowMessage("半分くらいは、あたしに吸わせてよぉ……？")
  ShowMessageFace("kazuya_fc2",3,0,2,29)
  ShowMessage("\\n<Kazuya>")
  ShowMessage("ミ、ミュスカまで……")
  ShowMessageFace("",0,0,2,30)
  ShowMessage("もう一人の怪物まで、ここに現れてしまった。")
  ShowMessage("一人でも歯が立たないのに、三人全員が揃うなんて――")
  PictureDisplay(5,"80_myuska_st11",0,0,-200,0,100,100,255,0)
  PictureDisplay(6,"80_nemea_st01",0,0,15,0,100,100,255,0)
  PictureDisplay(7,"80_vinum_st01",0,0,250,0,100,100,255,0)
  ShowMessageFace("nemea_fc1",0,0,2,31)
  ShowMessage("\\n<Nemea>")
  ShowMessage("あらあら、ミュスカちゃん……")
  ShowMessage("あなたのゲームは、クリアされたんでしょう？")
  ShowMessageFace("vinum_fc1",0,0,2,32)
  ShowMessage("\\n<Vinum>")
  ShowMessage("仮にも戯れならば、決まり事は守らねばな。")
  ShowMessage("目の前で食事を奪うのは、マナー違反じゃぞ？")
  ShowMessageFace("vinum_fc1",0,0,2,33)
  ShowMessage("\\n<Vinum>")
  ShowMessage("そもそもミュスカ、お主は――")
  PictureDisplay(5,"80_myuska_st13",0,0,-200,0,100,100,255,0)
  ShowMessageFace("myuska_fc1",7,0,2,34)
  ShowMessage("\\n<Myusca>")
  ShowMessage("はいはい。")
  ShowMessage("おばーちゃんのお説教はたくさん。")
  ShowMessageFace("myuska_fc1",7,0,2,35)
  ShowMessage("\\n<Myusca>")
  ShowMessage("あ～あ、もたもた遊んでないで最初から、")
  ShowMessage("さっさと食べちゃえばよかったなぁ。")
  PictureDisplay(6,"80_nemea_st04",0,0,15,0,100,100,255,0)
  ShowMessageFace("nemea_fc1",3,0,2,36)
  ShowMessage("\\n<Nemea>")
  ShowMessage("それでは、お婆様。")
  ShowMessage("私は、少年の方を頂いて良いですか……？")
  PictureDisplay(7,"80_vinum_st03",0,0,250,0,100,100,255,0)
  ShowMessageFace("vinum_fc1",2,0,2,37)
  ShowMessage("\\n<Vinum>")
  ShowMessage("ヴィヌム様だと言うに……")
  ShowMessage("まったく、お主は年少好きじゃのう。")
  PictureDisplay(7,"80_vinum_st01",0,0,250,0,100,100,255,0)
  ShowMessageFace("vinum_fc1",0,0,2,38)
  ShowMessage("\\n<Vinum>")
  ShowMessage("なら儂は銃の男の方か、ま……悪くあるまい。")
  ShowMessageFace("kazuya_fc2",3,0,2,39)
  ShowMessage("\\n<Kazuya>")
  ShowMessage("ぐっ……！")
  ShowMessageFace("",0,0,2,40)
  ShowMessage("もう、勝ち負けの問題ではない。")
  ShowMessage("こいつら、すでに獲物の盛り分けまで始めている――")
  PictureClear(6)
  PictureClear(7)
  PictureDisplay(5,"80_nemea_st06",0,0,0,0,100,100,0,0)
  ShowMessageFace("nemea_fc1",5,0,2,41)
  ShowMessage("\\n<Nemea>")
  ShowMessage("うふっ……それじゃあ、白念君……と言ったわね？")
  ShowMessage("お姉さんが、美味しく食べてあげる……♡")
  ShowMessageFace("byakunen_fc1",3,0,2,42)
  ShowMessage("\\n<Hakunen>")
  ShowMessage("う、わぁぁっ……！")
  PictureClear(5)
  Wait(30)
  205(32,bytes(0x04,0x08,0x6f,0x3a,0x13,0x52,0x50,0x47,0x3a,0x3a,0x4d,0x6f,0x76,0x65,0x52,0x6f,0x75,0x74,0x65,0x09,0x3a,0x0c,0x40,0x72,0x65,0x70,0x65,0x61,0x74,0x46,0x3a,0x0f,0x40,0x73,0x6b,0x69,0x70,0x70,0x61,0x62,0x6c,0x65,0x46,0x3a,0x0a,0x40,0x77,0x61,0x69,0x74,0x54,0x3a,0x0a,0x40,0x6c,0x69,0x73,0x74,0x5b,0x07,0x6f,0x3a,0x15,0x52,0x50,0x47,0x3a,0x3a,0x4d,0x6f,0x76,0x65,0x43,0x6f,0x6d,0x6d,0x61,0x6e,0x64,0x07,0x3a,0x0a,0x40,0x63,0x6f,0x64,0x65,0x69,0x09,0x3a,0x10,0x40,0x70,0x61,0x72,0x61,0x6d,0x65,0x74,0x65,0x72,0x73,0x5b,0x00,0x6f,0x3b,0x0a,0x07,0x3b,0x0b,0x69,0x00,0x3b,0x0c,0x5b,0x00))
  205(-1,bytes(0x04,0x08,0x6f,0x3a,0x13,0x52,0x50,0x47,0x3a,0x3a,0x4d,0x6f,0x76,0x65,0x52,0x6f,0x75,0x74,0x65,0x09,0x3a,0x0c,0x40,0x72,0x65,0x70,0x65,0x61,0x74,0x46,0x3a,0x0f,0x40,0x73,0x6b,0x69,0x70,0x70,0x61,0x62,0x6c,0x65,0x46,0x3a,0x0a,0x40,0x77,0x61,0x69,0x74,0x54,0x3a,0x0a,0x40,0x6c,0x69,0x73,0x74,0x5b,0x07,0x6f,0x3a,0x15,0x52,0x50,0x47,0x3a,0x3a,0x4d,0x6f,0x76,0x65,0x43,0x6f,0x6d,0x6d,0x61,0x6e,0x64,0x07,0x3a,0x0a,0x40,0x63,0x6f,0x64,0x65,0x69,0x15,0x3a,0x10,0x40,0x70,0x61,0x72,0x61,0x6d,0x65,0x74,0x65,0x72,0x73,0x5b,0x00,0x6f,0x3b,0x0a,0x07,0x3b,0x0b,0x69,0x00,0x3b,0x0c,0x5b,0x00))
  ShowMessageFace("",0,0,2,43)
  ShowMessage("ネメアが、白念に迫る――")
  241(bytes(0x04,0x08,0x6f,0x3a,0x0d,0x52,0x50,0x47,0x3a,0x3a,0x42,0x47,0x4d,0x08,0x3a,0x0a,0x40,0x6e,0x61,0x6d,0x65,0x49,0x22,0x12,0x73,0x63,0x65,0x6e,0x65,0x5f,0x62,0x61,0x74,0x74,0x6c,0x65,0x31,0x06,0x3a,0x06,0x45,0x54,0x3a,0x0c,0x40,0x76,0x6f,0x6c,0x75,0x6d,0x65,0x69,0x69,0x3a,0x0b,0x40,0x70,0x69,0x74,0x63,0x68,0x69,0x69))
  ChangeSwitch(32,32,0)
  205(34,bytes(0x04,0x08,0x6f,0x3a,0x13,0x52,0x50,0x47,0x3a,0x3a,0x4d,0x6f,0x76,0x65,0x52,0x6f,0x75,0x74,0x65,0x09,0x3a,0x0c,0x40,0x72,0x65,0x70,0x65,0x61,0x74,0x46,0x3a,0x0f,0x40,0x73,0x6b,0x69,0x70,0x70,0x61,0x62,0x6c,0x65,0x46,0x3a,0x0a,0x40,0x77,0x61,0x69,0x74,0x46,0x3a,0x0a,0x40,0x6c,0x69,0x73,0x74,0x5b,0x08,0x6f,0x3a,0x15,0x52,0x50,0x47,0x3a,0x3a,0x4d,0x6f,0x76,0x65,0x43,0x6f,0x6d,0x6d,0x61,0x6e,0x64,0x07,0x3a,0x0a,0x40,0x63,0x6f,0x64,0x65,0x69,0x28,0x3a,0x10,0x40,0x70,0x61,0x72,0x61,0x6d,0x65,0x74,0x65,0x72,0x73,0x5b,0x00,0x6f,0x3b,0x0a,0x07,0x3b,0x0b,0x69,0x13,0x3b,0x0c,0x5b,0x07,0x69,0xf7,0x69,0xf7,0x6f,0x3b,0x0a,0x07,0x3b,0x0b,0x69,0x00,0x3b,0x0c,0x5b,0x00))
  Wait(10)
  250(bytes(0x04,0x08,0x6f,0x3a,0x0c,0x52,0x50,0x47,0x3a,0x3a,0x53,0x45,0x08,0x3a,0x0a,0x40,0x6e,0x61,0x6d,0x65,0x49,0x22,0x10,0x6d,0x6f,0x6e,0x5f,0x64,0x61,0x67,0x65,0x6b,0x69,0x32,0x06,0x3a,0x06,0x45,0x54,0x3a,0x0b,0x40,0x70,0x69,0x74,0x63,0x68,0x69,0x69,0x3a,0x0c,0x40,0x76,0x6f,0x6c,0x75,0x6d,0x65,0x69,0x69))
  225(9,9,30,false)
  205(32,bytes(0x04,0x08,0x6f,0x3a,0x13,0x52,0x50,0x47,0x3a,0x3a,0x4d,0x6f,0x76,0x65,0x52,0x6f,0x75,0x74,0x65,0x09,0x3a,0x0c,0x40,0x72,0x65,0x70,0x65,0x61,0x74,0x46,0x3a,0x0f,0x40,0x73,0x6b,0x69,0x70,0x70,0x61,0x62,0x6c,0x65,0x46,0x3a,0x0a,0x40,0x77,0x61,0x69,0x74,0x54,0x3a,0x0a,0x40,0x6c,0x69,0x73,0x74,0x5b,0x0c,0x6f,0x3a,0x15,0x52,0x50,0x47,0x3a,0x3a,0x4d,0x6f,0x76,0x65,0x43,0x6f,0x6d,0x6d,0x61,0x6e,0x64,0x07,0x3a,0x0a,0x40,0x63,0x6f,0x64,0x65,0x69,0x22,0x3a,0x10,0x40,0x70,0x61,0x72,0x61,0x6d,0x65,0x74,0x65,0x72,0x73,0x5b,0x06,0x69,0x0a,0x6f,0x3b,0x0a,0x07,0x3b,0x0b,0x69,0x17,0x3b,0x0c,0x5b,0x00,0x6f,0x3b,0x0a,0x07,0x3b,0x0b,0x69,0x28,0x3b,0x0c,0x5b,0x00,0x6f,0x3b,0x0a,0x07,0x3b,0x0b,0x69,0x13,0x3b,0x0c,0x5b,0x07,0x69,0xf9,0x69,0x00,0x6f,0x3b,0x0a,0x07,0x3b,0x0b,0x69,0x29,0x3b,0x0c,0x5b,0x00,0x6f,0x3b,0x0a,0x07,0x3b,0x0b,0x69,0x22,0x3b,0x0c,0x5b,0x06,0x69,0x09,0x6f,0x3b,0x0a,0x07,0x3b,0x0b,0x69,0x00,0x3b,0x0c,0x5b,0x00))
  ShowMessageFace("magatu_fc1",2,0,2,44)
  ShowMessage("\\n<Magatsu>")
  ShowMessage("はぁっ……！！")
  ShowMessageFace("",0,0,2,45)
  ShowMessage("次の瞬間――")
  ShowMessage("ネメアの顔面に、棍棒が直撃していた。")
  ShowMessageFace("nemea_fc1",2,0,2,46)
  ShowMessage("\\n<Nemea>")
  ShowMessage("きゃっ……！？")
  ShowMessageFace("",0,0,2,47)
  ShowMessage("すかさず飛び退き、ネメアは軽やかに着地する。")
  ShowMessage("その前に、立ちはだかったのは――")
  PictureDisplay(5,"80_magatu_st01",0,0,0,0,100,100,0,0)
  PictureMove(5,null,0,0,0,0,100,100,255,0,30,true)
  ShowMessageFace("magatu_fc1",2,0,2,48)
  ShowMessage("\\n<Magatsu>")
  ShowMessage("……よくも、愛弟子をいたぶってくれたのう。")
  ShowMessage("次は、儂の相手をしてもらおうか。")
  ShowMessageFace("",0,0,2,49)
  ShowMessage("露出度の高い、謎の鬼女。")
  ShowMessage("その体に怒りと覇気が漲っているのが、ありありと感じ取れる。")
  ShowMessageFace("byakunen_fc1",1,0,2,50)
  ShowMessage("\\n<Hakunen>")
  ShowMessage("お、お師匠様……！？")
  ShowMessageFace("kazuya_fc2",3,0,2,51)
  ShowMessage("\\n<Kazuya>")
  ShowMessage("なんだって！？　この女性が……！？")
  ShowMessageFace("",0,0,2,52)
  ShowMessage("白念の師匠、高齢の老人だと思っていたが――")
  ShowMessage("うちの世界の百鬼といい、鬼女はグラマーな法則でもあるのか？")
  ShowMessageFace("",0,0,2,53)
  ShowMessage("しかも、救援は白念の師匠だけではないようだ――")
  PictureClear(5)
  Wait(30)
  ChangeSwitch(33,33,0)
  205(35,bytes(0x04,0x08,0x6f,0x3a,0x13,0x52,0x50,0x47,0x3a,0x3a,0x4d,0x6f,0x76,0x65,0x52,0x6f,0x75,0x74,0x65,0x09,0x3a,0x0c,0x40,0x72,0x65,0x70,0x65,0x61,0x74,0x46,0x3a,0x0f,0x40,0x73,0x6b,0x69,0x70,0x70,0x61,0x62,0x6c,0x65,0x46,0x3a,0x0a,0x40,0x77,0x61,0x69,0x74,0x46,0x3a,0x0a,0x40,0x6c,0x69,0x73,0x74,0x5b,0x09,0x6f,0x3a,0x15,0x52,0x50,0x47,0x3a,0x3a,0x4d,0x6f,0x76,0x65,0x43,0x6f,0x6d,0x6d,0x61,0x6e,0x64,0x07,0x3a,0x0a,0x40,0x63,0x6f,0x64,0x65,0x69,0x09,0x3a,0x10,0x40,0x70,0x61,0x72,0x61,0x6d,0x65,0x74,0x65,0x72,0x73,0x5b,0x00,0x6f,0x3b,0x0a,0x07,0x3b,0x0b,0x69,0x09,0x3b,0x0c,0x5b,0x00,0x6f,0x3b,0x0a,0x07,0x3b,0x0b,0x69,0x09,0x3b,0x0c,0x5b,0x00,0x6f,0x3b,0x0a,0x07,0x3b,0x0b,0x69,0x00,0x3b,0x0c,0x5b,0x00))
  205(36,bytes(0x04,0x08,0x6f,0x3a,0x13,0x52,0x50,0x47,0x3a,0x3a,0x4d,0x6f,0x76,0x65,0x52,0x6f,0x75,0x74,0x65,0x09,0x3a,0x0c,0x40,0x72,0x65,0x70,0x65,0x61,0x74,0x46,0x3a,0x0f,0x40,0x73,0x6b,0x69,0x70,0x70,0x61,0x62,0x6c,0x65,0x46,0x3a,0x0a,0x40,0x77,0x61,0x69,0x74,0x54,0x3a,0x0a,0x40,0x6c,0x69,0x73,0x74,0x5b,0x09,0x6f,0x3a,0x15,0x52,0x50,0x47,0x3a,0x3a,0x4d,0x6f,0x76,0x65,0x43,0x6f,0x6d,0x6d,0x61,0x6e,0x64,0x07,0x3a,0x0a,0x40,0x63,0x6f,0x64,0x65,0x69,0x09,0x3a,0x10,0x40,0x70,0x61,0x72,0x61,0x6d,0x65,0x74,0x65,0x72,0x73,0x5b,0x00,0x6f,0x3b,0x0a,0x07,0x3b,0x0b,0x69,0x09,0x3b,0x0c,0x5b,0x00,0x6f,0x3b,0x0a,0x07,0x3b,0x0b,0x69,0x09,0x3b,0x0c,0x5b,0x00,0x6f,0x3b,0x0a,0x07,0x3b,0x0b,0x69,0x00,0x3b,0x0c,0x5b,0x00))
  PictureDisplay(5,"80_lawrat_st01",0,0,-150,0,100,100,0,0)
  PictureDisplay(6,"80_rejeo_st02",0,0,200,0,80,80,0,0)
  PictureMove(5,null,0,0,-150,0,100,100,255,0,30,false)
  PictureMove(6,null,0,0,200,0,80,80,255,0,30,true)
  ShowMessageFace("rejeo_fc1",1,0,2,54)
  ShowMessage("\\n<Rigeo>")
  ShowMessage("なんなの、この村の有様……")
  ShowMessage("メチャクチャじゃない。")
  ShowMessageFace("lawrat_fc1",0,0,2,55)
  ShowMessage("\\n<Lauratt>")
  ShowMessage("……………………")
  ShowMessageFace("",0,0,2,56)
  ShowMessage("魔導師風の少年に、サキュバス――")
  ShowMessage("どちらも、只者ではない雰囲気だ。")
  PictureDisplay(5,"80_myuska_st11",0,0,-150,0,100,100,255,0)
  PictureDisplay(6,"80_nemea_st04",0,0,150,0,100,100,255,0)
  ShowMessageFace("nemea_fc1",3,0,2,57)
  ShowMessage("\\n<Nemea>")
  ShowMessage("あらあら、お友達かしら……？")
  ShowMessageFace("myuska_fc1",5,0,2,58)
  ShowMessage("\\n<Myusca>")
  ShowMessage("この村、外からは入れないはずなのに……")
  ShowMessage("あの結界を破るなんて、すごい馬鹿力だよねぇ。")
  ShowMessageFace("magatu_fc1",2,0,2,59)
  ShowMessage("\\n<Magatsu>")
  ShowMessage("……………………")
  205(-1,bytes(0x04,0x08,0x6f,0x3a,0x13,0x52,0x50,0x47,0x3a,0x3a,0x4d,0x6f,0x76,0x65,0x52,0x6f,0x75,0x74,0x65,0x09,0x3a,0x0c,0x40,0x72,0x65,0x70,0x65,0x61,0x74,0x46,0x3a,0x0f,0x40,0x73,0x6b,0x69,0x70,0x70,0x61,0x62,0x6c,0x65,0x46,0x3a,0x0a,0x40,0x77,0x61,0x69,0x74,0x54,0x3a,0x0a,0x40,0x6c,0x69,0x73,0x74,0x5b,0x07,0x6f,0x3a,0x15,0x52,0x50,0x47,0x3a,0x3a,0x4d,0x6f,0x76,0x65,0x43,0x6f,0x6d,0x6d,0x61,0x6e,0x64,0x07,0x3a,0x0a,0x40,0x63,0x6f,0x64,0x65,0x69,0x16,0x3a,0x10,0x40,0x70,0x61,0x72,0x61,0x6d,0x65,0x74,0x65,0x72,0x73,0x5b,0x00,0x6f,0x3b,0x0a,0x07,0x3b,0x0b,0x69,0x00,0x3b,0x0c,0x5b,0x00))
  PictureClear(6)
  PictureDisplay(5,"80_vinum_st03",0,0,0,0,100,100,255,0)
  ShowMessageFace("vinum_fc1",2,0,2,60)
  ShowMessage("\\n<Vinum>")
  ShowMessage("そこの鬼……名は？")
  205(34,bytes(0x04,0x08,0x6f,0x3a,0x13,0x52,0x50,0x47,0x3a,0x3a,0x4d,0x6f,0x76,0x65,0x52,0x6f,0x75,0x74,0x65,0x09,0x3a,0x0c,0x40,0x72,0x65,0x70,0x65,0x61,0x74,0x46,0x3a,0x0f,0x40,0x73,0x6b,0x69,0x70,0x70,0x61,0x62,0x6c,0x65,0x46,0x3a,0x0a,0x40,0x77,0x61,0x69,0x74,0x54,0x3a,0x0a,0x40,0x6c,0x69,0x73,0x74,0x5b,0x08,0x6f,0x3a,0x15,0x52,0x50,0x47,0x3a,0x3a,0x4d,0x6f,0x76,0x65,0x43,0x6f,0x6d,0x6d,0x61,0x6e,0x64,0x07,0x3a,0x0a,0x40,0x63,0x6f,0x64,0x65,0x69,0x29,0x3a,0x10,0x40,0x70,0x61,0x72,0x61,0x6d,0x65,0x74,0x65,0x72,0x73,0x5b,0x00,0x6f,0x3b,0x0a,0x07,0x3b,0x0b,0x69,0x18,0x3b,0x0c,0x5b,0x00,0x6f,0x3b,0x0a,0x07,0x3b,0x0b,0x69,0x00,0x3b,0x0c,0x5b,0x00))
  ShowMessageFace("magatu_fc1",2,0,2,61)
  ShowMessage("\\n<Magatsu>")
  ShowMessage("マガツ……ただの老いぼれ妖魔じゃ。")
  ShowMessageFace("vinum_fc1",2,0,2,62)
  ShowMessage("\\n<Vinum>")
  ShowMessage("ふん、よく言ったものよ。")
  ShowMessage("その膂力、老いぼれのものではあるまい。")
  ShowMessageFace("vinum_fc1",2,0,2,63)
  ShowMessage("\\n<Vinum>")
  ShowMessage("それに、魔導師に夢魔か――これは……")
  ShowMessage("いささか、面白くなりすぎじゃな……")
  PictureDisplay(5,"80_lawrat_st01",0,0,-150,0,100,100,0,0)
  PictureDisplay(6,"80_rejeo_st01",0,0,200,0,80,80,0,0)
  ShowMessageFace("lawrat_fc1",0,0,2,64)
  ShowMessage("\\n<Lauratt>")
  ShowMessage("……………………")
  ShowMessageFace("rejeo_fc1",0,0,2,65)
  ShowMessage("\\n<Rigeo>")
  ShowMessage("あの小坊主みたいな子が、マガツの弟子……")
  ShowMessage("もう一人の男も、仲間なのかな？")
  ShowMessageFace("kazuya_fc2",1,0,2,66)
  ShowMessage("\\n<Kazuya>")
  ShowMessage("ああ……そういうことになるのかな……")
  ShowMessage("白念くんにはずいぶん助けられたよ。")
  PictureDisplay(5,"80_lanpass_st01",0,0,-150,0,100,100,255,0)
  PictureDisplay(6,"80_youkosan_st01",0,0,150,0,100,100,255,0)
  ShowMessageFace("lanpass_fc2",0,0,2,67)
  ShowMessage("\\n<Lampas>")
  ShowMessage("私も！　私も仲間！")
  ShowMessageFace("youkosan_fc1",0,0,2,68)
  ShowMessage("\\n<Dream Fox>")
  ShowMessage("ウチも！　ウチも仲間！")
  PictureClear(5)
  PictureClear(6)
  ShowMessageFace("",0,0,2,69)
  ShowMessage("これで、こちらは七人。")
  ShowMessage("特にあのマガツは、三淫魔に匹敵するほど強そうだ――")
  ShowMessageFace("",0,0,2,70)
  ShowMessage("そうだ……諦めなければ、いつも必ず突破口は見える……")
  ShowMessage("僕は何を弱気になっていたんだ……！！")
  PictureDisplay(5,"80_myuska_st11",0,0,-200,0,100,100,0,0)
  PictureDisplay(6,"80_nemea_st01",0,0,15,0,100,100,0,0)
  PictureDisplay(7,"80_vinum_st03",0,0,250,0,100,100,0,0)
  PictureMove(5,null,0,0,-200,0,100,100,255,0,30,false)
  PictureMove(6,null,0,0,15,0,100,100,255,0,30,false)
  PictureMove(7,null,0,0,250,0,100,100,255,0,30,true)
  ShowMessageFace("myuska_fc1",5,0,2,71)
  ShowMessage("\\n<Myusca>")
  ShowMessage("あの男の子、美味しそう……♪")
  ShowMessage("おばーちゃん、あの子はあたしが貰うからね？")
  ShowMessageFace("nemea_fc1",0,0,2,72)
  ShowMessage("\\n<Nemea>")
  ShowMessage("うふふっ、あっちも勢揃いかしら。")
  ShowMessage("他愛ないゲームだと思ったけど、盛り上がるものね。")
  ShowMessageFace("vinum_fc1",2,0,2,73)
  ShowMessage("\\n<Vinum>")
  ShowMessage("いや……過ぎた遊びじゃな。")
  ShowMessage("ミュスカ、ネメア、ここは退くぞ。")
  PictureDisplay(5,"80_myuska_st13",0,0,-200,0,100,100,255,0)
  PictureDisplay(6,"80_nemea_st03",0,0,15,0,100,100,255,0)
  ShowMessageFace("myuska_fc1",7,0,2,74)
  ShowMessage("\\n<Myusca>")
  ShowMessage("うそぉ！？")
  ShowMessage("おばーちゃん、それはないよぉ……")
  ShowMessageFace("nemea_fc1",2,0,2,75)
  ShowMessage("\\n<Nemea>")
  ShowMessage("お婆様……少々、慎重すぎなのでは？")
  ShowMessageFace("vinum_fc1",2,0,2,76)
  ShowMessage("\\n<Vinum>")
  ShowMessage("勝手の知らぬこの異世界、慎重すぎる程でちょうど良い。")
  ShowMessage("勇者共はもちろん、同盟者共も油断の出来ぬ輩ばかりよ……")
  ShowMessageFace("vinum_fc1",2,0,2,77)
  ShowMessage("\\n<Vinum>")
  ShowMessage("二人とも、今日は存分に啜ったじゃろう？")
  ShowMessage("勇者共を食べる機会は、後で幾らでもある。")
  ShowMessageFace("myuska_fc1",7,0,2,78)
  ShowMessage("\\n<Myusca>")
  ShowMessage("確かに、もうお腹いっぱいかなぁ……")
  ShowMessage("とっておきの御馳走は、後に回してもいいかも。")
  PictureDisplay(6,"80_nemea_st05",0,0,15,0,100,100,255,0)
  ShowMessageFace("nemea_fc1",4,0,2,79)
  ShowMessage("\\n<Nemea>")
  ShowMessage("同盟者共も油断は出来ない……ね……")
  ShowMessage("確かに後ろから撃たれるのも、勘弁願いたいわね。")
  ShowMessageFace("kazuya_fc2",2,0,2,80)
  ShowMessage("\\n<Kazuya>")
  ShowMessage("……………………")
  ShowMessageFace("",0,0,2,81)
  ShowMessage("この三人が、退く――？")
  ShowMessage("まったく、ギリギリでの命拾いだ。")
  PictureDisplay(5,"80_myuska_st11",0,0,-200,0,100,100,0,0)
  PictureDisplay(6,"80_nemea_st06",0,0,15,0,100,100,0,0)
  PictureDisplay(7,"80_vinum_st01",0,0,250,0,100,100,0,0)
  ShowMessageFace("vinum_fc1",0,0,2,82)
  ShowMessage("\\n<Vinum>")
  ShowMessage("では勇者達よ、しばしの別れじゃな。")
  ShowMessage("くふふっ……それまでの間、容易く死ぬでないぞ……？")
  ShowMessageFace("nemea_fc1",5,0,2,83)
  ShowMessage("\\n<Nemea>")
  ShowMessage("楽しみに、待っていてね。")
  ShowMessage("甘く優しく、蕩かしてあげるから……")
  241(bytes(0x04,0x08,0x6f,0x3a,0x0d,0x52,0x50,0x47,0x3a,0x3a,0x42,0x47,0x4d,0x08,0x3a,0x0a,0x40,0x6e,0x61,0x6d,0x65,0x49,0x22,0x0c,0x62,0x6f,0x73,0x73,0x30,0x2d,0x32,0x06,0x3a,0x06,0x45,0x54,0x3a,0x0c,0x40,0x76,0x6f,0x6c,0x75,0x6d,0x65,0x69,0x69,0x3a,0x0b,0x40,0x70,0x69,0x74,0x63,0x68,0x69,0x69))
  PictureClear(6)
  PictureClear(7)
  PictureDisplay(5,"80_myuska_st11",0,0,0,0,100,100,0,0)
  PictureMove(5,null,0,0,0,0,100,100,255,0,30,true)
  ShowMessageFace("kazuya_fc2",0,0,2,84)
  ShowMessage("\\n<Kazuya>")
  ShowMessage("……待て、ミュスカ。")
  ShowMessageFace("",0,0,2,85)
  ShowMessage("僕は、その場を去ろうとするミュスカに声を掛けていた。")
  ShowMessage("一つだけ、確かめなければならない事がある――")
  ShowMessageFace("myuska_fc1",5,0,2,86)
  ShowMessage("\\n<Myusca>")
  ShowMessage("んっ？　あたしに何か用……？")
  PictureDisplay(5,"iv_collabo_emb",0,0,0,0,100,100,0,0)
  PictureMove(5,null,0,0,0,0,100,100,255,0,30,true)
  ShowMessageFace("kazuya_fc2",0,0,2,87)
  ShowMessage("\\n<Kazuya>")
  ShowMessage("その手の紋章……")
  ShowMessage("なぜお前が、「コラボの証」を持っているんだ？")
  ShowMessageFace("",0,0,2,88)
  ShowMessage("白兎の話によれば、七人の勇者が持つはずの紋章。")
  ShowMessage("ミュスカは一体なぜ、この紋章を持っているのか――")
  PictureMove(5,null,0,0,0,0,100,100,0,0,30,true)
  PictureClear(5)
  ShowMessageFace("myuska_fc1",5,0,2,89)
  ShowMessage("\\n<Myusca>")
  ShowMessage("えっ……この変な紋章？")
  ShowMessage("この世界に来た時からあったよ。")
  ShowMessageFace("kazuya_fc2",2,0,2,90)
  ShowMessage("\\n<Kazuya>")
  ShowMessage("まさか、そんなはずは――")
  PictureDisplay(5,"80_myuska_st11",0,0,-150,0,100,100,0,0)
  PictureDisplay(6,"80_vinum_st03",0,0,150,0,100,100,0,0)
  PictureMove(5,null,0,0,-150,0,100,100,255,0,30,false)
  PictureMove(6,null,0,0,150,0,100,100,255,0,30,true)
  ShowMessageFace("vinum_fc1",2,0,2,91)
  ShowMessage("\\n<Vinum>")
  ShowMessage("……違うぞ、ミュスカ。")
  ShowMessage("この世界への転移直後、側に人間が倒れておったじゃろう？")
  ShowMessageFace("myuska_fc1",5,0,2,92)
  ShowMessage("\\n<Myusca>")
  ShowMessage("あっ……そう言えば、そうだっけ。")
  ShowMessage("丁度、捕まえて味付け中だったのが。")
  ShowMessageFace("myuska_fc1",5,0,2,93)
  ShowMessage("\\n<Myusca>")
  ShowMessage("で、お腹も減ってたし、とりあえずその男を食べてぇ……")
  ShowMessageFace("vinum_fc1",2,0,2,94)
  ShowMessage("\\n<Vinum>")
  ShowMessage("その直後に、紋章がお主の手に浮かんだ。")
  ShowMessage("……確か、そういういきさつだったはずじゃ。")
  ShowMessageFace("myuska_fc1",5,0,2,95)
  ShowMessage("\\n<Myusca>")
  ShowMessage("うんうん、おばーちゃんの言う通り。")
  ShowMessage("あの人間、何か特別だったのかな？")
  ShowMessageFace("vinum_fc1",2,0,2,96)
  ShowMessage("\\n<Vinum>")
  ShowMessage("おそらく、その男こそ儂等の世界から来た勇者。")
  ShowMessage("しかし、ずいぶん力不足だったようじゃのう。")
  PictureDisplay(5,"80_myuska_st11",0,0,-150,0,100,100,0,0)
  PictureDisplay(6,"80_nemea_st01",0,0,150,0,100,100,0,0)
  PictureMove(5,null,0,0,-150,0,100,100,255,0,30,false)
  PictureMove(6,null,0,0,150,0,100,100,255,0,30,true)
  ShowMessageFace("nemea_fc1",0,0,2,97)
  ShowMessage("\\n<Nemea>")
  ShowMessage("転移直後にミュスカちゃんに食べられちゃった事で、")
  ShowMessage("本来あの子が持ってた力まで吸収された――")
  ShowMessageFace("nemea_fc1",0,0,2,98)
  ShowMessage("\\n<Nemea>")
  ShowMessage("――推察する限り、そんな所でしょうね。")
  ShowMessageFace("myuska_fc1",5,0,2,99)
  ShowMessage("\\n<Myusca>")
  ShowMessage("へぇ……そうだったんだ。")
  ShowMessage("別に、こんな紋章なんて欲しくなかったんだけど。")
  ShowMessageFace("kazuya_fc2",3,0,2,100)
  ShowMessage("\\n<Kazuya>")
  ShowMessage("そんな、まさか――！")
  ShowMessageFace("",0,0,2,101)
  ShowMessage("七人の勇者の一人は、すでに殺されていた――")
  ShowMessage("しかも、その力をミュスカに奪われて――")
  ShowMessageFace("myuska_fc1",5,0,2,102)
  ShowMessage("\\n<Myusca>")
  ShowMessage("……つまり、今のあたしは「異世界勇者ミュスカ」って事？")
  ShowMessage("あははっ……♪　アニメみたいじゃん、何それウケる。")
  ShowMessageFace("myuska_fc1",5,0,2,103)
  ShowMessage("\\n<Myusca>")
  ShowMessage("でも、流石に似合わなすぎでナシかなぁ…♪")
  PictureDisplay(5,"80_myuska_st11",0,0,-150,0,100,100,0,0)
  PictureDisplay(6,"80_vinum_st01",0,0,150,0,100,100,0,0)
  PictureMove(5,null,0,0,-150,0,100,100,255,0,30,false)
  PictureMove(6,null,0,0,150,0,100,100,255,0,30,true)
  ShowMessageFace("vinum_fc1",0,0,2,104)
  ShowMessage("\\n<Vinum>")
  ShowMessage("七人の勇者のはずが、すでに六人か……")
  PictureDisplay(6,"80_vinum_st05",0,0,150,0,100,100,255,0)
  ShowMessageFace("vinum_fc1",4,0,2,105)
  ShowMessage("\\n<Vinum>")
  ShowMessage("くくっ……")
  ShowMessage("欠員が出ては、最早お主達に勝利はないのではないか？")
  ShowMessageFace("byakunen_fc3",0,0,2,106)
  ShowMessage("\\n<Hakunen>")
  ShowMessage("そんなはずは、ありません！")
  ShowMessage("僕達は――")
  ShowMessageFace("lawrat_fc1",0,0,2,107)
  ShowMessage("\\n<Lauratt>")
  ShowMessage("……………………")
  PictureClear(6)
  PictureDisplay(5,"iv_collabo_emb",0,0,0,0,100,100,0,0)
  PictureMove(5,null,0,0,0,0,100,100,255,0,30,true)
  ShowMessageFace("",0,0,2,108)
  ShowMessage("この場の三人の手に、「コラボの証」が輝いている。")
  ShowMessage("いや、ミュスカを含めれば四人か――")
  PictureMove(5,null,0,0,0,0,100,100,0,0,30,true)
  PictureClear(5)
  ShowMessageFace("kazuya_fc2",0,0,2,109)
  ShowMessage("\\n<Kazuya>")
  ShowMessage("……なめるなよ。")
  ShowMessage("僕はこれ以上の絶望的な状況でも生き延びたんだ。")
  ShowMessageFace("kazuya_fc2",0,0,2,110)
  ShowMessage("\\n<Kazuya>")
  ShowMessage("『絶対に諦めない』……")
  ShowMessage("この意志がある限り、お前らに負けることはない！")
  ShowMessageFace("byakunen_fc1",0,0,2,111)
  ShowMessage("\\n<Hakunen>")
  ShowMessage("その通りです……私達は屈しません！")
  PictureDisplay(5,"80_myuska_st11",0,0,-200,0,100,100,0,0)
  PictureDisplay(6,"80_nemea_st02",0,0,15,0,100,100,0,0)
  PictureDisplay(7,"80_vinum_st05",0,0,250,0,100,100,0,0)
  PictureMove(5,null,0,0,-200,0,100,100,255,0,30,false)
  PictureMove(6,null,0,0,15,0,100,100,255,0,30,false)
  PictureMove(7,null,0,0,250,0,100,100,255,0,30,true)
  ShowMessageFace("vinum_fc1",4,0,2,112)
  ShowMessage("\\n<Vinum>")
  ShowMessage("くふふ……勇者や英雄は、儂の好物よ。")
  ShowMessage("次はその味、しかと愉しませてもらおうぞ。")
  ShowMessageFace("nemea_fc1",1,0,2,113)
  ShowMessage("\\n<Nemea>")
  ShowMessage("うふふふっ、また会う日を楽しみにしてるわね。")
  ShowMessage("たっぷりと可愛がってあげるから……")
  ShowMessageFace("myuska_fc1",5,0,2,114)
  ShowMessage("\\n<Myusca>")
  ShowMessage("お腹空かして、待ってるからね～♪")
  PictureClear(6)
  PictureClear(5)
  PictureClear(7)
  Wait(30)
  212(24,542,false)
  212(32,542,false)
  212(33,542,false)
  Wait(60)
  ChangeVariable(1206,1206,0,0,11)
  Wait(60)
  ShowMessageFace("",0,0,2,115)
  ShowMessage("そして、三人のサキュバスはその場から消え去った。")
  ShowMessage("まるで残り香のような妖気を残して――")
  241(bytes(0x04,0x08,0x6f,0x3a,0x0d,0x52,0x50,0x47,0x3a,0x3a,0x42,0x47,0x4d,0x08,0x3a,0x0a,0x40,0x6e,0x61,0x6d,0x65,0x49,0x22,0x14,0x73,0x63,0x65,0x6e,0x65,0x5f,0x65,0x70,0x69,0x6c,0x6f,0x67,0x75,0x65,0x31,0x06,0x3a,0x06,0x45,0x54,0x3a,0x0c,0x40,0x76,0x6f,0x6c,0x75,0x6d,0x65,0x69,0x69,0x3a,0x0b,0x40,0x70,0x69,0x74,0x63,0x68,0x69,0x69))
  205(-1,bytes(0x04,0x08,0x6f,0x3a,0x13,0x52,0x50,0x47,0x3a,0x3a,0x4d,0x6f,0x76,0x65,0x52,0x6f,0x75,0x74,0x65,0x09,0x3a,0x0c,0x40,0x72,0x65,0x70,0x65,0x61,0x74,0x46,0x3a,0x0f,0x40,0x73,0x6b,0x69,0x70,0x70,0x61,0x62,0x6c,0x65,0x46,0x3a,0x0a,0x40,0x77,0x61,0x69,0x74,0x54,0x3a,0x0a,0x40,0x6c,0x69,0x73,0x74,0x5b,0x07,0x6f,0x3a,0x15,0x52,0x50,0x47,0x3a,0x3a,0x4d,0x6f,0x76,0x65,0x43,0x6f,0x6d,0x6d,0x61,0x6e,0x64,0x07,0x3a,0x0a,0x40,0x63,0x6f,0x64,0x65,0x69,0x15,0x3a,0x10,0x40,0x70,0x61,0x72,0x61,0x6d,0x65,0x74,0x65,0x72,0x73,0x5b,0x00,0x6f,0x3b,0x0a,0x07,0x3b,0x0b,0x69,0x00,0x3b,0x0c,0x5b,0x00))
  ShowMessageFace("kazuya_fc2",2,0,2,116)
  ShowMessage("\\n<Kazuya>")
  ShowMessage("やれやれ、行ったか……")
  ShowMessage("なんとか命拾いしたな。")
  PictureDisplay(5,"80_byakunen_st01",0,0,-125,0,100,100,0,0)
  PictureDisplay(6,"80_magatu_st01",0,0,125,0,100,100,0,0)
  PictureMove(5,null,0,0,-125,0,100,100,255,0,30,false)
  PictureMove(6,null,0,0,125,0,100,100,255,0,30,true)
  ShowMessageFace("byakunen_fc1",1,0,2,117)
  ShowMessage("\\n<Hakunen>")
  ShowMessage("お師匠様、来て下さったのですね……！")
  ShowMessageFace("magatu_fc1",0,0,2,118)
  ShowMessage("\\n<Magatsu>")
  ShowMessage("くくく、流石は白念。")
  ShowMessage("無事であると信じていたぞ。")
  ShowMessageFace("magatu_fc1",0,0,2,119)
  ShowMessage("\\n<Magatsu>")
  ShowMessage("そして、お主は白念の仲間か。")
  ShowMessage("儂の弟子が、ずいぶんと世話になったな。")
  ShowMessageFace("kazuya_fc2",1,0,2,120)
  ShowMessage("\\n<Kazuya>")
  ShowMessage("いえ、こちらこそ――")
  ShowMessage("お弟子さんには、驚かされっぱなしで……")
  PictureClear(5)
  PictureClear(6)
  ShowMessageFace("",0,0,2,121)
  ShowMessage("こうして僕達は、互いに自己紹介を交わした。")
  ShowMessageFace("",0,0,2,122)
  ShowMessage("マガツ、ロウラット、リジェオ――")
  ShowMessage("いずれも、目的を同じくする仲間達だ。")
  ShowMessageFace("",0,0,2,123)
  ShowMessage("そして、ロウラットの手にも「コラボの証」があった。")
  ShowMessage("これで、選ばれし勇者が三人揃った事になる――")
  PictureDisplay(5,"80_byakunen_st01",0,0,-125,0,100,100,0,0)
  PictureDisplay(6,"80_magatu_st01",0,0,125,0,100,100,0,0)
  PictureMove(5,null,0,0,-125,0,100,100,255,0,30,false)
  PictureMove(6,null,0,0,125,0,100,100,255,0,30,true)
  ShowMessageFace("kazuya_fc2",1,0,2,124)
  ShowMessage("\\n<Kazuya>")
  ShowMessage("それにしても、白念くんの師匠がこんなに美人なんて……")
  ShowMessage("一緒に修行して、よく肉欲を戒められるものだな。")
  ShowMessageFace("byakunen_fc3",5,0,2,125)
  ShowMessage("\\n<Hakunen>")
  ShowMessage("それは……その……")
  ShowMessageFace("magatu_fc1",4,0,2,126)
  ShowMessage("\\n<Magatsu>")
  ShowMessage("くく……")
  ShowMessageFace("kazuya_fc2",2,0,2,127)
  ShowMessage("\\n<Kazuya>")
  ShowMessage("（戒められなかったのか……）")
  PictureDisplay(5,"80_lawrat_st01",0,0,-150,0,100,100,255,0)
  PictureDisplay(6,"80_rejeo_st01",0,0,200,0,80,80,255,0)
  ShowMessageFace("rejeo_fc1",0,0,2,128)
  ShowMessage("\\n<Rigeo>")
  ShowMessage("ともかく、次の目的地グランドノアよね。")
  ShowMessage("急がないと、まずいんじゃない？")
  ShowMessageFace("lawrat_fc1",0,0,2,129)
  ShowMessage("\\n<Lauratt>")
  ShowMessage("……………………")
  ShowMessageFace("",0,0,2,130)
  ShowMessage("ロウラット達の話によれば――")
  ShowMessage("グランドノアという地に、魔城が召喚されようとしている。")
  ShowMessageFace("",0,0,2,131)
  ShowMessage("それを許してしまえば、この世界は破滅に近付くだろう。")
  ShowMessage("「夜の国」が広がり、人々は夢に堕ちてしまうのだ――")
  PictureDisplay(5,"80_lawrat_st01",0,0,-200,0,100,100,255,0)
  PictureDisplay(6,"80_rejeo_st01",0,0,70,0,80,80,255,0)
  PictureDisplay(7,"80_magatu_st01",0,0,200,0,100,100,255,0)
  ShowMessageFace("kazuya_fc2",1,0,2,132)
  ShowMessage("\\n<Kazuya>")
  ShowMessage("ロウラット、リジェオ、マガツ……")
  ShowMessage("ここからは、僕達も一緒に行こう。")
  ShowMessageFace("rejeo_fc1",0,0,2,133)
  ShowMessage("\\n<Rigeo>")
  ShowMessage("ええ……とても助かるわ。")
  ShowMessage("これから、よろしく。")
  ShowMessageFace("byakunen_fc1",1,0,2,134)
  ShowMessage("\\n<Hakunen>")
  ShowMessage("ご同行、よろしくお願いいたします。")
  ShowMessageFace("lawrat_fc1",0,0,2,135)
  ShowMessage("\\n<Lauratt>")
  ShowMessage("……………………")
  ShowMessageFace("",0,0,2,136)
  ShowMessage("ロウラットは、快く頷いた――")
  249(bytes(0x04,0x08,0x6f,0x3a,0x0c,0x52,0x50,0x47,0x3a,0x3a,0x4d,0x45,0x08,0x3a,0x0a,0x40,0x6e,0x61,0x6d,0x65,0x49,0x22,0x11,0x6d,0x6f,0x6e,0x5f,0x66,0x61,0x6e,0x66,0x61,0x6c,0x65,0x33,0x06,0x3a,0x06,0x45,0x54,0x3a,0x0b,0x40,0x70,0x69,0x74,0x63,0x68,0x69,0x69,0x3a,0x0c,0x40,0x76,0x6f,0x6c,0x75,0x6d,0x65,0x69,0x69))
  ShowMessageFace("",0,0,2,137)
  ShowMessage("ロウラット達とカズヤ達のパーティは合流した！")
  Wait(60)
  PictureClear(5)
  PictureClear(6)
  PictureClear(7)
  ShowMessageFace("kazuya_fc2",0,0,2,138)
  ShowMessage("\\n<Kazuya>")
  ShowMessage("それじゃあ、グランドノアとやらに急ごう。")
  ShowMessageFace("rejeo_fc1",0,0,2,139)
  ShowMessage("\\n<Rigeo>")
  ShowMessage("ええ……なんとしても、魔城召喚を止めないと！")
  ShowMessageFace("",0,0,2,140)
  ShowMessage("この村でゲームに巻き込まれている間に、事態は大きく動いていた。")
  ShowMessage("魔城召喚を阻止しなければ、世界は破滅に大きく近付くだろう。")
  ShowMessageFace("",0,0,2,141)
  ShowMessage("だが幸い、心強い仲間達も得られた。")
  ShowMessage("このままグランドノアに乗り込み、召喚の儀式を防がなければ――")
  ShowMessageFace("kazuya_fc2",2,0,2,142)
  ShowMessage("\\n<Kazuya>")
  ShowMessage("でも、七人の勇者はもう……")
  ShowMessageFace("",0,0,2,143)
  ShowMessage("七人のうち一人は、すでに欠けてしまったのだ。")
  ShowMessage("その事が、みな口に出さないまでも重くのしかかっていた――")
  Wait(60)
  242(2)
  221()
  Wait(120)
  PictureDisplay(5,"iv_chapter07",0,0,0,0,100,100,255,0)
  222()
  Wait(180)
  221()
  PictureClear(5)
  Wait(120)
  TeleportPlayer(0,855,24,39,2,2)
  0()



EVENT   32
 PAGE   1
  // condition: variable 1206 >= 10
  0()
 PAGE   2
  // condition: variable 1206 >= 11
  0()



EVENT   33
 PAGE   1
  // condition: switch 31 is ON
  0()
 PAGE   2
  // condition: variable 1206 >= 11
  0()



EVENT   34
 PAGE   1
  // condition: switch 32 is ON
  0()



EVENT   35
 PAGE   1
  // condition: switch 33 is ON
  0()



EVENT   36
 PAGE   1
  // condition: switch 33 is ON
  0()



EVENT   37
 PAGE   1
  // condition: variable 1206 >= 11
  0()



EVENT   38
 PAGE   1
  0()



EVENT   40
 PAGE   1
  0()



EVENT   41
 PAGE   1
  0()



EVENT   42
 PAGE   1
  0()



EVENT   44
 PAGE   1
  0()



EVENT   45
 PAGE   1
  ShowMessageFace("",0,0,2,1)
  ShowMessage("\\n<青年>")
  ShowMessage("あ、あっちに行ってくれ……")
  ShowMessage("奴等に見つかっちまうじゃないか……")
  0()



EVENT   46
 PAGE   1
  ShowMessageFace("",0,0,2,1)
  ShowMessage("\\n<瀕死の青年>")
  ShowMessage("あぅ……あぁぁ……")
  ShowMessageFace("kazuya_fc2",2,0,2,2)
  ShowMessage("\\n<Kazuya>")
  ShowMessage("（これは……もう助からない……）")
  0()



EVENT   47
 PAGE   1
  0()



EVENT   48
 PAGE   1
  0()



EVENT   49
 PAGE   1
  0()



EVENT   52
 PAGE   1
  ShowMessageFace("youkosan_fc1",2,0,2,1)
  ShowMessage("\\n<妖狐>")
  ShowMessage("流石に、これは引くなぁ……")
  ShowMessage("ウチ、やる気なくなっちゃったよ。")
  ShowMessageFace("youkosan_fc1",0,0,2,2)
  ShowMessage("\\n<Dream Fox>")
  ShowMessage("あんな奴等に従っても、ロクなことないよ。")
  ShowMessage("仲間なんてやめちゃえ。")
  0()



EVENT   53
 PAGE   1
  0()



EVENT   54
 PAGE   1
  0()



EVENT   55
 PAGE   1
  0()



EVENT   57
 PAGE   1
  0()



EVENT   58
 PAGE   1
  0()



EVENT   59
 PAGE   1
  0()



EVENT   60
 PAGE   1
  0()



EVENT   61
 PAGE   1
  0()



EVENT   62
 PAGE   1
  0()



EVENT   63
 PAGE   1
  0()



EVENT   64
 PAGE   1
  0()



EVENT   65
 PAGE   1
  0()



EVENT   66
 PAGE   1
  0()



EVENT   67
 PAGE   1
  0()



EVENT   68
 PAGE   1
  0()



EVENT   69
 PAGE   1
  0()



EVENT   70
 PAGE   1
  0()



EVENT   71
 PAGE   1
  0()



EVENT   72
 PAGE   1
  0()



EVENT   73
 PAGE   1
  0()



EVENT   74
 PAGE   1
  0()



EVENT   75
 PAGE   1
  0()



EVENT   76
 PAGE   1
  250(bytes(0x04,0x08,0x6f,0x3a,0x0c,0x52,0x50,0x47,0x3a,0x3a,0x53,0x45,0x08,0x3a,0x0a,0x40,0x6e,0x61,0x6d,0x65,0x49,0x22,0x0a,0x43,0x68,0x65,0x73,0x74,0x06,0x3a,0x06,0x45,0x54,0x3a,0x0b,0x40,0x70,0x69,0x74,0x63,0x68,0x69,0x69,0x3a,0x0c,0x40,0x76,0x6f,0x6c,0x75,0x6d,0x65,0x69,0x55))
  205(0,bytes(0x04,0x08,0x6f,0x3a,0x13,0x52,0x50,0x47,0x3a,0x3a,0x4d,0x6f,0x76,0x65,0x52,0x6f,0x75,0x74,0x65,0x09,0x3a,0x0c,0x40,0x72,0x65,0x70,0x65,0x61,0x74,0x46,0x3a,0x0f,0x40,0x73,0x6b,0x69,0x70,0x70,0x61,0x62,0x6c,0x65,0x46,0x3a,0x0a,0x40,0x77,0x61,0x69,0x74,0x54,0x3a,0x0a,0x40,0x6c,0x69,0x73,0x74,0x5b,0x0b,0x6f,0x3a,0x15,0x52,0x50,0x47,0x3a,0x3a,0x4d,0x6f,0x76,0x65,0x43,0x6f,0x6d,0x6d,0x61,0x6e,0x64,0x07,0x3a,0x0a,0x40,0x63,0x6f,0x64,0x65,0x69,0x29,0x3a,0x10,0x40,0x70,0x61,0x72,0x61,0x6d,0x65,0x74,0x65,0x72,0x73,0x5b,0x00,0x6f,0x3b,0x0a,0x07,0x3b,0x0b,0x69,0x16,0x3b,0x0c,0x5b,0x00,0x6f,0x3b,0x0a,0x07,0x3b,0x0b,0x69,0x14,0x3b,0x0c,0x5b,0x06,0x69,0x08,0x6f,0x3b,0x0a,0x07,0x3b,0x0b,0x69,0x17,0x3b,0x0c,0x5b,0x00,0x6f,0x3b,0x0a,0x07,0x3b,0x0b,0x69,0x14,0x3b,0x0c,0x5b,0x06,0x69,0x08,0x6f,0x3b,0x0a,0x07,0x3b,0x0b,0x69,0x00,0x3b,0x0c,0x5b,0x00))
  ChangeSelfSwitch("A",0)
  ChangeInventoryWeapon(906,0,0,1,false)
  0()
 PAGE   2
  // condition: self-switch A is ON
  0()



EVENT   77
 PAGE   1
  250(bytes(0x04,0x08,0x6f,0x3a,0x0c,0x52,0x50,0x47,0x3a,0x3a,0x53,0x45,0x08,0x3a,0x0a,0x40,0x6e,0x61,0x6d,0x65,0x49,0x22,0x0a,0x43,0x68,0x65,0x73,0x74,0x06,0x3a,0x06,0x45,0x54,0x3a,0x0b,0x40,0x70,0x69,0x74,0x63,0x68,0x69,0x69,0x3a,0x0c,0x40,0x76,0x6f,0x6c,0x75,0x6d,0x65,0x69,0x55))
  205(0,bytes(0x04,0x08,0x6f,0x3a,0x13,0x52,0x50,0x47,0x3a,0x3a,0x4d,0x6f,0x76,0x65,0x52,0x6f,0x75,0x74,0x65,0x09,0x3a,0x0c,0x40,0x72,0x65,0x70,0x65,0x61,0x74,0x46,0x3a,0x0f,0x40,0x73,0x6b,0x69,0x70,0x70,0x61,0x62,0x6c,0x65,0x46,0x3a,0x0a,0x40,0x77,0x61,0x69,0x74,0x54,0x3a,0x0a,0x40,0x6c,0x69,0x73,0x74,0x5b,0x0b,0x6f,0x3a,0x15,0x52,0x50,0x47,0x3a,0x3a,0x4d,0x6f,0x76,0x65,0x43,0x6f,0x6d,0x6d,0x61,0x6e,0x64,0x07,0x3a,0x0a,0x40,0x63,0x6f,0x64,0x65,0x69,0x29,0x3a,0x10,0x40,0x70,0x61,0x72,0x61,0x6d,0x65,0x74,0x65,0x72,0x73,0x5b,0x00,0x6f,0x3b,0x0a,0x07,0x3b,0x0b,0x69,0x16,0x3b,0x0c,0x5b,0x00,0x6f,0x3b,0x0a,0x07,0x3b,0x0b,0x69,0x14,0x3b,0x0c,0x5b,0x06,0x69,0x08,0x6f,0x3b,0x0a,0x07,0x3b,0x0b,0x69,0x17,0x3b,0x0c,0x5b,0x00,0x6f,0x3b,0x0a,0x07,0x3b,0x0b,0x69,0x14,0x3b,0x0c,0x5b,0x06,0x69,0x08,0x6f,0x3b,0x0a,0x07,0x3b,0x0b,0x69,0x00,0x3b,0x0c,0x5b,0x00))
  ChangeSelfSwitch("A",0)
  ChangeInventoryWeapon(606,0,0,1,false)
  0()
 PAGE   2
  // condition: self-switch A is ON
  0()



EVENT   78
 PAGE   1
  250(bytes(0x04,0x08,0x6f,0x3a,0x0c,0x52,0x50,0x47,0x3a,0x3a,0x53,0x45,0x08,0x3a,0x0a,0x40,0x6e,0x61,0x6d,0x65,0x49,0x22,0x0a,0x43,0x68,0x65,0x73,0x74,0x06,0x3a,0x06,0x45,0x54,0x3a,0x0b,0x40,0x70,0x69,0x74,0x63,0x68,0x69,0x69,0x3a,0x0c,0x40,0x76,0x6f,0x6c,0x75,0x6d,0x65,0x69,0x55))
  205(0,bytes(0x04,0x08,0x6f,0x3a,0x13,0x52,0x50,0x47,0x3a,0x3a,0x4d,0x6f,0x76,0x65,0x52,0x6f,0x75,0x74,0x65,0x09,0x3a,0x0c,0x40,0x72,0x65,0x70,0x65,0x61,0x74,0x46,0x3a,0x0f,0x40,0x73,0x6b,0x69,0x70,0x70,0x61,0x62,0x6c,0x65,0x46,0x3a,0x0a,0x40,0x77,0x61,0x69,0x74,0x54,0x3a,0x0a,0x40,0x6c,0x69,0x73,0x74,0x5b,0x0b,0x6f,0x3a,0x15,0x52,0x50,0x47,0x3a,0x3a,0x4d,0x6f,0x76,0x65,0x43,0x6f,0x6d,0x6d,0x61,0x6e,0x64,0x07,0x3a,0x0a,0x40,0x63,0x6f,0x64,0x65,0x69,0x29,0x3a,0x10,0x40,0x70,0x61,0x72,0x61,0x6d,0x65,0x74,0x65,0x72,0x73,0x5b,0x00,0x6f,0x3b,0x0a,0x07,0x3b,0x0b,0x69,0x16,0x3b,0x0c,0x5b,0x00,0x6f,0x3b,0x0a,0x07,0x3b,0x0b,0x69,0x14,0x3b,0x0c,0x5b,0x06,0x69,0x08,0x6f,0x3b,0x0a,0x07,0x3b,0x0b,0x69,0x17,0x3b,0x0c,0x5b,0x00,0x6f,0x3b,0x0a,0x07,0x3b,0x0b,0x69,0x14,0x3b,0x0c,0x5b,0x06,0x69,0x08,0x6f,0x3b,0x0a,0x07,0x3b,0x0b,0x69,0x00,0x3b,0x0c,0x5b,0x00))
  ChangeSelfSwitch("A",0)
  ChangeInventoryWeapon(531,0,0,1,false)
  0()
 PAGE   2
  // condition: self-switch A is ON
  0()



EVENT   79
 PAGE   1
  250(bytes(0x04,0x08,0x6f,0x3a,0x0c,0x52,0x50,0x47,0x3a,0x3a,0x53,0x45,0x08,0x3a,0x0a,0x40,0x6e,0x61,0x6d,0x65,0x49,0x22,0x0a,0x43,0x68,0x65,0x73,0x74,0x06,0x3a,0x06,0x45,0x54,0x3a,0x0b,0x40,0x70,0x69,0x74,0x63,0x68,0x69,0x69,0x3a,0x0c,0x40,0x76,0x6f,0x6c,0x75,0x6d,0x65,0x69,0x55))
  205(0,bytes(0x04,0x08,0x6f,0x3a,0x13,0x52,0x50,0x47,0x3a,0x3a,0x4d,0x6f,0x76,0x65,0x52,0x6f,0x75,0x74,0x65,0x09,0x3a,0x0c,0x40,0x72,0x65,0x70,0x65,0x61,0x74,0x46,0x3a,0x0f,0x40,0x73,0x6b,0x69,0x70,0x70,0x61,0x62,0x6c,0x65,0x46,0x3a,0x0a,0x40,0x77,0x61,0x69,0x74,0x54,0x3a,0x0a,0x40,0x6c,0x69,0x73,0x74,0x5b,0x0b,0x6f,0x3a,0x15,0x52,0x50,0x47,0x3a,0x3a,0x4d,0x6f,0x76,0x65,0x43,0x6f,0x6d,0x6d,0x61,0x6e,0x64,0x07,0x3a,0x0a,0x40,0x63,0x6f,0x64,0x65,0x69,0x29,0x3a,0x10,0x40,0x70,0x61,0x72,0x61,0x6d,0x65,0x74,0x65,0x72,0x73,0x5b,0x00,0x6f,0x3b,0x0a,0x07,0x3b,0x0b,0x69,0x16,0x3b,0x0c,0x5b,0x00,0x6f,0x3b,0x0a,0x07,0x3b,0x0b,0x69,0x14,0x3b,0x0c,0x5b,0x06,0x69,0x08,0x6f,0x3b,0x0a,0x07,0x3b,0x0b,0x69,0x17,0x3b,0x0c,0x5b,0x00,0x6f,0x3b,0x0a,0x07,0x3b,0x0b,0x69,0x14,0x3b,0x0c,0x5b,0x06,0x69,0x08,0x6f,0x3b,0x0a,0x07,0x3b,0x0b,0x69,0x00,0x3b,0x0c,0x5b,0x00))
  ChangeSelfSwitch("A",0)
  ChangeInventoryArmor(65,0,0,1,false)
  0()
 PAGE   2
  // condition: self-switch A is ON
  0()



EVENT   80
 PAGE   1
  Wait(30)
  222()
  Wait(30)
  ShowSpeechBalloon(-1,1,false)
  Wait(60)
  ShowMessageFace("kazuya_fc2",3,0,2,1)
  ShowMessage("\\n<Kazuya>")
  ShowMessage("これは――")
  ShowMessageFace("byakunen_fc1",3,0,2,2)
  ShowMessage("\\n<Hakunen>")
  ShowMessage("な、なんて事です……！")
  241(bytes(0x04,0x08,0x6f,0x3a,0x0d,0x52,0x50,0x47,0x3a,0x3a,0x42,0x47,0x4d,0x08,0x3a,0x0a,0x40,0x6e,0x61,0x6d,0x65,0x49,0x22,0x0c,0x62,0x6f,0x73,0x73,0x30,0x2d,0x34,0x06,0x3a,0x06,0x45,0x54,0x3a,0x0c,0x40,0x76,0x6f,0x6c,0x75,0x6d,0x65,0x69,0x69,0x3a,0x0b,0x40,0x70,0x69,0x74,0x63,0x68,0x69,0x69))
  205(12,bytes(0x04,0x08,0x6f,0x3a,0x13,0x52,0x50,0x47,0x3a,0x3a,0x4d,0x6f,0x76,0x65,0x52,0x6f,0x75,0x74,0x65,0x09,0x3a,0x0c,0x40,0x72,0x65,0x70,0x65,0x61,0x74,0x46,0x3a,0x0f,0x40,0x73,0x6b,0x69,0x70,0x70,0x61,0x62,0x6c,0x65,0x46,0x3a,0x0a,0x40,0x77,0x61,0x69,0x74,0x54,0x3a,0x0a,0x40,0x6c,0x69,0x73,0x74,0x5b,0x07,0x6f,0x3a,0x15,0x52,0x50,0x47,0x3a,0x3a,0x4d,0x6f,0x76,0x65,0x43,0x6f,0x6d,0x6d,0x61,0x6e,0x64,0x07,0x3a,0x0a,0x40,0x63,0x6f,0x64,0x65,0x69,0x18,0x3a,0x10,0x40,0x70,0x61,0x72,0x61,0x6d,0x65,0x74,0x65,0x72,0x73,0x5b,0x00,0x6f,0x3b,0x0a,0x07,0x3b,0x0b,0x69,0x00,0x3b,0x0c,0x5b,0x00))
  205(24,bytes(0x04,0x08,0x6f,0x3a,0x13,0x52,0x50,0x47,0x3a,0x3a,0x4d,0x6f,0x76,0x65,0x52,0x6f,0x75,0x74,0x65,0x09,0x3a,0x0c,0x40,0x72,0x65,0x70,0x65,0x61,0x74,0x46,0x3a,0x0f,0x40,0x73,0x6b,0x69,0x70,0x70,0x61,0x62,0x6c,0x65,0x46,0x3a,0x0a,0x40,0x77,0x61,0x69,0x74,0x54,0x3a,0x0a,0x40,0x6c,0x69,0x73,0x74,0x5b,0x07,0x6f,0x3a,0x15,0x52,0x50,0x47,0x3a,0x3a,0x4d,0x6f,0x76,0x65,0x43,0x6f,0x6d,0x6d,0x61,0x6e,0x64,0x07,0x3a,0x0a,0x40,0x63,0x6f,0x64,0x65,0x69,0x18,0x3a,0x10,0x40,0x70,0x61,0x72,0x61,0x6d,0x65,0x74,0x65,0x72,0x73,0x5b,0x00,0x6f,0x3b,0x0a,0x07,0x3b,0x0b,0x69,0x00,0x3b,0x0c,0x5b,0x00))
  PictureDisplay(5,"80_nemea_st01",0,0,0,0,100,100,0,0)
  PictureMove(5,null,0,0,0,0,100,100,255,0,30,true)
  ShowMessageFace("nemea_fc1",0,0,2,3)
  ShowMessage("\\n<Nemea>")
  ShowMessage("あらあら。")
  ShowMessage("ミュスカの領域から抜け出た人達がいるなんて……")
  PictureDisplay(5,"80_vinum_st01",0,0,0,0,100,100,255,0)
  ShowMessageFace("vinum_fc1",0,0,2,4)
  ShowMessage("\\n<Vinum>")
  ShowMessage("ほう……？")
  ShowMessage("少しは面白くなってきたようじゃのう……")
  PictureClear(5)
  ShowMessageFace("kazuya_fc2",2,0,2,5)
  ShowMessage("\\n<Kazuya>")
  ShowMessage("こんな、まさか……")
  ShowMessageFace("byakunen_fc1",3,0,2,6)
  ShowMessage("\\n<Hakunen>")
  ShowMessage("ああ、こんな事って……")
  ShowMessageFace("",0,0,2,7)
  ShowMessage("家屋から脱出した僕達が目にしたのは、占拠された村。")
  ShowMessage("悪夢の脱出ゲームは、まだ終わってはいなかったのだ――")
  ChangeVariable(1202,1202,0,0,29)
  221()
  Wait(60)
  242(2)
  221()
  Wait(120)
  PictureDisplay(5,"iv_chapter03",0,0,0,0,100,100,255,0)
  222()
  Wait(180)
  221()
  PictureClear(5)
  Wait(120)
  281(1)
  TeleportPlayer(0,866,33,14,2,2)
  241(bytes(0x04,0x08,0x6f,0x3a,0x0d,0x52,0x50,0x47,0x3a,0x3a,0x42,0x47,0x4d,0x08,0x3a,0x0a,0x40,0x6e,0x61,0x6d,0x65,0x49,0x22,0x00,0x06,0x3a,0x06,0x45,0x54,0x3a,0x0c,0x40,0x76,0x6f,0x6c,0x75,0x6d,0x65,0x69,0x69,0x3a,0x0b,0x40,0x70,0x69,0x74,0x63,0x68,0x69,0x69))
  0()
 PAGE   2
  // condition: variable 1202 >= 29
  0()



EVENT   81
 PAGE   1
  250(bytes(0x04,0x08,0x6f,0x3a,0x0c,0x52,0x50,0x47,0x3a,0x3a,0x53,0x45,0x08,0x3a,0x0a,0x40,0x6e,0x61,0x6d,0x65,0x49,0x22,0x0a,0x43,0x68,0x65,0x73,0x74,0x06,0x3a,0x06,0x45,0x54,0x3a,0x0b,0x40,0x70,0x69,0x74,0x63,0x68,0x69,0x69,0x3a,0x0c,0x40,0x76,0x6f,0x6c,0x75,0x6d,0x65,0x69,0x55))
  205(0,bytes(0x04,0x08,0x6f,0x3a,0x13,0x52,0x50,0x47,0x3a,0x3a,0x4d,0x6f,0x76,0x65,0x52,0x6f,0x75,0x74,0x65,0x09,0x3a,0x0c,0x40,0x72,0x65,0x70,0x65,0x61,0x74,0x46,0x3a,0x0f,0x40,0x73,0x6b,0x69,0x70,0x70,0x61,0x62,0x6c,0x65,0x46,0x3a,0x0a,0x40,0x77,0x61,0x69,0x74,0x54,0x3a,0x0a,0x40,0x6c,0x69,0x73,0x74,0x5b,0x0b,0x6f,0x3a,0x15,0x52,0x50,0x47,0x3a,0x3a,0x4d,0x6f,0x76,0x65,0x43,0x6f,0x6d,0x6d,0x61,0x6e,0x64,0x07,0x3a,0x0a,0x40,0x63,0x6f,0x64,0x65,0x69,0x29,0x3a,0x10,0x40,0x70,0x61,0x72,0x61,0x6d,0x65,0x74,0x65,0x72,0x73,0x5b,0x00,0x6f,0x3b,0x0a,0x07,0x3b,0x0b,0x69,0x16,0x3b,0x0c,0x5b,0x00,0x6f,0x3b,0x0a,0x07,0x3b,0x0b,0x69,0x14,0x3b,0x0c,0x5b,0x06,0x69,0x08,0x6f,0x3b,0x0a,0x07,0x3b,0x0b,0x69,0x17,0x3b,0x0c,0x5b,0x00,0x6f,0x3b,0x0a,0x07,0x3b,0x0b,0x69,0x14,0x3b,0x0c,0x5b,0x06,0x69,0x08,0x6f,0x3b,0x0a,0x07,0x3b,0x0b,0x69,0x00,0x3b,0x0c,0x5b,0x00))
  ChangeSelfSwitch("A",0)
  ChangeInventoryWeapon(642,0,0,1,false)
  0()
 PAGE   2
  // condition: self-switch A is ON
  0()
