﻿


EVENT   1
 PAGE   1
  // condition: switch 4 is ON
  0()
 PAGE   2
  // condition: switch 5 is ON
  0()



EVENT   2
 PAGE   1
  0()



EVENT   3
 PAGE   1
  0()



EVENT   4
 PAGE   1
  0()



EVENT   5
 PAGE   1
  0()



EVENT   6
 PAGE   1
  0()



EVENT   7
 PAGE   1
  0()



EVENT   8
 PAGE   1
  0()



EVENT   9
 PAGE   1
  0()



EVENT   10
 PAGE   1
  0()



EVENT   11
 PAGE   1
  0()



EVENT   12
 PAGE   1
  0()



EVENT   13
 PAGE   1
  0()



EVENT   14
 PAGE   1
  0()
 PAGE   2
  // condition: switch 37 is ON
  0()
 PAGE   3
  // condition: switch 38 is ON
  0()



EVENT   15
 PAGE   1
  0()



EVENT   16
 PAGE   1
  If(0,4,0)
   ShowMessageFace("alice_fc5",2,0,2,1)
   ShowMessage("\\n<Alice>")
   ShowMessage("まだまだ来るぞ、気を抜くな！")
   ShowMessage("ギルゴーンは、そのまま頼む！")
   0()
  EndIf()
  If(0,5,0)
   ShowMessageFace("iriasu_fc4",7,0,2,2)
   ShowMessage("\\n<Ilias>")
   ShowMessage("まだまだ来ます、気を抜いてはなりません！")
   ShowMessage("ギルゴーンは、そのまま頼みます！")
   0()
  EndIf()
  250(bytes(0x04,0x08,0x6f,0x3a,0x0c,0x52,0x50,0x47,0x3a,0x3a,0x53,0x45,0x08,0x3a,0x0a,0x40,0x6e,0x61,0x6d,0x65,0x49,0x22,0x0b,0x4d,0x61,0x67,0x69,0x63,0x32,0x06,0x3a,0x06,0x45,0x54,0x3a,0x0b,0x40,0x70,0x69,0x74,0x63,0x68,0x69,0x69,0x3a,0x0c,0x40,0x76,0x6f,0x6c,0x75,0x6d,0x65,0x69,0x55))
  205(14,bytes(0x04,0x08,0x6f,0x3a,0x13,0x52,0x50,0x47,0x3a,0x3a,0x4d,0x6f,0x76,0x65,0x52,0x6f,0x75,0x74,0x65,0x09,0x3a,0x0c,0x40,0x72,0x65,0x70,0x65,0x61,0x74,0x46,0x3a,0x0f,0x40,0x73,0x6b,0x69,0x70,0x70,0x61,0x62,0x6c,0x65,0x46,0x3a,0x0a,0x40,0x77,0x61,0x69,0x74,0x54,0x3a,0x0a,0x40,0x6c,0x69,0x73,0x74,0x5b,0x08,0x6f,0x3a,0x15,0x52,0x50,0x47,0x3a,0x3a,0x4d,0x6f,0x76,0x65,0x43,0x6f,0x6d,0x6d,0x61,0x6e,0x64,0x07,0x3a,0x0a,0x40,0x63,0x6f,0x64,0x65,0x69,0x16,0x3a,0x10,0x40,0x70,0x61,0x72,0x61,0x6d,0x65,0x74,0x65,0x72,0x73,0x5b,0x00,0x6f,0x3b,0x0a,0x07,0x3b,0x0b,0x69,0x2e,0x3b,0x0c,0x5b,0x07,0x49,0x22,0x18,0x43,0x6f,0x6c,0x6c,0x61,0x62,0x6f,0x72,0x61,0x74,0x69,0x6f,0x6e,0x30,0x33,0x5f,0x63,0x69,0x70,0x06,0x3a,0x06,0x45,0x54,0x69,0x0b,0x6f,0x3b,0x0a,0x07,0x3b,0x0b,0x69,0x00,0x3b,0x0c,0x5b,0x00))
  ShowMessageFace("gilgoon_fc1",0,0,2,3)
  ShowMessage("\\n<Gilgone>")
  ShowMessage("任せよ……メテオエクリプス！！")
  PictureDisplay(5,"iv_castle1",0,0,0,0,100,100,0,0)
  PictureMove(5,null,0,0,0,0,100,100,255,0,30,true)
  212(4,544,true)
  225(9,9,60,true)
  ShowMessageFace("",0,0,2,4)
  ShowMessage("さらに落下する、大型の隕石。")
  ShowMessage("城壁は崩れていき、塔も倒壊していく――")
  ShowMessageFace("",0,0,2,5)
  ShowMessage("同時に、こちらに向かってくる敵も数を増した。")
  ShowMessage("こちらも総動員で迎え撃たなければならない――")
  ChangeSwitch(31,31,0)
  205(14,bytes(0x04,0x08,0x6f,0x3a,0x13,0x52,0x50,0x47,0x3a,0x3a,0x4d,0x6f,0x76,0x65,0x52,0x6f,0x75,0x74,0x65,0x09,0x3a,0x0c,0x40,0x72,0x65,0x70,0x65,0x61,0x74,0x46,0x3a,0x0f,0x40,0x73,0x6b,0x69,0x70,0x70,0x61,0x62,0x6c,0x65,0x46,0x3a,0x0a,0x40,0x77,0x61,0x69,0x74,0x54,0x3a,0x0a,0x40,0x6c,0x69,0x73,0x74,0x5b,0x08,0x6f,0x3a,0x15,0x52,0x50,0x47,0x3a,0x3a,0x4d,0x6f,0x76,0x65,0x43,0x6f,0x6d,0x6d,0x61,0x6e,0x64,0x07,0x3a,0x0a,0x40,0x63,0x6f,0x64,0x65,0x69,0x18,0x3a,0x10,0x40,0x70,0x61,0x72,0x61,0x6d,0x65,0x74,0x65,0x72,0x73,0x5b,0x00,0x6f,0x3b,0x0a,0x07,0x3b,0x0b,0x69,0x2e,0x3b,0x0c,0x5b,0x07,0x49,0x22,0x18,0x43,0x6f,0x6c,0x6c,0x61,0x62,0x6f,0x72,0x61,0x74,0x69,0x6f,0x6e,0x30,0x33,0x5f,0x63,0x69,0x70,0x06,0x3a,0x06,0x45,0x54,0x69,0x08,0x6f,0x3b,0x0a,0x07,0x3b,0x0b,0x69,0x00,0x3b,0x0c,0x5b,0x00))
  PictureMove(5,null,0,0,0,0,100,100,0,0,30,true)
  PictureClear(5)
  PictureDisplay(5,"80_succubusq_st01",0,0,-150,0,100,100,0,0)
  PictureDisplay(6,"80_succubusq_st01",0,0,150,0,100,100,0,0)
  PictureMove(5,null,0,0,-150,0,100,100,255,0,30,false)
  PictureMove(6,null,0,0,150,0,100,100,255,0,30,true)
  ShowMessageFace("rest_fc1",0,0,2,6)
  ShowMessage("\\n<Lest>")
  ShowMessage("くっ……かなり数が多いな！")
  ShowMessageFace("lawrat_fc1",0,0,2,7)
  ShowMessage("\\n<Lauratt>")
  ShowMessage("…………！！")
  PictureClear(5)
  PictureClear(6)
  Battle(0,1400,false,false)
  ChangeSwitch(32,32,0)
  If(0,4,0)
   ShowMessageFace("alice_fc5",0,0,2,8)
   ShowMessage("\\n<Alice>")
   ShowMessage("息を吐く暇も無し……か。")
   0()
  EndIf()
  If(0,5,0)
   ShowMessageFace("iriasu_fc4",7,0,2,9)
   ShowMessage("\\n<Ilias>")
   ShowMessage("息を吐く暇もありませんか……")
   0()
  EndIf()
  ShowMessageFace("gilgoon_fc1",1,0,2,10)
  ShowMessage("\\n<Gilgone>")
  ShowMessage("き、貴様らっ！　う、失せろぉっっ！！")
  205(1,bytes(0x04,0x08,0x6f,0x3a,0x13,0x52,0x50,0x47,0x3a,0x3a,0x4d,0x6f,0x76,0x65,0x52,0x6f,0x75,0x74,0x65,0x09,0x3a,0x0c,0x40,0x72,0x65,0x70,0x65,0x61,0x74,0x46,0x3a,0x0f,0x40,0x73,0x6b,0x69,0x70,0x70,0x61,0x62,0x6c,0x65,0x46,0x3a,0x0a,0x40,0x77,0x61,0x69,0x74,0x46,0x3a,0x0a,0x40,0x6c,0x69,0x73,0x74,0x5b,0x07,0x6f,0x3a,0x15,0x52,0x50,0x47,0x3a,0x3a,0x4d,0x6f,0x76,0x65,0x43,0x6f,0x6d,0x6d,0x61,0x6e,0x64,0x07,0x3a,0x0a,0x40,0x63,0x6f,0x64,0x65,0x69,0x15,0x3a,0x10,0x40,0x70,0x61,0x72,0x61,0x6d,0x65,0x74,0x65,0x72,0x73,0x5b,0x00,0x6f,0x3b,0x0a,0x07,0x3b,0x0b,0x69,0x00,0x3b,0x0c,0x5b,0x00))
  205(4,bytes(0x04,0x08,0x6f,0x3a,0x13,0x52,0x50,0x47,0x3a,0x3a,0x4d,0x6f,0x76,0x65,0x52,0x6f,0x75,0x74,0x65,0x09,0x3a,0x0c,0x40,0x72,0x65,0x70,0x65,0x61,0x74,0x46,0x3a,0x0f,0x40,0x73,0x6b,0x69,0x70,0x70,0x61,0x62,0x6c,0x65,0x46,0x3a,0x0a,0x40,0x77,0x61,0x69,0x74,0x46,0x3a,0x0a,0x40,0x6c,0x69,0x73,0x74,0x5b,0x07,0x6f,0x3a,0x15,0x52,0x50,0x47,0x3a,0x3a,0x4d,0x6f,0x76,0x65,0x43,0x6f,0x6d,0x6d,0x61,0x6e,0x64,0x07,0x3a,0x0a,0x40,0x63,0x6f,0x64,0x65,0x69,0x15,0x3a,0x10,0x40,0x70,0x61,0x72,0x61,0x6d,0x65,0x74,0x65,0x72,0x73,0x5b,0x00,0x6f,0x3b,0x0a,0x07,0x3b,0x0b,0x69,0x00,0x3b,0x0c,0x5b,0x00))
  If(0,4,0)
   ShowMessageFace("alice_fc6",0,0,2,11)
   ShowMessage("\\n<Alice>")
   ShowMessage("むっ……どうした！？")
   0()
  EndIf()
  If(0,5,0)
   ShowMessageFace("iriasu_fc4",5,0,2,12)
   ShowMessage("\\n<Ilias>")
   ShowMessage("いったい、何事です！？")
   0()
  EndIf()
  PictureDisplay(5,"80_inp_st01",0,0,-150,0,100,100,0,0)
  PictureDisplay(6,"80_inp_st01",0,0,150,0,100,100,0,0)
  PictureMove(5,null,0,0,-150,0,100,100,255,0,30,false)
  PictureMove(6,null,0,0,150,0,100,100,255,0,30,true)
  ShowMessageFace("inp_fc1",0,0,2,13)
  ShowMessage("\\n<インプＡ>")
  ShowMessage("あはっ、さわさわさわ～♪")
  ShowMessageFace("gilgoon_fc1",1,0,2,14)
  ShowMessage("\\n<Gilgone>")
  ShowMessage("や、やめよ……はぅぅ……")
  ShowMessageFace("inp_fc1",0,0,2,15)
  ShowMessage("\\n<インプＢ>")
  ShowMessage("感じやすいんだね、あははっ♪")
  ShowMessageFace("gilgoon_fc1",1,0,2,16)
  ShowMessage("\\n<Gilgone>")
  ShowMessage("触るな、小悪魔共……ひぁぁっ！")
  ShowMessageFace("",0,0,2,17)
  ShowMessage("インプ達に弄ばれ、ギルゴーンは腰砕けになっていた。")
  ShowMessage("このままではまずい――")
  If(0,4,0)
   ShowMessageFace("alice_fc5",6,0,2,18)
   ShowMessage("\\n<Alice>")
   ShowMessage("魔王がなぜ、インプごときの嫐り者になっている！？")
   0()
  EndIf()
  If(0,5,0)
   ShowMessageFace("iriasu_fc4",5,0,2,19)
   ShowMessage("\\n<Ilias>")
   ShowMessage("魔王がなぜ、インプごときの嫐り者に！？")
   0()
  EndIf()
  ShowMessageFace("rejeo_fc1",1,0,2,20)
  ShowMessage("\\n<Rigeo>")
  ShowMessage("早く助けないと……！")
  PictureClear(5)
  PictureClear(6)
  Battle(0,1399,false,false)
  ChangeSwitch(32,32,1)
  PictureDisplay(5,"80_gilgoon_st02",0,0,0,0,100,100,0,0)
  PictureMove(5,null,0,0,0,0,100,100,255,0,30,true)
  ShowMessageFace("gilgoon_fc1",1,0,2,21)
  ShowMessage("\\n<Gilgone>")
  ShowMessage("はぁ、はぁ……危ないところだった……")
  ShowMessageFace("",0,0,2,22)
  ShowMessage("インプ達が倒され、息を荒げながらも――")
  ShowMessage("ギルゴーンは、なんとか体勢を立て直していた。")
  PictureClear(5)
  Wait(30)
  250(bytes(0x04,0x08,0x6f,0x3a,0x0c,0x52,0x50,0x47,0x3a,0x3a,0x53,0x45,0x08,0x3a,0x0a,0x40,0x6e,0x61,0x6d,0x65,0x49,0x22,0x0b,0x4d,0x61,0x67,0x69,0x63,0x32,0x06,0x3a,0x06,0x45,0x54,0x3a,0x0b,0x40,0x70,0x69,0x74,0x63,0x68,0x69,0x69,0x3a,0x0c,0x40,0x76,0x6f,0x6c,0x75,0x6d,0x65,0x69,0x55))
  205(14,bytes(0x04,0x08,0x6f,0x3a,0x13,0x52,0x50,0x47,0x3a,0x3a,0x4d,0x6f,0x76,0x65,0x52,0x6f,0x75,0x74,0x65,0x09,0x3a,0x0c,0x40,0x72,0x65,0x70,0x65,0x61,0x74,0x46,0x3a,0x0f,0x40,0x73,0x6b,0x69,0x70,0x70,0x61,0x62,0x6c,0x65,0x46,0x3a,0x0a,0x40,0x77,0x61,0x69,0x74,0x54,0x3a,0x0a,0x40,0x6c,0x69,0x73,0x74,0x5b,0x08,0x6f,0x3a,0x15,0x52,0x50,0x47,0x3a,0x3a,0x4d,0x6f,0x76,0x65,0x43,0x6f,0x6d,0x6d,0x61,0x6e,0x64,0x07,0x3a,0x0a,0x40,0x63,0x6f,0x64,0x65,0x69,0x16,0x3a,0x10,0x40,0x70,0x61,0x72,0x61,0x6d,0x65,0x74,0x65,0x72,0x73,0x5b,0x00,0x6f,0x3b,0x0a,0x07,0x3b,0x0b,0x69,0x2e,0x3b,0x0c,0x5b,0x07,0x49,0x22,0x18,0x43,0x6f,0x6c,0x6c,0x61,0x62,0x6f,0x72,0x61,0x74,0x69,0x6f,0x6e,0x30,0x33,0x5f,0x63,0x69,0x70,0x06,0x3a,0x06,0x45,0x54,0x69,0x0b,0x6f,0x3b,0x0a,0x07,0x3b,0x0b,0x69,0x00,0x3b,0x0c,0x5b,0x00))
  ShowMessageFace("gilgoon_fc1",0,0,2,23)
  ShowMessage("\\n<Gilgone>")
  ShowMessage("我を弄んだこと……後悔させてくれる！")
  ShowMessage("まだまだ行くぞ、メテオエクリプス！！")
  PictureDisplay(5,"iv_castle1",0,0,0,0,100,100,0,0)
  PictureMove(5,null,0,0,0,0,100,100,255,0,30,true)
  212(4,544,true)
  225(9,9,60,true)
  ShowMessageFace("",0,0,2,24)
  ShowMessage("さらにギルゴーンは、強大な魔法で魔城を爆撃するが――")
  ShowMessage("城に与えるダメージに比例し、飛来する敵の数も増えていく。")
  ShowMessageFace("",0,0,2,25)
  ShowMessage("すでに総動員で迎撃しているが、それでも限界に近いのだ。")
  ShowMessage("これ以上増えると、ギルゴーンを守り切れない――")
  ChangeSwitch(33,33,0)
  205(14,bytes(0x04,0x08,0x6f,0x3a,0x13,0x52,0x50,0x47,0x3a,0x3a,0x4d,0x6f,0x76,0x65,0x52,0x6f,0x75,0x74,0x65,0x09,0x3a,0x0c,0x40,0x72,0x65,0x70,0x65,0x61,0x74,0x46,0x3a,0x0f,0x40,0x73,0x6b,0x69,0x70,0x70,0x61,0x62,0x6c,0x65,0x46,0x3a,0x0a,0x40,0x77,0x61,0x69,0x74,0x54,0x3a,0x0a,0x40,0x6c,0x69,0x73,0x74,0x5b,0x08,0x6f,0x3a,0x15,0x52,0x50,0x47,0x3a,0x3a,0x4d,0x6f,0x76,0x65,0x43,0x6f,0x6d,0x6d,0x61,0x6e,0x64,0x07,0x3a,0x0a,0x40,0x63,0x6f,0x64,0x65,0x69,0x18,0x3a,0x10,0x40,0x70,0x61,0x72,0x61,0x6d,0x65,0x74,0x65,0x72,0x73,0x5b,0x00,0x6f,0x3b,0x0a,0x07,0x3b,0x0b,0x69,0x2e,0x3b,0x0c,0x5b,0x07,0x49,0x22,0x18,0x43,0x6f,0x6c,0x6c,0x61,0x62,0x6f,0x72,0x61,0x74,0x69,0x6f,0x6e,0x30,0x33,0x5f,0x63,0x69,0x70,0x06,0x3a,0x06,0x45,0x54,0x69,0x08,0x6f,0x3b,0x0a,0x07,0x3b,0x0b,0x69,0x00,0x3b,0x0c,0x5b,0x00))
  205(1,bytes(0x04,0x08,0x6f,0x3a,0x13,0x52,0x50,0x47,0x3a,0x3a,0x4d,0x6f,0x76,0x65,0x52,0x6f,0x75,0x74,0x65,0x09,0x3a,0x0c,0x40,0x72,0x65,0x70,0x65,0x61,0x74,0x46,0x3a,0x0f,0x40,0x73,0x6b,0x69,0x70,0x70,0x61,0x62,0x6c,0x65,0x46,0x3a,0x0a,0x40,0x77,0x61,0x69,0x74,0x54,0x3a,0x0a,0x40,0x6c,0x69,0x73,0x74,0x5b,0x07,0x6f,0x3a,0x15,0x52,0x50,0x47,0x3a,0x3a,0x4d,0x6f,0x76,0x65,0x43,0x6f,0x6d,0x6d,0x61,0x6e,0x64,0x07,0x3a,0x0a,0x40,0x63,0x6f,0x64,0x65,0x69,0x18,0x3a,0x10,0x40,0x70,0x61,0x72,0x61,0x6d,0x65,0x74,0x65,0x72,0x73,0x5b,0x00,0x6f,0x3b,0x0a,0x07,0x3b,0x0b,0x69,0x00,0x3b,0x0c,0x5b,0x00))
  205(4,bytes(0x04,0x08,0x6f,0x3a,0x13,0x52,0x50,0x47,0x3a,0x3a,0x4d,0x6f,0x76,0x65,0x52,0x6f,0x75,0x74,0x65,0x09,0x3a,0x0c,0x40,0x72,0x65,0x70,0x65,0x61,0x74,0x46,0x3a,0x0f,0x40,0x73,0x6b,0x69,0x70,0x70,0x61,0x62,0x6c,0x65,0x46,0x3a,0x0a,0x40,0x77,0x61,0x69,0x74,0x54,0x3a,0x0a,0x40,0x6c,0x69,0x73,0x74,0x5b,0x07,0x6f,0x3a,0x15,0x52,0x50,0x47,0x3a,0x3a,0x4d,0x6f,0x76,0x65,0x43,0x6f,0x6d,0x6d,0x61,0x6e,0x64,0x07,0x3a,0x0a,0x40,0x63,0x6f,0x64,0x65,0x69,0x18,0x3a,0x10,0x40,0x70,0x61,0x72,0x61,0x6d,0x65,0x74,0x65,0x72,0x73,0x5b,0x00,0x6f,0x3b,0x0a,0x07,0x3b,0x0b,0x69,0x00,0x3b,0x0c,0x5b,0x00))
  PictureMove(5,null,0,0,0,0,100,100,0,0,30,true)
  PictureClear(5)
  PictureDisplay(5,"80_succubusq_st01",0,0,-150,0,100,100,0,0)
  PictureDisplay(6,"80_succubusq_st01",0,0,150,0,100,100,0,0)
  PictureMove(5,null,0,0,-150,0,100,100,255,0,30,false)
  PictureMove(6,null,0,0,150,0,100,100,255,0,30,true)
  ShowMessageFace("magatu_fc1",2,0,2,26)
  ShowMessage("\\n<Magatsu>")
  ShowMessage("敵の数、まだ増しているか……")
  ShowMessage("このままでは、防衛線が突破されてしまうぞ！")
  ShowMessageFace("tarsa_fc2",2,0,2,27)
  ShowMessage("\\n<Tarsa>")
  ShowMessage("こんなにいっぱい……")
  ShowMessage("あたし、壊れちゃう～！")
  Battle(0,1400,false,false)
  ShowMessageFace("ruka_fc1",0,0,2,28)
  ShowMessage("\\n<Luka>")
  ShowMessage("流石に、きついな……！")
  ShowMessageFace("",0,0,2,29)
  ShowMessage("もはや、さばききれないくらいの敵数。")
  ShowMessage("これ以上、戦線を保つのは難しいか――")
  ShowMessageFace("lanpass_fc2",6,0,2,30)
  ShowMessage("\\n<Lampas>")
  ShowMessage("ちょっと……これ、もう無理だって！")
  ShowMessageFace("youkosan_fc1",2,0,2,31)
  ShowMessage("\\n<Dream Fox>")
  ShowMessage("わわわ……もう死んだフリしていい？")
  PictureClear(5)
  PictureClear(6)
  Wait(30)
  250(bytes(0x04,0x08,0x6f,0x3a,0x0c,0x52,0x50,0x47,0x3a,0x3a,0x53,0x45,0x08,0x3a,0x0a,0x40,0x6e,0x61,0x6d,0x65,0x49,0x22,0x0b,0x4d,0x61,0x67,0x69,0x63,0x32,0x06,0x3a,0x06,0x45,0x54,0x3a,0x0b,0x40,0x70,0x69,0x74,0x63,0x68,0x69,0x69,0x3a,0x0c,0x40,0x76,0x6f,0x6c,0x75,0x6d,0x65,0x69,0x55))
  205(14,bytes(0x04,0x08,0x6f,0x3a,0x13,0x52,0x50,0x47,0x3a,0x3a,0x4d,0x6f,0x76,0x65,0x52,0x6f,0x75,0x74,0x65,0x09,0x3a,0x0c,0x40,0x72,0x65,0x70,0x65,0x61,0x74,0x46,0x3a,0x0f,0x40,0x73,0x6b,0x69,0x70,0x70,0x61,0x62,0x6c,0x65,0x46,0x3a,0x0a,0x40,0x77,0x61,0x69,0x74,0x54,0x3a,0x0a,0x40,0x6c,0x69,0x73,0x74,0x5b,0x08,0x6f,0x3a,0x15,0x52,0x50,0x47,0x3a,0x3a,0x4d,0x6f,0x76,0x65,0x43,0x6f,0x6d,0x6d,0x61,0x6e,0x64,0x07,0x3a,0x0a,0x40,0x63,0x6f,0x64,0x65,0x69,0x16,0x3a,0x10,0x40,0x70,0x61,0x72,0x61,0x6d,0x65,0x74,0x65,0x72,0x73,0x5b,0x00,0x6f,0x3b,0x0a,0x07,0x3b,0x0b,0x69,0x2e,0x3b,0x0c,0x5b,0x07,0x49,0x22,0x18,0x43,0x6f,0x6c,0x6c,0x61,0x62,0x6f,0x72,0x61,0x74,0x69,0x6f,0x6e,0x30,0x33,0x5f,0x63,0x69,0x70,0x06,0x3a,0x06,0x45,0x54,0x69,0x0b,0x6f,0x3b,0x0a,0x07,0x3b,0x0b,0x69,0x00,0x3b,0x0c,0x5b,0x00))
  ShowMessageFace("gilgoon_fc1",0,0,2,32)
  ShowMessage("\\n<Gilgone>")
  ShowMessage("諦めるな、奮戦せよ！")
  ShowMessage("我は一歩も退かんぞ……メテオエクリプス！！")
  PictureDisplay(5,"iv_castle1",0,0,0,0,100,100,0,0)
  PictureMove(5,null,0,0,0,0,100,100,255,0,30,true)
  212(4,544,true)
  225(9,9,60,true)
  ShowMessageFace("",0,0,2,33)
  ShowMessage("数度に渡る隕石の直撃で、魔城の損害は大きい。")
  ShowMessage("おそらく、内部にも相当のダメージを与えているだろう。")
  205(14,bytes(0x04,0x08,0x6f,0x3a,0x13,0x52,0x50,0x47,0x3a,0x3a,0x4d,0x6f,0x76,0x65,0x52,0x6f,0x75,0x74,0x65,0x09,0x3a,0x0c,0x40,0x72,0x65,0x70,0x65,0x61,0x74,0x46,0x3a,0x0f,0x40,0x73,0x6b,0x69,0x70,0x70,0x61,0x62,0x6c,0x65,0x46,0x3a,0x0a,0x40,0x77,0x61,0x69,0x74,0x54,0x3a,0x0a,0x40,0x6c,0x69,0x73,0x74,0x5b,0x08,0x6f,0x3a,0x15,0x52,0x50,0x47,0x3a,0x3a,0x4d,0x6f,0x76,0x65,0x43,0x6f,0x6d,0x6d,0x61,0x6e,0x64,0x07,0x3a,0x0a,0x40,0x63,0x6f,0x64,0x65,0x69,0x18,0x3a,0x10,0x40,0x70,0x61,0x72,0x61,0x6d,0x65,0x74,0x65,0x72,0x73,0x5b,0x00,0x6f,0x3b,0x0a,0x07,0x3b,0x0b,0x69,0x2e,0x3b,0x0c,0x5b,0x07,0x49,0x22,0x18,0x43,0x6f,0x6c,0x6c,0x61,0x62,0x6f,0x72,0x61,0x74,0x69,0x6f,0x6e,0x30,0x33,0x5f,0x63,0x69,0x70,0x06,0x3a,0x06,0x45,0x54,0x69,0x08,0x6f,0x3b,0x0a,0x07,0x3b,0x0b,0x69,0x00,0x3b,0x0c,0x5b,0x00))
  ChangeSwitch(39,39,0)
  PictureMove(5,null,0,0,0,0,100,100,0,0,30,true)
  PictureClear(5)
  ShowMessageFace("",0,0,2,34)
  ShowMessage("その一方で――")
  ShowMessage("敵の何体かは、ついにこちらの防衛線を突破してきた！")
  205(1,bytes(0x04,0x08,0x6f,0x3a,0x13,0x52,0x50,0x47,0x3a,0x3a,0x4d,0x6f,0x76,0x65,0x52,0x6f,0x75,0x74,0x65,0x09,0x3a,0x0c,0x40,0x72,0x65,0x70,0x65,0x61,0x74,0x46,0x3a,0x0f,0x40,0x73,0x6b,0x69,0x70,0x70,0x61,0x62,0x6c,0x65,0x46,0x3a,0x0a,0x40,0x77,0x61,0x69,0x74,0x54,0x3a,0x0a,0x40,0x6c,0x69,0x73,0x74,0x5b,0x07,0x6f,0x3a,0x15,0x52,0x50,0x47,0x3a,0x3a,0x4d,0x6f,0x76,0x65,0x43,0x6f,0x6d,0x6d,0x61,0x6e,0x64,0x07,0x3a,0x0a,0x40,0x63,0x6f,0x64,0x65,0x69,0x15,0x3a,0x10,0x40,0x70,0x61,0x72,0x61,0x6d,0x65,0x74,0x65,0x72,0x73,0x5b,0x00,0x6f,0x3b,0x0a,0x07,0x3b,0x0b,0x69,0x00,0x3b,0x0c,0x5b,0x00))
  205(4,bytes(0x04,0x08,0x6f,0x3a,0x13,0x52,0x50,0x47,0x3a,0x3a,0x4d,0x6f,0x76,0x65,0x52,0x6f,0x75,0x74,0x65,0x09,0x3a,0x0c,0x40,0x72,0x65,0x70,0x65,0x61,0x74,0x46,0x3a,0x0f,0x40,0x73,0x6b,0x69,0x70,0x70,0x61,0x62,0x6c,0x65,0x46,0x3a,0x0a,0x40,0x77,0x61,0x69,0x74,0x54,0x3a,0x0a,0x40,0x6c,0x69,0x73,0x74,0x5b,0x07,0x6f,0x3a,0x15,0x52,0x50,0x47,0x3a,0x3a,0x4d,0x6f,0x76,0x65,0x43,0x6f,0x6d,0x6d,0x61,0x6e,0x64,0x07,0x3a,0x0a,0x40,0x63,0x6f,0x64,0x65,0x69,0x15,0x3a,0x10,0x40,0x70,0x61,0x72,0x61,0x6d,0x65,0x74,0x65,0x72,0x73,0x5b,0x00,0x6f,0x3b,0x0a,0x07,0x3b,0x0b,0x69,0x00,0x3b,0x0c,0x5b,0x00))
  PictureDisplay(5,"80_succubusq_st01",0,0,-150,0,100,100,0,0)
  PictureDisplay(6,"80_succubusq_st01",0,0,150,0,100,100,0,0)
  PictureMove(5,null,0,0,-150,0,100,100,255,0,30,false)
  PictureMove(6,null,0,0,150,0,100,100,255,0,30,true)
  If(0,4,0)
   ShowMessageFace("alice_fc5",2,0,2,35)
   ShowMessage("\\n<Alice>")
   ShowMessage("まずい……おい、そっちに数匹行ったぞ！")
   0()
  EndIf()
  If(0,5,0)
   ShowMessageFace("iriasu_fc4",5,0,2,36)
   ShowMessage("\\n<Ilias>")
   ShowMessage("まずいですね……何匹か防衛網を抜けましたよ！")
   0()
  EndIf()
  ShowMessageFace("rovissa_fc1",0,0,2,37)
  ShowMessage("\\n<Rovissa>")
  ShowMessage("わ、分かってるけど……！")
  ShowMessage("こっちも、手が離せなくて――")
  ShowMessageFace("",0,0,2,38)
  ShowMessage("こちらの迎撃をすり抜け、ギルゴーンに迫る夢魔達。")
  ShowMessage("駄目だ、もう間に合わない――")
  ShowMessageFace("gilgoon_fc1",1,0,2,39)
  ShowMessage("\\n<Gilgone>")
  ShowMessage("わわっ……く、来るな……！！")
  ShowMessageFace("",0,0,2,40)
  ShowMessage("そのまま、夢魔達がギルゴーンへと躍りかかる――")
  PictureClear(5)
  PictureClear(6)
  ScrollMap(2,4,5)
  Wait(90)
  250(bytes(0x04,0x08,0x6f,0x3a,0x0c,0x52,0x50,0x47,0x3a,0x3a,0x53,0x45,0x08,0x3a,0x0a,0x40,0x6e,0x61,0x6d,0x65,0x49,0x22,0x0b,0x4d,0x61,0x67,0x69,0x63,0x33,0x06,0x3a,0x06,0x45,0x54,0x3a,0x0b,0x40,0x70,0x69,0x74,0x63,0x68,0x69,0x69,0x3a,0x0c,0x40,0x76,0x6f,0x6c,0x75,0x6d,0x65,0x69,0x55))
  ChangeSwitch(34,34,0)
  ShowMessageFace("succubusq_fc1",2,0,2,41)
  ShowMessage("\\n<サキュバス>")
  ShowMessage("きゃっ！？")
  If(0,4,0)
   ShowMessageFace("alice_fc6",0,0,2,42)
   ShowMessage("\\n<Alice>")
   ShowMessage("結界だと！？　いったい、誰が――")
   0()
  EndIf()
  If(0,5,0)
   ShowMessageFace("iriasu_fc4",5,0,2,43)
   ShowMessage("\\n<Ilias>")
   ShowMessage("結界！？　いったい、誰が――")
   0()
  EndIf()
  PictureDisplay(5,"80_daimeikai_st01",0,0,0,0,100,100,0,0)
  PictureMove(5,null,0,0,0,0,100,100,255,0,60,true)
  ShowMessageFace("daimeikai_fc1",2,0,2,44)
  ShowMessage("\\n<Daimyokai>")
  ShowMessage("うひょひょひょひょ！！")
  ShowMessage("このくらい、俺様が見越していないとでも思ったのか！")
  ShowMessageFace("byakunen_fc2",2,0,2,45)
  ShowMessage("\\n<Hakunen>")
  ShowMessage("だ、大明海様……！？")
  ShowMessage("まさか事前に結界を張っていたとは……！")
  ShowMessageFace("tarsa_fc2",1,0,2,46)
  ShowMessage("\\n<Tarsa>")
  ShowMessage("すっご～い、やるじゃない！")
  ShowMessageFace("daimeikai_fc1",2,0,2,47)
  ShowMessage("\\n<Daimyokai>")
  ShowMessage("うひゃひゃひゃ……褒めろ、褒めろ！")
  ShowMessage("この俺様を、もっと褒めろ！！")
  PictureClear(5)
  ShowMessageFace("",0,0,2,48)
  ShowMessage("ギルゴーンの眼前に結界が展開し、防壁のようになっている。")
  ShowMessage("まさか、こんなものを仕掛けていたとは――")
  ShowMessageFace("daimeikai_fc1",1,0,2,49)
  ShowMessage("\\n<Daimyokai>")
  ShowMessage("だが、これだけの数は流石に想定してねぇ……")
  ShowMessage("俺様の結界でも、時間稼ぎにしかならないぜ！")
  250(bytes(0x04,0x08,0x6f,0x3a,0x0c,0x52,0x50,0x47,0x3a,0x3a,0x53,0x45,0x08,0x3a,0x0a,0x40,0x6e,0x61,0x6d,0x65,0x49,0x22,0x0b,0x4d,0x61,0x67,0x69,0x63,0x32,0x06,0x3a,0x06,0x45,0x54,0x3a,0x0b,0x40,0x70,0x69,0x74,0x63,0x68,0x69,0x69,0x3a,0x0c,0x40,0x76,0x6f,0x6c,0x75,0x6d,0x65,0x69,0x55))
  205(14,bytes(0x04,0x08,0x6f,0x3a,0x13,0x52,0x50,0x47,0x3a,0x3a,0x4d,0x6f,0x76,0x65,0x52,0x6f,0x75,0x74,0x65,0x09,0x3a,0x0c,0x40,0x72,0x65,0x70,0x65,0x61,0x74,0x46,0x3a,0x0f,0x40,0x73,0x6b,0x69,0x70,0x70,0x61,0x62,0x6c,0x65,0x46,0x3a,0x0a,0x40,0x77,0x61,0x69,0x74,0x54,0x3a,0x0a,0x40,0x6c,0x69,0x73,0x74,0x5b,0x08,0x6f,0x3a,0x15,0x52,0x50,0x47,0x3a,0x3a,0x4d,0x6f,0x76,0x65,0x43,0x6f,0x6d,0x6d,0x61,0x6e,0x64,0x07,0x3a,0x0a,0x40,0x63,0x6f,0x64,0x65,0x69,0x16,0x3a,0x10,0x40,0x70,0x61,0x72,0x61,0x6d,0x65,0x74,0x65,0x72,0x73,0x5b,0x00,0x6f,0x3b,0x0a,0x07,0x3b,0x0b,0x69,0x2e,0x3b,0x0c,0x5b,0x07,0x49,0x22,0x18,0x43,0x6f,0x6c,0x6c,0x61,0x62,0x6f,0x72,0x61,0x74,0x69,0x6f,0x6e,0x30,0x33,0x5f,0x63,0x69,0x70,0x06,0x3a,0x06,0x45,0x54,0x69,0x0b,0x6f,0x3b,0x0a,0x07,0x3b,0x0b,0x69,0x00,0x3b,0x0c,0x5b,0x00))
  ShowMessageFace("gilgoon_fc1",0,0,2,50)
  ShowMessage("\\n<Gilgone>")
  ShowMessage("分かっている……それっ！")
  PictureDisplay(5,"iv_castle1",0,0,0,0,100,100,0,0)
  PictureMove(5,null,0,0,0,0,100,100,255,0,30,true)
  212(4,544,true)
  225(9,9,60,true)
  205(14,bytes(0x04,0x08,0x6f,0x3a,0x13,0x52,0x50,0x47,0x3a,0x3a,0x4d,0x6f,0x76,0x65,0x52,0x6f,0x75,0x74,0x65,0x09,0x3a,0x0c,0x40,0x72,0x65,0x70,0x65,0x61,0x74,0x46,0x3a,0x0f,0x40,0x73,0x6b,0x69,0x70,0x70,0x61,0x62,0x6c,0x65,0x46,0x3a,0x0a,0x40,0x77,0x61,0x69,0x74,0x54,0x3a,0x0a,0x40,0x6c,0x69,0x73,0x74,0x5b,0x08,0x6f,0x3a,0x15,0x52,0x50,0x47,0x3a,0x3a,0x4d,0x6f,0x76,0x65,0x43,0x6f,0x6d,0x6d,0x61,0x6e,0x64,0x07,0x3a,0x0a,0x40,0x63,0x6f,0x64,0x65,0x69,0x18,0x3a,0x10,0x40,0x70,0x61,0x72,0x61,0x6d,0x65,0x74,0x65,0x72,0x73,0x5b,0x00,0x6f,0x3b,0x0a,0x07,0x3b,0x0b,0x69,0x2e,0x3b,0x0c,0x5b,0x07,0x49,0x22,0x18,0x43,0x6f,0x6c,0x6c,0x61,0x62,0x6f,0x72,0x61,0x74,0x69,0x6f,0x6e,0x30,0x33,0x5f,0x63,0x69,0x70,0x06,0x3a,0x06,0x45,0x54,0x69,0x08,0x6f,0x3b,0x0a,0x07,0x3b,0x0b,0x69,0x00,0x3b,0x0c,0x5b,0x00))
  PictureMove(5,null,0,0,0,0,100,100,0,0,30,true)
  PictureClear(5)
  PictureDisplay(5,"80_succubusq_st01",0,0,-150,0,100,100,0,0)
  PictureDisplay(6,"80_succubusq_st01",0,0,150,0,100,100,0,0)
  PictureMove(5,null,0,0,-150,0,100,100,255,0,30,false)
  PictureMove(6,null,0,0,150,0,100,100,255,0,30,true)
  If(0,4,0)
   ShowMessageFace("alice_fc5",2,0,2,51)
   ShowMessage("\\n<Alice>")
   ShowMessage("さあ、こっちも正念場だ！")
   ShowMessage("一歩も退くなよ！")
   0()
  EndIf()
  If(0,5,0)
   ShowMessageFace("iriasu_fc4",7,0,2,52)
   ShowMessage("\\n<Ilias>")
   ShowMessage("こっちも正念場です！")
   ShowMessage("一歩も退いてはなりません！")
   0()
  EndIf()
  ShowMessageFace("ruka_fc1",0,0,2,53)
  ShowMessage("\\n<Luka>")
  ShowMessage("ああ……ここは通さないぞ！")
  Battle(0,1400,false,false)
  ChangeSwitch(35,35,0)
  ShowMessageFace("ruka_fc1",0,0,2,54)
  ShowMessage("\\n<Luka>")
  ShowMessage("はぁはぁ……まだ来るのか……")
  ShowMessageFace("daimeikai_fc1",1,0,2,55)
  ShowMessage("\\n<Daimyokai>")
  ShowMessage("まずい、俺様の結界が――")
  PictureClear(5)
  PictureClear(6)
  Wait(30)
  250(bytes(0x04,0x08,0x6f,0x3a,0x0c,0x52,0x50,0x47,0x3a,0x3a,0x53,0x45,0x08,0x3a,0x0a,0x40,0x6e,0x61,0x6d,0x65,0x49,0x22,0x0e,0x6d,0x6f,0x6e,0x5f,0x62,0x72,0x65,0x61,0x6b,0x06,0x3a,0x06,0x45,0x54,0x3a,0x0b,0x40,0x70,0x69,0x74,0x63,0x68,0x69,0x69,0x3a,0x0c,0x40,0x76,0x6f,0x6c,0x75,0x6d,0x65,0x69,0x69))
  ChangeSwitch(34,34,1)
  PictureDisplay(5,"80_succubusq_st01",0,0,-150,0,100,100,0,0)
  PictureDisplay(6,"80_succubusq_st01",0,0,150,0,100,100,0,0)
  PictureMove(5,null,0,0,-150,0,100,100,255,0,30,false)
  PictureMove(6,null,0,0,150,0,100,100,255,0,30,true)
  ShowMessageFace("",0,0,2,56)
  ShowMessage("結界は破壊され、夢魔達がギルゴーンに迫る――")
  PictureClear(5)
  PictureClear(6)
  Wait(30)
  250(bytes(0x04,0x08,0x6f,0x3a,0x0c,0x52,0x50,0x47,0x3a,0x3a,0x53,0x45,0x08,0x3a,0x0a,0x40,0x6e,0x61,0x6d,0x65,0x49,0x22,0x0b,0x4d,0x61,0x67,0x69,0x63,0x32,0x06,0x3a,0x06,0x45,0x54,0x3a,0x0b,0x40,0x70,0x69,0x74,0x63,0x68,0x69,0x69,0x3a,0x0c,0x40,0x76,0x6f,0x6c,0x75,0x6d,0x65,0x69,0x55))
  205(14,bytes(0x04,0x08,0x6f,0x3a,0x13,0x52,0x50,0x47,0x3a,0x3a,0x4d,0x6f,0x76,0x65,0x52,0x6f,0x75,0x74,0x65,0x09,0x3a,0x0c,0x40,0x72,0x65,0x70,0x65,0x61,0x74,0x46,0x3a,0x0f,0x40,0x73,0x6b,0x69,0x70,0x70,0x61,0x62,0x6c,0x65,0x46,0x3a,0x0a,0x40,0x77,0x61,0x69,0x74,0x54,0x3a,0x0a,0x40,0x6c,0x69,0x73,0x74,0x5b,0x08,0x6f,0x3a,0x15,0x52,0x50,0x47,0x3a,0x3a,0x4d,0x6f,0x76,0x65,0x43,0x6f,0x6d,0x6d,0x61,0x6e,0x64,0x07,0x3a,0x0a,0x40,0x63,0x6f,0x64,0x65,0x69,0x16,0x3a,0x10,0x40,0x70,0x61,0x72,0x61,0x6d,0x65,0x74,0x65,0x72,0x73,0x5b,0x00,0x6f,0x3b,0x0a,0x07,0x3b,0x0b,0x69,0x2e,0x3b,0x0c,0x5b,0x07,0x49,0x22,0x18,0x43,0x6f,0x6c,0x6c,0x61,0x62,0x6f,0x72,0x61,0x74,0x69,0x6f,0x6e,0x30,0x33,0x5f,0x63,0x69,0x70,0x06,0x3a,0x06,0x45,0x54,0x69,0x0b,0x6f,0x3b,0x0a,0x07,0x3b,0x0b,0x69,0x00,0x3b,0x0c,0x5b,0x00))
  ShowMessageFace("gilgoon_fc1",0,0,2,57)
  ShowMessage("\\n<Gilgone>")
  ShowMessage("くっ、まだだ……メテオエクリプス！！")
  PictureDisplay(5,"iv_castle2",0,0,0,0,100,100,0,0)
  PictureMove(5,null,0,0,0,0,100,100,255,0,30,true)
  212(4,544,true)
  225(9,9,60,true)
  ShowMessageFace("",0,0,2,58)
  ShowMessage("もはや、城は崩壊寸前。")
  ShowMessage("あちこちから白煙が舞い上がり、壮麗な外観は面影もない。")
  ChangeSwitch(36,36,0)
  205(14,bytes(0x04,0x08,0x6f,0x3a,0x13,0x52,0x50,0x47,0x3a,0x3a,0x4d,0x6f,0x76,0x65,0x52,0x6f,0x75,0x74,0x65,0x09,0x3a,0x0c,0x40,0x72,0x65,0x70,0x65,0x61,0x74,0x46,0x3a,0x0f,0x40,0x73,0x6b,0x69,0x70,0x70,0x61,0x62,0x6c,0x65,0x46,0x3a,0x0a,0x40,0x77,0x61,0x69,0x74,0x54,0x3a,0x0a,0x40,0x6c,0x69,0x73,0x74,0x5b,0x08,0x6f,0x3a,0x15,0x52,0x50,0x47,0x3a,0x3a,0x4d,0x6f,0x76,0x65,0x43,0x6f,0x6d,0x6d,0x61,0x6e,0x64,0x07,0x3a,0x0a,0x40,0x63,0x6f,0x64,0x65,0x69,0x18,0x3a,0x10,0x40,0x70,0x61,0x72,0x61,0x6d,0x65,0x74,0x65,0x72,0x73,0x5b,0x00,0x6f,0x3b,0x0a,0x07,0x3b,0x0b,0x69,0x2e,0x3b,0x0c,0x5b,0x07,0x49,0x22,0x18,0x43,0x6f,0x6c,0x6c,0x61,0x62,0x6f,0x72,0x61,0x74,0x69,0x6f,0x6e,0x30,0x33,0x5f,0x63,0x69,0x70,0x06,0x3a,0x06,0x45,0x54,0x69,0x08,0x6f,0x3b,0x0a,0x07,0x3b,0x0b,0x69,0x00,0x3b,0x0c,0x5b,0x00))
  PictureMove(5,null,0,0,0,0,100,100,0,0,30,true)
  PictureClear(5)
  ShowMessageFace("",0,0,2,59)
  ShowMessage("しかしギルゴーンは、すっかり夢魔に囲まれていた。")
  ShowMessage("もう、これ以上はもたない――")
  250(bytes(0x04,0x08,0x6f,0x3a,0x0c,0x52,0x50,0x47,0x3a,0x3a,0x53,0x45,0x08,0x3a,0x0a,0x40,0x6e,0x61,0x6d,0x65,0x49,0x22,0x0b,0x4d,0x61,0x67,0x69,0x63,0x32,0x06,0x3a,0x06,0x45,0x54,0x3a,0x0b,0x40,0x70,0x69,0x74,0x63,0x68,0x69,0x69,0x3a,0x0c,0x40,0x76,0x6f,0x6c,0x75,0x6d,0x65,0x69,0x55))
  205(14,bytes(0x04,0x08,0x6f,0x3a,0x13,0x52,0x50,0x47,0x3a,0x3a,0x4d,0x6f,0x76,0x65,0x52,0x6f,0x75,0x74,0x65,0x09,0x3a,0x0c,0x40,0x72,0x65,0x70,0x65,0x61,0x74,0x46,0x3a,0x0f,0x40,0x73,0x6b,0x69,0x70,0x70,0x61,0x62,0x6c,0x65,0x46,0x3a,0x0a,0x40,0x77,0x61,0x69,0x74,0x54,0x3a,0x0a,0x40,0x6c,0x69,0x73,0x74,0x5b,0x08,0x6f,0x3a,0x15,0x52,0x50,0x47,0x3a,0x3a,0x4d,0x6f,0x76,0x65,0x43,0x6f,0x6d,0x6d,0x61,0x6e,0x64,0x07,0x3a,0x0a,0x40,0x63,0x6f,0x64,0x65,0x69,0x16,0x3a,0x10,0x40,0x70,0x61,0x72,0x61,0x6d,0x65,0x74,0x65,0x72,0x73,0x5b,0x00,0x6f,0x3b,0x0a,0x07,0x3b,0x0b,0x69,0x2e,0x3b,0x0c,0x5b,0x07,0x49,0x22,0x18,0x43,0x6f,0x6c,0x6c,0x61,0x62,0x6f,0x72,0x61,0x74,0x69,0x6f,0x6e,0x30,0x33,0x5f,0x63,0x69,0x70,0x06,0x3a,0x06,0x45,0x54,0x69,0x0b,0x6f,0x3b,0x0a,0x07,0x3b,0x0b,0x69,0x00,0x3b,0x0c,0x5b,0x00))
  ShowMessageFace("gilgoon_fc1",0,0,2,60)
  ShowMessage("\\n<Gilgone>")
  ShowMessage("まだ、我は屈さぬぞ……メテオエクリプス！！")
  PictureDisplay(5,"iv_castle2",0,0,0,0,100,100,0,0)
  PictureMove(5,null,0,0,0,0,100,100,255,0,30,true)
  212(4,544,true)
  225(9,9,60,true)
  ShowMessageFace("",0,0,2,61)
  ShowMessage("人垣となって、押し寄せてくる淫魔。")
  ShowMessage("だが、ギルゴーンは――")
  ShowMessageFace("gilgoon_fc1",0,0,2,62)
  ShowMessage("\\n<Gilgone>")
  ShowMessage("ええい……貴様ら！　死にたくなければ伏せろ！！")
  ShowMessage("これで滅殺する！！　はぁぁぁぁぁあ！！！")
  250(bytes(0x04,0x08,0x6f,0x3a,0x0c,0x52,0x50,0x47,0x3a,0x3a,0x53,0x45,0x08,0x3a,0x0a,0x40,0x6e,0x61,0x6d,0x65,0x49,0x22,0x0e,0x6d,0x6f,0x6e,0x5f,0x70,0x6f,0x77,0x65,0x72,0x06,0x3a,0x06,0x45,0x54,0x3a,0x0b,0x40,0x70,0x69,0x74,0x63,0x68,0x69,0x69,0x3a,0x0c,0x40,0x76,0x6f,0x6c,0x75,0x6d,0x65,0x69,0x69))
  ShowMessageFace("",0,0,2,63)
  ShowMessage("ギルゴーンの両手に、膨大な魔力が集中する！！")
  ShowMessageFace("gilgoon_fc1",0,0,2,64)
  ShowMessage("\\n<Gilgone>")
  ShowMessage("消し飛べ、ワールドブレイカー！！！！")
  212(4,532,true)
  Wait(60)
  ShowMessageFace("",0,0,2,65)
  ShowMessage("まさに、渾身の力を振り絞った一撃。")
  ShowMessage("凄まじい倒壊音が、大地を揺るがせる。")
  ShowMessageFace("",0,0,2,66)
  ShowMessage("もはや、魔城は半壊状態。")
  ShowMessage("防御拠点としては、死んだも同然だ。")
  ShowMessageFace("",0,0,2,67)
  ShowMessage("そして、それを果たしたギルゴーンは――")
  ChangeSwitch(39,39,1)
  ChangeSwitch(36,36,1)
  ChangeSwitch(37,37,0)
  PictureMove(5,null,0,0,0,0,100,100,0,0,30,true)
  PictureClear(5)
  ShowMessageFace("succubusq_fc1",1,0,2,68)
  ShowMessage("\\n<サキュバス>")
  ShowMessage("うふふふっ……♡")
  ShowMessageFace("gilgoon_fc1",1,0,2,69)
  ShowMessage("\\n<Gilgone>")
  ShowMessage("くそっ、やめろ、貴様……らっ……！")
  ShowMessage("がっ、あぁぁぁぁ～～！！")
  PictureDisplay(5,"80_succubusq_st01",0,0,-150,0,100,100,0,0)
  PictureDisplay(6,"80_succubusq_st01",0,0,150,0,100,100,0,0)
  PictureMove(5,null,0,0,-150,0,100,100,255,0,30,false)
  PictureMove(6,null,0,0,150,0,100,100,255,0,30,true)
  ShowMessageFace("",0,0,2,70)
  ShowMessage("その小さな体が、群れ寄る夢魔に押し潰され――")
  ShowMessage("そして、柔らかな女体の人垣に埋もれていった。")
  If(0,4,0)
   ShowMessageFace("alice_fc6",0,0,2,71)
   ShowMessage("\\n<Alice>")
   ShowMessage("ギ、ギルゴーン！？")
   0()
  EndIf()
  If(0,5,0)
   ShowMessageFace("iriasu_fc4",5,0,2,72)
   ShowMessage("\\n<Ilias>")
   ShowMessage("ギ、ギルゴーン！？")
   0()
  EndIf()
  ShowMessageFace("rejeo_fc1",1,0,2,73)
  ShowMessage("\\n<Rigeo>")
  ShowMessage("た、助けないと……！")
  PictureClear(5)
  PictureClear(6)
  Battle(0,1400,false,false)
  ChangeSwitch(38,38,0)
  ShowMessageFace("",0,0,2,74)
  ShowMessage("ギルゴーンを囲む夢魔達を撃退すると――")
  ShowMessageFace("gilgoon_fc1",1,0,2,75)
  ShowMessage("\\n<Gilgone>")
  ShowMessage("はぅ……ぅ、ぅ……")
  ShowMessageFace("",0,0,2,76)
  ShowMessage("何度となく絶頂させられたのか、すっかり虫の息だ。")
  ShowMessage("これでは当分の間、立つ事さえ不可能だろう――")
  If(0,4,0)
   ShowMessageFace("alice_fc5",3,0,2,77)
   ShowMessage("\\n<Alice>")
   ShowMessage("ギルゴーン……")
   ShowMessage("貴様の犠牲、忘れはせんぞ。")
   0()
  EndIf()
  If(0,5,0)
   ShowMessageFace("iriasu_fc4",2,0,2,78)
   ShowMessage("\\n<Ilias>")
   ShowMessage("ギルゴーン……")
   ShowMessage("あなたの犠牲、忘れませんよ。")
   0()
  EndIf()
  PictureDisplay(5,"iv_castle2",0,0,0,0,100,100,0,0)
  PictureMove(5,null,0,0,0,0,100,100,255,0,30,true)
  ShowMessageFace("",0,0,2,79)
  ShowMessage("魔城は崩壊、城内の者達も大半は無事では済まないだろう。")
  ShowMessage("ギルゴーンの活躍で、敵側は多大な損害をこうむったのだ――")
  Wait(30)
  TeleportPlayer(0,945,0,0,0,2)
  PictureClear(5)
  241(bytes(0x04,0x08,0x6f,0x3a,0x0d,0x52,0x50,0x47,0x3a,0x3a,0x42,0x47,0x4d,0x08,0x3a,0x0a,0x40,0x6e,0x61,0x6d,0x65,0x49,0x22,0x0a,0x6b,0x69,0x6b,0x69,0x34,0x06,0x3a,0x06,0x45,0x54,0x3a,0x0c,0x40,0x76,0x6f,0x6c,0x75,0x6d,0x65,0x69,0x69,0x3a,0x0b,0x40,0x70,0x69,0x74,0x63,0x68,0x69,0x69))
  Wait(30)
  If(0,4,0)
   PictureDisplay(5,"80_alice_st73",0,0,0,0,100,100,0,0)
   PictureMove(5,null,0,0,0,0,100,100,255,0,30,true)
   ShowMessageFace("alice_fc5",2,0,2,80)
   ShowMessage("\\n<Alice>")
   ShowMessage("それでは、城内へと突入する！")
   ShowMessage("みんな、覚悟はいいな！？")
   0()
  EndIf()
  If(0,5,0)
   PictureDisplay(5,"80_iriasu_st38",0,0,0,0,100,100,0,0)
   PictureMove(5,null,0,0,0,0,100,100,255,0,30,true)
   ShowMessageFace("iriasu_fc4",7,0,2,81)
   ShowMessage("\\n<Ilias>")
   ShowMessage("それでは、城内へと突入します！")
   ShowMessage("皆の者、覚悟はいいですね！？")
   0()
  EndIf()
  PictureDisplay(5,"80_ruka_st01",0,0,-100,0,75,75,255,0)
  PictureDisplay(6,"80_byakunen_st01",0,0,15,0,100,100,255,0)
  PictureDisplay(7,"80_lawrat_st01",0,0,200,20,95,95,255,0)
  PictureDisplay(8,"80_lars_st11",0,0,-220,150,90,90,255,0)
  PictureDisplay(9,"80_nobissa_st01",0,0,-50,150,90,90,255,0)
  PictureDisplay(10,"80_kazuya_st01",0,0,160,150,75,75,255,0)
  PictureDisplay(11,"80_rest_st01",0,0,250,0,100,100,255,0)
  ShowMessageFace("",0,0,2,82)
  ShowMessage("顔を見合わせ、頷く一同。")
  ShowMessage("そこには、皆の強い意志と覚悟がうかがえる。")
  ShowMessageFace("ruka_fc1",0,0,2,83)
  ShowMessage("\\n<Luka>")
  ShowMessage("いよいよ最終局面か……さあ、行こう！")
  ShowMessageFace("",0,0,2,84)
  ShowMessage("こうして僕達――七人の勇者と仲間達は、魔城へと乗り込んだ。")
  ShowMessage("そこで待ち受けているのは、同盟者達や「夢の主」との最終決戦。")
  ShowMessageFace("",0,0,2,85)
  ShowMessage("激戦の果てに、僕達は勝利を手にすることが出来るだろうか。")
  ShowMessage("それとも、この世界は夢に堕ちてしまうのだろうか――")
  Wait(30)
  PictureClear(5)
  PictureClear(6)
  PictureClear(7)
  PictureClear(8)
  PictureClear(9)
  PictureClear(10)
  PictureClear(11)
  242(1)
  221()
  Wait(60)
  ChangeVariable(1211,1211,0,0,2)
  ChangeSwitch(31,39,1)
  ChangeSwitch(81,81,1)
  TeleportPlayer(0,947,0,0,8,2)
  314(0,0)
  222()
  0()



EVENT   17
 PAGE   1
  0()



EVENT   18
 PAGE   1
  0()



EVENT   19
 PAGE   1
  0()



EVENT   20
 PAGE   1
  0()



EVENT   21
 PAGE   1
  0()



EVENT   22
 PAGE   1
  // condition: switch 31 is ON
  0()



EVENT   23
 PAGE   1
  // condition: switch 31 is ON
  0()



EVENT   24
 PAGE   1
  // condition: switch 31 is ON
  0()



EVENT   25
 PAGE   1
  // condition: switch 31 is ON
  0()



EVENT   26
 PAGE   1
  // condition: switch 31 is ON
  0()



EVENT   28
 PAGE   1
  // condition: switch 32 is ON
  0()
 PAGE   2
  // condition: switch 37 is ON
  0()
 PAGE   3
  // condition: switch 38 is ON
  0()



EVENT   27
 PAGE   1
  // condition: switch 32 is ON
  0()
 PAGE   2
  // condition: switch 37 is ON
  0()
 PAGE   3
  // condition: switch 38 is ON
  0()
 PAGE   4
  // condition: switch 34 is ON
  0()



EVENT   29
 PAGE   1
  // condition: switch 32 is ON
  0()
 PAGE   2
  // condition: switch 37 is ON
  0()
 PAGE   3
  // condition: switch 38 is ON
  0()



EVENT   30
 PAGE   1
  // condition: switch 33 is ON
  0()



EVENT   31
 PAGE   1
  // condition: switch 33 is ON
  0()



EVENT   32
 PAGE   1
  // condition: switch 33 is ON
  0()



EVENT   33
 PAGE   1
  // condition: switch 33 is ON
  0()



EVENT   34
 PAGE   1
  // condition: switch 33 is ON
  0()



EVENT   35
 PAGE   1
  // condition: switch 33 is ON
  0()



EVENT   36
 PAGE   1
  // condition: switch 33 is ON
  0()



EVENT   37
 PAGE   1
  // condition: switch 39 is ON
  0()



EVENT   38
 PAGE   1
  // condition: switch 39 is ON
  0()



EVENT   39
 PAGE   1
  // condition: switch 39 is ON
  0()



EVENT   40
 PAGE   1
  // condition: switch 35 is ON
  0()



EVENT   41
 PAGE   1
  // condition: switch 35 is ON
  0()



EVENT   42
 PAGE   1
  // condition: switch 35 is ON
  0()



EVENT   43
 PAGE   1
  // condition: switch 35 is ON
  0()



EVENT   44
 PAGE   1
  // condition: switch 36 is ON
  0()



EVENT   45
 PAGE   1
  // condition: switch 36 is ON
  0()



EVENT   46
 PAGE   1
  // condition: switch 36 is ON
  0()



EVENT   47
 PAGE   1
  // condition: switch 36 is ON
  0()



EVENT   48
 PAGE   1
  // condition: switch 36 is ON
  0()



EVENT   49
 PAGE   1
  // condition: switch 36 is ON
  0()



EVENT   50
 PAGE   1
  // condition: switch 36 is ON
  0()



EVENT   51
 PAGE   1
  // condition: switch 36 is ON
  0()



EVENT   52
 PAGE   1
  // condition: switch 36 is ON
  0()



EVENT   53
 PAGE   1
  // condition: switch 36 is ON
  0()



EVENT   54
 PAGE   1
  // condition: switch 36 is ON
  0()



EVENT   55
 PAGE   1
  // condition: switch 36 is ON
  0()



EVENT   57
 PAGE   1
  // condition: switch 37 is ON
  0()
 PAGE   2
  // condition: switch 38 is ON
  0()



EVENT   58
 PAGE   1
  // condition: switch 37 is ON
  0()
 PAGE   2
  // condition: switch 38 is ON
  0()



EVENT   59
 PAGE   1
  // condition: switch 37 is ON
  0()
 PAGE   2
  // condition: switch 38 is ON
  0()



EVENT   60
 PAGE   1
  // condition: switch 37 is ON
  0()
 PAGE   2
  // condition: switch 38 is ON
  0()



EVENT   61
 PAGE   1
  // condition: switch 37 is ON
  0()
 PAGE   2
  // condition: switch 38 is ON
  0()



EVENT   56
 PAGE   1
  // condition: switch 34 is ON
  0()



EVENT   62
 PAGE   1
  // condition: switch 34 is ON
  0()



EVENT   63
 PAGE   1
  // condition: switch 34 is ON
  0()



EVENT   64
 PAGE   1
  // condition: switch 34 is ON
  0()



EVENT   65
 PAGE   1
  // condition: switch 34 is ON
  0()



EVENT   66
 PAGE   1
  // condition: switch 34 is ON
  0()
